{
  "apks": [
    {
      "applicationId": "ru.zxalexis.ugaday",
      "broadcastReceiverIntentFilterActionNames": [],
      "dependencies": [],
      "domainNamesFilteredByExodus": [],
      "metaDataNames": [],
      "sha256": "44f00691125367280ed786f77a6576845d2d82927b49ff2c68153908f4fc4631",
      "usesPermissions": []
    }
  ],
  "meta": {
    "generated": "2020-08-27T18:43:36.857572",
    "generatedBy": [
      "/home/hc/code/trackingthetrackers/scripts/make-clean-apk-set.py"
    ],
    "generatedByCommitId": "3839559c80042252d3b947fb61c86a18e8b31114",
    "sourceDataCommitId": "888bb8f8c77ff55105fcab2ad84c263561eb1169",
    "ver": "0.3.0"
  }
}