{
  "apks": [
    {
      "applicationId": "superustats.tool.android",
      "broadcastReceiverIntentFilterActionNames": [],
      "dependencies": [],
      "domainNamesFilteredByExodus": [],
      "metaDataNames": [
        "android.app.default_searchable",
        "android.app.searchable"
      ],
      "sha256": "1498923f53cf9b8b95fb4150362f7a789b7f8a7f9ee3846877366564458684f2",
      "usesPermissions": [
        "android.permission.PACKAGE_USAGE_STATS"
      ]
    }
  ],
  "meta": {
    "generated": "2020-08-27T17:07:55.675106",
    "generatedBy": [
      "/home/hc/code/trackingthetrackers/scripts/make-clean-apk-set.py"
    ],
    "generatedByCommitId": "40519285d6f404593fa655fa89b433743c25289e",
    "sourceDataCommitId": "888bb8f8c77ff55105fcab2ad84c263561eb1169",
    "ver": "0.3.0"
  }
}