{
  "apks": [
    {
      "applicationId": "email.schaal.ocreader",
      "broadcastReceiverIntentFilterActionNames": [],
      "dependencies": [],
      "domainNamesFilteredByExodus": [
        ".facebook.com",
        ".google.com",
        "mixpanel.com"
      ],
      "metaDataNames": [
        "android.app.shortcuts",
        "android.arch.lifecycle.VERSION",
        "android.support.VERSION",
        "com.bumptech.glide.integration.okhttp3.OkHttpGlideModule"
      ],
      "sha256": "7c46d377cf1fbaf8a8de0d962dc698796cd4b7f397823dce2c32cd029b6c0032",
      "usesPermissions": [
        "android.permission.INTERNET"
      ]
    }
  ],
  "meta": {
    "generated": "2020-08-27T18:05:53.764704",
    "generatedBy": [
      "/home/hc/code/trackingthetrackers/scripts/make-clean-apk-set.py"
    ],
    "generatedByCommitId": "3839559c80042252d3b947fb61c86a18e8b31114",
    "sourceDataCommitId": "888bb8f8c77ff55105fcab2ad84c263561eb1169",
    "ver": "0.3.0"
  }
}