{
  "apks": [
    {
      "applicationId": "com.fugu.BuxomBertha",
      "broadcastReceiverIntentFilterActionNames": [],
      "dependencies": [
        "com.google.android.apps.analytics."
      ],
      "domainNamesFilteredByExodus": [
        "google-analytics.com"
      ],
      "metaDataNames": [],
      "sha256": "0985197f6003147e30b4211ce7e43efafcc6a411032f3790deb5fe42cca1380b",
      "usesPermissions": [
        "android.permission.ACCESS_COARSE_LOCATION",
        "android.permission.ACCESS_NETWORK_STATE",
        "android.permission.INTERNET"
      ]
    }
  ],
  "meta": {
    "generated": "2020-08-27T15:03:07.815229",
    "generatedBy": [
      "/home/hc/code/trackingthetrackers/scripts/make-trackers-apk-set.py"
    ],
    "ver": "0.3.0"
  }
}