{
  "apks": [
    {
      "applicationId": "za.co.lukestonehm.logicaldefence",
      "broadcastReceiverIntentFilterActionNames": [],
      "dependencies": [],
      "domainNamesFilteredByExodus": [],
      "metaDataNames": [
        "android.support.PARENT_ACTIVITY",
        "android.support.VERSION"
      ],
      "sha256": "9f522949fb4e24bba9a4d0668bb129d8fac025e17a4719e427e6a60c379cfb4d",
      "usesPermissions": []
    }
  ],
  "meta": {
    "generated": "2020-08-27T17:08:27.885724",
    "generatedBy": [
      "/home/hc/code/trackingthetrackers/scripts/make-clean-apk-set.py"
    ],
    "generatedByCommitId": "40519285d6f404593fa655fa89b433743c25289e",
    "sourceDataCommitId": "888bb8f8c77ff55105fcab2ad84c263561eb1169",
    "ver": "0.3.0"
  }
}