{
  "apks": [
    {
      "applicationId": "com.yqmnapps.wildsharkbeachattack",
      "broadcastReceiverIntentFilterActionNames": [
        "android.intent.action.BOOT_COMPLETED",
        "com.android.vending.INSTALL_REFERRER"
      ],
      "dependencies": [
        "com.umeng.analytics"
      ],
      "domainNamesFilteredByExodus": [
        ".google.com",
        "alog.umeng.com",
        "oc.umeng.com",
        "stats.unity3d.com",
        "umeng.com"
      ],
      "metaDataNames": [
        "UMENG_APPKEY",
        "UMENG_CHANNEL",
        "com.google.android.gms.version",
        "unityplayer.ForwardNativeEventsToDalvik",
        "unityplayer.UnityActivity"
      ],
      "sha256": "5b0841f7888efcabe326198766bfd3dbdf30099f39ee0d3a943af6630f6b4bd4",
      "usesPermissions": [
        "android.permission.ACCESS_NETWORK_STATE",
        "android.permission.ACCESS_WIFI_STATE",
        "android.permission.GET_TASKS",
        "android.permission.INTERNET",
        "android.permission.READ_PHONE_STATE",
        "android.permission.RECEIVE_BOOT_COMPLETED",
        "android.permission.WRITE_EXTERNAL_STORAGE"
      ]
    }
  ],
  "meta": {
    "generated": "2020-08-27T15:12:47.945114",
    "generatedBy": [
      "/home/hc/code/trackingthetrackers/scripts/make-trackers-apk-set.py"
    ],
    "ver": "0.3.0"
  }
}