{
  "apks": [
    {
      "applicationId": "org.flysnow.pl008",
      "broadcastReceiverIntentFilterActionNames": [
        "android.intent.action.BOOT_COMPLETED",
        "android.intent.action.CBOOT_COMPLETED",
        "android.intent.action.PACKAGE_REMOVED",
        "android.intent.action.START_REPORT",
        "android.net.conn.CONNECTIVITY_CHANGE"
      ],
      "dependencies": [
        "com.umeng.analytics"
      ],
      "domainNamesFilteredByExodus": [
        "alog.umeng.com",
        "umeng.com"
      ],
      "metaDataNames": [
        "APPCODE",
        "APPDATA",
        "APPID",
        "APPKEY",
        "APPSECRET",
        "UMENG_APPKEY",
        "UMENG_CHANNEL",
        "VIASDKVERSION"
      ],
      "sha256": "31ff08cb32ceea8516c004ef1a0a7a22e881d4aeeb3f4893c74340df955eae5d",
      "usesPermissions": [
        "android.permission.ACCESS_COARSE_LOCATION",
        "android.permission.ACCESS_NETWORK_STATE",
        "android.permission.ACCESS_WIFI_STATE",
        "android.permission.CHANGE_NETWORK_STATE",
        "android.permission.CHANGE_WIFI_STATE",
        "android.permission.INTERNET",
        "android.permission.MOUNT_UNMOUNT_FILESYSTEMS",
        "android.permission.READ_EXTERNAL_STORAGE",
        "android.permission.READ_PHONE_STATE",
        "android.permission.RECEIVE_BOOT_COMPLETED",
        "android.permission.VIBRATE",
        "android.permission.WRITE_EXTERNAL_STORAGE",
        "android.webkit.permission.PLUGIN"
      ]
    }
  ],
  "meta": {
    "generated": "2020-08-27T15:45:00.188971",
    "generatedBy": [
      "/home/hc/code/trackingthetrackers/scripts/make-trackers-apk-set.py"
    ],
    "ver": "0.3.0"
  }
}