{
  "apks": [
    {
      "applicationId": "com.nononsenseapps.feeder",
      "broadcastReceiverIntentFilterActionNames": [],
      "dependencies": [],
      "domainNamesFilteredByExodus": [
        ".google.com"
      ],
      "metaDataNames": [
        "android.accounts.AccountAuthenticator",
        "android.app.shortcuts",
        "android.content.SyncAdapter",
        "android.support.FILE_PROVIDER_PATHS",
        "android.support.PARENT_ACTIVITY",
        "com.bumptech.glide.integration.okhttp3.OkHttpGlideModule"
      ],
      "sha256": "752b4aedbd59c965f92dc8f059b85d122b22322be50c4bcce195cf3aa4705ba9",
      "usesPermissions": [
        "android.permission.ACCESS_NETWORK_STATE",
        "android.permission.AUTHENTICATE_ACCOUNTS",
        "android.permission.INTERNET",
        "android.permission.READ_EXTERNAL_STORAGE",
        "android.permission.READ_SYNC_SETTINGS",
        "android.permission.WRITE_EXTERNAL_STORAGE",
        "android.permission.WRITE_SYNC_SETTINGS"
      ]
    }
  ],
  "meta": {
    "generated": "2020-08-27T17:43:27.770073",
    "generatedBy": [
      "/home/hc/code/trackingthetrackers/scripts/make-clean-apk-set.py"
    ],
    "generatedByCommitId": "40519285d6f404593fa655fa89b433743c25289e",
    "sourceDataCommitId": "888bb8f8c77ff55105fcab2ad84c263561eb1169",
    "ver": "0.3.0"
  }
}