{
  "apks": [
    {
      "applicationId": "com.rao.flyfish.goldminers",
      "broadcastReceiverIntentFilterActionNames": [
        "android.intent.action.PACKAGE_ADDED",
        "android.net.conn.CONNECTIVITY_CHANGE",
        "com.rao.flyfish.goldminers"
      ],
      "dependencies": [
        "com.google.ads.",
        "com.inmobi",
        "com.mdotm.android",
        "com.millennialmedia.",
        "com.tencent.lbs",
        "com.tencent.mobwin",
        "net.youmi"
      ],
      "domainNamesFilteredByExodus": [
        ".google.com"
      ],
      "metaDataNames": [
        "AdView_CHANNEL",
        "BaiduMobAd_APP_ID",
        "BaiduMobAd_APP_SEC",
        "DTN_APP_ID",
        "DTN_PLACE_ID",
        "DTN_SECRET_KEY",
        "WAPS_ID",
        "WAPS_PID",
        "channelId",
        "cooId"
      ],
      "sha256": "3404c417b4548e655489de1c9e55a02e8b460d85121e79c7d7ff507f1d58a103",
      "usesPermissions": [
        "android.permission.ACCESS_COARSE_LOCATION",
        "android.permission.ACCESS_FINE_LOCATION",
        "android.permission.ACCESS_NETWORK_STATE",
        "android.permission.ACCESS_WIFI_STATE",
        "android.permission.GET_TASKS",
        "android.permission.INTERNET",
        "android.permission.READ_EXTERNAL_STORAGE",
        "android.permission.READ_PHONE_STATE",
        "android.permission.SYSTEM_ALERT_WINDOW",
        "android.permission.WAKE_LOCK",
        "android.permission.WRITE_EXTERNAL_STORAGE"
      ]
    }
  ],
  "meta": {
    "generated": "2020-08-27T15:00:49.701079",
    "generatedBy": [
      "/home/hc/code/trackingthetrackers/scripts/make-trackers-apk-set.py"
    ],
    "ver": "0.3.0"
  }
}