{
  "apks": [
    {
      "applicationId": "se.norenh.rkfread",
      "broadcastReceiverIntentFilterActionNames": [],
      "dependencies": [],
      "domainNamesFilteredByExodus": [],
      "metaDataNames": [
        "android.nfc.action.TECH_DISCOVERED",
        "android.support.PARENT_ACTIVITY"
      ],
      "sha256": "bb61cd04bd8f49a0b7d4e99a225e9737eecc94c0fc814f3dbb70f6fb37c2f6bf",
      "usesPermissions": [
        "android.permission.NFC"
      ]
    }
  ],
  "meta": {
    "generated": "2020-08-27T17:07:47.105507",
    "generatedBy": [
      "/home/hc/code/trackingthetrackers/scripts/make-clean-apk-set.py"
    ],
    "generatedByCommitId": "40519285d6f404593fa655fa89b433743c25289e",
    "sourceDataCommitId": "888bb8f8c77ff55105fcab2ad84c263561eb1169",
    "ver": "0.3.0"
  }
}