{
  "apks": [
    {
      "applicationId": "com.kanedias.vanilla.lyrics",
      "broadcastReceiverIntentFilterActionNames": [
        "ch.blinkenlights.android.vanilla.action.REQUEST_PLUGIN_PARAMS"
      ],
      "dependencies": [],
      "domainNamesFilteredByExodus": [],
      "metaDataNames": [],
      "sha256": "62367c9893bd4ec5fa7f378f573456efe9b2c4561103bdb93a8a9a7014b4ce83",
      "usesPermissions": [
        "android.permission.INTERNET"
      ]
    }
  ],
  "meta": {
    "generated": "2020-08-27T17:35:32.203557",
    "generatedBy": [
      "/home/hc/code/trackingthetrackers/scripts/make-clean-apk-set.py"
    ],
    "generatedByCommitId": "40519285d6f404593fa655fa89b433743c25289e",
    "sourceDataCommitId": "888bb8f8c77ff55105fcab2ad84c263561eb1169",
    "ver": "0.3.0"
  }
}