{
  "apks": [
    {
      "applicationId": "im.quicksy.client",
      "broadcastReceiverIntentFilterActionNames": [
        "android.intent.action.ACTION_SHUTDOWN",
        "android.intent.action.BOOT_COMPLETED",
        "android.media.RINGER_MODE_CHANGED",
        "android.net.conn.CONNECTIVITY_CHANGE"
      ],
      "dependencies": [],
      "domainNamesFilteredByExodus": [
        ".google.com"
      ],
      "metaDataNames": [
        "android.service.chooser.chooser_target_service",
        "android.support.FILE_PROVIDER_PATHS",
        "android.support.PARENT_ACTIVITY",
        "com.google.android.gms.car.application"
      ],
      "sha256": "4027c95a0d34be5c8293947b74dd3d0143ca8be0a11fc8e9a80f183db9c15fcc",
      "usesPermissions": [
        "android.permission.ACCESS_COARSE_LOCATION",
        "android.permission.ACCESS_FINE_LOCATION",
        "android.permission.ACCESS_NETWORK_STATE",
        "android.permission.ACCESS_WIFI_STATE",
        "android.permission.CAMERA",
        "android.permission.FOREGROUND_SERVICE",
        "android.permission.INTERNET",
        "android.permission.READ_APP_BADGE",
        "android.permission.READ_CONTACTS",
        "android.permission.READ_EXTERNAL_STORAGE",
        "android.permission.READ_PROFILE",
        "android.permission.RECEIVE_BOOT_COMPLETED",
        "android.permission.RECORD_AUDIO",
        "android.permission.REQUEST_IGNORE_BATTERY_OPTIMIZATIONS",
        "android.permission.VIBRATE",
        "android.permission.WAKE_LOCK",
        "android.permission.WRITE_EXTERNAL_STORAGE",
        "com.anddoes.launcher.permission.UPDATE_COUNT",
        "com.htc.launcher.permission.READ_SETTINGS",
        "com.htc.launcher.permission.UPDATE_SHORTCUT",
        "com.huawei.android.launcher.permission.CHANGE_BADGE",
        "com.huawei.android.launcher.permission.READ_SETTINGS",
        "com.huawei.android.launcher.permission.WRITE_SETTINGS",
        "com.majeur.launcher.permission.UPDATE_BADGE",
        "com.oppo.launcher.permission.READ_SETTINGS",
        "com.oppo.launcher.permission.WRITE_SETTINGS",
        "com.sec.android.provider.badge.permission.READ",
        "com.sec.android.provider.badge.permission.WRITE",
        "com.sonyericsson.home.permission.BROADCAST_BADGE",
        "com.sonymobile.home.permission.PROVIDER_INSERT_BADGE",
        "me.everything.badger.permission.BADGE_COUNT_READ",
        "me.everything.badger.permission.BADGE_COUNT_WRITE"
      ]
    }
  ],
  "meta": {
    "generated": "2020-08-27T14:46:31.048436",
    "generatedBy": [
      "/home/hc/code/trackingthetrackers/scripts/make-trackers-apk-set.py"
    ],
    "ver": "0.3.0"
  }
}