{
  "apks": [
    {
      "applicationId": "com.lockerscreenexpert.shootingstarslivewallpaper",
      "broadcastReceiverIntentFilterActionNames": [
        "android.intent.action.BOOT_COMPLETED"
      ],
      "dependencies": [
        "com.airpush.",
        "com.chartboost.sdk."
      ],
      "domainNamesFilteredByExodus": [
        ".chartboost.com",
        "api.airpush.com",
        "apistaging.airpush.com",
        "beta.airpush.com",
        "m.airpush.com"
      ],
      "metaDataNames": [
        "android.service.wallpaper",
        "com.airpush.android.APIKEY",
        "com.airpush.android.APPID"
      ],
      "sha256": "4649b75ddfdee2e54f1d107f7dc4abc512be733517fb2c25657d290487f4a988",
      "usesPermissions": [
        "android.permission.ACCESS_COARSE_LOCATION",
        "android.permission.ACCESS_FINE_LOCATION",
        "android.permission.ACCESS_LOCATION_EXTRA_COMMANDS",
        "android.permission.ACCESS_NETWORK_STATE",
        "android.permission.INTERNET",
        "android.permission.READ_PHONE_STATE",
        "android.permission.RECEIVE_BOOT_COMPLETED",
        "android.permission.VIBRATE",
        "android.permission.WAKE_LOCK",
        "com.android.launcher.permission.INSTALL_SHORTCUT"
      ]
    }
  ],
  "meta": {
    "generated": "2020-08-27T14:59:19.621205",
    "generatedBy": [
      "/home/hc/code/trackingthetrackers/scripts/make-trackers-apk-set.py"
    ],
    "ver": "0.3.0"
  }
}