{
  "apks": [
    {
      "applicationId": "com.android.kpplugin",
      "broadcastReceiverIntentFilterActionNames": [],
      "dependencies": [],
      "domainNamesFilteredByExodus": [
        ".google.com"
      ],
      "metaDataNames": [],
      "sha256": "2211130c2e3a41a17ec1ecc0630ef04b0081ef52c9e037e82ee621516322e43b",
      "usesPermissions": []
    }
  ],
  "meta": {
    "generated": "2020-08-27T15:38:25.520083",
    "generatedBy": [
      "/home/hc/code/trackingthetrackers/scripts/make-trackers-apk-set.py"
    ],
    "ver": "0.3.0"
  }
}