{
  "apks": [
    {
      "applicationId": "ch.jiikuy.velocitycalculator",
      "broadcastReceiverIntentFilterActionNames": [],
      "dependencies": [],
      "domainNamesFilteredByExodus": [],
      "metaDataNames": [
        "android.support.VERSION"
      ],
      "sha256": "0ef98c2289d85a95ef41c8b8e73301223b31f9d91756a6be931279b7fecd258d",
      "usesPermissions": []
    }
  ],
  "meta": {
    "generated": "2020-08-27T16:52:02.580199",
    "generatedBy": [
      "/home/hc/code/trackingthetrackers/scripts/make-clean-apk-set.py"
    ],
    "generatedByCommitId": "40519285d6f404593fa655fa89b433743c25289e",
    "sourceDataCommitId": "888bb8f8c77ff55105fcab2ad84c263561eb1169",
    "ver": "0.3.0"
  }
}