{
  "apks": [
    {
      "applicationId": "info.dvkr.screenstream",
      "broadcastReceiverIntentFilterActionNames": [
        "android.intent.action.BOOT_COMPLETED",
        "android.intent.action.QUICKBOOT_POWERON",
        "com.ironz.binaryprefs.ACTION_DUMP_PREFERENCE"
      ],
      "dependencies": [],
      "domainNamesFilteredByExodus": [
        ".google.com"
      ],
      "metaDataNames": [
        "android.support.FILE_PROVIDER_PATHS",
        "firebase_analytics_collection_deactivated",
        "google_analytics_adid_collection_enabled",
        "io.fabric.ApiKey"
      ],
      "sha256": "d0b5d5b4b0ebe177edcceab7380fcc7fb638d80ed5869f2972f2186fdfc3499a",
      "usesPermissions": [
        "android.permission.ACCESS_NETWORK_STATE",
        "android.permission.ACCESS_WIFI_STATE",
        "android.permission.FOREGROUND_SERVICE",
        "android.permission.INTERNET",
        "android.permission.RECEIVE_BOOT_COMPLETED",
        "android.permission.REORDER_TASKS"
      ]
    }
  ],
  "meta": {
    "generated": "2020-08-27T18:12:32.269287",
    "generatedBy": [
      "/home/hc/code/trackingthetrackers/scripts/make-clean-apk-set.py"
    ],
    "generatedByCommitId": "3839559c80042252d3b947fb61c86a18e8b31114",
    "sourceDataCommitId": "888bb8f8c77ff55105fcab2ad84c263561eb1169",
    "ver": "0.3.0"
  }
}