{
  "apks": [
    {
      "applicationId": "com.zara.android.game",
      "broadcastReceiverIntentFilterActionNames": [],
      "dependencies": [
        "com.google.ads.",
        "com.millennialmedia.",
        "net.youmi",
        "net_youmi"
      ],
      "domainNamesFilteredByExodus": [
        ".google.com",
        "millennialmedia.com"
      ],
      "metaDataNames": [],
      "sha256": "1515982d18fb69b086f038c1e320626e075cc3c303f0c21c94e9766fcb59ac09",
      "usesPermissions": [
        "android.permission.ACCESS_COARSE_LOCATION",
        "android.permission.ACCESS_NETWORK_STATE",
        "android.permission.ACCESS_WIFI_STATE",
        "android.permission.INTERNET",
        "android.permission.READ_EXTERNAL_STORAGE",
        "android.permission.READ_PHONE_STATE",
        "android.permission.WRITE_EXTERNAL_STORAGE"
      ]
    }
  ],
  "meta": {
    "generated": "2020-08-27T15:10:07.735155",
    "generatedBy": [
      "/home/hc/code/trackingthetrackers/scripts/make-trackers-apk-set.py"
    ],
    "ver": "0.3.0"
  }
}