{
  "apks": [
    {
      "applicationId": "com.hentica.game.majiang",
      "broadcastReceiverIntentFilterActionNames": [],
      "dependencies": [
        "com.baidu.mobads",
        "com.google.ads.",
        "com.inmobi",
        "com.umeng.analytics",
        "com.umeng.fb",
        "org.cocos2dx"
      ],
      "domainNamesFilteredByExodus": [
        ".google.com",
        "alog.umeng.com",
        "doubleclick.net",
        "i.w.inmobi.com",
        "inmobi.com",
        "oc.umeng.com",
        "umeng.com",
        "w.inmobi.com"
      ],
      "metaDataNames": [
        "AdView_CHANNEL",
        "BaiduMobAd_DEBUG_TOKEN",
        "CONFIGTYPE",
        "CONFIGXXXNO",
        "UMENG_APPKEY",
        "UMENG_CHANNEL",
        "YJF_APP_CHANNEL",
        "YJF_APP_ID",
        "YJF_APP_KEY",
        "YJF_DEV_ID"
      ],
      "sha256": "8e2004c0d57eeed273f32c3d4527799e9b9b23d76f1c07da78957b0aef3f5c90",
      "usesPermissions": [
        "android.permission.ACCESS_COARSE_LOCATION",
        "android.permission.ACCESS_FINE_LOCATION",
        "android.permission.ACCESS_LOCATION_EXTRA_COMMANDS",
        "android.permission.ACCESS_NETWORK_STATE",
        "android.permission.ACCESS_WIFI_STATE",
        "android.permission.CAMERA",
        "android.permission.GET_TASKS",
        "android.permission.INTERNET",
        "android.permission.READ_EXTERNAL_STORAGE",
        "android.permission.READ_PHONE_STATE",
        "android.permission.WAKE_LOCK",
        "android.permission.WRITE_EXTERNAL_STORAGE",
        "com.android.launcher.permission.INSTALL_SHORTCUT",
        "com.android.launcher.permission.READ_SETTINGS",
        "com.android.launcher.permission.UNINSTALL_SHORTCUT"
      ]
    }
  ],
  "meta": {
    "generated": "2020-08-27T15:01:43.475727",
    "generatedBy": [
      "/home/hc/code/trackingthetrackers/scripts/make-trackers-apk-set.py"
    ],
    "ver": "0.3.0"
  }
}