{
  "apks": [
    {
      "applicationId": "org.liberty.android.fantastischmemo",
      "broadcastReceiverIntentFilterActionNames": [
        "android.appwidget.action.APPWIDGET_UPDATE",
        "android.intent.action.BOOT_COMPLETED"
      ],
      "dependencies": [],
      "domainNamesFilteredByExodus": [
        ".google.com"
      ],
      "metaDataNames": [
        "android.appwidget.provider",
        "android.support.PARENT_ACTIVITY",
        "roboguice.modules"
      ],
      "sha256": "d812f914f0a13e14b715a0074a037c81fc11591925a18a004606334f2c32cb3a",
      "usesPermissions": [
        "android.permission.INTERNET",
        "android.permission.READ_EXTERNAL_STORAGE",
        "android.permission.RECORD_AUDIO",
        "android.permission.WRITE_EXTERNAL_STORAGE"
      ]
    }
  ],
  "meta": {
    "generated": "2020-08-27T17:05:54.883011",
    "generatedBy": [
      "/home/hc/code/trackingthetrackers/scripts/make-clean-apk-set.py"
    ],
    "generatedByCommitId": "40519285d6f404593fa655fa89b433743c25289e",
    "sourceDataCommitId": "888bb8f8c77ff55105fcab2ad84c263561eb1169",
    "ver": "0.3.0"
  }
}