{
  "apks": [
    {
      "applicationId": "io.github.baiatbun.react",
      "broadcastReceiverIntentFilterActionNames": [],
      "dependencies": [],
      "domainNamesFilteredByExodus": [],
      "metaDataNames": [
        "android.support.PARENT_ACTIVITY"
      ],
      "sha256": "dd2529b4b98c32dd52d1d35178f425ea496b3b1277dbba207b6508a13f23b139",
      "usesPermissions": []
    }
  ],
  "meta": {
    "generated": "2020-08-27T18:13:00.429285",
    "generatedBy": [
      "/home/hc/code/trackingthetrackers/scripts/make-clean-apk-set.py"
    ],
    "generatedByCommitId": "3839559c80042252d3b947fb61c86a18e8b31114",
    "sourceDataCommitId": "888bb8f8c77ff55105fcab2ad84c263561eb1169",
    "ver": "0.3.0"
  }
}