{
  "apks": [
    {
      "applicationId": "is.xyz.omw_nightly",
      "broadcastReceiverIntentFilterActionNames": [],
      "dependencies": [
        "com$bugsnag$",
        "com.bugsnag.",
        "com_bugsnag_"
      ],
      "domainNamesFilteredByExodus": [],
      "metaDataNames": [
        "com.bugsnag.android.BUILD_UUID"
      ],
      "sha256": "819f88a12f7cf76d433f201ca559803b105b1685b84f91d29f75d53b5668f0df",
      "usesPermissions": [
        "android.permission.ACCESS_NETWORK_STATE",
        "android.permission.INTERNET",
        "android.permission.READ_EXTERNAL_STORAGE",
        "android.permission.WRITE_EXTERNAL_STORAGE"
      ]
    }
  ],
  "meta": {
    "generated": "2020-08-27T18:14:05.661563",
    "generatedBy": [
      "/home/hc/code/trackingthetrackers/scripts/make-clean-apk-set.py"
    ],
    "generatedByCommitId": "3839559c80042252d3b947fb61c86a18e8b31114",
    "sourceDataCommitId": "888bb8f8c77ff55105fcab2ad84c263561eb1169",
    "ver": "0.3.0"
  }
}