{
  "apks": [
    {
      "applicationId": "com.casinoworld.bellagiocasinoslots",
      "broadcastReceiverIntentFilterActionNames": [
        "android.appwidget.action.APPWIDGET_UPDATE",
        "android.intent.action.BOOT_COMPLETED",
        "com.android.vending.billing.IN_APP_NOTIFY",
        "com.android.vending.billing.PURCHASE_STATE_CHANGED",
        "com.android.vending.billing.RESPONSE_CODE"
      ],
      "dependencies": [
        "com$google$ads$",
        "com$inmobi",
        "com$millennialmedia$",
        "com.apsalar.sdk.",
        "com.google.ads.",
        "com.inmobi",
        "com.mdotm.android",
        "com.millennialmedia.",
        "com.nexage.android.",
        "com_facebook_login"
      ],
      "domainNamesFilteredByExodus": [
        ".facebook.com",
        ".google.com",
        "api.airpush.com",
        "beta.airpush.com",
        "doubleclick.net",
        "e.apsalar.com",
        "et.w.inmobi.com",
        "i.w.inmobi.com",
        "inmobi.com",
        "inmobisdk-a.akamaihd.net",
        "m.airpush.com",
        "millennialmedia.com",
        "w.inmobi.com"
      ],
      "metaDataNames": [
        "android.appwidget.provider",
        "android.service.wallpaper",
        "com.facebook.sdk.ApplicationId",
        "com.tailghq.bgeyiek120432.APIKEY",
        "com.tailghq.bgeyiek120432.APPID"
      ],
      "sha256": "4b8580c01e4620485341eed6859c82626436917aca2ca0c55799fb89d997c36e",
      "usesPermissions": [
        "android.permission.ACCESS_COARSE_LOCATION",
        "android.permission.ACCESS_FINE_LOCATION",
        "android.permission.ACCESS_NETWORK_STATE",
        "android.permission.ACCESS_WIFI_STATE",
        "android.permission.GET_ACCOUNTS",
        "android.permission.INTERNET",
        "android.permission.READ_PHONE_STATE",
        "android.permission.RECEIVE_BOOT_COMPLETED",
        "com.android.browser.permission.READ_HISTORY_BOOKMARKS",
        "com.android.launcher.permission.INSTALL_SHORTCUT",
        "com.android.vending.BILLING"
      ]
    }
  ],
  "meta": {
    "generated": "2020-08-27T15:00:53.403876",
    "generatedBy": [
      "/home/hc/code/trackingthetrackers/scripts/make-trackers-apk-set.py"
    ],
    "ver": "0.3.0"
  }
}