{
  "apks": [
    {
      "applicationId": "com.onetwofivegames.kungfoobarracuda",
      "broadcastReceiverIntentFilterActionNames": [],
      "dependencies": [],
      "domainNamesFilteredByExodus": [],
      "metaDataNames": [
        "android.app.lib_name"
      ],
      "sha256": "55d6ce926039124f19c977c6d267cc04699311989f8c4960e7a4d02e43a12e89",
      "usesPermissions": [
        "android.permission.VIBRATE"
      ]
    }
  ],
  "meta": {
    "generated": "2020-08-27T17:00:11.907509",
    "generatedBy": [
      "/home/hc/code/trackingthetrackers/scripts/make-clean-apk-set.py"
    ],
    "generatedByCommitId": "40519285d6f404593fa655fa89b433743c25289e",
    "sourceDataCommitId": "888bb8f8c77ff55105fcab2ad84c263561eb1169",
    "ver": "0.3.0"
  }
}