{
  "apks": [
    {
      "applicationId": "com.android.pengpengmusic",
      "broadcastReceiverIntentFilterActionNames": [
        "android.intent.action.NEW_OUTGOING_CALL",
        "android.intent.action.PHONE_STATE",
        "android.net.conn.CONNECTIVITY_CHANGE"
      ],
      "dependencies": [],
      "domainNamesFilteredByExodus": [],
      "metaDataNames": [
        "appid",
        "excode"
      ],
      "sha256": "1b69a56039053d61b71cbdab245e1946bfea83f7b2e3ff8fdbbda7bcbd54d632",
      "usesPermissions": [
        "android.permission.ACCESS_NETWORK_STATE",
        "android.permission.BROADCAST_STICKY",
        "android.permission.INTERNET",
        "android.permission.MODIFY_AUDIO_SETTINGS",
        "android.permission.PROCESS_OUTGOING_CALLS",
        "android.permission.READ_PHONE_STATE",
        "android.permission.SEND_SMS",
        "android.permission.WAKE_LOCK",
        "android.permission.WRITE_EXTERNAL_STORAGE",
        "android.permission.WRITE_SETTINGS"
      ]
    }
  ],
  "meta": {
    "generated": "2020-08-27T15:15:07.385437",
    "generatedBy": [
      "/home/hc/code/trackingthetrackers/scripts/make-trackers-apk-set.py"
    ],
    "ver": "0.3.0"
  }
}