{
  "apks": [
    {
      "applicationId": "com.digitalzstore.crimehorrorstories",
      "broadcastReceiverIntentFilterActionNames": [],
      "dependencies": [
        "com$inneractive$api$ads",
        "com.google.android.apps.analytics.",
        "com.inneractive.api.ads",
        "com.millennialmedia.",
        "com.revmob.ads."
      ],
      "domainNamesFilteredByExodus": [
        ".google.com",
        "google-analytics.com",
        "millennialmedia.com"
      ],
      "metaDataNames": [],
      "sha256": "0867a3f431fd9ddbbf65ce6d5919bb9d885a62467bbd74c59e9260f3b3d5ce68",
      "usesPermissions": [
        "android.permission.ACCESS_NETWORK_STATE",
        "android.permission.ACCESS_WIFI_STATE",
        "android.permission.INTERNET",
        "android.permission.READ_PHONE_STATE",
        "android.permission.WRITE_EXTERNAL_STORAGE"
      ]
    }
  ],
  "meta": {
    "generated": "2020-08-27T15:04:21.925219",
    "generatedBy": [
      "/home/hc/code/trackingthetrackers/scripts/make-trackers-apk-set.py"
    ],
    "ver": "0.3.0"
  }
}