{
  "apks": [
    {
      "applicationId": "com.nd.android.mba",
      "broadcastReceiverIntentFilterActionNames": [
        "android.intent.action.BOOT_COMPLETED",
        "android.intent.nd.sns.commplatform.versionupdate.notify"
      ],
      "dependencies": [],
      "domainNamesFilteredByExodus": [],
      "metaDataNames": [],
      "sha256": "a49a463df2c809c996a20e37ad4577138a3ffee7450d4404ae62a6c13a366b3b",
      "usesPermissions": [
        "android.permission.ACCESS_NETWORK_STATE",
        "android.permission.ACCESS_NETWORK_STATE",
        "android.permission.ACCESS_WIFI_STATE",
        "android.permission.CALL_PHONE",
        "android.permission.INSTALL_PACKAGES",
        "android.permission.INTERNET",
        "android.permission.INTERNET",
        "android.permission.READ_CONTACTS",
        "android.permission.READ_PHONE_STATE",
        "android.permission.READ_PHONE_STATE",
        "android.permission.READ_SMS",
        "android.permission.RECEIVE_BOOT_COMPLETED",
        "android.permission.RECEIVE_SMS",
        "android.permission.RESTART_PACKAGES",
        "android.permission.SEND_SMS",
        "android.permission.SYSTEM_ALERT_WINDOW",
        "android.permission.VIBRATE",
        "android.permission.WRITE_CONTACTS",
        "android.permission.WRITE_EXTERNAL_STORAGE",
        "android.permission.WRITE_SETTINGS",
        "android.permission.WRITE_SMS"
      ]
    }
  ],
  "meta": {
    "generated": "2020-08-27T15:03:52.121288",
    "generatedBy": [
      "/home/hc/code/trackingthetrackers/scripts/make-trackers-apk-set.py"
    ],
    "ver": "0.3.0"
  }
}