{
  "apks": [
    {
      "applicationId": "app.reading.stoic.stoicreading",
      "broadcastReceiverIntentFilterActionNames": [],
      "dependencies": [],
      "domainNamesFilteredByExodus": [],
      "metaDataNames": [],
      "sha256": "8197b0df49a56c8f1ab42fdf7404a3894e6f1aaee531a81611b22ac9938e1826",
      "usesPermissions": []
    }
  ],
  "meta": {
    "generated": "2020-08-27T17:09:44.228132",
    "generatedBy": [
      "/home/hc/code/trackingthetrackers/scripts/make-clean-apk-set.py"
    ],
    "generatedByCommitId": "40519285d6f404593fa655fa89b433743c25289e",
    "sourceDataCommitId": "888bb8f8c77ff55105fcab2ad84c263561eb1169",
    "ver": "0.3.0"
  }
}