{
  "apks": [
    {
      "applicationId": "com.douguo.recipe",
      "broadcastReceiverIntentFilterActionNames": [
        "android.appwidget.action.APPWIDGET_UPDATE",
        "com.douguo.recipe.action.widget.click",
        "com.tencent.mm.plugin.openapi.Intent.ACTION_REFRESH_WXAPP"
      ],
      "dependencies": [
        "com$tencent$stat",
        "com.tencent.stat",
        "com.umeng.analytics"
      ],
      "domainNamesFilteredByExodus": [
        ".facebook.com",
        ".google.com",
        "alog.umeng.com",
        "oc.umeng.com",
        "umeng.com"
      ],
      "metaDataNames": [
        "91SMARTUPDATE_CHANNEL",
        "CLIENT_ID",
        "DEBUG",
        "HIDE_DOUGUO_EXCHANGE_APK_CHANNEL",
        "HIDE_DOUGUO_UPDATE_NOTICE",
        "HIDE_OTHER_EXCHANGE_APK_CHANNEL",
        "HOST",
        "InstallChannel",
        "TA_APPKEY",
        "UMENG_APPKEY",
        "UMENG_CHANNEL",
        "android.app.default_searchable",
        "android.app.searchable",
        "android.appwidget.provider",
        "renren_id",
        "renren_key",
        "renren_secret",
        "sina_weibo_key",
        "sina_weibo_secret"
      ],
      "sha256": "e500748b7aed55970cbc300b31769b753057a30c8ce38a823ec1d76c86a56f26",
      "usesPermissions": [
        "android.permission.ACCESS_NETWORK_STATE",
        "android.permission.ACCESS_WIFI_STATE",
        "android.permission.INTERNET",
        "android.permission.READ_PHONE_STATE",
        "android.permission.WAKE_LOCK",
        "android.permission.WRITE_EXTERNAL_STORAGE"
      ]
    }
  ],
  "meta": {
    "generated": "2020-08-27T15:17:17.227302",
    "generatedBy": [
      "/home/hc/code/trackingthetrackers/scripts/make-trackers-apk-set.py"
    ],
    "ver": "0.3.0"
  }
}