{
  "apks": [
    {
      "applicationId": "com.fxg.pierre",
      "broadcastReceiverIntentFilterActionNames": [],
      "dependencies": [],
      "domainNamesFilteredByExodus": [
        ".facebook.com",
        "umeng.com"
      ],
      "metaDataNames": [
        "UMENG_APPKEY",
        "UMENG_CHANNEL"
      ],
      "sha256": "be5c876d6bf62a4d2a6b6f16a6a8c4a6b9ff012ed79c0a44dd2e87d90c755e21",
      "usesPermissions": [
        "android.permission.ACCESS_NETWORK_STATE",
        "android.permission.ACCESS_NETWORK_STATE",
        "android.permission.ACCESS_WIFI_STATE",
        "android.permission.CALL_PHONE",
        "android.permission.INTERNET",
        "android.permission.MOUNT_UNMOUNT_FILESYSTEMS",
        "android.permission.READ_CONTACTS",
        "android.permission.READ_PHONE_STATE",
        "android.permission.WRITE_EXTERNAL_STORAGE"
      ]
    }
  ],
  "meta": {
    "generated": "2020-08-27T14:49:51.394856",
    "generatedBy": [
      "/home/hc/code/trackingthetrackers/scripts/make-trackers-apk-set.py"
    ],
    "ver": "0.3.0"
  }
}