{
  "apks": [
    {
      "applicationId": "com.tacotyph.games.crayonpuzzles",
      "broadcastReceiverIntentFilterActionNames": [
        "android.intent.action.ACTION_SHUTDOWN",
        "android.intent.action.BOOT_COMPLETED",
        "com.android.vending.INSTALL_REFERRER",
        "com.android.vending.billing.IN_APP_NOTIFY",
        "com.android.vending.billing.PURCHASE_STATE_CHANGED",
        "com.android.vending.billing.RESPONSE_CODE",
        "com.google.android.c2dm.intent.RECEIVE",
        "com.google.android.c2dm.intent.REGISTRATION"
      ],
      "dependencies": [
        "com$nexage$android$",
        "com$urbanairship",
        "com.crittercism.app.Crittercism",
        "com.flurry.",
        "com.google.ads.",
        "com.inmobi",
        "com.millennialmedia.",
        "com.mobclix.android.sdk",
        "com.mopub.mobileads.",
        "com.nexage.android.",
        "com.tapjoy.",
        "com.umeng.analytics",
        "com.urbanairship",
        "net.youmi"
      ],
      "domainNamesFilteredByExodus": [
        ".facebook.com",
        ".google.com",
        "ads.mobclix.com",
        "alog.umeng.com",
        "api.crittercism.com",
        "data.mobclix.com",
        "device-api.urbanairship.com",
        "flurry.com",
        "i.w.inmobi.com",
        "inmobi.com",
        "millennialmedia.com",
        "mobclix.com",
        "nexage.com",
        "oc.umeng.com",
        "tapjoyads.com",
        "umeng.com",
        "urbanairship.com",
        "w.inmobi.com"
      ],
      "metaDataNames": [
        "ADMOB_PUBLISHER_ID",
        "ADSTIR_APP_ID",
        "AD_LAYOUT_SDK_KEY",
        "Adlantis_Publisher_ID",
        "Inmobi_App_ID",
        "MILLENNIAL_APP_ID",
        "NEXAGE_DCN",
        "NEXAGE_MEDIATION_URL",
        "SmarTap_AppId",
        "SmarTap_AppVersion",
        "SmarTap_HostURL",
        "SmarTap_PublisherId",
        "SmarTap_SiteId",
        "SmarTap_SpotId",
        "UMENG_APPKEY",
        "amoad_ID",
        "android.app.lib_name",
        "com.mobclix.APPLICATION_ID",
        "i-mobile_Publisher_ID",
        "i-mobile_asid",
        "i-mobile_mid",
        "madvertise_site_token",
        "unityplayer.ForwardNativeEventsToDalvik"
      ],
      "sha256": "d966b6a8979162aefa063d3edb48b4d9faeb91c94e3cf3aa628fcdcb1378c998",
      "usesPermissions": [
        "android.permission.ACCESS_COARSE_LOCATION",
        "android.permission.ACCESS_NETWORK_STATE",
        "android.permission.ACCESS_WIFI_STATE",
        "android.permission.BROADCAST_STICKY",
        "android.permission.CHANGE_NETWORK_STATE",
        "android.permission.CHANGE_WIFI_STATE",
        "android.permission.INTERNET",
        "android.permission.READ_PHONE_STATE",
        "android.permission.VIBRATE",
        "android.permission.WAKE_LOCK",
        "android.permission.WRITE_EXTERNAL_STORAGE",
        "com.google.android.c2dm.permission.RECEIVE",
        "com.tacotyph.games.crayonpuzzles.permission.C2D_MESSAGE"
      ]
    }
  ],
  "meta": {
    "generated": "2020-08-27T15:01:07.540127",
    "generatedBy": [
      "/home/hc/code/trackingthetrackers/scripts/make-trackers-apk-set.py"
    ],
    "ver": "0.3.0"
  }
}