{
  "apks": [
    {
      "applicationId": "org.xphnx.ameixamonochrome",
      "dependencies": [],
      "domainNamesFilteredByExodus": [],
      "sha256": "e3353ae66c77349c068f6fa5f1483518a6f937fa6f0ecef05a063bf65d3658bd",
      "usesPermissions": []
    }
  ],
  "meta": {
    "ver": "0.2.0"
  }
}