{
  "apks": [
    {
      "applicationId": "ws.xsoh.etar",
      "broadcastReceiverIntentFilterActionNames": [
        "android.appwidget.action.APPWIDGET_UPDATE",
        "android.intent.action.BOOT_COMPLETED",
        "android.intent.action.DATE_CHANGED",
        "android.intent.action.EVENT_REMINDER",
        "android.intent.action.LOCALE_CHANGED",
        "android.intent.action.PROVIDER_CHANGED",
        "android.intent.action.TIMEZONE_CHANGED",
        "android.intent.action.TIME_SET",
        "com.android.calendar.APPWIDGET_SCHEDULED_UPDATE",
        "com.android.calendar.APPWIDGET_UPDATE"
      ],
      "dependencies": [],
      "domainNamesFilteredByExodus": [
        ".google.com"
      ],
      "metaDataNames": [
        "android.app.default_searchable",
        "android.app.searchable",
        "android.appwidget.provider",
        "android.support.PARENT_ACTIVITY"
      ],
      "sha256": "df95e1f7a3c630eba51744345f328c01ee78540c0a826831a2df4e81a8439e59",
      "usesPermissions": [
        "android.permission.GET_ACCOUNTS",
        "android.permission.MANAGE_ACCOUNTS",
        "android.permission.READ_CALENDAR",
        "android.permission.READ_CONTACTS",
        "android.permission.READ_SYNC_SETTINGS",
        "android.permission.RECEIVE_BOOT_COMPLETED",
        "android.permission.USE_CREDENTIALS",
        "android.permission.VIBRATE",
        "android.permission.WAKE_LOCK",
        "android.permission.WRITE_CALENDAR",
        "com.google.android.googleapps.permission.GOOGLE_AUTH.mail"
      ]
    }
  ],
  "meta": {
    "generated": "2020-08-27T18:44:54.728592",
    "generatedBy": [
      "/home/hc/code/trackingthetrackers/scripts/make-clean-apk-set.py"
    ],
    "generatedByCommitId": "3839559c80042252d3b947fb61c86a18e8b31114",
    "sourceDataCommitId": "888bb8f8c77ff55105fcab2ad84c263561eb1169",
    "ver": "0.3.0"
  }
}