{
  "apks": [
    {
      "applicationId": "com.dozingcatsoftware.bouncy",
      "broadcastReceiverIntentFilterActionNames": [],
      "dependencies": [],
      "domainNamesFilteredByExodus": [],
      "metaDataNames": [],
      "sha256": "7898bbe573e3060f48420eac011c89ded5d1286272d577e8fa2c763e21d4d35c",
      "usesPermissions": []
    }
  ],
  "meta": {
    "generated": "2020-08-27T17:17:07.748053",
    "generatedBy": [
      "/home/hc/code/trackingthetrackers/scripts/make-clean-apk-set.py"
    ],
    "generatedByCommitId": "40519285d6f404593fa655fa89b433743c25289e",
    "sourceDataCommitId": "888bb8f8c77ff55105fcab2ad84c263561eb1169",
    "ver": "0.3.0"
  }
}