{
  "apks": [
    {
      "applicationId": "se.tube42.drum.android",
      "dependencies": [],
      "domainNamesFilteredByExodus": [],
      "sha256": "b779fcf77fac52611de57123419c6f29bcb0d71dab110ec9bacc9802f7ad6849",
      "usesPermissions": [
        "android.permission.WAKE_LOCK"
      ]
    }
  ],
  "meta": {
    "ver": "0.2.0"
  }
}