{
  "apks": [
    {
      "applicationId": "com.mobogenie",
      "broadcastReceiverIntentFilterActionNames": [
        "android.intent.action.BOOT_COMPLETED",
        "android.intent.action.PACKAGE_ADDED",
        "android.intent.action.PACKAGE_REMOVED",
        "android.intent.action.PACKAGE_REPLACED",
        "com.mobogenie.pushreceiver"
      ],
      "dependencies": [
        "com.appsflyer."
      ],
      "domainNamesFilteredByExodus": [
        ".facebook.com",
        ".google.com",
        "appsflyer.com"
      ],
      "metaDataNames": [
        "ANALYSIS_APPKEY",
        "CHANNEL",
        "CHANNEL_ID"
      ],
      "sha256": "4fb70b9eca1db51cab9fb1b99420341e681add2b4e2bc7b826104af3bcb9ef16",
      "usesPermissions": [
        "android.permission.ACCESS_COARSE_LOCATION",
        "android.permission.ACCESS_FINE_LOCATION",
        "android.permission.ACCESS_NETWORK_STATE",
        "android.permission.ACCESS_WIFI_STATE",
        "android.permission.BATTERY_STATS",
        "android.permission.CLEAR_APP_CACHE",
        "android.permission.EXPAND_STATUS_BAR",
        "android.permission.GET_PACKAGE_SIZE",
        "android.permission.GET_TASKS",
        "android.permission.GET_TASKS",
        "android.permission.INTERNET",
        "android.permission.KILL_BACKGROUND_PROCESSES",
        "android.permission.MODIFY_AUDIO_SETTINGS",
        "android.permission.READ_PHONE_STATE",
        "android.permission.RECEIVE_BOOT_COMPLETED",
        "android.permission.RESTART_PACKAGES",
        "android.permission.RESTART_PACKAGES",
        "android.permission.SET_WALLPAPER",
        "android.permission.SYSTEM_ALERT_WINDOW",
        "android.permission.VIBRATE",
        "android.permission.WAKE_LOCK",
        "android.permission.WRITE_EXTERNAL_STORAGE",
        "android.permission.WRITE_SETTINGS",
        "com.anddoes.launcher.permission.READ_SETTINGS",
        "com.anddoes.launcher.permission.WRITE_SETTINGS",
        "com.android.launcher.permission.INSTALL_SHORTCUT",
        "com.android.launcher.permission.READ_SETTINGS",
        "com.android.launcher.permission.WRITE_SETTINGS",
        "com.android.launcher.permission.WRITE_SETTINGS",
        "com.android.launcher2.permission.READ_SETTINGS",
        "com.android.launcher2.permission.WRITE_SETTINGS",
        "com.fede.launcher.permission.READ_SETTINGS",
        "com.fede.launcher.permission.WRITE_SETTINGS",
        "com.gau.go.launcherex.permission.READ_SETTINGS",
        "com.gau.go.launcherex.permission.WRITE_SETTINGS",
        "com.htc.launcher.permission.WRITE_SETTINGS",
        "com.huawei.android.launcher.permission.READ_SETTINGS",
        "com.huawei.android.launcher.permission.WRITE_SETTINGS",
        "com.lenovo.launcher.permission.READ_SETTINGS",
        "com.lenovo.launcher.permission.WRITE_SETTINGS",
        "com.nd.android.launcher.permission.READ_SETTINGS",
        "com.nd.android.launcher.permission.WRITE_SETTINGS",
        "com.qihoo360.home.permission.READ_SETTINGS",
        "com.qihoo360.home.permission.WRITE_SETTINGS",
        "com.qihoo360.launcher.permission.READ_SETTINGS",
        "com.qihoo360.launcher.permission.WRITE_SETTINGS",
        "com.sec.android.app.twlauncher.READ_SETTINGS",
        "com.sec.android.app.twlauncher.WRITE_SETTINGS",
        "org.adw.launcher.permission.READ_SETTINGS",
        "org.adw.launcher.permission.WRITE_SETTINGS",
        "org.adwfreak.launcher.permission.READ_SETTINGS",
        "org.adwfreak.launcher.permission.WRITE_SETTINGS"
      ]
    }
  ],
  "meta": {
    "generated": "2020-08-27T15:12:28.870341",
    "generatedBy": [
      "/home/hc/code/trackingthetrackers/scripts/make-trackers-apk-set.py"
    ],
    "ver": "0.3.0"
  }
}