{
  "apks": [
    {
      "applicationId": "ch.ihdg.calendarcolor",
      "broadcastReceiverIntentFilterActionNames": [],
      "dependencies": [],
      "domainNamesFilteredByExodus": [],
      "metaDataNames": [],
      "sha256": "e81e4b75b87b1b4449b063bb5ce20929e9c9057188937f0387f96339dab09c8c",
      "usesPermissions": [
        "android.permission.READ_CALENDAR",
        "android.permission.WRITE_CALENDAR"
      ]
    }
  ],
  "meta": {
    "generated": "2020-08-27T16:52:01.852027",
    "generatedBy": [
      "/home/hc/code/trackingthetrackers/scripts/make-clean-apk-set.py"
    ],
    "generatedByCommitId": "40519285d6f404593fa655fa89b433743c25289e",
    "sourceDataCommitId": "888bb8f8c77ff55105fcab2ad84c263561eb1169",
    "ver": "0.3.0"
  }
}