{
  "apks": [
    {
      "applicationId": "eu.faircode.netguard",
      "broadcastReceiverIntentFilterActionNames": [
        "android.appwidget.action.APPWIDGET_UPDATE",
        "android.intent.action.BOOT_COMPLETED",
        "android.intent.action.MY_PACKAGE_REPLACED",
        "android.intent.action.PACKAGE_FULLY_REMOVED",
        "eu.faircode.netguard.LOCKDOWN_OFF",
        "eu.faircode.netguard.LOCKDOWN_ON",
        "eu.faircode.netguard.OFF",
        "eu.faircode.netguard.ON"
      ],
      "dependencies": [],
      "domainNamesFilteredByExodus": [
        ".google.com"
      ],
      "metaDataNames": [
        "android.app.shortcuts",
        "android.appwidget.provider",
        "android.max_aspect",
        "android.support.PARENT_ACTIVITY"
      ],
      "sha256": "f537b7eafd628901302561d3dc0d543c82891df0f6af9566ecbe50434c0bacd6",
      "usesPermissions": [
        "android.permission.ACCESS_NETWORK_STATE",
        "android.permission.ACCESS_WIFI_STATE",
        "android.permission.INTERNET",
        "android.permission.READ_PHONE_STATE",
        "android.permission.RECEIVE_BOOT_COMPLETED",
        "android.permission.VIBRATE",
        "android.permission.WAKE_LOCK",
        "com.android.vending.BILLING",
        "eu.faircode.netguard.permission.ADMIN"
      ]
    }
  ],
  "meta": {
    "generated": "2020-08-27T18:07:08.167683",
    "generatedBy": [
      "/home/hc/code/trackingthetrackers/scripts/make-clean-apk-set.py"
    ],
    "generatedByCommitId": "3839559c80042252d3b947fb61c86a18e8b31114",
    "sourceDataCommitId": "888bb8f8c77ff55105fcab2ad84c263561eb1169",
    "ver": "0.3.0"
  }
}