{
  "apks": [
    {
      "applicationId": "com.xinxuetang.ebook.GBYZSEJQ7680",
      "broadcastReceiverIntentFilterActionNames": [
        "android.screen.ScreenBroadCast"
      ],
      "dependencies": [
        "com.google.ads."
      ],
      "domainNamesFilteredByExodus": [
        ".google.com"
      ],
      "metaDataNames": [
        "APP_PID",
        "YOUMI_CHANNEL"
      ],
      "sha256": "1207071614d12145aae9f6e754682c9aad4297c64bddac32a86cb6b5ec4d556c",
      "usesPermissions": [
        "android.permission.ACCESS_COARSE_LOCATION",
        "android.permission.ACCESS_FINE_LOCATION",
        "android.permission.ACCESS_LOCATION_EXTRA_COMMANDS",
        "android.permission.ACCESS_NETWORK_STATE",
        "android.permission.ACCESS_WIFI_STATE",
        "android.permission.BROADCAST_STICKY",
        "android.permission.CAMERA",
        "android.permission.GET_ACCOUNTS",
        "android.permission.GET_TASKS",
        "android.permission.INSTALL_PACKAGES",
        "android.permission.INTERNET",
        "android.permission.MODIFY_AUDIO_SETTINGS",
        "android.permission.MOUNT_UNMOUNT_FILESYSTEMS",
        "android.permission.READ_PHONE_STATE",
        "android.permission.RECORD_AUDIO",
        "android.permission.RECORD_VIDEO",
        "android.permission.SYSTEM_ALERT_WINDOW",
        "android.permission.VIBRATE",
        "android.permission.WRITE_EXTERNAL_STORAGE",
        "android.permission.WRITE_SETTINGS",
        "com.android.browser.permission.WRITE_HISTORY_BOOKMARKS",
        "com.android.launcher.permission.INSTALL_SHORTCUT",
        "com.android.launcher.permission.READ_SETTINGS"
      ]
    }
  ],
  "meta": {
    "generated": "2020-08-27T15:01:50.098924",
    "generatedBy": [
      "/home/hc/code/trackingthetrackers/scripts/make-trackers-apk-set.py"
    ],
    "ver": "0.3.0"
  }
}