{
  "apks": [
    {
      "applicationId": "org.ligi.survivalmanual",
      "broadcastReceiverIntentFilterActionNames": [],
      "dependencies": [],
      "domainNamesFilteredByExodus": [
        ".google.com"
      ],
      "metaDataNames": [],
      "sha256": "21f5db5b8737ea5758144647a0ec7c06350b8709b6ade05e05b8e2b9009ccf29",
      "usesPermissions": []
    }
  ],
  "meta": {
    "generated": "2020-08-27T18:30:28.779758",
    "generatedBy": [
      "/home/hc/code/trackingthetrackers/scripts/make-clean-apk-set.py"
    ],
    "generatedByCommitId": "3839559c80042252d3b947fb61c86a18e8b31114",
    "sourceDataCommitId": "888bb8f8c77ff55105fcab2ad84c263561eb1169",
    "ver": "0.3.0"
  }
}