{
  "apks": [
    {
      "applicationId": "net.zygotelabs.locker",
      "broadcastReceiverIntentFilterActionNames": [
        "android.app.action.DEVICE_ADMIN_ENABLED"
      ],
      "dependencies": [],
      "domainNamesFilteredByExodus": [],
      "metaDataNames": [
        "android.app.device_admin"
      ],
      "sha256": "b01dec684b777c49fe8a0c93a95e3dc19baf044eed339ffb1e43604476911759",
      "usesPermissions": []
    }
  ],
  "meta": {
    "generated": "2020-08-27T18:19:38.738435",
    "generatedBy": [
      "/home/hc/code/trackingthetrackers/scripts/make-clean-apk-set.py"
    ],
    "generatedByCommitId": "3839559c80042252d3b947fb61c86a18e8b31114",
    "sourceDataCommitId": "888bb8f8c77ff55105fcab2ad84c263561eb1169",
    "ver": "0.3.0"
  }
}