{
  "apks": [
    {
      "applicationId": "org.fitchfamily.android.gsmlocation",
      "broadcastReceiverIntentFilterActionNames": [],
      "dependencies": [],
      "domainNamesFilteredByExodus": [],
      "metaDataNames": [
        "org.microg.nlp.BACKEND_SETTINGS_ACTIVITY"
      ],
      "sha256": "df124d180a1199aeb6123861747ce178efe6f69e52ba8420462359b4ffde95ac",
      "usesPermissions": [
        "android.permission.ACCESS_COARSE_LOCATION",
        "android.permission.INTERNET",
        "android.permission.WRITE_EXTERNAL_STORAGE"
      ]
    }
  ],
  "meta": {
    "generated": "2020-08-27T18:26:31.591466",
    "generatedBy": [
      "/home/hc/code/trackingthetrackers/scripts/make-clean-apk-set.py"
    ],
    "generatedByCommitId": "3839559c80042252d3b947fb61c86a18e8b31114",
    "sourceDataCommitId": "888bb8f8c77ff55105fcab2ad84c263561eb1169",
    "ver": "0.3.0"
  }
}