{
  "apks": [
    {
      "applicationId": "com.google.android.gms",
      "broadcastReceiverIntentFilterActionNames": [
        "android.intent.action.PACKAGE_CHANGED",
        "android.intent.action.PACKAGE_REMOVED",
        "android.intent.action.PACKAGE_REPLACED",
        "android.intent.action.PACKAGE_RESTARTED",
        "android.intent.action.PACKAGE_UPGRADED"
      ],
      "dependencies": [],
      "domainNamesFilteredByExodus": [],
      "metaDataNames": [
        "android.location.SettingInjectorService",
        "org.microg.nlp.API_VERSION",
        "serviceIsMultiuser",
        "serviceVersion",
        "version"
      ],
      "sha256": "75fbf156a39064fb772140bf783a3cfe53d0d03accda67a92f742843c4068ded",
      "usesPermissions": [
        "android.permission.ACCESS_COARSE_LOCATION",
        "android.permission.ACCESS_COARSE_UPDATES",
        "android.permission.INSTALL_LOCATION_PROVIDER",
        "android.permission.RECEIVE_BOOT_COMPLETED",
        "com.android.settings.INJECT_SETTINGS",
        "org.microg.permission.FORCE_COARSE_LOCATION"
      ]
    }
  ],
  "meta": {
    "generated": "2020-08-27T17:31:34.393030",
    "generatedBy": [
      "/home/hc/code/trackingthetrackers/scripts/make-clean-apk-set.py"
    ],
    "generatedByCommitId": "40519285d6f404593fa655fa89b433743c25289e",
    "sourceDataCommitId": "888bb8f8c77ff55105fcab2ad84c263561eb1169",
    "ver": "0.3.0"
  }
}