{
  "apks": [
    {
      "applicationId": "de.schildbach.wallet",
      "broadcastReceiverIntentFilterActionNames": [
        "android.appwidget.action.APPWIDGET_UPDATE",
        "android.intent.action.ACTION_POWER_CONNECTED",
        "android.intent.action.ACTION_POWER_DISCONNECTED",
        "android.intent.action.BOOT_COMPLETED",
        "android.intent.action.PACKAGE_REPLACED"
      ],
      "dependencies": [],
      "domainNamesFilteredByExodus": [
        ".google.com"
      ],
      "metaDataNames": [
        "android.appwidget.provider"
      ],
      "sha256": "f16b8972339c379327a5a9052cd34d89d0abb62e51577583d572fdda4cb84941",
      "usesPermissions": [
        "android.permission.BROADCAST_STICKY",
        "android.permission.CAMERA",
        "android.permission.INTERNET",
        "android.permission.NFC",
        "android.permission.READ_EXTERNAL_STORAGE",
        "android.permission.RECEIVE_BOOT_COMPLETED",
        "android.permission.VIBRATE",
        "android.permission.WAKE_LOCK",
        "android.permission.WRITE_EXTERNAL_STORAGE"
      ]
    }
  ],
  "meta": {
    "generated": "2020-08-27T18:03:09.273785",
    "generatedBy": [
      "/home/hc/code/trackingthetrackers/scripts/make-clean-apk-set.py"
    ],
    "generatedByCommitId": "3839559c80042252d3b947fb61c86a18e8b31114",
    "sourceDataCommitId": "888bb8f8c77ff55105fcab2ad84c263561eb1169",
    "ver": "0.3.0"
  }
}