{
  "apks": [
    {
      "applicationId": "ru.ra66it.updaterforspotify",
      "broadcastReceiverIntentFilterActionNames": [],
      "dependencies": [],
      "domainNamesFilteredByExodus": [],
      "metaDataNames": [
        "android.support.FILE_PROVIDER_PATHS"
      ],
      "sha256": "d3002d4419d9cc313509930d894a21ae502662106dd97940881be09668a9f36d",
      "usesPermissions": [
        "android.permission.ACCESS_NETWORK_STATE",
        "android.permission.INTERNET",
        "android.permission.RECEIVE_BOOT_COMPLETED",
        "android.permission.REQUEST_INSTALL_PACKAGES",
        "android.permission.WRITE_EXTERNAL_STORAGE"
      ]
    }
  ],
  "meta": {
    "generated": "2020-08-27T18:43:26.804883",
    "generatedBy": [
      "/home/hc/code/trackingthetrackers/scripts/make-clean-apk-set.py"
    ],
    "generatedByCommitId": "3839559c80042252d3b947fb61c86a18e8b31114",
    "sourceDataCommitId": "888bb8f8c77ff55105fcab2ad84c263561eb1169",
    "ver": "0.3.0"
  }
}