{
  "apks": [
    {
      "applicationId": "org.mariotaku.twidere",
      "broadcastReceiverIntentFilterActionNames": [
        "android.intent.action.ACTION_POWER_CONNECTED",
        "android.intent.action.ACTION_POWER_DISCONNECTED",
        "android.intent.action.BATTERY_LOW",
        "android.intent.action.BATTERY_OKAY",
        "android.net.conn.CONNECTIVITY_CHANGE",
        "android.provider.Telephony.SECRET_CODE",
        "org.mariotaku.twidere.NOTIFICATION_DELETED"
      ],
      "dependencies": [],
      "domainNamesFilteredByExodus": [
        ".google.com",
        "api.tiles.mapbox.com"
      ],
      "metaDataNames": [
        "android.app.default_searchable",
        "android.app.searchable",
        "android.service.wallpaper",
        "android.support.PARENT_ACTIVITY",
        "com.android.systemui.action_assist_icon",
        "com.google.android.backup.api_key",
        "com.sec.android.multiwindow.DEFAULT_SIZE_H",
        "com.sec.android.multiwindow.DEFAULT_SIZE_W",
        "com.sec.android.multiwindow.MINIMUM_SIZE_H",
        "com.sec.android.multiwindow.MINIMUM_SIZE_W",
        "com.sec.android.support.multiwindow",
        "io.fabric.ApiKey",
        "override_tinted_status_bar_defaults"
      ],
      "sha256": "7cc04eb9fc618be9d6769ebcb2d45e93bc41101eb2c295c64e4ea5dbdbbadee4",
      "usesPermissions": [
        "android.permission.ACCESS_COARSE_LOCATION",
        "android.permission.ACCESS_FINE_LOCATION",
        "android.permission.ACCESS_NETWORK_STATE",
        "android.permission.ACCESS_WIFI_STATE",
        "android.permission.INTERNET",
        "android.permission.NFC",
        "android.permission.READ_EXTERNAL_STORAGE",
        "android.permission.VIBRATE",
        "android.permission.WRITE_EXTERNAL_STORAGE",
        "org.mariotaku.twidere.permission.SHORTEN_STATUS",
        "org.mariotaku.twidere.permission.SYNC_TIMELINE",
        "org.mariotaku.twidere.permission.UPLOAD_MEDIA"
      ]
    }
  ],
  "meta": {
    "generated": "2020-08-27T18:31:44.646859",
    "generatedBy": [
      "/home/hc/code/trackingthetrackers/scripts/make-clean-apk-set.py"
    ],
    "generatedByCommitId": "3839559c80042252d3b947fb61c86a18e8b31114",
    "sourceDataCommitId": "888bb8f8c77ff55105fcab2ad84c263561eb1169",
    "ver": "0.3.0"
  }
}