{
  "apks": [
    {
      "applicationId": "me.anon.grow",
      "broadcastReceiverIntentFilterActionNames": [
        "android.appwidget.action.APPWIDGET_RESIZE",
        "android.appwidget.action.APPWIDGET_UPDATE"
      ],
      "dependencies": [],
      "domainNamesFilteredByExodus": [],
      "metaDataNames": [
        "android.appwidget.provider",
        "android.support.FILE_PROVIDER_PATHS",
        "me.anon.grow.APP_TYPE"
      ],
      "sha256": "2fca4d9f9982d9ab6834690326b4f5bdcdb1807488a981550a69289fb6783e34",
      "usesPermissions": [
        "android.permission.READ_EXTERNAL_STORAGE",
        "android.permission.WRITE_EXTERNAL_STORAGE"
      ]
    }
  ],
  "meta": {
    "generated": "2020-08-27T18:15:11.442055",
    "generatedBy": [
      "/home/hc/code/trackingthetrackers/scripts/make-clean-apk-set.py"
    ],
    "generatedByCommitId": "3839559c80042252d3b947fb61c86a18e8b31114",
    "sourceDataCommitId": "888bb8f8c77ff55105fcab2ad84c263561eb1169",
    "ver": "0.3.0"
  }
}