{
  "apks": [
    {
      "applicationId": "flyingbee.android.EncryptAssistant",
      "broadcastReceiverIntentFilterActionNames": [],
      "dependencies": [
        "net.youmi"
      ],
      "domainNamesFilteredByExodus": [
        ".google.com",
        "youmi.net"
      ],
      "metaDataNames": [],
      "sha256": "8275753f6937936fd55e1440012e0882cb3d3474aa0a4f7a90db73a26264f143",
      "usesPermissions": [
        "android.permission.ACCESS_COARSE_LOCATION",
        "android.permission.ACCESS_NETWORK_STATE",
        "android.permission.INTERNET",
        "android.permission.MOUNT_UNMOUNT_FILESYSTEMS",
        "android.permission.READ_PHONE_STATE",
        "android.permission.WRITE_EXTERNAL_STORAGE",
        "android.permission.WRITE_EXTERNAL_STORAGE",
        "com.android.launcher.permission.INSTALL_SHORTCUT"
      ]
    }
  ],
  "meta": {
    "generated": "2020-08-27T14:48:54.604613",
    "generatedBy": [
      "/home/hc/code/trackingthetrackers/scripts/make-trackers-apk-set.py"
    ],
    "ver": "0.3.0"
  }
}