{
  "apks": [
    {
      "applicationId": "com.mobincube.android.sc_QAHVV",
      "broadcastReceiverIntentFilterActionNames": [
        "com.google.android.c2dm.intent.REGISTRATION"
      ],
      "dependencies": [
        "com$inneractive$api$ads",
        "com$millennialmedia$",
        "com$mopub$mobileads$",
        "com$smaato$soma$",
        "com.google.ads.",
        "com.google.android.gms.analytics.",
        "com.inmobi",
        "com.inneractive.api.ads",
        "com.mdotm.android",
        "com.millennialmedia.",
        "com.mopub.mobileads.",
        "com.smaato.soma.",
        "com_smaato_soma_"
      ],
      "domainNamesFilteredByExodus": [
        ".facebook.com",
        ".google.com",
        "247realmedia.com",
        "doubleclick.net",
        "et.w.inmobi.com",
        "google-analytics.com",
        "i.w.inmobi.com",
        "inmobi.com",
        "inmobisdk-a.akamaihd.net",
        "millennialmedia.com",
        "mopub.com",
        "openx.com",
        "smaato.net",
        "soma.smaato.net"
      ],
      "metaDataNames": [
        "com.tapcontext.DEVELOPERKEY",
        "com.tapcontext.EULA"
      ],
      "sha256": "579fbe727f6dfa652dd9d53dc49d4aeceb147e61feeaf68be73b7f468befe8e6",
      "usesPermissions": [
        "android.permission.ACCESS_CORSE_LOCATION",
        "android.permission.ACCESS_FINE_LOCATION",
        "android.permission.ACCESS_NETWORK_STATE",
        "android.permission.ACCESS_WIFI_STATE",
        "android.permission.INTERNET",
        "android.permission.READ_PHONE_STATE",
        "android.permission.WRITE_EXTERNAL_STORAGE"
      ]
    }
  ],
  "meta": {
    "generated": "2020-08-27T15:33:44.693397",
    "generatedBy": [
      "/home/hc/code/trackingthetrackers/scripts/make-trackers-apk-set.py"
    ],
    "ver": "0.3.0"
  }
}