{
  "apks": [
    {
      "applicationId": "info.zamojski.soft.towercollector",
      "broadcastReceiverIntentFilterActionNames": [
        "android.intent.action.BATTERY_LOW",
        "android.intent.action.BOOT_COMPLETED",
        "android.intent.action.QUICKBOOT_POWERON",
        "info.zamojski.soft.towercollector.COLLECTOR_START",
        "info.zamojski.soft.towercollector.COLLECTOR_STOP",
        "info.zamojski.soft.towercollector.UPLOADER_START"
      ],
      "dependencies": [],
      "domainNamesFilteredByExodus": [
        ".facebook.com",
        ".google.com"
      ],
      "metaDataNames": [
        "android.arch.lifecycle.VERSION",
        "android.support.PARENT_ACTIVITY",
        "android.support.VERSION"
      ],
      "sha256": "a366ca57ba25710cfd188b6303f69548ed965b4325e4f07563d0c6b6fc5df0cf",
      "usesPermissions": [
        "android.permission.ACCESS_COARSE_LOCATION",
        "android.permission.ACCESS_FINE_LOCATION",
        "android.permission.ACCESS_NETWORK_STATE",
        "android.permission.FOREGROUND_SERVICE",
        "android.permission.INTERNET",
        "android.permission.READ_EXTERNAL_STORAGE",
        "android.permission.READ_PHONE_STATE",
        "android.permission.RECEIVE_BOOT_COMPLETED",
        "android.permission.WAKE_LOCK",
        "android.permission.WRITE_EXTERNAL_STORAGE"
      ]
    }
  ],
  "meta": {
    "generated": "2020-08-27T18:12:58.277685",
    "generatedBy": [
      "/home/hc/code/trackingthetrackers/scripts/make-clean-apk-set.py"
    ],
    "generatedByCommitId": "3839559c80042252d3b947fb61c86a18e8b31114",
    "sourceDataCommitId": "888bb8f8c77ff55105fcab2ad84c263561eb1169",
    "ver": "0.3.0"
  }
}