{
  "apks": [
    {
      "applicationId": "com.nononsenseapps.notepad",
      "broadcastReceiverIntentFilterActionNames": [
        "android.appwidget.action.APPWIDGET_UPDATE",
        "com.nononsenseapps.completenote"
      ],
      "dependencies": [],
      "domainNamesFilteredByExodus": [
        ".google.com"
      ],
      "metaDataNames": [
        "android.app.searchable",
        "android.appwidget.provider",
        "android.content.SyncAdapter"
      ],
      "sha256": "cebc0cf53e6f836b719acde829d822b96176f1d909851750187fdcf420056f9f",
      "usesPermissions": [
        "android.permission.GET_ACCOUNTS",
        "android.permission.INTERNET",
        "android.permission.READ_SYNC_SETTINGS",
        "android.permission.READ_SYNC_STATS",
        "android.permission.USE_CREDENTIALS",
        "android.permission.WRITE_SYNC_SETTINGS",
        "com.nononsenseapps.notepad.permissions.read",
        "com.nononsenseapps.notepad.permissions.write"
      ]
    }
  ],
  "meta": {
    "generated": "2020-08-27T17:43:36.544073",
    "generatedBy": [
      "/home/hc/code/trackingthetrackers/scripts/make-clean-apk-set.py"
    ],
    "generatedByCommitId": "40519285d6f404593fa655fa89b433743c25289e",
    "sourceDataCommitId": "888bb8f8c77ff55105fcab2ad84c263561eb1169",
    "ver": "0.3.0"
  }
}