{
  "apks": [
    {
      "applicationId": "com.rascarlo.adaptive.brightness.tile",
      "broadcastReceiverIntentFilterActionNames": [
        "android.intent.action.BOOT_COMPLETED"
      ],
      "dependencies": [],
      "domainNamesFilteredByExodus": [],
      "metaDataNames": [
        "android.service.quicksettings.ACTIVE_TILE"
      ],
      "sha256": "ce4ffe26f8c1e3b5420f1a2342e7e2e4b835149a3b8b15acc3ce9e376f82c65f",
      "usesPermissions": [
        "android.permission.WRITE_SETTINGS"
      ]
    }
  ],
  "meta": {
    "generated": "2020-08-27T17:00:30.663113",
    "generatedBy": [
      "/home/hc/code/trackingthetrackers/scripts/make-clean-apk-set.py"
    ],
    "generatedByCommitId": "40519285d6f404593fa655fa89b433743c25289e",
    "sourceDataCommitId": "888bb8f8c77ff55105fcab2ad84c263561eb1169",
    "ver": "0.3.0"
  }
}