{
  "apks": [
    {
      "applicationId": "com.nayeemjunaid.kimzolciak",
      "broadcastReceiverIntentFilterActionNames": [],
      "dependencies": [
        "com.google.ads."
      ],
      "domainNamesFilteredByExodus": [
        ".google.com",
        "api.airpush.com",
        "beta.airpush.com",
        "doubleclick.net",
        "m.airpush.com"
      ],
      "metaDataNames": [
        "com.ybpeduji.axmrrmcy51725.APIKEY",
        "com.ybpeduji.axmrrmcy51725.APPID"
      ],
      "sha256": "d92edb29b986a5f65eabaf98a47baaaa60a2e01346b9cd06ddc2c8c9b012bf46",
      "usesPermissions": [
        "android.permission.ACCESS_NETWORK_STATE",
        "android.permission.ACCESS_WIFI_STATE",
        "android.permission.INTERNET",
        "android.permission.READ_PHONE_STATE",
        "android.permission.WRITE_EXTERNAL_STORAGE"
      ]
    }
  ],
  "meta": {
    "generated": "2020-08-27T15:01:24.021897",
    "generatedBy": [
      "/home/hc/code/trackingthetrackers/scripts/make-trackers-apk-set.py"
    ],
    "ver": "0.3.0"
  }
}