{
  "apks": [
    {
      "applicationId": "com.sdg.woool.guaji.anzhi",
      "broadcastReceiverIntentFilterActionNames": [
        "android.intent.action.BOOT_COMPLETED",
        "android.intent.action.DOWNLOAD_COMPLETE",
        "android.intent.action.DOWNLOAD_NOTIFICATION_CLICKED",
        "android.net.conn.CONNECTIVITY_CHANGE",
        "com.sdg.jf.sdk.push.intent.action.PUSH_CLEAR",
        "com.sdg.jf.sdk.push.intent.action.PUSH_DO_COMMAND",
        "com.sdg.jf.sdk.push.intent.action.PUSH_MSG_CLICKED",
        "com.sdg.jf.sdk.push.intent.action.PUSH_PING",
        "com.sdg.jf.sdk.push.intent.action.PUSH_QUICK_START",
        "com.sdg.jf.sdk.push.intent.action.PUSH_SHOW_NOTIFICATION",
        "com.sdg.jf.sdk.push.intent.action.PUSH_START",
        "com.sdg.jf.sdk.push.intent.action.PUSH_START_TWO",
        "com.sdg.jf.sdk.push.intent.action.PUSH_STOP",
        "com.sdg.jf.sdk.push.intent.action.RTF",
        "game.packageInterface.action.ALARM_RECEIVER"
      ],
      "dependencies": [
        "org.cocos2dx"
      ],
      "domainNamesFilteredByExodus": [],
      "metaDataNames": [
        "ANZHIUSERCENTE_VERSIONS",
        "APPLICATION_CHANNEL",
        "APPLICATION_KEY",
        "AuthorizeAdapter",
        "SD_UPDATE_GAMEID",
        "qudao"
      ],
      "sha256": "de5fd75bb6982d4b362bfbd1610c2d9fa78389b3618d85340e6907ad31d5c4c6",
      "usesPermissions": [
        "android.permission.ACCESS_COARSE_LOCATION",
        "android.permission.ACCESS_FIND_LOCATION",
        "android.permission.ACCESS_FINE_LOCATION",
        "android.permission.ACCESS_NETWORK_STATE",
        "android.permission.ACCESS_WIFI_STATE",
        "android.permission.BLUETOOTH",
        "android.permission.BLUETOOTH_ADMIN",
        "android.permission.CHANGE_CONFIGURATION",
        "android.permission.CHANGE_NETWORK_STATE",
        "android.permission.CHANGE_WIFI_STATE",
        "android.permission.DOWNLOAD_WITHOUT_NOTIFICATION",
        "android.permission.GET_ACCOUNTS",
        "android.permission.GET_TASKS",
        "android.permission.INSTALL_PACKAGES",
        "android.permission.INTERACT_ACROSS_USERS_FULL",
        "android.permission.INTERNET",
        "android.permission.KILL_BACKGROUND_PROCESSES",
        "android.permission.MANAGE_ACCOUNTS",
        "android.permission.MODIFY_AUDIO_SETTINGS",
        "android.permission.MOUNT_UNMOUNT_FILESYSTEMS",
        "android.permission.READ_EXTERNAL_STORAGE",
        "android.permission.READ_LOGS",
        "android.permission.READ_PHONE_STATE",
        "android.permission.READ_SETTINGS",
        "android.permission.READ_SMS",
        "android.permission.RECEIVE_BOOT_COMPLETED",
        "android.permission.RECEIVE_SMS",
        "android.permission.RESTART_PACKAGES",
        "android.permission.SEND_SMS",
        "android.permission.SYSTEM_ALERT_WINDOW",
        "android.permission.SYSTEM_OVERLAY_WINDOW",
        "android.permission.VIBRATE",
        "android.permission.WRITE_EXTERNAL_STORAGE",
        "android.permission.WRITE_SETTINGS",
        "android.permission.WRITE_SMS",
        "android.webkit.permission.PLUGIN",
        "com.android.alarm.permission.SET_ALARM",
        "com.tencent.mtt.extension.Player"
      ]
    }
  ],
  "meta": {
    "generated": "2020-08-27T14:59:30.885355",
    "generatedBy": [
      "/home/hc/code/trackingthetrackers/scripts/make-trackers-apk-set.py"
    ],
    "ver": "0.3.0"
  }
}