{
  "apks": [
    {
      "applicationId": "com.simplemobiletools.camera",
      "broadcastReceiverIntentFilterActionNames": [
        "android.intent.action.CAMERA_BUTTON"
      ],
      "dependencies": [],
      "domainNamesFilteredByExodus": [
        ".facebook.com",
        ".google.com"
      ],
      "metaDataNames": [],
      "sha256": "63bdf62cd4e9424a011f1565dfa4175ce5b7e7893baf2e9d6b75ce461d3bacae",
      "usesPermissions": [
        "android.permission.CAMERA",
        "android.permission.RECORD_AUDIO",
        "android.permission.WRITE_EXTERNAL_STORAGE"
      ]
    }
  ],
  "meta": {
    "generated": "2020-08-27T17:47:59.231152",
    "generatedBy": [
      "/home/hc/code/trackingthetrackers/scripts/make-clean-apk-set.py"
    ],
    "generatedByCommitId": "40519285d6f404593fa655fa89b433743c25289e",
    "sourceDataCommitId": "888bb8f8c77ff55105fcab2ad84c263561eb1169",
    "ver": "0.3.0"
  }
}