{
  "apks": [
    {
      "applicationId": "com.herocraft.game.dragonslore",
      "broadcastReceiverIntentFilterActionNames": [],
      "dependencies": [
        "com.flurry.",
        "com.google.android.apps.analytics."
      ],
      "domainNamesFilteredByExodus": [
        ".facebook.com",
        ".google.com",
        "flurry.com",
        "google-analytics.com"
      ],
      "metaDataNames": [],
      "sha256": "b3669195c401812987ea719f4e20abd5345c1a1fc75dce997c04ddf0974d2d76",
      "usesPermissions": [
        "android.permission.ACCESS_WIFI_STATE",
        "android.permission.DISABLE_KEYGUARD",
        "android.permission.INTERNET",
        "android.permission.READ_PHONE_STATE",
        "android.permission.RECEIVE_SMS",
        "android.permission.SEND_SMS",
        "android.permission.WRITE_EXTERNAL_STORAGE",
        "archos.permission.FULLSCREEN.FULL"
      ]
    }
  ],
  "meta": {
    "generated": "2020-08-27T15:14:51.033537",
    "generatedBy": [
      "/home/hc/code/trackingthetrackers/scripts/make-trackers-apk-set.py"
    ],
    "ver": "0.3.0"
  }
}