{
  "apks": [
    {
      "applicationId": "com.mydream.wifi",
      "broadcastReceiverIntentFilterActionNames": [
        "android.intent.action.ACTION_POWER_CONNECTED",
        "android.intent.action.ACTION_POWER_DISCONNECTED",
        "android.intent.action.BOOT_COMPLETED",
        "android.intent.action.PACKAGE_ADDED",
        "android.intent.action.PACKAGE_REMOVED",
        "android.intent.action.USER_PRESENT",
        "android.net.conn.CONNECTIVITY_CHANGE",
        "com.huawei.android.push.PLUGIN",
        "com.huawei.android.push.intent.CLICK",
        "com.huawei.android.push.intent.RECEIVE",
        "com.huawei.android.push.intent.REFRESH_PUSH_CHANNEL",
        "com.huawei.android.push.intent.REGISTER",
        "com.huawei.android.push.intent.REGISTRATION",
        "com.huawei.android.push.plugin.RESPONSE",
        "com.huawei.intent.action.PUSH",
        "com.huawei.intent.action.PUSH_ON",
        "com.huawei.intent.action.PUSH_STATE",
        "com.mydream.wifi.action.notification.delete",
        "com.mydream.wifi.intent.action.COMMAND",
        "com.wifibanlv.action.guard_push",
        "com.wifibanlv.action.local_push",
        "com.xiaomi.mipush.ERROR",
        "com.xiaomi.mipush.MESSAGE_ARRIVED",
        "com.xiaomi.mipush.RECEIVE_MESSAGE",
        "com.xiaomi.push.PING_TIMER",
        "io.rong.push.intent.MESSAGE_ARRIVED",
        "io.rong.push.intent.MESSAGE_CLICKED",
        "io.rong.push.intent.MI_MESSAGE_ARRIVED",
        "io.rong.push.intent.MI_MESSAGE_CLICKED",
        "io.rong.push.intent.action.HEART_BEAT",
        "org.agoo.android.intent.action.ELECTION_RESULT_V4",
        "org.agoo.android.intent.action.RECEIVE"
      ],
      "dependencies": [],
      "domainNamesFilteredByExodus": [
        "map.baidu.com"
      ],
      "metaDataNames": [
        "BaiduMobAd_APP_ID",
        "CS_cloud_version",
        "QBSDKAppKey",
        "RONG_CLOUD_APP_KEY",
        "UMENG_APPKEY",
        "UMENG_CHANNEL",
        "UMENG_MESSAGE_SECRET",
        "channel_id",
        "com.baidu.lbsapi.API_KEY"
      ],
      "sha256": "5c553ef8db9faf0ff9e83e3d09c3facabea82ceab4eafd55e6ef086e69f8ca7e",
      "usesPermissions": [
        "android.permission.ACCESS_COARSE_LOCATION",
        "android.permission.ACCESS_FIND_LOCATION",
        "android.permission.ACCESS_FINE_LOCATION",
        "android.permission.ACCESS_FINE_LOCATION",
        "android.permission.ACCESS_NETWORK_STATE",
        "android.permission.ACCESS_WIFI_STATE",
        "android.permission.BROADCAST_PACKAGE_ADDED",
        "android.permission.BROADCAST_PACKAGE_CHANGED",
        "android.permission.BROADCAST_PACKAGE_INSTALL",
        "android.permission.BROADCAST_PACKAGE_REPLACED",
        "android.permission.CALL_PHONE",
        "android.permission.CHANGE_NETWORK_STATE",
        "android.permission.CHANGE_WIFI_STATE",
        "android.permission.GET_ACCOUNTS",
        "android.permission.GET_TASKS",
        "android.permission.INTERNET",
        "android.permission.MOUNT_UNMOUNT_FILESYSTEMS",
        "android.permission.READ_LOGS",
        "android.permission.READ_PHONE_STATE",
        "android.permission.READ_SMS",
        "android.permission.RECEIVE_BOOT_COMPLETED",
        "android.permission.RECEIVE_SMS",
        "android.permission.RECORD_AUDIO",
        "android.permission.RESTART_PACKAGES",
        "android.permission.SEND_SMS",
        "android.permission.VIBRATE",
        "android.permission.WAKE_LOCK",
        "android.permission.WRITE_EXTERNAL_STORAGE",
        "android.permission.WRITE_SETTINGS",
        "com.android.launcher.permission.INSTALL_SHORTCUT",
        "com.android.launcher.permission.READ_SETTINGS",
        "com.android.launcher.permission.READ_SETTINGS",
        "com.android.launcher.permission.UNINSTALL_SHORTCUT",
        "com.android.launcher.permission.UNINSTALL_SHORTCUT",
        "com.android.launcher.permission.WRITE_SETTINGS",
        "com.android.launcher3.permission.READ_SETTINGS",
        "com.android.launcher3.permission.WRITE_SETTINGS",
        "com.android.mylauncher.permission.READ_SETTINGS",
        "com.android.mylauncher.permission.WRITE_SETTINGS",
        "com.fede.launcher.permission.READ_SETTINGS",
        "com.fede.launcher.permission.WRITE_SETTINGS",
        "com.gau.go.launcherex.permission.READ_SETTINGS",
        "com.gau.go.launcherex.permission.WRITE_SETTINGS",
        "com.htc.launcher.permission.READ_SETTINGS",
        "com.htc.launcher.permission.WRITE_SETTINGS",
        "com.huawei.android.launcher.permission.READ_SETTINGS",
        "com.huawei.android.launcher.permission.READ_SETTINGS",
        "com.huawei.android.launcher.permission.WRITE_SETTINGS",
        "com.huawei.android.launcher.permission.WRITE_SETTINGS",
        "com.huawei.launcher.permission.READ_SETTINGS",
        "com.huawei.launcher.permission.WRITE_SETTINGS",
        "com.mx.launcher.permission.READ_SETTINGS",
        "com.mx.launcher.permission.WRITE_SETTINGS",
        "com.mydream.wifi.permission.MIPUSH_RECEIVE",
        "com.nd.android.launcher.permission.READ_SETTINGS",
        "com.nd.android.launcher.permission.WRITE_SETTINGS",
        "com.oppo.launcher.permission.READ_SETTINGS",
        "com.oppo.launcher.permission.WRITE_SETTINGS",
        "com.sec.android.app.twlauncher.READ_SETTINGS",
        "com.sec.android.app.twlauncher.WRITE_SETTINGS",
        "org.adw.launcher.permission.READ_SETTINGS",
        "org.adw.launcher.permission.WRITE_SETTINGS",
        "org.adwfreak.launcher.permission.READ_SETTINGS",
        "org.adwfreak.launcher.permission.WRITE_SETTINGS"
      ]
    }
  ],
  "meta": {
    "generated": "2020-08-27T15:50:45.408936",
    "generatedBy": [
      "/home/hc/code/trackingthetrackers/scripts/make-trackers-apk-set.py"
    ],
    "ver": "0.3.0"
  }
}