{
  "apks": [
    {
      "applicationId": "com.simplemobiletools.calendar",
      "broadcastReceiverIntentFilterActionNames": [
        "android.appwidget.action.APPWIDGET_UPDATE",
        "android.intent.action.BOOT_COMPLETED",
        "android.intent.action.QUICKBOOT_POWERON"
      ],
      "dependencies": [],
      "domainNamesFilteredByExodus": [
        ".facebook.com",
        ".google.com"
      ],
      "metaDataNames": [
        "android.appwidget.provider"
      ],
      "sha256": "842ec4ed55a9c22cb86f85ef7c1e6f9087cecd92cc4f5b04fe1b375277df12ab",
      "usesPermissions": [
        "android.permission.RECEIVE_BOOT_COMPLETED"
      ]
    }
  ],
  "meta": {
    "generated": "2020-08-27T17:47:46.838404",
    "generatedBy": [
      "/home/hc/code/trackingthetrackers/scripts/make-clean-apk-set.py"
    ],
    "generatedByCommitId": "40519285d6f404593fa655fa89b433743c25289e",
    "sourceDataCommitId": "888bb8f8c77ff55105fcab2ad84c263561eb1169",
    "ver": "0.3.0"
  }
}