{
  "apks": [
    {
      "applicationId": "com.hyperionics.fbreader.plugin.tts_plus",
      "broadcastReceiverIntentFilterActionNames": [
        "android.bluetooth.device.action.ACL_DISCONNECTED",
        "android.fbreader.action.plugin.REGISTER",
        "android.intent.action.MEDIA_BUTTON",
        "com.hyperionics.fbreader.plugin.tts_plus.SVC_STARTED",
        "com.hyperionics.fbreader.plugin.tts_plus.TTSP_KILL"
      ],
      "dependencies": [],
      "domainNamesFilteredByExodus": [
        ".google.com"
      ],
      "metaDataNames": [],
      "sha256": "1cb4e1235324bff0afad34235f834aede1f8aa27fb66673c2031d5b9c2f78f83",
      "usesPermissions": [
        "android.permission.BLUETOOTH",
        "android.permission.WAKE_LOCK",
        "android.permission.WRITE_EXTERNAL_STORAGE"
      ]
    }
  ],
  "meta": {
    "generated": "2020-08-27T17:32:40.060300",
    "generatedBy": [
      "/home/hc/code/trackingthetrackers/scripts/make-clean-apk-set.py"
    ],
    "generatedByCommitId": "40519285d6f404593fa655fa89b433743c25289e",
    "sourceDataCommitId": "888bb8f8c77ff55105fcab2ad84c263561eb1169",
    "ver": "0.3.0"
  }
}