{
  "apks": [
    {
      "applicationId": "com.benny.openlauncher",
      "broadcastReceiverIntentFilterActionNames": [
        "android.app.action.DEVICE_ADMIN_ENABLED",
        "com.android.launcher.action.INSTALL_SHORTCUT"
      ],
      "dependencies": [],
      "domainNamesFilteredByExodus": [
        ".google.com"
      ],
      "metaDataNames": [
        "android.app.device_admin",
        "android.max_aspect",
        "android.support.FILE_PROVIDER_PATHS",
        "android.support.PARENT_ACTIVITY"
      ],
      "sha256": "b3320463a7a1ed46c52464bae83a97317d062b1e2097bd1885cdf265f2089f89",
      "usesPermissions": [
        "android.permission.EXPAND_STATUS_BAR",
        "android.permission.READ_EXTERNAL_STORAGE",
        "android.permission.REQUEST_DELETE_PACKAGES",
        "android.permission.SET_WALLPAPER",
        "android.permission.VIBRATE",
        "android.permission.WRITE_EXTERNAL_STORAGE",
        "android.permission.WRITE_SETTINGS"
      ]
    }
  ],
  "meta": {
    "generated": "2020-08-27T16:53:06.607276",
    "generatedBy": [
      "/home/hc/code/trackingthetrackers/scripts/make-clean-apk-set.py"
    ],
    "generatedByCommitId": "40519285d6f404593fa655fa89b433743c25289e",
    "sourceDataCommitId": "888bb8f8c77ff55105fcab2ad84c263561eb1169",
    "ver": "0.3.0"
  }
}