{
  "apks": [
    {
      "applicationId": "org.dmfs.tasks",
      "broadcastReceiverIntentFilterActionNames": [
        "android.appwidget.action.APPWIDGET_UPDATE",
        "android.intent.action.BOOT_COMPLETED",
        "android.intent.action.DATE_CHANGED",
        "android.intent.action.MY_PACKAGE_REPLACED",
        "android.intent.action.PROVIDER_CHANGED",
        "android.intent.action.QUICKBOOT_POWERON",
        "android.intent.action.TIMEZONE_CHANGED",
        "android.intent.action.TIME_SET",
        "org.dmfs.android.tasks.TASK_DUE",
        "org.dmfs.android.tasks.TASK_START",
        "org.dmfs.tasks.DATABASE_INITIALIZED",
        "org.dmfs.tasks.action.STALE_LIST_BROADCAST",
        "org.dmfs.tasks.action.TASKWIDGET_UPDATE",
        "org.dmfs.tasks.action.notification.ACTION_UNDO_TIMEOUT",
        "org.dmfs.tasks.action.notification.DESTRUCT",
        "org.dmfs.tasks.action.notification.UNDO",
        "org.dmfs.tasks.intent.ACTION_DAY_CHANGED"
      ],
      "dependencies": [],
      "domainNamesFilteredByExodus": [
        ".google.com"
      ],
      "metaDataNames": [
        "android.appwidget.provider",
        "android.support.PARENT_ACTIVITY",
        "description",
        "protocolVersion",
        "settingsActivity",
        "worldReadable"
      ],
      "sha256": "20c0374cf44f45c528dd46023dfeb47cdcc36b4ef935e414c1b8f0a083f325a9",
      "usesPermissions": [
        "25",
        "android.permission.GET_ACCOUNTS",
        "android.permission.READ_CONTACTS",
        "android.permission.READ_SYNC_SETTINGS",
        "android.permission.RECEIVE_BOOT_COMPLETED",
        "android.permission.VIBRATE",
        "android.permission.WAKE_LOCK",
        "com.android.alarm.permission.SET_ALARM",
        "org.dmfs.permission.READ_TASKS",
        "org.dmfs.permission.WRITE_TASKS"
      ]
    }
  ],
  "meta": {
    "generated": "2020-08-27T17:05:09.608731",
    "generatedBy": [
      "/home/hc/code/trackingthetrackers/scripts/make-clean-apk-set.py"
    ],
    "generatedByCommitId": "40519285d6f404593fa655fa89b433743c25289e",
    "sourceDataCommitId": "888bb8f8c77ff55105fcab2ad84c263561eb1169",
    "ver": "0.3.0"
  }
}