{
  "apks": [
    {
      "applicationId": "com.baidu.searchbox_huawei",
      "broadcastReceiverIntentFilterActionNames": [
        "android.appwidget.action.APPWIDGET_UPDATE",
        "android.intent.action.BOOT_COMPLETED",
        "android.intent.action.DATE_CHANGED",
        "android.intent.action.PACKAGE_REMOVED",
        "android.intent.action.TIMEZONE_CHANGED",
        "android.intent.action.TIME_SET",
        "android.net.conn.CONNECTIVITY_CHANGE",
        "baidu.intent.action.SHARE",
        "com.baidu.android.pushservice.action.BIND_SYNC",
        "com.baidu.android.pushservice.action.MESSAGE",
        "com.baidu.android.pushservice.action.METHOD",
        "com.baidu.android.pushservice.action.RECEIVE",
        "com.baidu.searchbox.action.AFTER_TICK",
        "com.baidu.searchbox.action.ALARM_CLOCK",
        "com.baidu.searchbox.action.CALENDAR",
        "com.baidu.searchbox.action.CANCEL_ALARM",
        "com.baidu.searchbox.action.CLOCK_UPDATE",
        "com.baidu.searchbox.action.CUE_RESUME",
        "com.baidu.searchbox.action.CUE_SUSPEND",
        "com.baidu.searchbox.action.FROM_WIDGET_PROVIDER",
        "com.baidu.searchbox.action.GLOBAL_SEARCH",
        "com.baidu.searchbox.action.PCMESSAGE_WAKEUP",
        "com.baidu.searchbox.action.SERVICE_MSG",
        "com.baidu.searchbox.action.START_ALARM",
        "com.baidu.searchbox.action.STATISTIC",
        "com.baidu.searchbox.action.SWITCH_BACKGROUND",
        "com.baidu.searchbox.action.TIME_TICK",
        "com.baidu.searchbox.action.WIDGET_ALARM",
        "com.baidu.searchbox.action.WIDGET_REFRESH",
        "com.baidu.searchbox.action.WIDGET_SEARCH",
        "com.baidu.searchbox.action.common.NOTIFICATION.EXPIRE",
        "com.baidu.searchbox.action.common.PUSH_NOTIFICATION_DELETE",
        "com.baidu.searchbox.intent.action.BOX_APP_SEARCH",
        "com.baidu.searchbox.intent.action.BOX_CATAGORY_SEARCH",
        "com.baidu.searchbox.intent.action.BOX_INPUT_SEARCH",
        "com.baidu.searchbox.intent.action.BOX_VOICE_SEARCH",
        "com.baidu.searchbox.intent.action.DOWNLOAD_NOTIFICATION_CLICKED",
        "com.baidu.searchbox.pcmessage.sms.transaction.MESSAGE_SENT"
      ],
      "dependencies": [
        "com.baidu.location",
        "com.baidu.mobstat"
      ],
      "domainNamesFilteredByExodus": [
        "map.baidu.com"
      ],
      "metaDataNames": [
        "BaiduMobAd_CELL_LOCATION",
        "BaiduMobAd_EXCEPTION_LOG",
        "BaiduMobAd_GPS_LOCATION",
        "BaiduMobAd_ONLY_WIFI",
        "BaiduMobAd_SEND_STRATEGY",
        "BaiduMobAd_STAT_ID",
        "BaiduMobAd_WIFI_LOCATION",
        "DisableApplist",
        "DisableLocalServer",
        "DisableService",
        "DisableStatistic",
        "EnablePrivate",
        "IsBaiduApp",
        "LocServiceName",
        "android.app.searchable",
        "android.appwidget.provider",
        "com.android.launcher.toolbar_icon",
        "com.baidu.searchbox.launcherSearchBox",
        "versionName"
      ],
      "sha256": "2ce027b19ea4173eb8bd9044d88796a1b806c1a4e28c814011ad0800323c83e3",
      "usesPermissions": [
        "android.permission.ACCESS_COARSE_LOCATION",
        "android.permission.ACCESS_FINE_LOCATION",
        "android.permission.ACCESS_NETWORK_STATE",
        "android.permission.ACCESS_NETWORK_STATE",
        "android.permission.ACCESS_NETWORK_STATE",
        "android.permission.ACCESS_WIFI_STATE",
        "android.permission.ACCESS_WIFI_STATE",
        "android.permission.BAIDU_LOCATION_SERVICE",
        "android.permission.BROADCAST_STICKY",
        "android.permission.CALL_PHONE",
        "android.permission.CAMERA",
        "android.permission.CHANGE_WIFI_STATE",
        "android.permission.DELETE_PACKAGES",
        "android.permission.GET_ACCOUNTS",
        "android.permission.GET_TASKS",
        "android.permission.GLOBAL_SEARCH",
        "android.permission.INSTALL_PACKAGES",
        "android.permission.INTERNET",
        "android.permission.INTERNET",
        "android.permission.INTERNET",
        "android.permission.MANAGE_ACCOUNTS",
        "android.permission.MOUNT_UNMOUNT_FILESYSTEMS",
        "android.permission.READ_CALL_LOG",
        "android.permission.READ_CONTACTS",
        "android.permission.READ_LOGS",
        "android.permission.READ_PHONE_STATE",
        "android.permission.READ_PHONE_STATE",
        "android.permission.READ_PHONE_STATE",
        "android.permission.READ_SMS",
        "android.permission.RECEIVE_SMS",
        "android.permission.RECORD_AUDIO",
        "android.permission.USE_CREDENTIALS",
        "android.permission.VIBRATE",
        "android.permission.WAKE_LOCK",
        "android.permission.WRITE_EXTERNAL_STORAGE",
        "android.permission.WRITE_EXTERNAL_STORAGE",
        "android.permission.WRITE_SETTINGS",
        "android.permission.WRITE_SETTINGS",
        "android.permission.WRITE_SETTINGS",
        "com.android.browser.permission.READ_HISTORY_BOOKMARKS",
        "com.android.launcher.permission.INSTALL_SHORTCUT",
        "com.android.launcher.permission.READ_SETTINGS",
        "com.android.launcher.permission.UNINSTALL_SHORTCUT",
        "com.baidu.permission.SHARE"
      ]
    }
  ],
  "meta": {
    "generated": "2020-08-27T14:54:43.653619",
    "generatedBy": [
      "/home/hc/code/trackingthetrackers/scripts/make-trackers-apk-set.py"
    ],
    "ver": "0.3.0"
  }
}