{
  "apks": [
    {
      "applicationId": "nl.mpcjanssen.simpletask",
      "broadcastReceiverIntentFilterActionNames": [
        "android.appwidget.action.APPWIDGET_UPDATE",
        "nl.mpcjanssen.simpletask.ADD_TASK_FROM_WIDGET",
        "nl.mpcjanssen.simpletask.ALARM_NEW_DAY"
      ],
      "dependencies": [],
      "domainNamesFilteredByExodus": [
        ".google.com"
      ],
      "metaDataNames": [
        "android.app.searchable",
        "android.appwidget.provider",
        "android.support.PARENT_ACTIVITY",
        "com.sec.android.multiwindow.DEFAULT_SIZE_H",
        "com.sec.android.multiwindow.DEFAULT_SIZE_W",
        "com.sec.android.multiwindow.MINIMUM_SIZE_H",
        "com.sec.android.multiwindow.MINIMUM_SIZE_W",
        "com.sec.android.support.multiwindow"
      ],
      "sha256": "d20ab89e5134827613311bd35b37766de6db428e3a6ab33be8839d7e585f1dc2",
      "usesPermissions": [
        "android.permission.READ_CALENDAR",
        "android.permission.WRITE_CALENDAR",
        "android.permission.WRITE_EXTERNAL_STORAGE",
        "com.android.launcher.permission.INSTALL_SHORTCUT"
      ]
    }
  ],
  "meta": {
    "generated": "2020-08-27T18:20:06.020900",
    "generatedBy": [
      "/home/hc/code/trackingthetrackers/scripts/make-clean-apk-set.py"
    ],
    "generatedByCommitId": "3839559c80042252d3b947fb61c86a18e8b31114",
    "sourceDataCommitId": "888bb8f8c77ff55105fcab2ad84c263561eb1169",
    "ver": "0.3.0"
  }
}