{
  "apks": [
    {
      "applicationId": "de.syss.MifareClassicTool",
      "broadcastReceiverIntentFilterActionNames": [],
      "dependencies": [],
      "domainNamesFilteredByExodus": [
        ".google.com"
      ],
      "metaDataNames": [
        "android.nfc.action.TECH_DISCOVERED"
      ],
      "sha256": "cc1e56240d3554340644e2d4f37a1aa692e04d8e7f60ae9a67452f8f5a6ac030",
      "usesPermissions": [
        "android.permission.NFC",
        "android.permission.WRITE_EXTERNAL_STORAGE"
      ]
    }
  ],
  "meta": {
    "generated": "2020-08-27T18:04:07.501055",
    "generatedBy": [
      "/home/hc/code/trackingthetrackers/scripts/make-clean-apk-set.py"
    ],
    "generatedByCommitId": "3839559c80042252d3b947fb61c86a18e8b31114",
    "sourceDataCommitId": "888bb8f8c77ff55105fcab2ad84c263561eb1169",
    "ver": "0.3.0"
  }
}