{
  "apks": [
    {
      "applicationId": "com.chanapps.four.activity",
      "broadcastReceiverIntentFilterActionNames": [
        "android.appwidget.action.APPWIDGET_DELETED",
        "android.appwidget.action.APPWIDGET_DISABLED",
        "android.appwidget.action.APPWIDGET_ENABLED",
        "android.appwidget.action.APPWIDGET_UPDATE",
        "android.intent.action.BOOT_COMPLETED",
        "com.chanapps.four.component.GlobalAlarmReceiver.update"
      ],
      "dependencies": [],
      "domainNamesFilteredByExodus": [
        ".google.com"
      ],
      "metaDataNames": [
        "android.app.default_searchable",
        "android.app.searchable",
        "android.appwidget.provider",
        "android.support.PARENT_ACTIVITY",
        "android.wallpaper.preview"
      ],
      "sha256": "6a10c9f8848f2baf2f2c853429c039bab65aff8dad5a95cf88fac46fc943aedb",
      "usesPermissions": [
        "android.permission.ACCESS_NETWORK_STATE",
        "android.permission.GET_TASKS",
        "android.permission.INTERNET",
        "android.permission.READ_EXTERNAL_STORAGE",
        "android.permission.RECEIVE_BOOT_COMPLETED",
        "android.permission.SET_WALLPAPER",
        "android.permission.WRITE_EXTERNAL_STORAGE"
      ]
    }
  ],
  "meta": {
    "generated": "2020-08-27T16:53:14.784207",
    "generatedBy": [
      "/home/hc/code/trackingthetrackers/scripts/make-clean-apk-set.py"
    ],
    "generatedByCommitId": "40519285d6f404593fa655fa89b433743c25289e",
    "sourceDataCommitId": "888bb8f8c77ff55105fcab2ad84c263561eb1169",
    "ver": "0.3.0"
  }
}