{
  "apks": [
    {
      "applicationId": "com.earn.money.or.death2015",
      "broadcastReceiverIntentFilterActionNames": [
        "android.intent.action.ACTION_EXTERNAL_APPLICATIONS_AVAILABLE",
        "android.intent.action.BOOT_COMPLETED",
        "android.intent.action.PACKAGE_REMOVED",
        "android.intent.action.USER_PRESENT",
        "com.android.vending.INSTALL_REFERRER",
        "com.google.android.c2dm.intent.RECEIVE",
        "com.google.android.c2dm.intent.REGISTRATION",
        "com.parse.push.intent.DELETE",
        "com.parse.push.intent.OPEN",
        "com.parse.push.intent.RECEIVE"
      ],
      "dependencies": [
        "com$startapp$android$publish",
        "com$tapjoy$",
        "com.google.ads.",
        "com.google.android.gms.ads.",
        "com.google.android.gms.analytics.",
        "com.google.android.gms.tagmanager",
        "com.google.tagmanager",
        "com.ironsource.",
        "com.startapp.android.publish",
        "com.tapjoy."
      ],
      "domainNamesFilteredByExodus": [
        ".google.com",
        "doubleclick.net",
        "google-analytics.com",
        "tapjoy.com",
        "tapjoyads.com",
        "www.googletagmanager.com"
      ],
      "metaDataNames": [
        "com.google.android.gms.version",
        "com.parse.push.notification_icon"
      ],
      "sha256": "dad2f2d98d5cc74e48b8ab506612a1b12483797504d5560ba880e7bf2cbf7069",
      "usesPermissions": [
        "android.permission.ACCESS_COARSE_LOCATION",
        "android.permission.ACCESS_FINE_LOCATION",
        "android.permission.ACCESS_NETWORK_STATE",
        "android.permission.ACCESS_WIFI_STATE",
        "android.permission.DISABLE_KEYGUARD",
        "android.permission.GET_ACCOUNTS",
        "android.permission.GET_ACCOUNTS",
        "android.permission.GET_TASKS",
        "android.permission.INTERNET",
        "android.permission.READ_EXTERNAL_STORAGE",
        "android.permission.READ_PHONE_STATE",
        "android.permission.RECEIVE_BOOT_COMPLETED",
        "android.permission.SYSTEM_ALERT_WINDOW",
        "android.permission.VIBRATE",
        "android.permission.WAKE_LOCK",
        "android.permission.WRITE_EXTERNAL_STORAGE",
        "android.permission.WRITE_SETTINGS",
        "com.android.browser.permission.READ_HISTORY_BOOKMARKS",
        "com.earn.money.or.death2015.permission.C2D_MESSAGE",
        "com.google.android.c2dm.permission.RECEIVE",
        "com.google.android.c2dm.permission.RECEIVE"
      ]
    }
  ],
  "meta": {
    "generated": "2020-08-27T14:52:07.818368",
    "generatedBy": [
      "/home/hc/code/trackingthetrackers/scripts/make-trackers-apk-set.py"
    ],
    "ver": "0.3.0"
  }
}