{
  "apks": [
    {
      "applicationId": "foehnix.widget",
      "broadcastReceiverIntentFilterActionNames": [
        "ContactWidgetUpdate",
        "TRSH",
        "android.appwidget.action.APPWIDGET_UPDATE",
        "android.intent.action.BOOT_COMPLETED"
      ],
      "dependencies": [],
      "domainNamesFilteredByExodus": [],
      "metaDataNames": [
        "android.appwidget.provider"
      ],
      "sha256": "4e8e1cc47e070f511217aa0cbf00269381b44f63796a2f6206e3165e58940bd2",
      "usesPermissions": [
        "android.permission.INTERNET",
        "android.permission.RECEIVE_BOOT_COMPLETED",
        "com.android.alarm.permission.SET_ALARM"
      ]
    }
  ],
  "meta": {
    "generated": "2020-08-27T17:02:57.526884",
    "generatedBy": [
      "/home/hc/code/trackingthetrackers/scripts/make-clean-apk-set.py"
    ],
    "generatedByCommitId": "40519285d6f404593fa655fa89b433743c25289e",
    "sourceDataCommitId": "888bb8f8c77ff55105fcab2ad84c263561eb1169",
    "ver": "0.3.0"
  }
}