{
  "apks": [
    {
      "applicationId": "com.serwylo.lexica",
      "broadcastReceiverIntentFilterActionNames": [],
      "dependencies": [],
      "domainNamesFilteredByExodus": [],
      "metaDataNames": [],
      "sha256": "d10603f11c32d16c34f5a411a31fdc0235d66745e3f236614167548f6d1a4d87",
      "usesPermissions": []
    }
  ],
  "meta": {
    "generated": "2020-08-27T17:00:40.766746",
    "generatedBy": [
      "/home/hc/code/trackingthetrackers/scripts/make-clean-apk-set.py"
    ],
    "generatedByCommitId": "40519285d6f404593fa655fa89b433743c25289e",
    "sourceDataCommitId": "888bb8f8c77ff55105fcab2ad84c263561eb1169",
    "ver": "0.3.0"
  }
}