{
  "apks": [
    {
      "applicationId": "eu.quelltext.mundraub",
      "broadcastReceiverIntentFilterActionNames": [],
      "dependencies": [],
      "domainNamesFilteredByExodus": [
        ".google.com"
      ],
      "metaDataNames": [
        "android.support.PARENT_ACTIVITY",
        "android.support.VERSION"
      ],
      "sha256": "1fc0dbe26cff45c54b5bd3fd0ae030f1e6c4b2551abccf9b1d6809283f4c2c8c",
      "usesPermissions": [
        "android.permission.ACCESS_FINE_LOCATION",
        "android.permission.CAMERA",
        "android.permission.INTERNET",
        "android.permission.VIBRATE",
        "android.permission.WRITE_EXTERNAL_STORAGE"
      ]
    }
  ],
  "meta": {
    "generated": "2020-08-27T14:46:09.504078",
    "generatedBy": [
      "/home/hc/code/trackingthetrackers/scripts/make-trackers-apk-set.py"
    ],
    "ver": "0.3.0"
  }
}