{
  "apks": [
    {
      "applicationId": "com.ghostsq.commander",
      "broadcastReceiverIntentFilterActionNames": [],
      "dependencies": [],
      "domainNamesFilteredByExodus": [],
      "metaDataNames": [],
      "sha256": "0f7b2bf20ff548b66e2687bb31f99bb72d76784d814d8d6ef143388c5d013295",
      "usesPermissions": [
        "android.permission.ACCESS_WIFI_STATE",
        "android.permission.INTERNET",
        "android.permission.MOUNT_UNMOUNT_FILESYSTEMS",
        "android.permission.WRITE_EXTERNAL_STORAGE",
        "android.permission.WRITE_MEDIA_STORAGE",
        "com.android.launcher.permission.INSTALL_SHORTCUT"
      ]
    }
  ],
  "meta": {
    "generated": "2020-08-27T17:23:19.507804",
    "generatedBy": [
      "/home/hc/code/trackingthetrackers/scripts/make-clean-apk-set.py"
    ],
    "generatedByCommitId": "40519285d6f404593fa655fa89b433743c25289e",
    "sourceDataCommitId": "888bb8f8c77ff55105fcab2ad84c263561eb1169",
    "ver": "0.3.0"
  }
}