{
  "apks": [
    {
      "applicationId": "com.hyy.supercar.indemix",
      "broadcastReceiverIntentFilterActionNames": [
        "android.intent.action.BOOT_COMPLETED",
        "android.intent.action.DATE_CHANGED",
        "android.intent.action.DOWNLOAD_COMPLETE",
        "android.intent.action.DOWNLOAD_NOTIFICATION_CLICKED",
        "android.intent.action.PACKAGE_ADDED",
        "android.intent.action.PACKAGE_INSTALL",
        "android.intent.action.PACKAGE_REMOVED",
        "android.intent.action.PACKAGE_REPLACED",
        "android.intent.action.USER_PRESENT",
        "android.net.conn.CONNECTIVITY_CHANGE",
        "android.net.wifi.STATE_CHANGE",
        "android.net.wifi.WIFI_STATE_CHANGED",
        "com.android.stop.action"
      ],
      "dependencies": [
        "com$google$tagmanager",
        "com.google.android.gms.analytics.",
        "com.google.tagmanager",
        "org.cocos2dx"
      ],
      "domainNamesFilteredByExodus": [
        "google-analytics.com",
        "www.googletagmanager.com"
      ],
      "metaDataNames": [
        "sf_appid_arg",
        "sf_locale_config"
      ],
      "sha256": "3907cc488837189e9475365a784432e74c3b1d3f756c5158c0ead98a748e4f81",
      "usesPermissions": [
        "android.permission.ACCESS_COARSE_LOCATION",
        "android.permission.ACCESS_FINE_LOCATION",
        "android.permission.ACCESS_NETWORK_STATE",
        "android.permission.ACCESS_WIFI_STATE",
        "android.permission.CHANGE_NETWORK_STATE",
        "android.permission.GET_ACCOUNTS",
        "android.permission.GET_TASKS",
        "android.permission.INSTALL_PACKAGES",
        "android.permission.INTERNET",
        "android.permission.MOUNT_UNMOUNT_FILESYSTEMS",
        "android.permission.READ_EXTERNAL_STORAGE",
        "android.permission.READ_PHONE_STATE",
        "android.permission.READ_SECURE_SETTINGS",
        "android.permission.READ_SMS",
        "android.permission.READ_SYNC_SETTINGS",
        "android.permission.RECEIVE_BOOT_COMPLETED",
        "android.permission.RECEIVE_SMS",
        "android.permission.SEND_SMS",
        "android.permission.SYSTEM_ALERT_WINDOW",
        "android.permission.SYSTEM_OVERLAY_WINDOW",
        "android.permission.WRITE_EXTERNAL_STORAGE",
        "android.permission.WRITE_SETTINGS",
        "android.permission.WRITE_SMS",
        "com.android.launcher.permission.INSTALL_SHORTCUT",
        "com.android.launcher.permission.READ_SETTINGS",
        "com.android.launcher.permission.UNINSTALL_SHORTCUT",
        "com.android.launcher2.permission.READ_SETTINGS",
        "com.android.launcher3.permission.READ_SETTINGS",
        "com.android.launcher4.permission.READ_SETTINGS"
      ]
    }
  ],
  "meta": {
    "generated": "2020-08-27T15:45:05.711422",
    "generatedBy": [
      "/home/hc/code/trackingthetrackers/scripts/make-trackers-apk-set.py"
    ],
    "ver": "0.3.0"
  }
}