{
  "apks": [
    {
      "applicationId": "com.ags.game3d.racing.rhinorush",
      "broadcastReceiverIntentFilterActionNames": [
        "android.intent.action.PACKAGE_ADDED"
      ],
      "dependencies": [
        "com$chartboost$sdk$",
        "com$google$ads$",
        "com$inmobi",
        "com.applovin",
        "com.chartboost.sdk.",
        "com.flurry.",
        "com.google.ads.",
        "com.google.android.gms.ads.",
        "com.google.android.gms.analytics.",
        "com.google.android.gms.tagmanager",
        "com.heyzap.sdk.ads.",
        "com.inmobi",
        "com.unity3d.ads",
        "com.vungle.publisher."
      ],
      "domainNamesFilteredByExodus": [
        ".chartboost.com",
        ".google.com",
        "ads.heyzap.com",
        "doubleclick.net",
        "flurry.com",
        "google-analytics.com",
        "med.heyzap.com",
        "stats.unity3d.com",
        "www.googletagmanager.com"
      ],
      "metaDataNames": [
        "com.google.android.gms.games.APP_ID",
        "com.google.android.gms.version",
        "unityplayer.ForwardNativeEventsToDalvik"
      ],
      "sha256": "b7c90135c37d277b462462b3575585027dbf3393004eae8f4c41756ce02e4b4f",
      "usesPermissions": [
        "android.permission.ACCESS_NETWORK_STATE",
        "android.permission.ACCESS_WIFI_STATE",
        "android.permission.INTERNET",
        "android.permission.READ_PHONE_STATE",
        "android.permission.WAKE_LOCK",
        "android.permission.WRITE_EXTERNAL_STORAGE"
      ]
    }
  ],
  "meta": {
    "generated": "2020-08-27T14:57:28.218705",
    "generatedBy": [
      "/home/hc/code/trackingthetrackers/scripts/make-trackers-apk-set.py"
    ],
    "ver": "0.3.0"
  }
}