{
  "apks": [
    {
      "applicationId": "com.quickstartandroid.socskiinggo",
      "broadcastReceiverIntentFilterActionNames": [
        "android.intent.action.BOOT_COMPLETED"
      ],
      "dependencies": [
        "com.applovin",
        "com.google.ads.",
        "com.google.android.gms.ads.",
        "com.google.android.gms.analytics.",
        "com.google.android.gms.tagmanager"
      ],
      "domainNamesFilteredByExodus": [
        ".google.com",
        "ads.aerserv.com",
        "applovin.com",
        "beta.airpush.com",
        "debug.aerserv.com",
        "doubleclick.net",
        "google-analytics.com",
        "www.googletagmanager.com"
      ],
      "metaDataNames": [
        "MINIMOB_APPHOST",
        "MINIMOB_APPID",
        "MINIMOB_APPKEY",
        "MINIMOB_OUTOFAPP",
        "applovin.sdk.key",
        "com.google.android.gms.version",
        "com.yrkfgo.assxqx4.APIKEY",
        "com.yrkfgo.assxqx4.APPID"
      ],
      "sha256": "7e01b16efdab727f2b1cdab7f0f8487869079084627eab59dbd77bb4c676a128",
      "usesPermissions": [
        "android.permission.ACCESS_COARSE_LOCATION",
        "android.permission.ACCESS_FINE_LOCATION",
        "android.permission.ACCESS_NETWORK_STATE",
        "android.permission.ACCESS_WIFI_STATE",
        "android.permission.GET_ACCOUNTS",
        "android.permission.GET_TASKS",
        "android.permission.INTERNET",
        "android.permission.READ_PHONE_STATE",
        "android.permission.RECEIVE_BOOT_COMPLETED",
        "android.permission.SYSTEM_ALERT_WINDOW",
        "android.permission.WAKE_LOCK",
        "android.permission.WRITE_EXTERNAL_STORAGE",
        "com.android.browser.permission.READ_HISTORY_BOOKMARKS",
        "com.android.launcher.permission.INSTALL_SHORTCUT"
      ]
    }
  ],
  "meta": {
    "generated": "2020-08-27T15:17:55.394184",
    "generatedBy": [
      "/home/hc/code/trackingthetrackers/scripts/make-trackers-apk-set.py"
    ],
    "ver": "0.3.0"
  }
}