{
  "apks": [
    {
      "applicationId": "ch.blinkenlights.android.vanilla",
      "broadcastReceiverIntentFilterActionNames": [
        "android.appwidget.action.APPWIDGET_UPDATE",
        "android.intent.action.MEDIA_BUTTON"
      ],
      "dependencies": [],
      "domainNamesFilteredByExodus": [],
      "metaDataNames": [
        "android.app.shortcuts",
        "android.appwidget.provider",
        "android.support.FILE_PROVIDER_PATHS",
        "com.google.android.backup.api_key",
        "com.mirrorlink.android.rockscout.allow-offline-access"
      ],
      "sha256": "fa6f2c33530921dba4b1c6321804446de02128c67078f91c2d1416b3f84cfaab",
      "usesPermissions": [
        "android.permission.FOREGROUND_SERVICE",
        "android.permission.MODIFY_AUDIO_SETTINGS",
        "android.permission.READ_EXTERNAL_STORAGE",
        "android.permission.WAKE_LOCK",
        "android.permission.WRITE_EXTERNAL_STORAGE",
        "com.android.launcher.permission.INSTALL_SHORTCUT"
      ]
    }
  ],
  "meta": {
    "generated": "2020-08-27T17:13:05.754836",
    "generatedBy": [
      "/home/hc/code/trackingthetrackers/scripts/make-clean-apk-set.py"
    ],
    "generatedByCommitId": "40519285d6f404593fa655fa89b433743c25289e",
    "sourceDataCommitId": "888bb8f8c77ff55105fcab2ad84c263561eb1169",
    "ver": "0.3.0"
  }
}