{
  "apks": [
    {
      "applicationId": "air.ECBTrumpAndroid",
      "broadcastReceiverIntentFilterActionNames": [
        "android.intent.action.BOOT_COMPLETED",
        "android.intent.action.DATE_CHANGED",
        "android.intent.action.MY_PACKAGE_REPLACED",
        "com.android.vending.INSTALL_REFERRER",
        "com.google.android.c2dm.intent.RECEIVE",
        "com.google.android.c2dm.intent.REGISTRATION",
        "io.presage.receivers.BootReceiver.RESTART_SERVICE"
      ],
      "dependencies": [
        "com$aerserv$sdk$",
        "com$chartboost$sdk$",
        "com$mopub$mobileads$",
        "com$nativex",
        "com$startapp$android$publish",
        "com$yume$android",
        "com.chartboost.sdk.",
        "com.google.ads.",
        "com.google.android.gms.ads.",
        "com.google.android.gms.analytics.",
        "com.revmob.ads.",
        "com.revmob.adsc",
        "com.vungle.publisher.",
        "com.yume.android",
        "com_facebook_login",
        "io.presage."
      ],
      "domainNamesFilteredByExodus": [
        ".facebook.com",
        ".google.com",
        "adcolony.com",
        "ads.aerserv.com",
        "androidads21.adcolony.com",
        "applovin.com",
        "doubleclick.net",
        "google-analytics.com",
        "i.w.inmobi.com",
        "inmobi.com",
        "inmobisdk-a.akamaihd.net",
        "mopub.com",
        "presage.io",
        "sdkm.w.inmobi.com"
      ],
      "metaDataNames": [
        "air.ECBTrumpAndroid",
        "aspectRatio",
        "autoOrients",
        "com.google.android.gms.version",
        "containsVideo",
        "fullScreen",
        "initialcontent",
        "namespaceVersion",
        "presage_key",
        "uniqueappversionid"
      ],
      "sha256": "8b52af6f986217a915a78fb80653dcc39fb60d4ebe95af6644249d1b7b4482c7",
      "usesPermissions": [
        "air.ECBTrumpAndroid.permission.C2D_MESSAGE",
        "android.permission.ACCESS_COARSE_LOCATION",
        "android.permission.ACCESS_NETWORK_STATE",
        "android.permission.ACCESS_WIFI_STATE",
        "android.permission.GET_ACCOUNTS",
        "android.permission.GET_TASKS",
        "android.permission.INTERNET",
        "android.permission.READ_PHONE_STATE",
        "android.permission.RECEIVE_BOOT_COMPLETED",
        "android.permission.SYSTEM_ALERT_WINDOW",
        "android.permission.VIBRATE",
        "android.permission.WAKE_LOCK",
        "android.permission.WRITE_EXTERNAL_STORAGE",
        "com.android.browser.permission.READ_HISTORY_BOOKMARKS",
        "com.android.browser.permission.WRITE_HISTORY_BOOKMARKS",
        "com.android.launcher.permission.INSTALL_SHORTCUT",
        "com.android.launcher.permission.UNINSTALL_SHORTCUT",
        "com.android.vending.BILLING",
        "com.google.android.c2dm.permission.RECEIVE"
      ]
    }
  ],
  "meta": {
    "generated": "2020-08-27T15:45:49.593545",
    "generatedBy": [
      "/home/hc/code/trackingthetrackers/scripts/make-trackers-apk-set.py"
    ],
    "ver": "0.3.0"
  }
}