{
  "apks": [
    {
      "applicationId": "com.morrison.gallerylock",
      "broadcastReceiverIntentFilterActionNames": [
        "android.app.action.DEVICE_ADMIN_ENABLED",
        "android.intent.action.BOOT_COMPLETED",
        "android.intent.action.NEW_OUTGOING_CALL",
        "android.intent.action.PACKAGE_ADDED",
        "android.intent.action.PACKAGE_RESTARTED",
        "android.intent.action.PHONE_STATE"
      ],
      "dependencies": [
        "com.fsn.cauly",
        "com.google.ads.",
        "com.inmobi",
        "com.jm.co.shallwead.sdk.",
        "com.localytics.android.",
        "com.mediba.jp",
        "com.millennialmedia.",
        "com.mobclix.android.sdk",
        "com.mobfox.",
        "com.skplanet.tad",
        "com.smaato.soma.",
        "com.trid.tridad",
        "mediba.ad.sdk.android.openx",
        "net.nend.android"
      ],
      "domainNamesFilteredByExodus": [
        ".google.com",
        "adotsolution.com",
        "ads.mobclix.com",
        "analytics.localytics.com",
        "data.mobclix.com",
        "doubleclick.net",
        "i.w.inmobi.com",
        "inmobi.com",
        "millennialmedia.com",
        "mobclix.com",
        "openx.com",
        "smaato.net",
        "soma.smaato.net",
        "w.inmobi.com"
      ],
      "metaDataNames": [
        "ShallWeAd_AppKey",
        "ZestADZ_Adclient_ID",
        "android.app.device_admin",
        "com.mobclix.APPLICATION_ID"
      ],
      "sha256": "a8569ad5b903e3becaba16e35e3e6b594fa2b06f18faf34ca4edb4ec7c93c951",
      "usesPermissions": [
        "android.permission.ACCESS_NETWORK_STATE",
        "android.permission.ACCESS_WIFI_STATE",
        "android.permission.CAMERA",
        "android.permission.GET_ACCOUNTS",
        "android.permission.GET_TASKS",
        "android.permission.INTERNET",
        "android.permission.PROCESS_OUTGOING_CALLS",
        "android.permission.READ_PHONE_STATE",
        "android.permission.RECEIVE_BOOT_COMPLETED",
        "android.permission.RESTART_PACKAGES",
        "android.permission.SYSTEM_ALERT_WINDOW",
        "android.permission.VIBRATE",
        "android.permission.WAKE_LOCK",
        "android.permission.WRITE_EXTERNAL_STORAGE",
        "com.android.vending.BILLING",
        "com.android.vending.CHECK_LICENSE"
      ]
    }
  ],
  "meta": {
    "generated": "2020-08-27T15:44:19.502694",
    "generatedBy": [
      "/home/hc/code/trackingthetrackers/scripts/make-trackers-apk-set.py"
    ],
    "ver": "0.3.0"
  }
}