{
  "apks": [
    {
      "applicationId": "com.github.dfa.diaspora_android",
      "broadcastReceiverIntentFilterActionNames": [],
      "dependencies": [],
      "domainNamesFilteredByExodus": [
        ".facebook.com",
        ".google.com",
        "2mdn.net",
        "ad.crwdcntrl.net",
        "ad4game.com",
        "adform.com",
        "adnxs.com",
        "ads.glispa.com",
        "adsafeprotected.com",
        "adsrvr.org",
        "adtech.de",
        "adzerk.net",
        "aktrack.pubmatic.com",
        "auditude.com",
        "cedexis.com",
        "conversantmedia.com",
        "criteo.com",
        "demdex.net",
        "doubleclick.com",
        "doubleclick.net",
        "flurry.com",
        "gemius.pl",
        "google-analytics.com",
        "iasds01.com",
        "ligatus.com",
        "media.net",
        "mixpanel.com",
        "mobclix.com",
        "mopub.com",
        "nexage.com",
        "omniture.com",
        "openx.com",
        "outbrain.com",
        "quantcast.com",
        "radar.cedexis.com",
        "scorecardresearch.com",
        "serving-sys.com",
        "smartadserver.com",
        "taboola.com",
        "teads.tv",
        "track.adform.net",
        "weborama.fr",
        "webtrends.com",
        "widespace.com"
      ],
      "metaDataNames": [
        "android.arch.lifecycle.VERSION"
      ],
      "sha256": "32462aa78b7342edfac371e2bd4e0f80114474d501313d159d7dd3819336998f",
      "usesPermissions": [
        "android.permission.ACCESS_NETWORK_STATE",
        "android.permission.INTERNET",
        "android.permission.WRITE_EXTERNAL_STORAGE"
      ]
    }
  ],
  "meta": {
    "generated": "2020-08-27T17:30:34.610561",
    "generatedBy": [
      "/home/hc/code/trackingthetrackers/scripts/make-clean-apk-set.py"
    ],
    "generatedByCommitId": "40519285d6f404593fa655fa89b433743c25289e",
    "sourceDataCommitId": "888bb8f8c77ff55105fcab2ad84c263561eb1169",
    "ver": "0.3.0"
  }
}