{
  "apks": [
    {
      "applicationId": "com.simplemobiletools.clock",
      "broadcastReceiverIntentFilterActionNames": [
        "android.app.action.NEXT_ALARM_CLOCK_CHANGED",
        "android.appwidget.action.APPWIDGET_ENABLED",
        "android.appwidget.action.APPWIDGET_UPDATE",
        "android.intent.action.BOOT_COMPLETED",
        "android.intent.action.QUICKBOOT_POWERON",
        "android.intent.action.TIMEZONE_CHANGED",
        "android.intent.action.TIME_SET",
        "com.htc.intent.action.QUICKBOOT_POWERON",
        "com.simplemobiletools.commons.SHARED_THEME_ACTIVATED",
        "com.simplemobiletools.commons.SHARED_THEME_UPDATED"
      ],
      "dependencies": [],
      "domainNamesFilteredByExodus": [
        ".facebook.com",
        ".google.com"
      ],
      "metaDataNames": [
        "android.appwidget.provider"
      ],
      "sha256": "9ed30e813329a1c6c8de97d408d4a384654213e9b6a690d640006ead02bf45a3",
      "usesPermissions": [
        "android.permission.READ_EXTERNAL_STORAGE",
        "android.permission.RECEIVE_BOOT_COMPLETED",
        "android.permission.VIBRATE",
        "com.android.alarm.permission.SET_ALARM"
      ]
    }
  ],
  "meta": {
    "generated": "2020-08-27T17:48:00.531710",
    "generatedBy": [
      "/home/hc/code/trackingthetrackers/scripts/make-clean-apk-set.py"
    ],
    "generatedByCommitId": "40519285d6f404593fa655fa89b433743c25289e",
    "sourceDataCommitId": "888bb8f8c77ff55105fcab2ad84c263561eb1169",
    "ver": "0.3.0"
  }
}