{
  "apks": [
    {
      "applicationId": "atm.rocketguardian",
      "broadcastReceiverIntentFilterActionNames": [],
      "dependencies": [],
      "domainNamesFilteredByExodus": [],
      "metaDataNames": [],
      "sha256": "12d9eefca28a181a44cc6a760c12d838415e6fc8d0fd79c8325cdfbf3315041f",
      "usesPermissions": []
    }
  ],
  "meta": {
    "generated": "2020-08-27T16:51:46.840233",
    "generatedBy": [
      "/home/hc/code/trackingthetrackers/scripts/make-clean-apk-set.py"
    ],
    "generatedByCommitId": "40519285d6f404593fa655fa89b433743c25289e",
    "sourceDataCommitId": "888bb8f8c77ff55105fcab2ad84c263561eb1169",
    "ver": "0.3.0"
  }
}