{
  "apks": [
    {
      "applicationId": "org.openpetfoodfacts.scanner",
      "broadcastReceiverIntentFilterActionNames": [
        "android.net.wifi.WIFI_STATE_CHANGED"
      ],
      "dependencies": [],
      "domainNamesFilteredByExodus": [
        ".google.com"
      ],
      "metaDataNames": [
        "android.app.searchable",
        "android.app.shortcuts",
        "android.max_aspect",
        "android.support.FILE_PROVIDER_PATHS",
        "android.support.PARENT_ACTIVITY"
      ],
      "sha256": "a35d8815f970e4649ff6c3d19345a640c11e772cda7b3499e11f9399e235cf56",
      "usesPermissions": [
        "android.permission.ACCESS_NETWORK_STATE",
        "android.permission.CAMERA",
        "android.permission.INTERNET",
        "android.permission.READ_EXTERNAL_STORAGE",
        "android.permission.WRITE_EXTERNAL_STORAGE"
      ]
    }
  ],
  "meta": {
    "generated": "2020-08-27T18:33:46.007068",
    "generatedBy": [
      "/home/hc/code/trackingthetrackers/scripts/make-clean-apk-set.py"
    ],
    "generatedByCommitId": "3839559c80042252d3b947fb61c86a18e8b31114",
    "sourceDataCommitId": "888bb8f8c77ff55105fcab2ad84c263561eb1169",
    "ver": "0.3.0"
  }
}