{
  "apks": [
    {
      "applicationId": "org.retroshare.android.qml_app",
      "broadcastReceiverIntentFilterActionNames": [
        "android.intent.action.BOOT_COMPLETED",
        "android.intent.action.MY_PACKAGE_REPLACED"
      ],
      "dependencies": [],
      "domainNamesFilteredByExodus": [
        ".google.com"
      ],
      "metaDataNames": [
        "android.app.auto_screen_scale_factor",
        "android.app.background_running",
        "android.app.bundle_local_qt_libs",
        "android.app.bundled_in_assets_resource_id",
        "android.app.bundled_in_lib_resource_id",
        "android.app.bundled_libs_resource_id",
        "android.app.extract_android_style",
        "android.app.fatal_error_msg",
        "android.app.lib_name",
        "android.app.libs_prefix",
        "android.app.load_local_jars",
        "android.app.load_local_libs",
        "android.app.ministro_needed_msg",
        "android.app.ministro_not_found_msg",
        "android.app.qt_libs_resource_id",
        "android.app.qt_sources_resource_id",
        "android.app.repository",
        "android.app.static_init_classes",
        "android.app.use_local_qt_libs"
      ],
      "sha256": "fa84d731fce0f6adc4af71c000456d1e75379ad0398841a87645b53e65741446",
      "usesPermissions": [
        "android.permission.ACCESS_NETWORK_STATE",
        "android.permission.INTERNET",
        "android.permission.READ_EXTERNAL_STORAGE",
        "android.permission.RECEIVE_BOOT_COMPLETED",
        "android.permission.WRITE_EXTERNAL_STORAGE",
        "android.permission.WRITE_EXTERNAL_STORAGE"
      ]
    }
  ],
  "meta": {
    "generated": "2020-08-27T17:06:35.972326",
    "generatedBy": [
      "/home/hc/code/trackingthetrackers/scripts/make-clean-apk-set.py"
    ],
    "generatedByCommitId": "40519285d6f404593fa655fa89b433743c25289e",
    "sourceDataCommitId": "888bb8f8c77ff55105fcab2ad84c263561eb1169",
    "ver": "0.3.0"
  }
}