{
  "apks": [
    {
      "applicationId": "com.monotype.android.font.pack.graffiti",
      "broadcastReceiverIntentFilterActionNames": [
        "android.intent.action.BATTERY_LOW",
        "android.intent.action.BOOT_COMPLETED",
        "android.intent.action.MY_PACKAGE_REPLACED",
        "android.intent.action.PACKAGE_ADDED",
        "android.intent.action.PACKAGE_REPLACED"
      ],
      "dependencies": [
        "com.mobclix.android.sdk",
        "com.startapp.android.publish"
      ],
      "domainNamesFilteredByExodus": [
        ".google.com",
        "ads.mobclix.com",
        "data.mobclix.com",
        "mobclix.com"
      ],
      "metaDataNames": [
        "com.mobclix.APPLICATION_ID",
        "com.startapp.android.APP_ID",
        "com.startapp.android.DEV_ID",
        "com.tapcontext.DEVELOPERKEY",
        "com.tapcontext.NOTIFICATIONS"
      ],
      "sha256": "f60f72e543b71882fe8c6c6e153a0241c3d12f98e3fd5357dc52b9e8c126d223",
      "usesPermissions": [
        "android.permission.ACCESS_NETWORK_STATE",
        "android.permission.ACCESS_WIFI_STATE",
        "android.permission.INTERNET",
        "android.permission.READ_PHONE_STATE",
        "com.android.browser.permission.READ_HISTORY_BOOKMARKS",
        "com.android.browser.permission.WRITE_HISTORY_BOOKMARKS",
        "com.android.launcher.permission.INSTALL_SHORTCUT",
        "com.android.launcher.permission.READ_SETTINGS",
        "com.android.launcher.permission.UNINSTALL_SHORTCUT",
        "com.fede.launcher.permission.READ_SETTINGS",
        "com.htc.launcher.permission.READ_SETTINGS",
        "com.lge.launcher.permission.INSTALL_SHORTCUT",
        "com.lge.launcher.permission.READ_SETTINGS",
        "com.motorola.dlauncher.permission.INSTALL_SHORTCUT",
        "com.motorola.dlauncher.permission.READ_SETTINGS",
        "com.motorola.launcher.permission.INSTALL_SHORTCUT",
        "com.motorola.launcher.permission.READ_SETTINGS",
        "org.adw.launcher.permission.READ_SETTINGS"
      ]
    }
  ],
  "meta": {
    "generated": "2020-08-27T15:21:38.241170",
    "generatedBy": [
      "/home/hc/code/trackingthetrackers/scripts/make-trackers-apk-set.py"
    ],
    "ver": "0.3.0"
  }
}