{
  "apks": [
    {
      "applicationId": "com.lqsoft.launcher",
      "broadcastReceiverIntentFilterActionNames": [
        "android.intent.action.BOOT_COMPLETED",
        "android.intent.action.DOWNLOAD_COMPLETE",
        "android.intent.action.PACKAGE_ADDED",
        "android.intent.action.PACKAGE_REMOVED",
        "android.intent.action.USER_PRESENT",
        "android.net.conn.CONNECTIVITY_CHANGE",
        "com.android.launcher.action.INSTALL_AD_SHORTCUT",
        "com.android.launcher.action.INSTALL_ENTRY_SHORTCUT",
        "com.android.launcher.action.INSTALL_SHORTCUT",
        "com.android.launcher.action.UNINSTALL_SHORTCUT",
        "com.android.vending.INSTALL_REFERRER",
        "com.lqlauncher.LocalWallpaper",
        "com.lqlauncher.changetheme",
        "com.lqsoft.launcher.action.ADD_ONLINE_FOLDER",
        "com.lqsoft.launcher.change_font",
        "com.lqsoft.themeapk.apply_receiver",
        "com.nqmobile.live.click.push",
        "com.nqmobile.live.download.push",
        "com.nqmobile.live.unlike.push"
      ],
      "dependencies": [],
      "domainNamesFilteredByExodus": [
        ".google.com",
        "smaato.net",
        "soma.smaato.net"
      ],
      "metaDataNames": [
        "com.amap.api.v2.apikey",
        "pack_cache_time"
      ],
      "sha256": "2c03066603ef1f5af17d9a26726b6444148fcd80ccf7a4cdcfa17ff979d21fb6",
      "usesPermissions": [
        "android.permission.ACCESS_BACKGROUND_SERVICE",
        "android.permission.ACCESS_COARSE_LOCATION",
        "android.permission.ACCESS_FINE_LOCATION",
        "android.permission.ACCESS_LOCATION_EXTRA_COMMANDS",
        "android.permission.ACCESS_NETWORK_STATE",
        "android.permission.ACCESS_WAKE_LOCK",
        "android.permission.ACCESS_WIFI_STATE",
        "android.permission.BATTERY_STATS",
        "android.permission.BIND_APPWIDGET",
        "android.permission.BLUETOOTH",
        "android.permission.BLUETOOTH_ADMIN",
        "android.permission.CALL_PHONE",
        "android.permission.CAMERA",
        "android.permission.CHANGE_CONFIGURATION",
        "android.permission.CHANGE_NETWORK_STATE",
        "android.permission.CHANGE_WIFI_STATE",
        "android.permission.CLEAR_APP_CACHE",
        "android.permission.CLEAR_APP_USER_DATA",
        "android.permission.DELETE_PACKAGES",
        "android.permission.DISABLE_KEYGUARD",
        "android.permission.DOWNLOAD_WITHOUT_NOTIFICATION",
        "android.permission.EXPAND_STATUS_BAR",
        "android.permission.FLASHLIGHT",
        "android.permission.FORCE_STOP_PACKAGES",
        "android.permission.GET_ACCOUNTS",
        "android.permission.GET_PACKAGE_SIZE",
        "android.permission.GET_TASKS",
        "android.permission.GET_TOP_ACTIVITY_INFO",
        "android.permission.HARDWARE_TEST",
        "android.permission.INJECT_EVENTS",
        "android.permission.INSTALL_PACKAGES",
        "android.permission.INTERNET",
        "android.permission.KILL_BACKGROUND_PROCESSES",
        "android.permission.MOUNT_UNMOUNT_FILESYSTEMS",
        "android.permission.READ_CALL_LOG",
        "android.permission.READ_CONTACTS",
        "android.permission.READ_EXTERNAL_STORAGE",
        "android.permission.READ_LOGS",
        "android.permission.READ_MMS",
        "android.permission.READ_OWNER_DATA",
        "android.permission.READ_PHONE_STATE",
        "android.permission.READ_SETTINGS",
        "android.permission.READ_SMS",
        "android.permission.RECEIVE_BOOT_COMPLETED",
        "android.permission.REMOVE_TASKS",
        "android.permission.RESTART_PACKAGES",
        "android.permission.SET_PREFERRED_APPLICATIONS",
        "android.permission.SET_WALLPAPER",
        "android.permission.SET_WALLPAPER_HINTS",
        "android.permission.SYSTEM_ALERT_WINDOW",
        "android.permission.VIBRATE",
        "android.permission.WAKE_LOCK",
        "android.permission.WAKE_LOCK",
        "android.permission.WRITE_APN_SETTINGS",
        "android.permission.WRITE_EXTERNAL_STORAGE",
        "android.permission.WRITE_MEDIA_STORAGE",
        "android.permission.WRITE_OWNER_DATA",
        "android.permission.WRITE_SECURE_SETTINGS",
        "android.permission.WRITE_SETTINGS",
        "android.permission.WRITE_SMS",
        "com.android.alarm.permission.SET_ALARM",
        "com.android.launcher.permission.INSTALL_SHORTCUT",
        "com.android.launcher.permission.READ_SETTINGS",
        "com.android.launcher.permission.UNINSTALL_SHORTCUT",
        "com.android.launcher.permission.WRITE_SETTINGS",
        "com.nqmobile.live.permission.ACCESS_DOWNLOAD_MANAGER",
        "com.nqmobile.live.permission.ACCESS_DOWNLOAD_MANAGER_ADVANCED",
        "com.nqmobile.live.permission.SEND_DOWNLOAD_COMPLETED_INTENTS"
      ]
    }
  ],
  "meta": {
    "generated": "2020-08-27T14:49:58.651055",
    "generatedBy": [
      "/home/hc/code/trackingthetrackers/scripts/make-trackers-apk-set.py"
    ],
    "ver": "0.3.0"
  }
}