{
  "apks": [
    {
      "applicationId": "de.nico.ha_manager",
      "broadcastReceiverIntentFilterActionNames": [],
      "dependencies": [],
      "domainNamesFilteredByExodus": [
        ".google.com"
      ],
      "metaDataNames": [],
      "sha256": "03cf588f3e7b4226862c68b9736f75414d661fa8331b4d68d14da9c5ea893994",
      "usesPermissions": []
    }
  ],
  "meta": {
    "generated": "2020-08-27T18:01:47.098654",
    "generatedBy": [
      "/home/hc/code/trackingthetrackers/scripts/make-clean-apk-set.py"
    ],
    "generatedByCommitId": "3839559c80042252d3b947fb61c86a18e8b31114",
    "sourceDataCommitId": "888bb8f8c77ff55105fcab2ad84c263561eb1169",
    "ver": "0.3.0"
  }
}