{
  "apks": [
    {
      "applicationId": "com.github.postapczuk.lalauncher",
      "broadcastReceiverIntentFilterActionNames": [],
      "dependencies": [],
      "domainNamesFilteredByExodus": [],
      "metaDataNames": [],
      "sha256": "fee97069b9d3667d8f1df44bca60bd9a6ba5152b62750391da1f60a40ba32d0a",
      "usesPermissions": []
    }
  ],
  "meta": {
    "generated": "2020-08-27T17:30:57.158544",
    "generatedBy": [
      "/home/hc/code/trackingthetrackers/scripts/make-clean-apk-set.py"
    ],
    "generatedByCommitId": "40519285d6f404593fa655fa89b433743c25289e",
    "sourceDataCommitId": "888bb8f8c77ff55105fcab2ad84c263561eb1169",
    "ver": "0.3.0"
  }
}