{
  "apks": [
    {
      "applicationId": "com.netmite.andme.launcher.elven_chronicles_rus",
      "broadcastReceiverIntentFilterActionNames": [],
      "dependencies": [],
      "domainNamesFilteredByExodus": [],
      "metaDataNames": [
        "launcherversion",
        "launcherversioncode",
        "midletclass",
        "midleticon",
        "midletname",
        "midleturl"
      ],
      "sha256": "279fa8b83dce105735b74f66773c86ec2df96da2977031ed2300cf8f0cdc9aaf",
      "usesPermissions": []
    }
  ],
  "meta": {
    "generated": "2020-08-27T15:40:18.944338",
    "generatedBy": [
      "/home/hc/code/trackingthetrackers/scripts/make-trackers-apk-set.py"
    ],
    "ver": "0.3.0"
  }
}