{
  "apks": [
    {
      "applicationId": "net.sourceforge.opencamera",
      "dependencies": [],
      "domainNamesFilteredByExodus": [
        ".google.com"
      ],
      "sha256": "bacb2362686f281ab2759a596e21323a2f1bd1f8c781a093012e491e0a8d68a9",
      "usesPermissions": [
        "android.permission.ACCESS_FINE_LOCATION",
        "android.permission.BLUETOOTH",
        "android.permission.BLUETOOTH_ADMIN",
        "android.permission.CAMERA",
        "android.permission.RECORD_AUDIO",
        "android.permission.WRITE_EXTERNAL_STORAGE"
      ]
    }
  ],
  "meta": {
    "ver": "0.2.0"
  }
}