{
  "apks": [
    {
      "applicationId": "apps.droidnotify",
      "broadcastReceiverIntentFilterActionNames": [
        "android.intent.action.BOOT_COMPLETED",
        "android.intent.action.PHONE_STATE",
        "android.provider.Telephony.MMS_RECEIVED",
        "android.provider.Telephony.SMS_RECEIVED",
        "android.provider.Telephony.WAP_PUSH_RECEIVED",
        "com.fsck.k9.intent.action.EMAIL_RECEIVED",
        "com.kaitenmail.intent.action.EMAIL_RECEIVED"
      ],
      "dependencies": [],
      "domainNamesFilteredByExodus": [
        ".facebook.com",
        ".google.com"
      ],
      "metaDataNames": [],
      "sha256": "f75bc1e2f9477aa5d6d9b1b11b6c6ebe9daacfd316d0199d746beb806ed1851c",
      "usesPermissions": [
        "android.permission.CALL_PHONE",
        "android.permission.DISABLE_KEYGUARD",
        "android.permission.GET_TASKS",
        "android.permission.MODIFY_PHONE_STATE",
        "android.permission.READ_CALENDAR",
        "android.permission.READ_CONTACTS",
        "android.permission.READ_LOGS",
        "android.permission.READ_PHONE_STATE",
        "android.permission.READ_SMS",
        "android.permission.RECEIVE_BOOT_COMPLETED",
        "android.permission.RECEIVE_MMS",
        "android.permission.RECEIVE_SMS",
        "android.permission.RECEIVE_WAP_PUSH",
        "android.permission.SEND_SMS",
        "android.permission.VIBRATE",
        "android.permission.WAKE_LOCK",
        "android.permission.WRITE_CALENDAR",
        "android.permission.WRITE_CONTACTS",
        "android.permission.WRITE_EXTERNAL_STORAGE",
        "android.permission.WRITE_SMS",
        "com.fsck.k9.permission.DELETE_MESSAGES",
        "com.fsck.k9.permission.READ_MESSAGES",
        "com.kaitenmail.permission.DELETE_MESSAGES",
        "com.kaitenmail.permission.READ_MESSAGES",
        "thinkpanda.permission.CLEAR_MISSED_CALL"
      ]
    }
  ],
  "meta": {
    "generated": "2020-08-27T17:10:04.389397",
    "generatedBy": [
      "/home/hc/code/trackingthetrackers/scripts/make-clean-apk-set.py"
    ],
    "generatedByCommitId": "40519285d6f404593fa655fa89b433743c25289e",
    "sourceDataCommitId": "888bb8f8c77ff55105fcab2ad84c263561eb1169",
    "ver": "0.3.0"
  }
}