{
  "apks": [
    {
      "applicationId": "com.github.axet.hourlyreminder",
      "dependencies": [],
      "domainNamesFilteredByExodus": [],
      "sha256": "d2941035c4be11000e058205599e66483455d92ec1bbaed2d7a1f2d11d9e4ea0",
      "usesPermissions": [
        "android.permission.READ_EXTERNAL_STORAGE",
        "android.permission.READ_PHONE_STATE",
        "android.permission.RECEIVE_BOOT_COMPLETED",
        "android.permission.REQUEST_IGNORE_BATTERY_OPTIMIZATIONS",
        "android.permission.VIBRATE",
        "android.permission.WAKE_LOCK"
      ]
    }
  ],
  "meta": {
    "ver": "0.2.0"
  }
}