{
  "apks": [
    {
      "applicationId": "com.dririan.RingyDingyDingy",
      "broadcastReceiverIntentFilterActionNames": [
        "android.intent.action.BOOT_COMPLETED",
        "android.provider.Telephony.SMS_RECEIVED",
        "com.dririan.RingyDingyDingy.COMMAND_LOCK",
        "com.dririan.RingyDingyDingy.COMMAND_RING",
        "com.dririan.RingyDingyDingy.COMMAND_STOP",
        "com.dririan.RingyDingyDingy.SMS_SENT",
        "com.dririan.RingyDingyDingy.TOGGLE",
        "com.google.android.apps.googlevoice.SMS_RECEIVED"
      ],
      "dependencies": [],
      "domainNamesFilteredByExodus": [],
      "metaDataNames": [
        "android.app.device_admin"
      ],
      "sha256": "5e118bcffa726699e6939f7f0d5b35b6bb8cf0ae8efb704d929afa289e3cb1db",
      "usesPermissions": [
        "android.permission.READ_CONTACTS",
        "android.permission.RECEIVE_BOOT_COMPLETED",
        "android.permission.RECEIVE_SMS",
        "android.permission.SEND_SMS",
        "com.dririan.RingyDingyDingy.EXECUTE_COMMAND",
        "com.dririan.RingyDingyDingy.HANDLE_COMMAND",
        "com.dririan.RingyDingyDingy.HANDLE_INTERNAL_COMMAND",
        "com.google.android.apps.googlevoice.permission.RECEIVE_SMS"
      ]
    }
  ],
  "meta": {
    "generated": "2020-08-27T17:17:12.539207",
    "generatedBy": [
      "/home/hc/code/trackingthetrackers/scripts/make-clean-apk-set.py"
    ],
    "generatedByCommitId": "40519285d6f404593fa655fa89b433743c25289e",
    "sourceDataCommitId": "888bb8f8c77ff55105fcab2ad84c263561eb1169",
    "ver": "0.3.0"
  }
}