{
  "apks": [
    {
      "applicationId": "com.grouplly.kksdkfcskddkjfffggb",
      "broadcastReceiverIntentFilterActionNames": [
        "android.intent.action.BOOT_COMPLETED",
        "android.intent.action.PACKAGE_ADDED",
        "android.intent.action.PACKAGE_REMOVED",
        "android.intent.action.USER_PRESENT",
        "android.net.conn.CONNECTIVITY_CHANGE",
        "com.cdib.b",
        "com.lseiei.downloadManager"
      ],
      "dependencies": [
        "com.tencent.lbs"
      ],
      "domainNamesFilteredByExodus": [
        "umeng.com"
      ],
      "metaDataNames": [
        "ADVIEW_SDK_KEY",
        "AdView_CHANNEL",
        "BaiduMobAd_DEBUG_TOKEN",
        "STATU_BGSDK_KEY",
        "UMENG_CHANNEL",
        "ZY_APP_ID",
        "ZY_LOCK_ID",
        "ZY_MARKET_ID",
        "apkey",
        "channelId"
      ],
      "sha256": "b65e1220d47136bb8690fbd60795d706b2528150f08bb7df948c2fe1e1f1912f",
      "usesPermissions": [
        "android.permission.ACCESS_COARSE_LOCATION",
        "android.permission.ACCESS_FINE_LOCATION",
        "android.permission.ACCESS_NETWORK_STATE",
        "android.permission.ACCESS_NETWORK_STATE",
        "android.permission.ACCESS_WIFI_STATE",
        "android.permission.ACCESS_WIFI_STATE",
        "android.permission.CALL_PHONE",
        "android.permission.FLASHLIGHT",
        "android.permission.GET_TASKS",
        "android.permission.GET_TASKS",
        "android.permission.INTERNET",
        "android.permission.INTERNET",
        "android.permission.READ_EXTERNAL_STORAGE",
        "android.permission.READ_PHONE_STATE",
        "android.permission.READ_PHONE_STATE",
        "android.permission.RECEIVE_BOOT_COMPLETED",
        "android.permission.RECORD_AUDIO",
        "android.permission.RESTART_PACKAGES",
        "android.permission.SYSTEM_ALERT_WINDOW",
        "android.permission.SYSTEM_ALERT_WINDOW",
        "android.permission.VIBRATE",
        "android.permission.WAKE_LOCK",
        "android.permission.WAKE_LOCK",
        "android.permission.WRITE_EXTERNAL_STORAGE",
        "android.permission.WRITE_EXTERNAL_STORAGE",
        "com.android.launcher.permission.INSTALL_SHORTCUT"
      ]
    }
  ],
  "meta": {
    "generated": "2020-08-27T15:40:46.550371",
    "generatedBy": [
      "/home/hc/code/trackingthetrackers/scripts/make-trackers-apk-set.py"
    ],
    "ver": "0.3.0"
  }
}