{
  "apks": [
    {
      "applicationId": "cmccwm.mobilemusic",
      "broadcastReceiverIntentFilterActionNames": [
        "android.intent.action.DOWNLOAD_COMPLETE",
        "cmccwm.mobilemusic.action.COLLECTIONSYNC",
        "cmccwm.mobilemusic.action.MUSICLISTSYNC"
      ],
      "dependencies": [
        "com$tencent$stat",
        "com.baidu.location",
        "com.tencent.stat",
        "com.tencent.weiyun"
      ],
      "domainNamesFilteredByExodus": [
        "map.baidu.com",
        "map.qq.com"
      ],
      "metaDataNames": [
        "appid_with_music_aoe",
        "com.baidu.lbsapi.API_KEY"
      ],
      "sha256": "e5773e2464e8c305f0f3ad1a9146a70ed103354c246a1de66baefb7c64d1c830",
      "usesPermissions": [
        "android.permission.ACCESS_NETWORK_STATE",
        "android.permission.ACCESS_WIFI_STATE",
        "android.permission.GET_TASKS",
        "android.permission.INTERNET",
        "android.permission.MOUNT_UNMOUNT_FILESYSTEMS",
        "android.permission.PROCESS_OUTGOING_CALLS",
        "android.permission.READ_CONTACTS",
        "android.permission.READ_LOG",
        "android.permission.READ_LOGS",
        "android.permission.READ_PHONE_STATE",
        "android.permission.READ_SMS",
        "android.permission.RECEIVE_BOOT_COMPLETED",
        "android.permission.RECEIVE_SMS",
        "android.permission.RECORD_AUDIO",
        "android.permission.SEND_SMS",
        "android.permission.VIBRATE",
        "android.permission.WAKE_LOCK",
        "android.permission.WRITE_EXTERNAL_STORAGE",
        "android.permission.WRITE_SETTINGS",
        "com.android.launcher.permission.INSTALL_SHORTCUT",
        "com.android.launcher.permission.READ_SETTINGS",
        "com.android.launcher.permission.UNINSTALL_SHORTCUT"
      ]
    }
  ],
  "meta": {
    "generated": "2020-08-27T15:28:40.518056",
    "generatedBy": [
      "/home/hc/code/trackingthetrackers/scripts/make-trackers-apk-set.py"
    ],
    "ver": "0.3.0"
  }
}