{
  "apks": [
    {
      "applicationId": "com.xuebaedu.xueba",
      "broadcastReceiverIntentFilterActionNames": [
        "android.app.action.DEVICE_ADMIN_ENABLED",
        "android.intent.action.BOOT_COMPLETED",
        "android.intent.action.DOWNLOAD_COMPLETE",
        "android.intent.action.DOWNLOAD_NOTIFICATION_CLICKED",
        "android.intent.action.USER_PRESENT",
        "android.net.conn.CONNECTIVITY_CHANGE",
        "cn.jpush.android.intent.ACTION_RICHPUSH_CALLBACK",
        "cn.jpush.android.intent.CONNECTION",
        "cn.jpush.android.intent.NOTIFICATION_OPENED",
        "cn.jpush.android.intent.NOTIFICATION_RECEIVED_PROXY",
        "com.xuebaedu.xueba.ACTION.RECEIVE_RTS_NOTIFICATION"
      ],
      "dependencies": [],
      "domainNamesFilteredByExodus": [],
      "metaDataNames": [
        "JPUSH_APPKEY",
        "JPUSH_CHANNEL",
        "UMENG_APPKEY",
        "UMENG_CHANNEL",
        "android.app.device_admin",
        "com.baidu.lbsapi.API_KEY",
        "com.netease.cosine.target",
        "com.netease.cosine.target.receiver",
        "com.netease.nim.appKey"
      ],
      "sha256": "c9d8cdd3f07778e3b545420186d7c5bbeeedc613de96e7686d4c5ef8602d3704",
      "usesPermissions": [
        "android.permission.ACCESS_NETWORK_STATE",
        "android.permission.ACCESS_WIFI_STATE",
        "android.permission.BLUETOOTH",
        "android.permission.BLUETOOTH_ADMIN",
        "android.permission.CAMERA",
        "android.permission.FLASHLIGHT",
        "android.permission.GET_TASKS",
        "android.permission.INTERNET",
        "android.permission.KILL_BACKGROUND_PROCESSES",
        "android.permission.MODIFY_AUDIO_SETTINGS",
        "android.permission.MOUNT_UNMOUNT_FILESYSTEMS",
        "android.permission.READ_EXTERNAL_STORAGE",
        "android.permission.READ_PHONE_STATE",
        "android.permission.RECEIVE_BOOT_COMPLETED",
        "android.permission.RECEIVE_USER_PRESENT",
        "android.permission.RECORD_AUDIO",
        "android.permission.SYSTEM_ALERT_WINDOW",
        "android.permission.VIBRATE",
        "android.permission.WAKE_LOCK",
        "android.permission.WRITE_EXTERNAL_STORAGE",
        "android.permission.WRITE_SETTINGS",
        "com.xuebaedu.xueba.permission.JPUSH_MESSAGE",
        "com.xuebaedu.xueba.permission.RECEIVE_MSG"
      ]
    }
  ],
  "meta": {
    "generated": "2020-08-27T15:50:07.369037",
    "generatedBy": [
      "/home/hc/code/trackingthetrackers/scripts/make-trackers-apk-set.py"
    ],
    "ver": "0.3.0"
  }
}