{
  "apks": [
    {
      "applicationId": "com.iskrembilen.quasseldroid",
      "broadcastReceiverIntentFilterActionNames": [],
      "dependencies": [],
      "domainNamesFilteredByExodus": [
        ".google.com"
      ],
      "metaDataNames": [
        "WindowManagerPreference:FreeformWindowOrientation",
        "WindowManagerPreference:FreeformWindowSize",
        "android.support.FILE_PROVIDER_PATHS"
      ],
      "sha256": "c139090bc423a3bb42e217ef9a935a8d8ffcae61519f53e952b6096946a5636e",
      "usesPermissions": [
        "android.permission.ACCESS_NETWORK_STATE",
        "android.permission.FOREGROUND_SERVICE",
        "android.permission.INTERNET"
      ]
    }
  ],
  "meta": {
    "generated": "2020-08-27T17:33:09.211171",
    "generatedBy": [
      "/home/hc/code/trackingthetrackers/scripts/make-clean-apk-set.py"
    ],
    "generatedByCommitId": "40519285d6f404593fa655fa89b433743c25289e",
    "sourceDataCommitId": "888bb8f8c77ff55105fcab2ad84c263561eb1169",
    "ver": "0.3.0"
  }
}