{
  "apks": [
    {
      "applicationId": "com.uploadedlobster.PwdHash",
      "broadcastReceiverIntentFilterActionNames": [],
      "dependencies": [],
      "domainNamesFilteredByExodus": [],
      "metaDataNames": [],
      "sha256": "78f4728c8a99864a499f09e0ead551b54780c05917c10b50a472af171577a5a9",
      "usesPermissions": []
    }
  ],
  "meta": {
    "generated": "2020-08-27T17:52:18.115054",
    "generatedBy": [
      "/home/hc/code/trackingthetrackers/scripts/make-clean-apk-set.py"
    ],
    "generatedByCommitId": "3839559c80042252d3b947fb61c86a18e8b31114",
    "sourceDataCommitId": "888bb8f8c77ff55105fcab2ad84c263561eb1169",
    "ver": "0.3.0"
  }
}