{
  "apks": [
    {
      "applicationId": "com.antoniotari.reactiveampacheapp",
      "broadcastReceiverIntentFilterActionNames": [],
      "dependencies": [
        "com.crashlytics.",
        "io.fabric."
      ],
      "domainNamesFilteredByExodus": [],
      "metaDataNames": [
        "android.support.PARENT_ACTIVITY",
        "io.fabric.ApiKey"
      ],
      "sha256": "bd5be97327ed500f496c460d2f5f6d605f9c8abfc13c6ba774cf9a654010590b",
      "usesPermissions": [
        "android.permission.ACCESS_NETWORK_STATE",
        "android.permission.BLUETOOTH",
        "android.permission.INTERNET",
        "android.permission.READ_PHONE_STATE",
        "android.permission.WAKE_LOCK",
        "com.android.alarm.permission.SET_ALARM"
      ]
    }
  ],
  "meta": {
    "generated": "2020-08-27T17:14:57.536776",
    "generatedBy": [
      "/home/hc/code/trackingthetrackers/scripts/make-clean-apk-set.py"
    ],
    "generatedByCommitId": "40519285d6f404593fa655fa89b433743c25289e",
    "sourceDataCommitId": "888bb8f8c77ff55105fcab2ad84c263561eb1169",
    "ver": "0.3.0"
  }
}