{
  "apks": [
    {
      "applicationId": "ogle.epal.myen",
      "broadcastReceiverIntentFilterActionNames": [],
      "dependencies": [
        "com.google.ads.",
        "com.google.android.gms.ads.",
        "com.google.android.gms.analytics.",
        "com.google.android.gms.tagmanager",
        "com.ironsource."
      ],
      "domainNamesFilteredByExodus": [
        ".facebook.com",
        ".google.com",
        "doubleclick.net",
        "google-analytics.com",
        "millennialmedia.com",
        "www.googletagmanager.com"
      ],
      "metaDataNames": [
        "com.fkikz.hswcw123223.APIKEY",
        "com.fkikz.hswcw123223.APPID",
        "com.google.android.gms.version",
        "com.revmob.app.id",
        "debug",
        "ispeech_api_key"
      ],
      "sha256": "96220b8e57d0c625668e8bacda7337253cdd6ed0c287ba44b00ea4b8d0d07f63",
      "usesPermissions": [
        "android.permission.ACCESS_NETWORK_STATE",
        "android.permission.ACCESS_WIFI_STATE",
        "android.permission.GET_ACCOUNTS",
        "android.permission.INTERNET",
        "android.permission.READ_PHONE_STATE",
        "android.permission.VIBRATE",
        "android.permission.WRITE_EXTERNAL_STORAGE",
        "com.android.browser.permission.READ_HISTORY_BOOKMARKS"
      ]
    }
  ],
  "meta": {
    "generated": "2020-08-27T15:23:06.499614",
    "generatedBy": [
      "/home/hc/code/trackingthetrackers/scripts/make-trackers-apk-set.py"
    ],
    "ver": "0.3.0"
  }
}