{
  "apks": [
    {
      "applicationId": "com.kanedias.vanilla.lyrics",
      "broadcastReceiverIntentFilterActionNames": [
        "ch.blinkenlights.android.vanilla.action.REQUEST_PLUGIN_PARAMS"
      ],
      "dependencies": [],
      "domainNamesFilteredByExodus": [],
      "metaDataNames": [],
      "sha256": "082bc59d93e1bda89ecfb11ba3a95e541b76fef45502b6d978121cc28f8ac1e3",
      "usesPermissions": [
        "android.permission.INTERNET"
      ]
    }
  ],
  "meta": {
    "generated": "2020-08-27T17:35:31.861975",
    "generatedBy": [
      "/home/hc/code/trackingthetrackers/scripts/make-clean-apk-set.py"
    ],
    "generatedByCommitId": "40519285d6f404593fa655fa89b433743c25289e",
    "sourceDataCommitId": "888bb8f8c77ff55105fcab2ad84c263561eb1169",
    "ver": "0.3.0"
  }
}