{
  "apks": [
    {
      "applicationId": "com.inter.trade",
      "broadcastReceiverIntentFilterActionNames": [
        "android.net.conn.CONNECTIVITY_CHANGE",
        "com.xiaomi.mipush.ERROR",
        "com.xiaomi.mipush.MESSAGE_ARRIVED",
        "com.xiaomi.mipush.RECEIVE_MESSAGE",
        "com.xiaomi.push.PING_TIMER"
      ],
      "dependencies": [
        "com.umeng.analytics"
      ],
      "domainNamesFilteredByExodus": [
        "alog.umeng.com",
        "oc.umeng.com",
        "umeng.com"
      ],
      "metaDataNames": [
        "UMENG_APPKEY",
        "UMENG_CHANNEL"
      ],
      "sha256": "683ab21b0bf99c484dafc778ef2e5c8431dde463041a40bd2c6f5f65389a82ed",
      "usesPermissions": [
        "android.permission.ACCESS_NETWORK_STATE",
        "android.permission.ACCESS_WIFI_STATE",
        "android.permission.CALL_PHONE",
        "android.permission.CAMERA",
        "android.permission.FLASHLIGHT",
        "android.permission.INTERNET",
        "android.permission.INTERNET",
        "android.permission.MODIFY_AUDIO_SETTINGS",
        "android.permission.MOUNT_UNMOUNT_FILESYSTEMS",
        "android.permission.READ_CONTACTS",
        "android.permission.READ_PHONE_STATE",
        "android.permission.READ_SMS",
        "android.permission.RECEIVE_BOOT_COMPLETED",
        "android.permission.RECEIVE_SMS",
        "android.permission.RECORD_AUDIO",
        "android.permission.SEND_SMS",
        "android.permission.SEND_SMS",
        "android.permission.SYSTEM_ALERT_WINDOW",
        "android.permission.SYSTEM_OVERLAY_WINDOW",
        "android.permission.VIBRATE",
        "android.permission.WAKE_LOCK",
        "android.permission.WRITE_EXTERNAL_STORAGE",
        "android.permission.WRITE_SMS",
        "com.android.launcher.permission.INSTALL_SHORTCUT",
        "com.android.launcher.permission.READ_SETTINGS",
        "com.android.launcher.permission.UNINSTALL_SHORTCUT",
        "com.android.launcher.permission.WRITE_SETTINGS",
        "com.inter.trade.permission.MIPUSH_RECEIVE"
      ]
    }
  ],
  "meta": {
    "generated": "2020-08-27T14:49:52.978291",
    "generatedBy": [
      "/home/hc/code/trackingthetrackers/scripts/make-trackers-apk-set.py"
    ],
    "ver": "0.3.0"
  }
}