{
  "apks": [
    {
      "applicationId": "ar.rulosoft.mimanganu",
      "broadcastReceiverIntentFilterActionNames": [
        "android.intent.action.BOOT_COMPLETED",
        "android.intent.action.MY_PACKAGE_REPLACED",
        "android.intent.action.QUICKBOOT_POWERON",
        "android.net.conn.CONNECTIVITY_CHANGE",
        "android.net.wifi.WIFI_STATE_CHANGED",
        "com.evernote.android.job.v14.RUN_JOB",
        "com.htc.intent.action.QUICKBOOT_POWERON",
        "net.vrallev.android.job.v14.RUN_JOB"
      ],
      "dependencies": [],
      "domainNamesFilteredByExodus": [],
      "metaDataNames": [
        "android.arch.lifecycle.VERSION",
        "android.support.FILE_PROVIDER_PATHS",
        "android.support.VERSION"
      ],
      "sha256": "c71230126fbf5248451c128df075050b8d2a70094c424fc33eb226760b52f257",
      "usesPermissions": [
        "android.permission.ACCESS_NETWORK_STATE",
        "android.permission.INTERNET",
        "android.permission.READ_EXTERNAL_STORAGE",
        "android.permission.RECEIVE_BOOT_COMPLETED",
        "android.permission.REQUEST_INSTALL_PACKAGES",
        "android.permission.VIBRATE",
        "android.permission.WAKE_LOCK",
        "android.permission.WRITE_EXTERNAL_STORAGE"
      ]
    }
  ],
  "meta": {
    "generated": "2020-08-27T17:10:16.501578",
    "generatedBy": [
      "/home/hc/code/trackingthetrackers/scripts/make-clean-apk-set.py"
    ],
    "generatedByCommitId": "40519285d6f404593fa655fa89b433743c25289e",
    "sourceDataCommitId": "888bb8f8c77ff55105fcab2ad84c263561eb1169",
    "ver": "0.3.0"
  }
}