{
  "apks": [
    {
      "applicationId": "com.redirectapps.tvkill",
      "broadcastReceiverIntentFilterActionNames": [
        "android.appwidget.action.APPWIDGET_UPDATE"
      ],
      "dependencies": [],
      "domainNamesFilteredByExodus": [],
      "metaDataNames": [
        "android.appwidget.provider"
      ],
      "sha256": "e3dc1e4de76955d9c0bec488a73b6c71627de920c80e2735f257f1e8b5fa21de",
      "usesPermissions": [
        "android.permission.TRANSMIT_IR"
      ]
    }
  ],
  "meta": {
    "generated": "2020-08-27T17:46:50.587276",
    "generatedBy": [
      "/home/hc/code/trackingthetrackers/scripts/make-clean-apk-set.py"
    ],
    "generatedByCommitId": "40519285d6f404593fa655fa89b433743c25289e",
    "sourceDataCommitId": "888bb8f8c77ff55105fcab2ad84c263561eb1169",
    "ver": "0.3.0"
  }
}