{
  "apks": [
    {
      "applicationId": "de.hoffmannsgimmickstaupunkt",
      "broadcastReceiverIntentFilterActionNames": [],
      "dependencies": [],
      "domainNamesFilteredByExodus": [],
      "metaDataNames": [],
      "sha256": "be18ad2d14d22a7a5233c782e7867c43a7d3cb0078630c48f22dbffa81136730",
      "usesPermissions": []
    }
  ],
  "meta": {
    "generated": "2020-08-27T17:02:00.958860",
    "generatedBy": [
      "/home/hc/code/trackingthetrackers/scripts/make-clean-apk-set.py"
    ],
    "generatedByCommitId": "40519285d6f404593fa655fa89b433743c25289e",
    "sourceDataCommitId": "888bb8f8c77ff55105fcab2ad84c263561eb1169",
    "ver": "0.3.0"
  }
}