{
  "apks": [
    {
      "applicationId": "eu.quelltext.mundraub",
      "broadcastReceiverIntentFilterActionNames": [],
      "dependencies": [],
      "domainNamesFilteredByExodus": [
        ".google.com"
      ],
      "metaDataNames": [
        "android.support.PARENT_ACTIVITY",
        "android.support.VERSION"
      ],
      "sha256": "8ce36d279e70e1f293a11ad45c6263cdc4be6f1413cf2c9d95de2e32cdfa4ed8",
      "usesPermissions": [
        "android.permission.ACCESS_FINE_LOCATION",
        "android.permission.CAMERA",
        "android.permission.INTERNET",
        "android.permission.VIBRATE",
        "android.permission.WRITE_EXTERNAL_STORAGE"
      ]
    }
  ],
  "meta": {
    "generated": "2020-08-27T14:45:26.457874",
    "generatedBy": [
      "/home/hc/code/trackingthetrackers/scripts/make-trackers-apk-set.py"
    ],
    "ver": "0.3.0"
  }
}