{
  "apks": [
    {
      "applicationId": "com.greenaddress.greenbits_android_wallet",
      "broadcastReceiverIntentFilterActionNames": [],
      "dependencies": [],
      "domainNamesFilteredByExodus": [
        ".facebook.com"
      ],
      "metaDataNames": [
        "android.hardware.usb.action.USB_DEVICE_ATTACHED",
        "android.nfc.action.TECH_DISCOVERED"
      ],
      "sha256": "878c71b56ba28643196bd0503ac0e51315bbde87ff97002fd40e18edfc552f77",
      "usesPermissions": [
        "android.permission.ACCESS_NETWORK_STATE",
        "android.permission.CAMERA",
        "android.permission.INTERNET",
        "android.permission.NFC"
      ]
    }
  ],
  "meta": {
    "generated": "2020-08-27T17:32:06.197182",
    "generatedBy": [
      "/home/hc/code/trackingthetrackers/scripts/make-clean-apk-set.py"
    ],
    "generatedByCommitId": "40519285d6f404593fa655fa89b433743c25289e",
    "sourceDataCommitId": "888bb8f8c77ff55105fcab2ad84c263561eb1169",
    "ver": "0.3.0"
  }
}