{
  "apks": [
    {
      "applicationId": "org.tasks",
      "broadcastReceiverIntentFilterActionNames": [
        "android.appwidget.action.APPWIDGET_UPDATE",
        "android.intent.action.BOOT_COMPLETED",
        "android.intent.action.MY_PACKAGE_REPLACED",
        "android.intent.action.PHONE_STATE",
        "com.todoroo.astrid.widget.TasksWidget.COMPLETE_TASK",
        "com.todoroo.astrid.widget.TasksWidget.EDIT_TASK",
        "org.tasks.REFRESH",
        "org.tasks.TASK_COMPLETED",
        "org.tasks.TASK_REPEATED"
      ],
      "dependencies": [],
      "domainNamesFilteredByExodus": [],
      "metaDataNames": [
        "android.appwidget.provider"
      ],
      "sha256": "843dab2935cbd127613d6f1a02031a042d3bef5b806e28bd2ebb99cf91accf5c",
      "usesPermissions": [
        "android.permission.READ_CALENDAR",
        "android.permission.READ_CALL_LOG",
        "android.permission.READ_CONTACTS",
        "android.permission.READ_PHONE_STATE",
        "android.permission.RECEIVE_BOOT_COMPLETED",
        "android.permission.RECORD_AUDIO",
        "android.permission.VIBRATE",
        "android.permission.WRITE_CALENDAR",
        "android.permission.WRITE_EXTERNAL_STORAGE",
        "com.android.launcher.permission.INSTALL_SHORTCUT",
        "org.tasks.READ",
        "org.tasks.WRITE",
        "org.tasks.permission.READ_TASKS"
      ]
    }
  ],
  "meta": {
    "generated": "2020-08-27T18:37:58.612238",
    "generatedBy": [
      "/home/hc/code/trackingthetrackers/scripts/make-clean-apk-set.py"
    ],
    "generatedByCommitId": "3839559c80042252d3b947fb61c86a18e8b31114",
    "sourceDataCommitId": "888bb8f8c77ff55105fcab2ad84c263561eb1169",
    "ver": "0.3.0"
  }
}