{
  "apks": [
    {
      "applicationId": "jdf.jkke.dff",
      "broadcastReceiverIntentFilterActionNames": [
        "android.intent.action.PACKAGE_ADDED",
        "android.intent.action.PACKAGE_REMOVED",
        "android.intent.action.SCREEN_OFF",
        "android.intent.action.SCREEN_ON",
        "android.intent.action.USER_PRESENT",
        "android.net.conn.CONNECTIVITY_CHANGE",
        "broadcast.route.control"
      ],
      "dependencies": [
        "com.google.ads.",
        "com.scoreloop.client.android"
      ],
      "domainNamesFilteredByExodus": [
        ".facebook.com",
        ".google.com",
        "doubleclick.net"
      ],
      "metaDataNames": [],
      "sha256": "a72ffac88ce64f1cbaeb08fd319bcf36c737874067707d37962e7dca138b8ca4",
      "usesPermissions": [
        "android.permission.ACCESS_NETWORK_STATE",
        "android.permission.ACCESS_WIFI_STATE",
        "android.permission.GET_TASKS",
        "android.permission.INTERNET",
        "android.permission.READ_CONTACTS",
        "android.permission.READ_PHONE_STATE",
        "android.permission.SYSTEM_ALERT_WINDOW",
        "android.permission.VIBRATE",
        "android.permission.WRITE_EXTERNAL_STORAGE"
      ]
    }
  ],
  "meta": {
    "generated": "2020-08-27T15:20:49.274550",
    "generatedBy": [
      "/home/hc/code/trackingthetrackers/scripts/make-trackers-apk-set.py"
    ],
    "ver": "0.3.0"
  }
}