{
  "apks": [
    {
      "applicationId": "com.iskrembilen.quasseldroid",
      "broadcastReceiverIntentFilterActionNames": [],
      "dependencies": [],
      "domainNamesFilteredByExodus": [
        ".google.com"
      ],
      "metaDataNames": [
        "WindowManagerPreference:FreeformWindowOrientation",
        "WindowManagerPreference:FreeformWindowSize",
        "android.support.FILE_PROVIDER_PATHS"
      ],
      "sha256": "dd4fa28837fddcf7bd01c1c923c25978e044985087fd0c7207789185b48f843a",
      "usesPermissions": [
        "android.permission.ACCESS_NETWORK_STATE",
        "android.permission.FOREGROUND_SERVICE",
        "android.permission.INTERNET"
      ]
    }
  ],
  "meta": {
    "generated": "2020-08-27T17:33:11.767707",
    "generatedBy": [
      "/home/hc/code/trackingthetrackers/scripts/make-clean-apk-set.py"
    ],
    "generatedByCommitId": "40519285d6f404593fa655fa89b433743c25289e",
    "sourceDataCommitId": "888bb8f8c77ff55105fcab2ad84c263561eb1169",
    "ver": "0.3.0"
  }
}