{
  "apks": [
    {
      "applicationId": "net.sourceforge.servestream",
      "broadcastReceiverIntentFilterActionNames": [
        "android.appwidget.action.APPWIDGET_UPDATE"
      ],
      "dependencies": [],
      "domainNamesFilteredByExodus": [],
      "metaDataNames": [
        "android.appwidget.provider",
        "com.google.android.backup.api_key"
      ],
      "sha256": "834a316d3e8ca4b6a84f705324653bf3c5c3cf9e870bacf0e55dd6b46e4fed76",
      "usesPermissions": [
        "android.permission.BROADCAST_STICKY",
        "android.permission.INTERNET",
        "android.permission.READ_PHONE_STATE"
      ]
    }
  ],
  "meta": {
    "generated": "2020-08-27T18:19:27.325891",
    "generatedBy": [
      "/home/hc/code/trackingthetrackers/scripts/make-clean-apk-set.py"
    ],
    "generatedByCommitId": "3839559c80042252d3b947fb61c86a18e8b31114",
    "sourceDataCommitId": "888bb8f8c77ff55105fcab2ad84c263561eb1169",
    "ver": "0.3.0"
  }
}