{
  "apks": [
    {
      "applicationId": "com.example.huayangapp",
      "broadcastReceiverIntentFilterActionNames": [
        "REPLY",
        "android.intent.action.BOOT_COMPLETED",
        "android.intent.action.PACKAGE_REMOVED",
        "android.net.conn.CONNECTIVITY_CHANGE",
        "com.baidu.android.pushservice.action.BIND_SYNC",
        "com.baidu.android.pushservice.action.MESSAGE",
        "com.baidu.android.pushservice.action.METHOD",
        "com.baidu.android.pushservice.action.RECEIVE",
        "com.baidu.android.pushservice.action.media.CLICK",
        "com.baidu.android.pushservice.action.notification.CLICK",
        "com.baidu.android.pushservice.action.notification.SHOW"
      ],
      "dependencies": [],
      "domainNamesFilteredByExodus": [],
      "metaDataNames": [
        "APP_ID",
        "APP_PID",
        "BaiduMobAd_CELL_LOCATION",
        "BaiduMobAd_CHANNEL",
        "BaiduMobAd_EXCEPTION_LOG",
        "BaiduMobAd_GPS_LOCATION",
        "BaiduMobAd_ONLY_WIFI",
        "BaiduMobAd_SEND_STRATEGY",
        "BaiduMobAd_STAT_ID",
        "BaiduMobAd_WIFI_LOCATION",
        "chance_publisherid"
      ],
      "sha256": "d82c2a6db378c3b75a90d9457e710adb345015cc05aa2093d004e78446e00878",
      "usesPermissions": [
        "android.hardware.camera.autofoucs",
        "android.permission.ACCESS_COARSE_LOCATION",
        "android.permission.ACCESS_COARSE_LOCATION",
        "android.permission.ACCESS_FINE_LOCATION",
        "android.permission.ACCESS_NETWORK_STATE",
        "android.permission.ACCESS_NETWORK_STATE",
        "android.permission.ACCESS_WIFI_STATE",
        "android.permission.CALL_PHONE",
        "android.permission.CAMERA",
        "android.permission.CHANGE_WIFI_STATE",
        "android.permission.DISABLE_KEYGUARD",
        "android.permission.GET_TASKS",
        "android.permission.INTERNET",
        "android.permission.MOUNT_UNMOUNT_FILESYSTEMS",
        "android.permission.READ_EXTERNAL_STORAGE",
        "android.permission.READ_OWNER_DATA",
        "android.permission.READ_PHONE_STATE",
        "android.permission.READ_PHONE_STATE",
        "android.permission.RECEIVE_BOOT_COMPLETED",
        "android.permission.VIBRATE",
        "android.permission.WAKE_LOCK",
        "android.permission.WRITE_EXTERNAL_STORAGE",
        "android.permission.WRITE_OWNER_DATA",
        "android.permission.WRITE_SETTINGS"
      ]
    }
  ],
  "meta": {
    "generated": "2020-08-27T15:39:00.363063",
    "generatedBy": [
      "/home/hc/code/trackingthetrackers/scripts/make-trackers-apk-set.py"
    ],
    "ver": "0.3.0"
  }
}