{
  "apks": [
    {
      "applicationId": "me.onemobile.android",
      "broadcastReceiverIntentFilterActionNames": [
        "android.appwidget.action.APPWIDGET_UPDATE",
        "android.intent.action.BOOT_COMPLETED",
        "android.intent.action.DETAILS",
        "android.intent.action.DOWNLOAD_ERROR",
        "android.intent.action.DOWNLOAD_HIDE",
        "android.intent.action.DOWNLOAD_LIST",
        "android.intent.action.DOWNLOAD_OPEN",
        "android.intent.action.MEDIA_MOUNTED",
        "android.intent.action.MEDIA_REMOVED",
        "android.intent.action.MEDIA_SHARED",
        "android.intent.action.MEDIA_UNMOUNTED",
        "android.intent.action.PACKAGE_ADDED",
        "android.intent.action.PACKAGE_REMOVED",
        "android.intent.action.PACKAGE_REPLACED",
        "android.net.conn.CONNECTIVITY_CHANGE",
        "com.android.vending.INSTALL_REFERRER",
        "com.onemobile.ads.core_ACTION_AD_ONCLICK",
        "me.onemobile.action_DOWNLOAD_APK_ERROR",
        "me.onemobile.action_SCREEN_OFF",
        "me.onemobile.android.APK_CLEAN_NOTIFICATION_OPEN",
        "me.onemobile.android.BSDIFF_PATCH",
        "me.onemobile.android.DOWNLOAD_COMPLETE_INSTALLED_NOTIFICATION",
        "me.onemobile.android.DOWNLOAD_COMPLETE_INSTALLED_NOTIFICATION_ENTIREROW",
        "me.onemobile.android.DOWNLOAD_COMPLETE_NOTIFICATION_SHOW",
        "me.onemobile.android.DOWNLOAD_NETWORK_TYPE_LIMIT_SETTING",
        "me.onemobile.android.INSTALLED_NOTIFICATION",
        "me.onemobile.android.INSTALLED_NOTIFICATION_LAUNCH",
        "me.onemobile.android.INSTALLED_NOTIFICATION_OPEN",
        "me.onemobile.android.INSTALLED_NOTIFICATION_SHARE",
        "me.onemobile.android.NOT_INSTALL_NOTIFICATION_INSTALL",
        "me.onemobile.android.NOT_INSTALL_NOTIFICATION_OPEN",
        "me.onemobile.android.ONEMOBILE_LAUNCHED",
        "me.onemobile.android.PUSH_NOTIFICATION_ACTION_CLICK",
        "me.onemobile.android.SELF_UPDATE_NOTIFICATION_OPEN",
        "me.onemobile.android.SELF_UPDATE_NOTIFICATION_UPGRADE",
        "me.onemobile.android.UPDATES_NOTIFICATION_DELETE",
        "me.onemobile.android.UPDATES_NOTIFICATION_OPEN",
        "me.onemobile.android.UPDATES_NOTIFICATION_UPDATE_ALL",
        "me.onemobile.android.opk.UNZIP_COMPLETED",
        "onemobile.intent.action.DOWNLOAD_COMPLETED"
      ],
      "dependencies": [
        "com.facebook.ads",
        "com.flurry.",
        "com.google.ads.",
        "com.google.android.gms.ads.",
        "com.google.android.gms.analytics.",
        "com.google.android.gms.tagmanager",
        "com.inmobi",
        "com_crashlytics_"
      ],
      "domainNamesFilteredByExodus": [
        ".facebook.com",
        ".google.com",
        "crashlytics.com",
        "doubleclick.net",
        "flurry.com",
        "google-analytics.com",
        "i.w.inmobi.com",
        "inmobi.com",
        "inmobi.net",
        "inmobisdk-a.akamaihd.net",
        "sdkm.w.inmobi.com",
        "www.googletagmanager.com"
      ],
      "metaDataNames": [
        "android.appwidget.provider",
        "com.crashlytics.ApiKey",
        "com.google.android.gms.version",
        "com.sec.android.multiwindow.DEFAULT_SIZE_H",
        "com.sec.android.multiwindow.DEFAULT_SIZE_W",
        "com.sec.android.multiwindow.MINIMUM_SIZE_H",
        "com.sec.android.multiwindow.MINIMUM_SIZE_W",
        "com.sec.android.support.multiwindow",
        "me.onemobile.sdk.CLIENT_ID",
        "me.onemobile.sdk.CLIENT_SECRET"
      ],
      "sha256": "7bd98f9b5c3fc67496e9a4a945911affd110ab8d0111ce3f946686e5c46716fe",
      "usesPermissions": [
        "android.permission.ACCESS_COARSE_LOCATION",
        "android.permission.ACCESS_FINE_LOCATION",
        "android.permission.ACCESS_NETWORK_STATE",
        "android.permission.ACCESS_WIFI_STATE",
        "android.permission.CAMERA",
        "android.permission.CHANGE_WIFI_STATE",
        "android.permission.EXPAND_STATUS_BAR",
        "android.permission.GET_TASKS",
        "android.permission.INTERNET",
        "android.permission.MANAGE_DOCUMENTS",
        "android.permission.READ_CALENDAR",
        "android.permission.READ_EXTERNAL_STORAGE",
        "android.permission.READ_LOGS",
        "android.permission.READ_PHONE_STATE",
        "android.permission.RECEIVE_BOOT_COMPLETED",
        "android.permission.RECORD_AUDIO",
        "android.permission.SET_WALLPAPER",
        "android.permission.VIBRATE",
        "android.permission.WAKE_LOCK",
        "android.permission.WRITE_CALENDAR",
        "android.permission.WRITE_EXTERNAL_STORAGE",
        "com.android.launcher.permission.INSTALL_SHORTCUT",
        "com.google.android.gms.permission.ACTIVITY_RECOGNITION"
      ]
    }
  ],
  "meta": {
    "generated": "2020-08-27T15:47:34.643343",
    "generatedBy": [
      "/home/hc/code/trackingthetrackers/scripts/make-trackers-apk-set.py"
    ],
    "ver": "0.3.0"
  }
}