{
  "apks": [
    {
      "applicationId": "com.bengigi.noogranuts",
      "broadcastReceiverIntentFilterActionNames": [
        "android.appwidget.action.APPWIDGET_UPDATE",
        "com.android.vending.INSTALL_REFERRER",
        "com.android.vending.billing.IN_APP_NOTIFY",
        "com.android.vending.billing.PURCHASE_STATE_CHANGED",
        "com.android.vending.billing.RESPONSE_CODE",
        "com.google.android.c2dm.intent.RECEIVE",
        "com.google.android.c2dm.intent.REGISTRATION"
      ],
      "dependencies": [
        "com.appbrain.",
        "com.applovin",
        "com.flurry.",
        "com.google.ads.",
        "com.tapjoy."
      ],
      "domainNamesFilteredByExodus": [
        ".facebook.com",
        ".google.com",
        "applovin.com",
        "e.apsalar.com",
        "flurry.com",
        "google-analytics.com",
        "sdk.appbrain.com",
        "tapjoyads.com"
      ],
      "metaDataNames": [
        "android.appwidget.provider",
        "android.service.wallpaper",
        "applovin.sdk.ad_refresh_seconds",
        "applovin.sdk.key"
      ],
      "sha256": "bb52774293a38db429898c656071633fb0c19329524bdd31cd99d8feab3a00d2",
      "usesPermissions": [
        "android.permission.ACCESS_NETWORK_STATE",
        "android.permission.ACCESS_WIFI_STATE",
        "android.permission.INTERNET",
        "android.permission.READ_PHONE_STATE",
        "android.permission.WAKE_LOCK",
        "android.permission.WRITE_EXTERNAL_STORAGE",
        "com.android.vending.BILLING",
        "com.bengigi.noogranuts.permission.C2D_MESSAGE",
        "com.google.android.c2dm.permission.RECEIVE"
      ]
    }
  ],
  "meta": {
    "generated": "2020-08-27T15:07:46.271158",
    "generatedBy": [
      "/home/hc/code/trackingthetrackers/scripts/make-trackers-apk-set.py"
    ],
    "ver": "0.3.0"
  }
}