{
  "apks": [
    {
      "applicationId": "com.traingamesforkids.free",
      "broadcastReceiverIntentFilterActionNames": [
        "com.google.android.c2dm.intent.RECEIVE"
      ],
      "dependencies": [
        "com.google.ads.",
        "com.google.android.gms.ads.",
        "com.google.android.gms.analytics.",
        "com.google.android.gms.tagmanager",
        "com.pollfish",
        "com.revmob.ads."
      ],
      "domainNamesFilteredByExodus": [
        ".facebook.com",
        ".google.com",
        "doubleclick.net",
        "google-analytics.com",
        "www.googletagmanager.com"
      ],
      "metaDataNames": [
        "android.app.default_searchable",
        "android.app.searchable",
        "com.google.android.gms.version",
        "com.google.android.maps.v2.API_KEY"
      ],
      "sha256": "8b91bbcc90916dc7b71603c00355713fe222b6c7f3cfc84f4ed0e768209301e9",
      "usesPermissions": [
        "android.permission.GET_ACCOUNTS",
        "android.permission.INTERNET",
        "com.google.android.c2dm.permission.RECEIVE",
        "com.traingamesforkids.free.permission.C2D_MESSAGE"
      ]
    }
  ],
  "meta": {
    "generated": "2020-08-27T15:26:09.864626",
    "generatedBy": [
      "/home/hc/code/trackingthetrackers/scripts/make-trackers-apk-set.py"
    ],
    "ver": "0.3.0"
  }
}