{
  "apks": [
    {
      "applicationId": "com.game.themeparkmania",
      "broadcastReceiverIntentFilterActionNames": [
        "android.intent.action.PACKAGE_ADDED",
        "android.provider.Telephony.SMS_RECEIVED",
        "com.android.vending.INSTALL_REFERRER"
      ],
      "dependencies": [
        "com$chartboost$sdk$",
        "com$google$tagmanager",
        "com.applovin",
        "com.chartboost.sdk.",
        "com.facebook.ads",
        "com.google.ads.",
        "com.google.android.gms.ads.",
        "com.google.android.gms.analytics.",
        "com.google.android.gms.tagmanager",
        "com.google.tagmanager",
        "com.heyzap.sdk.ads.",
        "com.hyprmx.android.sdk.",
        "com.vungle.publisher.",
        "com_facebook_login"
      ],
      "domainNamesFilteredByExodus": [
        ".chartboost.com",
        ".facebook.com",
        ".google.com",
        "adcolony.com",
        "ads.heyzap.com",
        "androidads21.adcolony.com",
        "applovin.com",
        "doubleclick.net",
        "google-analytics.com",
        "med.heyzap.com",
        "stats.unity3d.com",
        "www.googletagmanager.com",
        "x.heyzap.com"
      ],
      "metaDataNames": [
        "com.facebook.sdk.ApplicationId",
        "com.google.android.gms.version",
        "unityplayer.ForwardNativeEventsToDalvik"
      ],
      "sha256": "59a69eb317141e2139ee8a936956e2bc0ad9ad5926c9bb0cec0f76079a7dad0f",
      "usesPermissions": [
        "android.permission.ACCESS_NETWORK_STATE",
        "android.permission.ACCESS_WIFI_STATE",
        "android.permission.INTERNET",
        "android.permission.WRITE_EXTERNAL_STORAGE",
        "android.permission.WRITE_EXTERNAL_STORAGE",
        "com.android.vending.BILLING",
        "com.nokia.payment.BILLING",
        "com.sec.android.iap.permission.BILLING",
        "com.slideme.sam.manager.inapp.permission.BILLING",
        "org.onepf.openiab.permission.BILLING"
      ]
    }
  ],
  "meta": {
    "generated": "2020-08-27T15:48:25.806139",
    "generatedBy": [
      "/home/hc/code/trackingthetrackers/scripts/make-trackers-apk-set.py"
    ],
    "ver": "0.3.0"
  }
}