{
  "apks": [
    {
      "applicationId": "com.achep.acdisplay",
      "broadcastReceiverIntentFilterActionNames": [
        "android.app.action.DEVICE_ADMIN_ENABLED",
        "android.appwidget.action.APPWIDGET_DELETED",
        "android.appwidget.action.APPWIDGET_DISABLED",
        "android.appwidget.action.APPWIDGET_ENABLED",
        "android.appwidget.action.APPWIDGET_UPDATE",
        "android.intent.action.ACTION_POWER_CONNECTED",
        "android.intent.action.ACTION_POWER_DISCONNECTED",
        "android.intent.action.BOOT_COMPLETED",
        "com.achep.acdisplay.DISABLE",
        "com.achep.acdisplay.ENABLE",
        "com.achep.acdisplay.TOGGLE",
        "com.painless.pc.ACTION_SET_STATE"
      ],
      "dependencies": [],
      "domainNamesFilteredByExodus": [
        ".google.com"
      ],
      "metaDataNames": [
        "android.accessibilityservice",
        "android.app.device_admin",
        "android.appwidget.provider",
        "xposeddescription",
        "xposedminversion",
        "xposedmodule"
      ],
      "sha256": "49f495a6ba711df8731f32ec99002829d41c1db948e3d902e80723ff24ba0c06",
      "usesPermissions": [
        "android.permission.ACCESS_NETWORK_STATE",
        "android.permission.BIND_ACCESSIBILITY_SERVICE",
        "android.permission.DISABLE_KEYGUARD",
        "android.permission.GET_TASKS",
        "android.permission.INTERNET",
        "android.permission.MEDIA_CONTENT_CONTROL",
        "android.permission.PACKAGE_USAGE_STATS",
        "android.permission.RECEIVE_BOOT_COMPLETED",
        "android.permission.VIBRATE",
        "android.permission.WAKE_LOCK",
        "android.permission.WRITE_SETTINGS",
        "com.android.vending.BILLING"
      ]
    }
  ],
  "meta": {
    "generated": "2020-08-27T17:13:47.728576",
    "generatedBy": [
      "/home/hc/code/trackingthetrackers/scripts/make-clean-apk-set.py"
    ],
    "generatedByCommitId": "40519285d6f404593fa655fa89b433743c25289e",
    "sourceDataCommitId": "888bb8f8c77ff55105fcab2ad84c263561eb1169",
    "ver": "0.3.0"
  }
}