{
  "apks": [
    {
      "applicationId": "community.fairphone.fplauncher3",
      "broadcastReceiverIntentFilterActionNames": [
        "android.appwidget.action.APPWIDGET_HOST_RESTORED",
        "android.appwidget.action.APPWIDGET_UPDATE",
        "android.intent.action.BOOT_COMPLETED",
        "android.intent.action.PACKAGE_CHANGED",
        "android.intent.action.PACKAGE_REMOVED",
        "android.intent.action.PACKAGE_REPLACED",
        "android.intent.action.USER_INITIALIZE",
        "android.intent.action.WALLPAPER_CHANGED",
        "com.android.launcher.action.INSTALL_SHORTCUT",
        "com.android.launcher.action.UNINSTALL_SHORTCUT"
      ],
      "dependencies": [],
      "domainNamesFilteredByExodus": [],
      "metaDataNames": [
        "android.appwidget.provider",
        "android.nfc.disable_beam_default",
        "android.support.VERSION"
      ],
      "sha256": "e33dbc6226b71fd4c49140f3a8f69efb32f8cf9c45b4710159ea469526c89d2a",
      "usesPermissions": [
        ".permission.READ_SETTINGS",
        ".permission.RECEIVE_FIRST_LOAD_BROADCAST",
        ".permission.RECEIVE_LAUNCH_BROADCASTS",
        ".permission.WRITE_SETTINGS",
        "android.permission.BIND_APPWIDGET",
        "android.permission.BROADCAST_STICKY",
        "android.permission.CALL_PHONE",
        "android.permission.GET_ACCOUNTS",
        "android.permission.INTERNET",
        "android.permission.PROCESS_OUTGOING_CALLS",
        "android.permission.READ_CONTACTS",
        "android.permission.READ_EXTERNAL_STORAGE",
        "android.permission.READ_SMS",
        "android.permission.RECEIVE_BOOT_COMPLETED",
        "android.permission.SEND_SMS",
        "android.permission.SET_WALLPAPER",
        "android.permission.SET_WALLPAPER_HINTS",
        "android.permission.VIBRATE",
        "android.permission.WRITE_SETTINGS",
        "com.android.launcher.permission.READ_SETTINGS",
        "com.android.launcher.permission.WRITE_SETTINGS"
      ]
    }
  ],
  "meta": {
    "generated": "2020-08-27T17:01:29.590425",
    "generatedBy": [
      "/home/hc/code/trackingthetrackers/scripts/make-clean-apk-set.py"
    ],
    "generatedByCommitId": "40519285d6f404593fa655fa89b433743c25289e",
    "sourceDataCommitId": "888bb8f8c77ff55105fcab2ad84c263561eb1169",
    "ver": "0.3.0"
  }
}