{
  "apks": [
    {
      "applicationId": "com.grulichsoftware.cookingpad",
      "broadcastReceiverIntentFilterActionNames": [
        "android.intent.action.BOOT_COMPLETED",
        "android.intent.action.PACKAGE_ADDED",
        "android.intent.action.PACKAGE_REMOVED",
        "android.intent.action.SIG_STR",
        "android.net.wifi.WIFI_STATE_CHANGED",
        "com.android.vending.billing.IN_APP_NOTIFY",
        "com.android.vending.billing.PURCHASE_STATE_CHANGED",
        "com.android.vending.billing.RESPONSE_CODE",
        "com.google.android.c2dm.intent.RECEIVE",
        "com.google.android.c2dm.intent.REGISTRATION"
      ],
      "dependencies": [
        "com_facebook_login"
      ],
      "domainNamesFilteredByExodus": [
        ".facebook.com",
        ".google.com",
        "amplitude.com",
        "api.amplitude.com"
      ],
      "metaDataNames": [
        "supportsOrientationLandscapeLeft",
        "supportsOrientationLandscapeRight",
        "supportsOrientationPortrait",
        "supportsOrientationPortraitUpsideDown",
        "targetedAppStore"
      ],
      "sha256": "48a5a5ba3834a0533c6de71a48092bb3896377233ceb874de07caf13eab35912",
      "usesPermissions": [
        "android.permission.ACCESS_COARSE_LOCATION",
        "android.permission.ACCESS_FINE_LOCATION",
        "android.permission.ACCESS_NETWORK_STATE",
        "android.permission.ACCESS_WIFI_STATE",
        "android.permission.INTERNET",
        "android.permission.READ_PHONE_STATE",
        "android.permission.RECEIVE_BOOT_COMPLETED",
        "android.permission.RESTART_PACKAGES",
        "android.permission.SYSTEM_ALERT_WINDOW",
        "android.permission.WRITE_APN_SETTINGS",
        "android.permission.WRITE_EXTERNAL_STORAGE",
        "com.android.launcher.permission.INSTALL_SHORTCUT"
      ]
    }
  ],
  "meta": {
    "generated": "2020-08-27T15:02:50.880078",
    "generatedBy": [
      "/home/hc/code/trackingthetrackers/scripts/make-trackers-apk-set.py"
    ],
    "ver": "0.3.0"
  }
}