{
  "apks": [
    {
      "applicationId": "net.noio.Reminder",
      "broadcastReceiverIntentFilterActionNames": [
        "android.intent.action.BOOT_COMPLETED"
      ],
      "dependencies": [],
      "domainNamesFilteredByExodus": [],
      "metaDataNames": [
        "android.support.PARENT_ACTIVITY"
      ],
      "sha256": "dc0682c24de3dae810e31f59021d9aa65bace3ecde7e6f1da24437c82b698fb4",
      "usesPermissions": [
        "android.permission.RECEIVE_BOOT_COMPLETED",
        "android.permission.SET_ALARM",
        "android.permission.VIBRATE"
      ]
    }
  ],
  "meta": {
    "generated": "2020-08-27T18:17:59.015410",
    "generatedBy": [
      "/home/hc/code/trackingthetrackers/scripts/make-clean-apk-set.py"
    ],
    "generatedByCommitId": "3839559c80042252d3b947fb61c86a18e8b31114",
    "sourceDataCommitId": "888bb8f8c77ff55105fcab2ad84c263561eb1169",
    "ver": "0.3.0"
  }
}