{
  "apks": [
    {
      "applicationId": "com.candy.app.hanhdong",
      "broadcastReceiverIntentFilterActionNames": [],
      "dependencies": [
        "com$startapp$android$publish",
        "com.google.ads.",
        "com.google.android.gms.analytics.",
        "com.startapp.android.publish"
      ],
      "domainNamesFilteredByExodus": [
        ".facebook.com",
        ".google.com",
        "doubleclick.net",
        "google-analytics.com"
      ],
      "metaDataNames": [
        "com.startapp.android.APP_ID",
        "com.startapp.android.DEV_ID"
      ],
      "sha256": "6da970d93929c1d47680865fe13300f510f36911f7a48a237288d157002deaf6",
      "usesPermissions": [
        "android.permission.ACCESS_NETWORK_STATE",
        "android.permission.ACCESS_WIFI_STATE",
        "android.permission.GET_TASKS",
        "android.permission.INTERNET",
        "android.permission.READ_PHONE_STATE",
        "android.permission.SYSTEM_ALERT_WINDOW",
        "android.permission.WRITE_EXTERNAL_STORAGE"
      ]
    }
  ],
  "meta": {
    "generated": "2020-08-27T15:17:29.961740",
    "generatedBy": [
      "/home/hc/code/trackingthetrackers/scripts/make-trackers-apk-set.py"
    ],
    "ver": "0.3.0"
  }
}