{
  "apks": [
    {
      "applicationId": "com.ai.shit",
      "broadcastReceiverIntentFilterActionNames": [
        "android.intent.action.PACKAGE_ADDED",
        "com.ai.shit.ALARM_ALERT"
      ],
      "dependencies": [],
      "domainNamesFilteredByExodus": [],
      "metaDataNames": [],
      "sha256": "80548d7e7e7d2fd7267b6481f87eef9d9709f18708928cd973c28047be6a37c7",
      "usesPermissions": [
        "android.permission.ACCESS_NETWORK_STATE",
        "android.permission.ACCESS_WIFI_STATE",
        "android.permission.INTERNET",
        "android.permission.READ_PHONE_STATE",
        "android.permission.VIBRATE",
        "android.permission.WRITE_EXTERNAL_STORAGE"
      ]
    }
  ],
  "meta": {
    "generated": "2020-08-27T15:17:09.632971",
    "generatedBy": [
      "/home/hc/code/trackingthetrackers/scripts/make-trackers-apk-set.py"
    ],
    "ver": "0.3.0"
  }
}