{
  "apks": [
    {
      "applicationId": "org.gateshipone.odyssey",
      "broadcastReceiverIntentFilterActionNames": [
        "android.appwidget.action.APPWIDGET_UPDATE",
        "android.intent.action.MEDIA_BUTTON",
        "org.gateshipone.odyssey.action_new_artwork_ready",
        "org.gateshipone.odyssey.hideartworkchanged",
        "org.gateshipone.odyssey.newtrackinfo",
        "org.gateshipone.odyssey.next",
        "org.gateshipone.odyssey.previous",
        "org.gateshipone.odyssey.stop",
        "org.gateshipone.odyssey.togglepause"
      ],
      "dependencies": [],
      "domainNamesFilteredByExodus": [],
      "metaDataNames": [
        "android.appwidget.provider"
      ],
      "sha256": "d1d6a22b92c755271f02aa08295e00ffb23c2ffde7106b2e65abd78e17456178",
      "usesPermissions": [
        "android.permission.ACCESS_NETWORK_STATE",
        "android.permission.INTERNET",
        "android.permission.READ_EXTERNAL_STORAGE",
        "android.permission.WAKE_LOCK",
        "android.permission.WRITE_EXTERNAL_STORAGE"
      ]
    }
  ],
  "meta": {
    "generated": "2020-08-27T18:26:59.884488",
    "generatedBy": [
      "/home/hc/code/trackingthetrackers/scripts/make-clean-apk-set.py"
    ],
    "generatedByCommitId": "3839559c80042252d3b947fb61c86a18e8b31114",
    "sourceDataCommitId": "888bb8f8c77ff55105fcab2ad84c263561eb1169",
    "ver": "0.3.0"
  }
}