{
  "apks": [
    {
      "applicationId": "com.danvelazco.fbwrapper",
      "broadcastReceiverIntentFilterActionNames": [],
      "dependencies": [],
      "domainNamesFilteredByExodus": [
        ".facebook.com"
      ],
      "metaDataNames": [
        "android.support.PARENT_ACTIVITY"
      ],
      "sha256": "596a65410e8e2057b9c21308c544e9ba1f36f0eaa5b091106e80b78ed4377c61",
      "usesPermissions": [
        "android.permission.ACCESS_COARSE_LOCATION",
        "android.permission.ACCESS_NETWORK_STATE",
        "android.permission.INTERNET",
        "android.permission.WRITE_EXTERNAL_STORAGE",
        "false",
        "false",
        "true",
        "true"
      ]
    }
  ],
  "meta": {
    "generated": "2020-08-27T14:45:30.860428",
    "generatedBy": [
      "/home/hc/code/trackingthetrackers/scripts/make-trackers-apk-set.py"
    ],
    "ver": "0.3.0"
  }
}