{
  "apks": [
    {
      "applicationId": "com.baidu.browser.apps",
      "broadcastReceiverIntentFilterActionNames": [
        "android.intent.action.BOOT_COMPLETED",
        "android.intent.action.DATE_CHANGED",
        "android.intent.action.PACKAGE_REMOVED",
        "android.net.conn.CONNECTIVITY_CHANGE",
        "baidu.intent.action.SHARE",
        "com.baidu.android.moplus.action.START",
        "com.baidu.android.pushservice.action.BIND_SYNC",
        "com.baidu.android.pushservice.action.MESSAGE",
        "com.baidu.android.pushservice.action.METHOD",
        "com.baidu.android.pushservice.action.RECEIVE",
        "com.baidu.android.pushservice.action.media.CLICK",
        "com.baidu.android.pushservice.action.notification.CLICK",
        "com.baidu.android.pushservice.action.notification.SHOW",
        "com.baidu.browser.cloud.action.detect.response",
        "com.baidu.browser.cloud.action.download.response",
        "com.baidu.browser.cloud.action.launcher",
        "com.baidu.browser.cloud.action.login",
        "com.baidu.browser.cloud.action.query.response",
        "com.baidu.browser.cloud.action.status.response",
        "com.baidu.browser.push.service.OPTIMEOUT",
        "com.baidu.browser.statistics.installs.TIMEOUT",
        "com.baidu.browser.wakeup.pulltimeout",
        "com.baidu.browser.wakeup.waketimeout"
      ],
      "dependencies": [
        "com.baidu.location"
      ],
      "domainNamesFilteredByExodus": [
        ".google.com",
        "map.baidu.com"
      ],
      "metaDataNames": [
        "IsBaiduApp",
        "api_key"
      ],
      "sha256": "43c7da57d2af8dd4cf3c6623b4ccbdc65f9fb8889dbf5b2562a2987f0bdbed56",
      "usesPermissions": [
        "android.permission.ACCESS_COARSE_LOCATION",
        "android.permission.ACCESS_COARSE_LOCATION",
        "android.permission.ACCESS_COARSE_LOCATION",
        "android.permission.ACCESS_FINE_LOCATION",
        "android.permission.ACCESS_FINE_LOCATION",
        "android.permission.ACCESS_NETWORK_STATE",
        "android.permission.ACCESS_NETWORK_STATE",
        "android.permission.ACCESS_WIFI_STATE",
        "android.permission.ACCESS_WIFI_STATE",
        "android.permission.AUTHENTICATE_ACCOUNTS",
        "android.permission.BACKUP_DATA",
        "android.permission.BAIDU_LOCATION_SERVICE",
        "android.permission.BROADCAST_STICKY",
        "android.permission.BROADCAST_STICKY",
        "android.permission.CAMERA",
        "android.permission.CHANGE_COMPONENT_ENABLED_STATE",
        "android.permission.CHANGE_WIFI_STATE",
        "android.permission.CHANGE_WIFI_STATE",
        "android.permission.CLEAR_APP_CACHE",
        "android.permission.DELETE_PACKAGES",
        "android.permission.DISABLE_KEYGUARD",
        "android.permission.DISABLE_KEYGUARD",
        "android.permission.GET_ACCOUNTS",
        "android.permission.GET_TASKS",
        "android.permission.GET_TASKS",
        "android.permission.INSTALL_PACKAGES",
        "android.permission.INTERNET",
        "android.permission.INTERNET",
        "android.permission.MANAGE_ACCOUNTS",
        "android.permission.MOUNT_UNMOUNT_FILESYSTEMS",
        "android.permission.MOUNT_UNMOUNT_FILESYSTEMS",
        "android.permission.PERSISTENT_ACTIVITY",
        "android.permission.READ_LOGS",
        "android.permission.READ_PHONE_STATE",
        "android.permission.READ_PHONE_STATE",
        "android.permission.RECEIVE_BOOT_COMPLETED",
        "android.permission.RECEIVE_BOOT_COMPLETED",
        "android.permission.RECEIVE_BOOT_COMPLETED",
        "android.permission.RECORD_AUDIO",
        "android.permission.SET_ACTIVITY_WATCHER",
        "android.permission.SYSTEM_ALERT_WINDOW",
        "android.permission.SYSTEM_ALERT_WINDOW",
        "android.permission.USE_CREDENTIALS",
        "android.permission.VIBRATE",
        "android.permission.VIBRATE",
        "android.permission.WAKE_LOCK",
        "android.permission.WRITE_EXTERNAL_STORAGE",
        "android.permission.WRITE_EXTERNAL_STORAGE",
        "android.permission.WRITE_EXTERNAL_STORAGE",
        "android.permission.WRITE_SETTINGS",
        "android.permission.WRITE_SETTINGS",
        "com.android.browser.permission.READ_HISTORY_BOOKMARKS",
        "com.android.launcher.permission.INSTALL_SHORTCUT",
        "com.android.launcher.permission.READ_SETTINGS",
        "com.android.launcher.permission.UNINSTALL_SHORTCUT",
        "com.android.mylauncher.permission.READ_SETTINGS",
        "com.baidu.browser.cloud.launcher.RECEIVE",
        "com.baidu.permission.SHARE",
        "com.bbk.launcher2.permission.READ_SETTINGS",
        "com.fede.launcher.permission.READ_SETTINGS",
        "com.htc.launcher.permission.READ_SETTINGS",
        "com.huawei.android.launcher.permission.READ_SETTINGS",
        "com.lge.launcher.permission.READ_SETTINGS",
        "com.nd.android.launcher.permission.READ_SETTINGS",
        "com.qihoo360.launcher.permission.READ_SETTINGS",
        "com.tencent.qqlauncher.permission.READ_SETTINGS",
        "com.yulong.android.launcher.permission.READ_SETTINGS",
        "net.qihoo.launcher.permission.READ_SETTINGS",
        "org.adw.launcher.permission.READ_SETTINGS",
        "org.adw.launcher_donut.permission.READ_SETTINGS",
        "org.adwfreak.launcher.permission.READ_SETTINGS"
      ]
    }
  ],
  "meta": {
    "generated": "2020-08-27T15:10:37.090392",
    "generatedBy": [
      "/home/hc/code/trackingthetrackers/scripts/make-trackers-apk-set.py"
    ],
    "ver": "0.3.0"
  }
}