{
  "apks": [
    {
      "applicationId": "com.greensoft.zyQingChen",
      "broadcastReceiverIntentFilterActionNames": [
        "android.intent.action.BOOT_COMPLETED"
      ],
      "dependencies": [],
      "domainNamesFilteredByExodus": [],
      "metaDataNames": [
        "WAPS_ID",
        "WAPS_PID"
      ],
      "sha256": "ec526e71e2c12801bf4f80ac1645fbd8d81a4e4430fda9b65fb37dcc04c72ad5",
      "usesPermissions": [
        "android.permission.ACCESS_NETWORK_STATE",
        "android.permission.ACCESS_NETWORK_STATE",
        "android.permission.ACCESS_WIFI_STATE",
        "android.permission.ACCESS_WIFI_STATE",
        "android.permission.CAMERA",
        "android.permission.CLEAR_APP_CACHE",
        "android.permission.DISABLE_KEYGUARD",
        "android.permission.FLASHLIGHT",
        "android.permission.GET_PACKAGE_SIZE",
        "android.permission.GET_TASKS",
        "android.permission.GET_TASKS",
        "android.permission.GET_TASKS",
        "android.permission.INTERNET",
        "android.permission.INTERNET",
        "android.permission.MOUNT_UNMOUNT_FILESYSTEMS",
        "android.permission.READ_LOGS",
        "android.permission.READ_PHONE_STATE",
        "android.permission.READ_PHONE_STATE",
        "android.permission.RECEIVE_BOOT_COMPLETED",
        "android.permission.SYSTEM_ALERT_WINDOW",
        "android.permission.VIBRATE",
        "android.permission.WAKE_LOCK",
        "android.permission.WRITE_EXTERNAL_STORAGE",
        "android.permission.WRITE_EXTERNAL_STORAGE"
      ]
    }
  ],
  "meta": {
    "generated": "2020-08-27T15:08:45.364886",
    "generatedBy": [
      "/home/hc/code/trackingthetrackers/scripts/make-trackers-apk-set.py"
    ],
    "ver": "0.3.0"
  }
}