{
  "apks": [
    {
      "applicationId": "org.gateshipone.malp",
      "broadcastReceiverIntentFilterActionNames": [
        "android.appwidget.action.APPWIDGET_UPDATE",
        "android.intent.action.MEDIA_BUTTON",
        "org.gateshipone.malp.action_new_artwork_ready",
        "org.gateshipone.malp.widget.server_disconnected",
        "org.gateshipone.malp.widget.status_changed",
        "org.gateshipone.malp.widget.track_changed"
      ],
      "dependencies": [],
      "domainNamesFilteredByExodus": [],
      "metaDataNames": [
        "android.appwidget.provider"
      ],
      "sha256": "fe2d2c2e916c89b48906c1eb550ba6b5d01e3cd7c89e5ec4bfca3e4a2bdaf8dc",
      "usesPermissions": [
        "android.permission.ACCESS_NETWORK_STATE",
        "android.permission.FOREGROUND_SERVICE",
        "android.permission.INTERNET",
        "android.permission.WAKE_LOCK"
      ]
    }
  ],
  "meta": {
    "generated": "2020-08-27T17:05:31.365090",
    "generatedBy": [
      "/home/hc/code/trackingthetrackers/scripts/make-clean-apk-set.py"
    ],
    "generatedByCommitId": "40519285d6f404593fa655fa89b433743c25289e",
    "sourceDataCommitId": "888bb8f8c77ff55105fcab2ad84c263561eb1169",
    "ver": "0.3.0"
  }
}