{
  "apks": [
    {
      "applicationId": "air.timuzsolutions.monsterridehdpro",
      "broadcastReceiverIntentFilterActionNames": [
        "android.intent.action.PACKAGE_ADDED",
        "android.intent.action.USER_PRESENT",
        "android.net.conn.CONNECTIVITY_CHANGE",
        "com.google.android.c2dm.intent.RECEIVE",
        "com.google.android.c2dm.intent.REGISTRATION"
      ],
      "dependencies": [
        "com.pushwoosh"
      ],
      "domainNamesFilteredByExodus": [
        "pushwoosh.com"
      ],
      "metaDataNames": [
        "PW_APPID",
        "PW_BROADCAST_PUSH",
        "PW_PROJECT_ID",
        "aspectRatio",
        "autoOrients",
        "containsVideo",
        "fullScreen",
        "initialcontent",
        "namespaceVersion",
        "uniqueappversionid"
      ],
      "sha256": "56ba5d2717e15f3ddb91713e4b27858966a0813249162d563a0277f2b514092f",
      "usesPermissions": [
        "air.timuzsolutions.monsterridehdpro.permission.C2D_MESSAGE",
        "android.permission.ACCESS_NETWORK_STATE",
        "android.permission.ACCESS_WIFI_STATE",
        "android.permission.GET_ACCOUNTS",
        "android.permission.GET_TASKS",
        "android.permission.INTERNET",
        "android.permission.READ_PHONE_STATE",
        "android.permission.SYSTEM_ALERT_WINDOW",
        "android.permission.WAKE_LOCK",
        "android.permission.WRITE_EXTERNAL_STORAGE",
        "com.google.android.c2dm.permission.RECEIVE"
      ]
    }
  ],
  "meta": {
    "generated": "2020-08-27T15:49:17.925921",
    "generatedBy": [
      "/home/hc/code/trackingthetrackers/scripts/make-trackers-apk-set.py"
    ],
    "ver": "0.3.0"
  }
}