{
  "apks": [
    {
      "applicationId": "com.evozi.injector",
      "broadcastReceiverIntentFilterActionNames": [
        "android.intent.action.PACKAGE_ADDED",
        "android.net.conn.CONNECTIVITY_CHANGE"
      ],
      "dependencies": [
        "com$mopub$mobileads$",
        "com.google.ads.",
        "com.google.android.gms.ads.",
        "com.mopub.mobileads."
      ],
      "domainNamesFilteredByExodus": [
        ".facebook.com",
        ".google.com",
        "crashlytics.com",
        "doubleclick.net",
        "mopub.com"
      ],
      "metaDataNames": [
        "android.support.PARENT_ACTIVITY",
        "com.google.android.gms.version",
        "com.lge.support.SPLIT_WINDOW",
        "com.sec.android.multiwindow.DEFAULT_SIZE_H",
        "com.sec.android.multiwindow.DEFAULT_SIZE_W",
        "com.sec.android.multiwindow.MINIMUM_SIZE_H",
        "com.sec.android.multiwindow.MINIMUM_SIZE_W",
        "com.sec.android.support.multiwindow",
        "io.fabric.ApiKey"
      ],
      "sha256": "4bf60c122fff7773cc5fee85c2603ac6e5f6e58e84aaf68937d29676fbad31de",
      "usesPermissions": [
        "android.permission.ACCESS_NETWORK_STATE",
        "android.permission.ACCESS_WIFI_STATE",
        "android.permission.CHANGE_NETWORK_STATE",
        "android.permission.INTERNET",
        "android.permission.READ_EXTERNAL_STORAGE",
        "android.permission.VIBRATE",
        "android.permission.WAKE_LOCK",
        "android.permission.WRITE_EXTERNAL_STORAGE",
        "com.android.vending.BILLING"
      ]
    }
  ],
  "meta": {
    "generated": "2020-08-27T15:39:27.479022",
    "generatedBy": [
      "/home/hc/code/trackingthetrackers/scripts/make-trackers-apk-set.py"
    ],
    "ver": "0.3.0"
  }
}