{
  "apks": [
    {
      "applicationId": "de.onyxbits.listmyapps",
      "broadcastReceiverIntentFilterActionNames": [],
      "dependencies": [],
      "domainNamesFilteredByExodus": [
        ".google.com"
      ],
      "metaDataNames": [
        "android.support.PARENT_ACTIVITY"
      ],
      "sha256": "d78bdd022267fb5c426d0474729c453fcd7b0af227e0ee41d830a42e3817c77b",
      "usesPermissions": []
    }
  ],
  "meta": {
    "generated": "2020-08-27T17:02:14.716642",
    "generatedBy": [
      "/home/hc/code/trackingthetrackers/scripts/make-clean-apk-set.py"
    ],
    "generatedByCommitId": "40519285d6f404593fa655fa89b433743c25289e",
    "sourceDataCommitId": "888bb8f8c77ff55105fcab2ad84c263561eb1169",
    "ver": "0.3.0"
  }
}