{
  "apks": [
    {
      "applicationId": "cz.yetanotherview.webcamviewer.app",
      "broadcastReceiverIntentFilterActionNames": [
        "android.appwidget.action.APPWIDGET_UPDATE",
        "cz.yetanotherview.webcamviewer.app.widget.WIDGET_BUTTON"
      ],
      "dependencies": [
        "com$mapbox$mapboxsdk$",
        "com.mapbox.mapboxsdk."
      ],
      "domainNamesFilteredByExodus": [
        ".google.com",
        "a.tiles.mapbox.com"
      ],
      "metaDataNames": [
        "android.appwidget.provider"
      ],
      "sha256": "cce6add02f5b1cf1611c78dc625d8079ddebe3e0a4de97df25607120f9ee3e3b",
      "usesPermissions": [
        "android.permission.ACCESS_COARSE_LOCATION",
        "android.permission.ACCESS_NETWORK_STATE",
        "android.permission.CLEAR_APP_CACHE",
        "android.permission.INTERNET",
        "android.permission.READ_EXTERNAL_STORAGE",
        "android.permission.WRITE_EXTERNAL_STORAGE"
      ]
    }
  ],
  "meta": {
    "generated": "2020-08-27T17:54:21.121237",
    "generatedBy": [
      "/home/hc/code/trackingthetrackers/scripts/make-clean-apk-set.py"
    ],
    "generatedByCommitId": "3839559c80042252d3b947fb61c86a18e8b31114",
    "sourceDataCommitId": "888bb8f8c77ff55105fcab2ad84c263561eb1169",
    "ver": "0.3.0"
  }
}