{
  "apks": [
    {
      "applicationId": "com.uzj.hlh",
      "broadcastReceiverIntentFilterActionNames": [
        "android.intent.action.BATTERY_CHANGED",
        "android.intent.action.BOOT_COMPLETED",
        "android.intent.action.DOWNLOAD_COMPLETE",
        "android.intent.action.NEW_OUTGOING_CALL",
        "android.intent.action.PACKAGE_ADDED",
        "android.intent.action.PACKAGE_REMOVED",
        "android.intent.action.PHONE_STATE",
        "android.intent.action.SCREEN_OFF",
        "android.intent.action.SCREEN_ON",
        "android.intent.action.USER_PRESENT",
        "android.net.conn.CONNECTIVITY_CHANGE",
        "android.provider.Telephony.GSM_SMS_RECEIVED",
        "android.provider.Telephony.SMS_RECEIVED",
        "android.provider.Telephony.SMS_RECEIVED_2",
        "android.provider.Telephony.WAP_PUSH_RECEIVED",
        "com.skymobi.pay.action.plugin",
        "com.skymobi.pay.plugin.advert",
        "com.skymobi.pay.plugin.push",
        "com.skymobi.pay.plugin.recordupload"
      ],
      "dependencies": [],
      "domainNamesFilteredByExodus": [],
      "metaDataNames": [
        "DICK_CACHE_NAME",
        "ZMAppId",
        "ZMMerchantId",
        "ZMOtherEnv",
        "appID",
        "channel_id",
        "channel_id_sub",
        "p_m_a",
        "p_m_l",
        "p_start_activity",
        "pay_test",
        "push_enabled",
        "sk_channel_index",
        "statistic_test",
        "svn_revision",
        "sy_appid",
        "sy_channel",
        "sy_sub_channel",
        "zfb_app_name"
      ],
      "sha256": "e9b91f37588510cac137c53ab5511a4a1fc37e93717f89752a5a2e73583a2f78",
      "usesPermissions": [
        "android.permission.ACCESS_COARSE_LOCATION",
        "android.permission.ACCESS_COARSE_LOCATION",
        "android.permission.ACCESS_NETWORK_STATE",
        "android.permission.ACCESS_SUPERUSER",
        "android.permission.ACCESS_WIFI_STATE",
        "android.permission.BLUETOOTH",
        "android.permission.CALL_PHONE",
        "android.permission.CAMERA",
        "android.permission.CHANGE_NETWORK_STATE",
        "android.permission.CHANGE_NETWORK_STATE",
        "android.permission.CHANGE_WIFI_STATE",
        "android.permission.CLEAR_APP_CACHE",
        "android.permission.GET_ACCOUNTS",
        "android.permission.GET_PACKAGE_SIZE",
        "android.permission.GET_TASKS",
        "android.permission.INTERNET",
        "android.permission.MODIFY_AUDIO_SETTINGS",
        "android.permission.MOUNT_UNMOUNT_FILESYSTEMS",
        "android.permission.PROCcESS_OUTGOING_CALLS",
        "android.permission.READ_CONTACTS",
        "android.permission.READ_PHONE_STATE",
        "android.permission.READ_SMS",
        "android.permission.READ_SMS",
        "android.permission.READ_SMS",
        "android.permission.RECEIVE_BOOT_COMPLETED",
        "android.permission.RECEIVE_BOOT_COMPLETED",
        "android.permission.RECEIVE_BOOT_COMPLETED",
        "android.permission.RECEIVE_MMS",
        "android.permission.RECEIVE_SMS",
        "android.permission.RECEIVE_SMS",
        "android.permission.RECEIVE_SMS",
        "android.permission.RECEIVE_WAP_PUSH",
        "android.permission.RUN_INSTRUMENTATION",
        "android.permission.SEND_SMS",
        "android.permission.SEND_SMS",
        "android.permission.SEND_SMS",
        "android.permission.SYSTEM_ALERT_WINDOW",
        "android.permission.VIBRATE",
        "android.permission.WAKE_LOCK",
        "android.permission.WRITE_EXTERNAL_STORAGE",
        "android.permission.WRITE_SETTINGS",
        "android.permission.WRITE_SMS",
        "android.permission.WRITE_SMS",
        "com.android.launcher.permission.CALL_PHONE",
        "com.android.launcher.permission.INSTALL_SHORTCUT",
        "com.android.launcher.permission.READ_SETTINGS",
        "com.android.launcher.permission.UNINSTALL_SHORTCUT",
        "com.android.launcher.permission.WRITE_SETTINGS",
        "com.dianxinos.superuser.permission.UPDATE"
      ]
    }
  ],
  "meta": {
    "generated": "2020-08-27T15:36:59.851109",
    "generatedBy": [
      "/home/hc/code/trackingthetrackers/scripts/make-trackers-apk-set.py"
    ],
    "ver": "0.3.0"
  }
}