{
  "apks": [
    {
      "applicationId": "uk.co.keepawayfromfire.screens",
      "broadcastReceiverIntentFilterActionNames": [
        "com.twofortyfouram.locale.intent.action.FIRE_SETTING"
      ],
      "dependencies": [],
      "domainNamesFilteredByExodus": [
        ".google.com"
      ],
      "metaDataNames": [
        "android.accessibilityservice",
        "android.service.quicksettings.ACTIVE_TILE",
        "android.support.PARENT_ACTIVITY"
      ],
      "sha256": "5e3b282151d108eb53041231ef31a953657be9f7446fea2009a0d77c9225016c",
      "usesPermissions": [
        "com.android.launcher.permission.INSTALL_SHORTCUT"
      ]
    }
  ],
  "meta": {
    "generated": "2020-08-27T17:08:22.282529",
    "generatedBy": [
      "/home/hc/code/trackingthetrackers/scripts/make-clean-apk-set.py"
    ],
    "generatedByCommitId": "40519285d6f404593fa655fa89b433743c25289e",
    "sourceDataCommitId": "888bb8f8c77ff55105fcab2ad84c263561eb1169",
    "ver": "0.3.0"
  }
}