{
  "apks": [
    {
      "applicationId": "protect.budgetwatch",
      "broadcastReceiverIntentFilterActionNames": [
        "android.appwidget.action.APPWIDGET_UPDATE"
      ],
      "dependencies": [],
      "domainNamesFilteredByExodus": [],
      "metaDataNames": [
        "android.app.searchable",
        "android.app.shortcuts",
        "android.appwidget.provider",
        "android.support.FILE_PROVIDER_PATHS"
      ],
      "sha256": "acc4c34772449146e16fcd915603e9d3a07430df22bb33ce2e2a02a0d9fcf19c",
      "usesPermissions": [
        "android.permission.CAMERA",
        "android.permission.WRITE_EXTERNAL_STORAGE"
      ]
    }
  ],
  "meta": {
    "generated": "2020-08-27T18:42:46.924226",
    "generatedBy": [
      "/home/hc/code/trackingthetrackers/scripts/make-clean-apk-set.py"
    ],
    "generatedByCommitId": "3839559c80042252d3b947fb61c86a18e8b31114",
    "sourceDataCommitId": "888bb8f8c77ff55105fcab2ad84c263561eb1169",
    "ver": "0.3.0"
  }
}