{
  "apks": [
    {
      "applicationId": "com.cn7782.android.eoa",
      "broadcastReceiverIntentFilterActionNames": [
        "android.intent.action.BOOT_COMPLETED",
        "android.intent.action.PACKAGE_ADDED",
        "android.intent.action.PACKAGE_REMOVED",
        "android.intent.action.USER_PRESENT",
        "android.net.conn.CONNECTIVITY_CHANGE",
        "cn.jpush.android.intent.ACTION_RICHPUSH_CALLBACK",
        "cn.jpush.android.intent.MESSAGE_RECEIVED",
        "cn.jpush.android.intent.NOTIFICATION_OPENED",
        "cn.jpush.android.intent.NOTIFICATION_RECEIVED",
        "cn.jpush.android.intent.NOTIFICATION_RECEIVED_PROXY",
        "cn.jpush.android.intent.REGISTRATION",
        "cn.jpush.android.intent.UNREGISTRATION",
        "com.cn7782.android.eoa.action.ACTION_ALARM_RECEIVER"
      ],
      "dependencies": [
        "com.baidu.location"
      ],
      "domainNamesFilteredByExodus": [
        "map.baidu.com"
      ],
      "metaDataNames": [
        "JPUSH_APPKEY",
        "JPUSH_CHANNEL",
        "UMENG_APPKEY",
        "UMENG_CHANNEL",
        "com.baidu.lbsapi.API_KEY"
      ],
      "sha256": "95d2f95db9dfd4fec9d757dd817ba1a2257da5be90fc307192a4f165ead71574",
      "usesPermissions": [
        "android.permission.ACCESS_COARSE_LOCATION",
        "android.permission.ACCESS_FINE_LOCATION",
        "android.permission.ACCESS_LOCATION_EXTRA_COMMANDS",
        "android.permission.ACCESS_NETWORK_STATE",
        "android.permission.ACCESS_WIFI_STATE",
        "android.permission.CALL_PHONE",
        "android.permission.CHANGE_NETWORK_STATE",
        "android.permission.CHANGE_WIFI_STATE",
        "android.permission.INTERNET",
        "android.permission.MOUNT_UNMOUNT_FILESYSTEMS",
        "android.permission.READ_CONTACTS",
        "android.permission.READ_EXTERNAL_STORAGE",
        "android.permission.READ_LOGS",
        "android.permission.READ_PHONE_STATE",
        "android.permission.RECEIVE_BOOT_COMPLETED",
        "android.permission.RECEIVE_USER_PRESENT",
        "android.permission.SEND_SMS",
        "android.permission.SYSTEM_ALERT_WINDOW",
        "android.permission.VIBRATE",
        "android.permission.WAKE_LOCK",
        "android.permission.WRITE_EXTERNAL_STORAGE",
        "android.permission.WRITE_SETTINGS",
        "com.cn7782.android.eoa.permission.JPUSH_MESSAGE"
      ]
    }
  ],
  "meta": {
    "generated": "2020-08-27T14:57:01.513655",
    "generatedBy": [
      "/home/hc/code/trackingthetrackers/scripts/make-trackers-apk-set.py"
    ],
    "ver": "0.3.0"
  }
}