{
  "apks": [
    {
      "applicationId": "io.github.subhamtyagi.privacyapplock",
      "broadcastReceiverIntentFilterActionNames": [
        "android.intent.action.BOOT_COMPLETED"
      ],
      "dependencies": [],
      "domainNamesFilteredByExodus": [],
      "metaDataNames": [],
      "sha256": "674014366aaa3d32526ca149bb6432a361bd126598df2598fc7ce46c10690956",
      "usesPermissions": [
        "android.permission.GET_TASKS",
        "android.permission.MOUNT_UNMOUNT_FILESYSTEMS",
        "android.permission.PACKAGE_USAGE_STATS",
        "android.permission.RECEIVE_BOOT_COMPLETED",
        "android.permission.REQUEST_IGNORE_BATTERY_OPTIMIZATIONS",
        "android.permission.SYSTEM_ALERT_WINDOW",
        "android.permission.WRITE_EXTERNAL_STORAGE"
      ]
    }
  ],
  "meta": {
    "generated": "2020-08-27T18:13:44.112937",
    "generatedBy": [
      "/home/hc/code/trackingthetrackers/scripts/make-clean-apk-set.py"
    ],
    "generatedByCommitId": "3839559c80042252d3b947fb61c86a18e8b31114",
    "sourceDataCommitId": "888bb8f8c77ff55105fcab2ad84c263561eb1169",
    "ver": "0.3.0"
  }
}