{
  "apks": [
    {
      "applicationId": "com.visuapps.waterlivewallpaper",
      "broadcastReceiverIntentFilterActionNames": [
        "android.intent.action.BOOT_COMPLETED"
      ],
      "dependencies": [
        "com.google.ads."
      ],
      "domainNamesFilteredByExodus": [
        ".google.com",
        "api.airpush.com",
        "doubleclick.net"
      ],
      "metaDataNames": [
        "android.service.wallpaper",
        "com.hibfrndrwn.owvcbiacmv152179.APIKEY",
        "com.hibfrndrwn.owvcbiacmv152179.APPID"
      ],
      "sha256": "041ad4a7eb9b971ebec20947bbc2fb55a915294c64ba8d005da31b80be61a9f6",
      "usesPermissions": [
        "android.permission.ACCESS_COARSE_LOCATION",
        "android.permission.ACCESS_FINE_LOCATION",
        "android.permission.ACCESS_NETWORK_STATE",
        "android.permission.ACCESS_WIFI_STATE",
        "android.permission.INTERNET",
        "android.permission.READ_PHONE_STATE",
        "android.permission.RECEIVE_BOOT_COMPLETED",
        "android.permission.WRITE_EXTERNAL_STORAGE",
        "com.android.browser.permission.READ_HISTORY_BOOKMARKS",
        "com.android.launcher.permission.INSTALL_SHORTCUT"
      ]
    }
  ],
  "meta": {
    "generated": "2020-08-27T15:36:45.404564",
    "generatedBy": [
      "/home/hc/code/trackingthetrackers/scripts/make-trackers-apk-set.py"
    ],
    "ver": "0.3.0"
  }
}