{
  "apks": [
    {
      "applicationId": "br.com.tapps.numberlink",
      "broadcastReceiverIntentFilterActionNames": [
        "com.amazon.inapp.purchasing.NOTIFY",
        "com.android.vending.billing.IN_APP_NOTIFY",
        "com.android.vending.billing.PURCHASE_STATE_CHANGED",
        "com.android.vending.billing.RESPONSE_CODE",
        "com.google.android.c2dm.intent.RECEIVE",
        "com.google.android.c2dm.intent.REGISTRATION"
      ],
      "dependencies": [
        "com$amazon$device$ads",
        "com$inneractive$api$ads",
        "com$millennialmedia$",
        "com$mopub$mobileads$",
        "com$smaato$soma$",
        "com.amazon.device.ads",
        "com.chartboost.sdk.",
        "com.flurry.",
        "com.google.ads.",
        "com.inmobi",
        "com.inneractive.api.ads",
        "com.millennialmedia.",
        "com.mobclix.android.sdk",
        "com.mopub.mobileads.",
        "com.revmob.ads.",
        "com.smaato.soma.",
        "com_facebook_login",
        "com_smaato_soma_"
      ],
      "domainNamesFilteredByExodus": [
        ".chartboost.com",
        ".facebook.com",
        ".google.com",
        "ads.mobclix.com",
        "amplitude.com",
        "api.amplitude.com",
        "api.vungle.com",
        "data.mobclix.com",
        "doubleclick.net",
        "flurry.com",
        "i.w.inmobi.com",
        "inmobi.com",
        "millennialmedia.com",
        "mobclix.com",
        "mopub.com",
        "openx.com",
        "smaato.net",
        "soma.smaato.net",
        "urbanairship.com"
      ],
      "metaDataNames": [
        "com.mobclix.APPLICATION_ID",
        "supportsOrientationLandscapeLeft",
        "supportsOrientationLandscapeRight",
        "supportsOrientationPortrait",
        "supportsOrientationPortraitUpsideDown"
      ],
      "sha256": "7c22c2e2550d4f08405019509d4e8db11cf7860e09bb5bdbbdd5530a2c2f17e4",
      "usesPermissions": [
        "android.permission.ACCESS_NETWORK_STATE",
        "android.permission.INTERNET",
        "android.permission.READ_PHONE_STATE",
        "android.permission.WRITE_EXTERNAL_STORAGE",
        "com.android.vending.BILLING"
      ]
    }
  ],
  "meta": {
    "generated": "2020-08-27T15:06:54.151362",
    "generatedBy": [
      "/home/hc/code/trackingthetrackers/scripts/make-trackers-apk-set.py"
    ],
    "ver": "0.3.0"
  }
}