{
  "apks": [
    {
      "applicationId": "me.msqrd.android",
      "broadcastReceiverIntentFilterActionNames": [
        "android.intent.action.BOOT_COMPLETED",
        "android.intent.action.EXTERNAL_APPLICATIONS_AVAILABLE",
        "android.intent.action.PACKAGE_ADDED",
        "android.intent.action.PACKAGE_REPLACED",
        "android.intent.action.USER_PRESENT",
        "android.net.conn.CONNECTIVITY_CHANGE",
        "com.google.android.gms.analytics.ANALYTICS_DISPATCH"
      ],
      "dependencies": [
        "com$facebook$login",
        "com$facebook$share",
        "com.facebook.appevents",
        "com.facebook.login",
        "com.facebook.share",
        "com.google.ads.",
        "com.google.android.gms.ads.",
        "com.google.android.gms.analytics.",
        "com.google.android.gms.tagmanager",
        "com.splunk.mint",
        "com_facebook_login",
        "com_facebook_share",
        "net.hockeyapp."
      ],
      "domainNamesFilteredByExodus": [
        ".facebook.com",
        ".google.com",
        "amplitude.com",
        "api.amplitude.com",
        "doubleclick.net",
        "google-analytics.com",
        "hockeyapp.net",
        "www.googletagmanager.com"
      ],
      "metaDataNames": [
        "FR_KEY",
        "android.support.FILE_PROVIDER_PATHS",
        "com.facebook.sdk.ApplicationId",
        "com.google.android.gms.version"
      ],
      "sha256": "e538be67ad223e345ac77f91f1c593c1374c2ff3b5cc8a6ece20733d54807f14",
      "usesPermissions": [
        "android.permission.ACCESS_NETWORK_STATE",
        "android.permission.CAMERA",
        "android.permission.GET_TASKS",
        "android.permission.INTERNET",
        "android.permission.READ_EXTERNAL_STORAGE",
        "android.permission.READ_PHONE_STATE",
        "android.permission.RECEIVE_BOOT_COMPLETED",
        "android.permission.RECORD_AUDIO",
        "android.permission.SYSTEM_ALERT_WINDOW",
        "android.permission.WRITE_EXTERNAL_STORAGE",
        "com.android.launcher.permission.INSTALL_SHORTCUT",
        "com.android.launcher.permission.UNINSTALL_SHORTCUT"
      ]
    }
  ],
  "meta": {
    "generated": "2020-08-27T15:16:03.562831",
    "generatedBy": [
      "/home/hc/code/trackingthetrackers/scripts/make-trackers-apk-set.py"
    ],
    "ver": "0.3.0"
  }
}