{
  "apks": [
    {
      "applicationId": "hr.kravarscan.enchantedfortress",
      "broadcastReceiverIntentFilterActionNames": [],
      "dependencies": [],
      "domainNamesFilteredByExodus": [],
      "metaDataNames": [],
      "sha256": "f0cc9ad1b1a77d1001b67785ae088c792a81bb5443b138c7d8e39aa4df46eee2",
      "usesPermissions": []
    }
  ],
  "meta": {
    "generated": "2020-08-27T18:12:02.833532",
    "generatedBy": [
      "/home/hc/code/trackingthetrackers/scripts/make-clean-apk-set.py"
    ],
    "generatedByCommitId": "3839559c80042252d3b947fb61c86a18e8b31114",
    "sourceDataCommitId": "888bb8f8c77ff55105fcab2ad84c263561eb1169",
    "ver": "0.3.0"
  }
}