{
  "apks": [
    {
      "applicationId": "wenhr.Mcdonalds",
      "broadcastReceiverIntentFilterActionNames": [
        "android.intent.action.PACKAGE_ADDED",
        "android.intent.action.PACKAGE_REMOVED",
        "android.intent.action.PACKAGE_REPLACED"
      ],
      "dependencies": [
        "com.baidu.location",
        "com.baidu.mobads",
        "com.umeng.fb"
      ],
      "domainNamesFilteredByExodus": [
        "alog.umeng.com",
        "map.baidu.com",
        "oc.umeng.com",
        "umeng.com"
      ],
      "metaDataNames": [
        "BaiduMobAd_APP_ID",
        "BaiduMobAd_APP_SEC",
        "DTN_ APP_ID",
        "DTN_PLACE_ID",
        "DTN_SECRET_KEY",
        "JUZI_APPID",
        "MARKET_ID",
        "MEDIA_ID",
        "MIJI_CHANNEL",
        "MIJI_SECRETKEY",
        "RETURN_IMMEDIATELY",
        "SITE_ID",
        "SITE_KEY",
        "TEST_MODE",
        "UMENG_APPKEY",
        "UMENG_CHANNEL",
        "WAPS_ID",
        "WAPS_PID"
      ],
      "sha256": "09ef0d8de4f028580edd00a81cd56e2278024683da0f481135ebc8539dfb197f",
      "usesPermissions": [
        "android.permission.ACCESS_COARSE_LOCATION",
        "android.permission.ACCESS_FINE_LOCATION",
        "android.permission.ACCESS_NETWORK_STATE",
        "android.permission.ACCESS_WIFI_STATE",
        "android.permission.GET_TASKS",
        "android.permission.INTERNET",
        "android.permission.READ_PHONE_STATE",
        "android.permission.WRITE_EXTERNAL_STORAGE"
      ]
    }
  ],
  "meta": {
    "generated": "2020-08-27T14:51:06.021184",
    "generatedBy": [
      "/home/hc/code/trackingthetrackers/scripts/make-trackers-apk-set.py"
    ],
    "ver": "0.3.0"
  }
}