{
  "apks": [
    {
      "applicationId": "com.power.core.time",
      "broadcastReceiverIntentFilterActionNames": [
        "android.intent.action.BOOT_COMPLETED",
        "android.intent.action.DATE_CHANGED",
        "android.intent.action.DELETE",
        "android.intent.action.EXTERNAL_APPLICATIONS_AVAILABLE",
        "android.intent.action.PACKAGE_ADDED",
        "android.intent.action.PACKAGE_REMOVED",
        "android.intent.action.PACKAGE_REPLACED",
        "android.intent.action.SCREEN_OFF",
        "android.intent.action.SCREEN_ON",
        "android.intent.action.USER_PRESENT",
        "android.net.conn.CONNECTIVITY_CHANGE",
        "com.das.CHECK_UPLOAD_ACTION_FILE",
        "com.du.appsadlib.ADS_ACTION",
        "com.du.appsadlib.CHECK_QUERY_ACTION",
        "com.du.appsadlib.CHECK_UPDATE_ACTION",
        "com.du.appsplatform.CORE_RECEIVER",
        "com.du.appsplatform.MSG_ACTION",
        "com.du.appsplatform.UPDATE_LOAD_FILE_SEQ",
        "io.presage.receivers.BootReceiver.RESTART_SERVICE"
      ],
      "dependencies": [],
      "domainNamesFilteredByExodus": [],
      "metaDataNames": [
        "ETCCHANNEL",
        "MbvChannel",
        "MbvLicense",
        "MbvProduction",
        "UMENG_APPKEY",
        "UMENG_CHANNEL",
        "presage_key"
      ],
      "sha256": "75a689d39a27db0054a542c45a1b437f534f5fd5ebfac9037d25ab9dfb311d54",
      "usesPermissions": [
        "android.intent.action.BOOT_COMPLETED",
        "android.permission.ACCESS_COARSE_LOCATION",
        "android.permission.ACCESS_DOWNLOAD_MANAGER",
        "android.permission.ACCESS_DOWNLOAD_MANAGER",
        "android.permission.ACCESS_DOWNLOAD_MANAGER",
        "android.permission.ACCESS_FINE_LOCATION",
        "android.permission.ACCESS_FINE_LOCATION",
        "android.permission.ACCESS_MTK_MMHW",
        "android.permission.ACCESS_NETWORK_STATE",
        "android.permission.ACCESS_NETWORK_STATE",
        "android.permission.ACCESS_WAKE_LOCK",
        "android.permission.ACCESS_WIFI_STATE",
        "android.permission.ACCESS_WIFI_STATE",
        "android.permission.BATTERY_STATS",
        "android.permission.BROADCAST_STICKY",
        "android.permission.BROADCAST_STICKY",
        "android.permission.CAMERA",
        "android.permission.CAMERA",
        "android.permission.CHANGE_CONFIGURATION",
        "android.permission.CHANGE_CONFIGURATION",
        "android.permission.CHANGE_NETWORK_STATE",
        "android.permission.CHANGE_WIFI_STATE",
        "android.permission.CHANGE_WIFI_STATE",
        "android.permission.DELETE_PACKAGES",
        "android.permission.DOWNLOAD_WITHOUT_NOTIFICATION",
        "android.permission.GET_ACCOUNTS",
        "android.permission.GET_PACKAGE_SIZE",
        "android.permission.GET_TASKS",
        "android.permission.GET_TASKS",
        "android.permission.GET_TASKS",
        "android.permission.INSTALL_PACKAGES",
        "android.permission.INTERNET",
        "android.permission.INTERNET",
        "android.permission.KILL_BACKGROUND_PROCESSES",
        "android.permission.KILL_BACKGROUND_PROCESSES",
        "android.permission.MOUNT_UNMOUNT_FILESYSTEMS",
        "android.permission.MOUNT_UNMOUNT_FILESYSTEMS",
        "android.permission.MOUNT_UNMOUNT_FILESYSTEMS",
        "android.permission.PACKAGE_USAGE_STATS",
        "android.permission.READ_EXTERNAL_STORAGE",
        "android.permission.READ_EXTERNAL_STORAGE",
        "android.permission.READ_PHONE_STATE",
        "android.permission.READ_PHONE_STATE",
        "android.permission.READ_SETTINGS",
        "android.permission.RECEIVE_BOOT_COMPLETED",
        "android.permission.RECEIVE_BOOT_COMPLETED",
        "android.permission.RECEIVE_BOOT_COMPLETED",
        "android.permission.RESTART_PACKAGES",
        "android.permission.RESTART_PACKAGES",
        "android.permission.SYSTEM_ALERT_WINDOW",
        "android.permission.SYSTEM_ALERT_WINDOW",
        "android.permission.SYSTEM_ALERT_WINDOW",
        "android.permission.SYSTEM_OVERLAY_WINDOW",
        "android.permission.SYSTEM_OVERLAY_WINDOW",
        "android.permission.SYSTEM_OVERLAY_WINDOW",
        "android.permission.VIBRATE",
        "android.permission.WAKE_LOCK",
        "android.permission.WAKE_LOCK",
        "android.permission.WAKE_LOCK",
        "android.permission.WAKE_LOCK",
        "android.permission.WRITE_EXTERNAL_STORAGE",
        "android.permission.WRITE_EXTERNAL_STORAGE",
        "android.permission.WRITE_SETTINGS",
        "com.android.browser.permission.READ_HISTORY_BOOKMARKS",
        "com.android.browser.permission.WRITE_HISTORY_BOOKMARKS",
        "com.android.launcher.permission.INSTALL_SHORTCUT",
        "com.android.launcher.permission.INSTALL_SHORTCUT",
        "com.android.launcher.permission.INSTALL_SHORTCUT",
        "com.android.launcher.permission.UNINSTALL_SHORTCUT",
        "com.android.launcher.permission.UNINSTALL_SHORTCUT",
        "com.android.launcher.permission.UNINSTALL_SHORTCUT",
        "com.android.permission.UNINSTALL_SHORTCUT",
        "com.android.permission.UNINSTALL_SHORTCUT",
        "com.android.permission.UNINSTALL_SHORTCUT"
      ]
    }
  ],
  "meta": {
    "generated": "2020-08-27T15:36:11.560726",
    "generatedBy": [
      "/home/hc/code/trackingthetrackers/scripts/make-trackers-apk-set.py"
    ],
    "ver": "0.3.0"
  }
}