{
  "apks": [
    {
      "applicationId": "com.quickstartandroid.skiinggo",
      "broadcastReceiverIntentFilterActionNames": [
        "com.android.vending.INSTALL_REFERRER"
      ],
      "dependencies": [
        "com$appnext$",
        "com.applovin",
        "com.appnext."
      ],
      "domainNamesFilteredByExodus": [
        "api.airpush.com",
        "applovin.com"
      ],
      "metaDataNames": [
        "applovin.sdk.key",
        "com.ziglwnxu.saxlvcwc141440.APIKEY",
        "com.ziglwnxu.saxlvcwc141440.APPID"
      ],
      "sha256": "52295a6e53eeaa2b8807097729c4e1b69c24ffe53f975e73de3e488d35cc2cb1",
      "usesPermissions": [
        "android.permission.ACCESS_NETWORK_STATE",
        "android.permission.ACCESS_WIFI_STATE",
        "android.permission.GET_ACCOUNTS",
        "android.permission.INTERNET",
        "android.permission.READ_PHONE_STATE",
        "android.permission.WAKE_LOCK",
        "android.permission.WRITE_EXTERNAL_STORAGE"
      ]
    }
  ],
  "meta": {
    "generated": "2020-08-27T15:06:01.215270",
    "generatedBy": [
      "/home/hc/code/trackingthetrackers/scripts/make-trackers-apk-set.py"
    ],
    "ver": "0.3.0"
  }
}