{
  "apks": [
    {
      "applicationId": "ps.wb.music20130407002985",
      "broadcastReceiverIntentFilterActionNames": [],
      "dependencies": [],
      "domainNamesFilteredByExodus": [],
      "metaDataNames": [
        "WAPS_ID",
        "WAPS_PID",
        "mdmk"
      ],
      "sha256": "60949f7699792caa271e8d3d0c3996ac50b711a65cf9c8644eab75db5423ba21",
      "usesPermissions": [
        "android.permission.ACCESS_NETWORK_STATE",
        "android.permission.ACCESS_WIFI_STATE",
        "android.permission.GET_TASKS",
        "android.permission.INTERNET",
        "android.permission.MOUNT_UNMOUNT_FILESYSTEMS",
        "android.permission.READ_PHONE_STATE",
        "android.permission.WRITE_EXTERNAL_STORAGE",
        "android.permission.WRITE_EXTERNAL_STORAGE",
        "android.permission.WRITE_SETTINGS",
        "com.android.browser.permission.WRITE_HISTORY_BOOKMARKS",
        "com.android.launcher.permission.INSTALL_SHORTCUT"
      ]
    }
  ],
  "meta": {
    "generated": "2020-08-27T15:03:11.322902",
    "generatedBy": [
      "/home/hc/code/trackingthetrackers/scripts/make-trackers-apk-set.py"
    ],
    "ver": "0.3.0"
  }
}