{
  "apks": [
    {
      "applicationId": "org.tasks",
      "broadcastReceiverIntentFilterActionNames": [
        "android.appwidget.action.APPWIDGET_UPDATE",
        "android.intent.action.BOOT_COMPLETED",
        "android.intent.action.PHONE_STATE",
        "com.todoroo.astrid.widget.TasksWidget.COMPLETE_TASK",
        "com.todoroo.astrid.widget.TasksWidget.EDIT_TASK",
        "org.tasks.IN_APP_NOTIFY",
        "org.tasks.REQUEST_CUSTOM_FILTER_CRITERIA",
        "org.tasks.SCHEDULE_CAL_REMINDERS",
        "org.tasks.TASK_COMPLETED",
        "org.tasks.TASK_LIST_UPDATED",
        "org.tasks.TASK_REPEATED"
      ],
      "dependencies": [],
      "domainNamesFilteredByExodus": [
        ".google.com"
      ],
      "metaDataNames": [
        "android.appwidget.provider",
        "category",
        "summary",
        "syncAction"
      ],
      "sha256": "686498de621a18e7701443089ad0fc55b0ccd9811bceb1fef1f6596f22eccf85",
      "usesPermissions": [
        "android.permission.ACCESS_NETWORK_STATE",
        "android.permission.GET_ACCOUNTS",
        "android.permission.INTERNET",
        "android.permission.MANAGE_ACCOUNTS",
        "android.permission.READ_CALENDAR",
        "android.permission.READ_CALL_LOG",
        "android.permission.READ_CONTACTS",
        "android.permission.READ_PHONE_STATE",
        "android.permission.RECEIVE_BOOT_COMPLETED",
        "android.permission.RECORD_AUDIO",
        "android.permission.USE_CREDENTIALS",
        "android.permission.VIBRATE",
        "android.permission.WRITE_CALENDAR",
        "android.permission.WRITE_EXTERNAL_STORAGE",
        "com.android.launcher.permission.INSTALL_SHORTCUT",
        "com.google.android.googleapps.permission.GOOGLE_AUTH",
        "org.tasks.READ",
        "org.tasks.WRITE",
        "org.tasks.permission.READ_TASKS"
      ]
    }
  ],
  "meta": {
    "generated": "2020-08-27T18:38:14.521988",
    "generatedBy": [
      "/home/hc/code/trackingthetrackers/scripts/make-clean-apk-set.py"
    ],
    "generatedByCommitId": "3839559c80042252d3b947fb61c86a18e8b31114",
    "sourceDataCommitId": "888bb8f8c77ff55105fcab2ad84c263561eb1169",
    "ver": "0.3.0"
  }
}