{
  "apks": [
    {
      "applicationId": "name.cht.levente.pedometer",
      "broadcastReceiverIntentFilterActionNames": [
        "android.intent.action.PACKAGE_ADDED",
        "android.intent.action.USER_PRESENT",
        "android.net.conn.CONNECTIVITY_CHANGE",
        "com.zdt.action.ALARM_ACTION"
      ],
      "dependencies": [],
      "domainNamesFilteredByExodus": [],
      "metaDataNames": [],
      "sha256": "4d9e1aef219321c949c73dbe975826f2bfbd94242248f47df1566f9db62ab78d",
      "usesPermissions": [
        "android.permission.ACCESS_NETWORK_STATE",
        "android.permission.ACCESS_WIFI_STATE",
        "android.permission.GET_TASKS",
        "android.permission.INTERNET",
        "android.permission.READ_PHONE_STATE",
        "android.permission.RESTART_PACKAGES",
        "android.permission.SYSTEM_ALERT_WINDOW",
        "android.permission.VIBRATE",
        "android.permission.WAKE_LOCK",
        "android.permission.WRITE_EXTERNAL_STORAGE",
        "com.android.launcher.permission.INSTALL_SHORTCUT"
      ]
    }
  ],
  "meta": {
    "generated": "2020-08-27T15:12:07.392851",
    "generatedBy": [
      "/home/hc/code/trackingthetrackers/scripts/make-trackers-apk-set.py"
    ],
    "ver": "0.3.0"
  }
}