{
  "apks": [
    {
      "applicationId": "org.xphnx.ameixamonochrome",
      "broadcastReceiverIntentFilterActionNames": [],
      "dependencies": [],
      "domainNamesFilteredByExodus": [],
      "metaDataNames": [],
      "sha256": "061e6a8e1568cf9dd7ccb52317912d863729c2d3fb06aed68266652262a45b17",
      "usesPermissions": []
    }
  ],
  "meta": {
    "generated": "2020-08-27T18:42:06.205268",
    "generatedBy": [
      "/home/hc/code/trackingthetrackers/scripts/make-clean-apk-set.py"
    ],
    "generatedByCommitId": "3839559c80042252d3b947fb61c86a18e8b31114",
    "sourceDataCommitId": "888bb8f8c77ff55105fcab2ad84c263561eb1169",
    "ver": "0.3.0"
  }
}