{
  "apks": [
    {
      "applicationId": "org.mozilla.fennec_fdroid",
      "broadcastReceiverIntentFilterActionNames": [
        "android.appwidget.action.APPWIDGET_UPDATE",
        "android.intent.action.ACTION_EXTERNAL_APPLICATIONS_AVAILABLE",
        "android.intent.action.BOOT_COMPLETED",
        "android.intent.action.EXTERNAL_APPLICATIONS_AVAILABLE",
        "android.intent.action.PACKAGE_REMOVED",
        "android.intent.action.PACKAGE_REPLACED",
        "com.android.vending.INSTALL_REFERRER",
        "org.mozilla.fennec_fdroid.CHECK_UPDATE_RESULT",
        "org.mozilla.fennec_fdroid.HEALTHREPORT_PRUNE",
        "org.mozilla.fennec_fdroid.HEALTHREPORT_UPLOAD_PREF",
        "org.mozilla.fennec_fdroid.STUMBLER_PREF",
        "org.mozilla.fennec_fdroid_fxaccount.accounts.ACCOUNT_DELETED_ACTION",
        "org.mozilla.fennec_fdroid_sync.accounts.SYNC_ACCOUNT_DELETED_ACTION",
        "org.mozilla.gecko.INIT_PW",
        "org.mozilla.webapp.TASK_REMOVED",
        "org.mozilla.widget.LAUNCH_BROWSER",
        "org.mozilla.widget.LAUNCH_NEW_TAB",
        "org.mozilla.widget.LAUNCH_SEARCH"
      ],
      "dependencies": [],
      "domainNamesFilteredByExodus": [],
      "metaDataNames": [
        "android.accounts.AccountAuthenticator",
        "android.app.searchable",
        "android.appwidget.provider",
        "android.content.SyncAdapter",
        "android.support.PARENT_ACTIVITY",
        "com.sec.android.support.multiwindow",
        "com.sec.minimode.icon.landscape.normal",
        "com.sec.minimode.icon.portrait.normal"
      ],
      "sha256": "0032b10d8ed5b84b1bd4dfbee9397ca2dd14091a029d30989a6bf7d705fb85da",
      "usesPermissions": [
        "android.permission.ACCESS_FINE_LOCATION",
        "android.permission.ACCESS_FINE_LOCATION",
        "android.permission.ACCESS_NETWORK_STATE",
        "android.permission.ACCESS_NETWORK_STATE",
        "android.permission.ACCESS_NETWORK_STATE",
        "android.permission.ACCESS_NETWORK_STATE",
        "android.permission.ACCESS_WIFI_STATE",
        "android.permission.AUTHENTICATE_ACCOUNTS",
        "android.permission.AUTHENTICATE_ACCOUNTS",
        "android.permission.CAMERA",
        "android.permission.CHANGE_WIFI_STATE",
        "android.permission.DOWNLOAD_WITHOUT_NOTIFICATION",
        "android.permission.GET_ACCOUNTS",
        "android.permission.GET_ACCOUNTS",
        "android.permission.INTERNET",
        "android.permission.INTERNET",
        "android.permission.MANAGE_ACCOUNTS",
        "android.permission.MANAGE_ACCOUNTS",
        "android.permission.NFC",
        "android.permission.READ_SYNC_SETTINGS",
        "android.permission.READ_SYNC_SETTINGS",
        "android.permission.READ_SYNC_STATS",
        "android.permission.READ_SYNC_STATS",
        "android.permission.RECEIVE_BOOT_COMPLETED",
        "android.permission.RECORD_AUDIO",
        "android.permission.USE_CREDENTIALS",
        "android.permission.USE_CREDENTIALS",
        "android.permission.VIBRATE",
        "android.permission.WAKE_LOCK",
        "android.permission.WRITE_EXTERNAL_STORAGE",
        "android.permission.WRITE_SETTINGS",
        "android.permission.WRITE_SETTINGS",
        "android.permission.WRITE_SYNC_SETTINGS",
        "android.permission.WRITE_SYNC_SETTINGS",
        "com.android.browser.permission.READ_HISTORY_BOOKMARKS",
        "com.android.launcher.permission.INSTALL_SHORTCUT",
        "com.android.launcher.permission.UNINSTALL_SHORTCUT",
        "org.mozilla.fennec_fdroid.permission.PER_ANDROID_PACKAGE",
        "org.mozilla.fennec_fdroid.permissions.BROWSER_PROVIDER",
        "org.mozilla.fennec_fdroid.permissions.FORMHISTORY_PROVIDER",
        "org.mozilla.fennec_fdroid.permissions.PASSWORD_PROVIDER",
        "org.mozilla.fennec_fdroid_fxaccount.permission.PER_ACCOUNT_TYPE",
        "org.mozilla.fennec_fdroid_sync.permission.PER_ACCOUNT_TYPE"
      ]
    }
  ],
  "meta": {
    "generated": "2020-08-27T14:48:07.930433",
    "generatedBy": [
      "/home/hc/code/trackingthetrackers/scripts/make-trackers-apk-set.py"
    ],
    "ver": "0.3.0"
  }
}