{
  "apks": [
    {
      "applicationId": "com.camelgames.fantasyland_cn",
      "broadcastReceiverIntentFilterActionNames": [
        "com.android.vending.INSTALL_REFERRER",
        "com.camelgames.fantasyland.payments.checkout.ACTION_BILLING_SUPPORT",
        "com.camelgames.fantasyland.payments.checkout.ACTION_PURCHASE_RESULT"
      ],
      "dependencies": [
        "com.google.ads.",
        "com.google.android.apps.analytics.",
        "com.tapjoy."
      ],
      "domainNamesFilteredByExodus": [
        ".google.com",
        "google-analytics.com",
        "tapjoyads.com"
      ],
      "metaDataNames": [
        "WAPS_ID",
        "WAPS_PID"
      ],
      "sha256": "bbd89615fbf2a3ace1bf76190c6d732af999f79cb1127b660ab070d7cf5c1a50",
      "usesPermissions": [
        "android.permission.ACCESS_FINE_LOCATION",
        "android.permission.ACCESS_NETWORK_STATE",
        "android.permission.ACCESS_WIFI_STATE",
        "android.permission.GET_TASKS",
        "android.permission.INTERNET",
        "android.permission.READ_PHONE_STATE",
        "android.permission.WRITE_EXTERNAL_STORAGE"
      ]
    }
  ],
  "meta": {
    "generated": "2020-08-27T15:03:11.102911",
    "generatedBy": [
      "/home/hc/code/trackingthetrackers/scripts/make-trackers-apk-set.py"
    ],
    "ver": "0.3.0"
  }
}