{
  "apks": [
    {
      "applicationId": "mobi.k08af9.re12c2s",
      "broadcastReceiverIntentFilterActionNames": [
        "android.intent.action.USER_PRESENT"
      ],
      "dependencies": [
        "com.baidu.mobads"
      ],
      "domainNamesFilteredByExodus": [],
      "metaDataNames": [
        "BaiduMobAd_APP_ID",
        "BaiduMobAd_APP_SEC"
      ],
      "sha256": "fa04c7152e1517b11372f647f111bb8cb7ec07b89433dcef61af9fb2e3189bf4",
      "usesPermissions": [
        "android.permission.ACCESS_COARSE_LOCATION",
        "android.permission.ACCESS_FINE_LOCATION",
        "android.permission.ACCESS_NETWORK_STATE",
        "android.permission.ACCESS_NETWORK_STATE",
        "android.permission.ACCESS_WIFI_STATE",
        "android.permission.ACCESS_WIFI_STATE",
        "android.permission.CAMERA",
        "android.permission.CHANGE_WIFI_STATE",
        "android.permission.GET_TASKS",
        "android.permission.INTERNET",
        "android.permission.INTERNET",
        "android.permission.READ_PHONE_STATE",
        "android.permission.READ_PHONE_STATE",
        "android.permission.RECORD_AUDIO",
        "android.permission.SYSTEM_ALERT_WINDOW",
        "android.permission.VIBRATE",
        "android.permission.WRITE_EXTERNAL_STORAGE",
        "android.permission.WRITE_EXTERNAL_STORAGE",
        "com.android.browser.permission.READ_HISTORY_BOOKMARKS",
        "com.android.launcher.permission.INSTALL_SHORTCUT"
      ]
    }
  ],
  "meta": {
    "generated": "2020-08-27T15:44:37.474847",
    "generatedBy": [
      "/home/hc/code/trackingthetrackers/scripts/make-trackers-apk-set.py"
    ],
    "ver": "0.3.0"
  }
}