{
  "apks": [
    {
      "applicationId": "com.maggie.cooker.horse",
      "broadcastReceiverIntentFilterActionNames": [
        "android.intent.action.ACTION_PACKAGE_CHANGED",
        "android.intent.action.PACKAGE_ADDED",
        "android.intent.action.PACKAGE_REMOVED",
        "android.intent.action.USER_PRESENT",
        "android.net.conn.CONNECTIVITY_CHANGE",
        "magic.alarm.action"
      ],
      "dependencies": [],
      "domainNamesFilteredByExodus": [],
      "metaDataNames": [
        "UMENG_APPKEY",
        "UMENG_CHANNEL",
        "Y-ID"
      ],
      "sha256": "00763f5d9501217629e4f89fa22fb43fc53da22a11d19252cf88ecad916e1ce2",
      "usesPermissions": [
        "android.permission.ACCESS_COARSE_LOCATION",
        "android.permission.ACCESS_COARSE_UPDATES",
        "android.permission.ACCESS_NETWORK_STATE",
        "android.permission.ACCESS_WIFI_STATE",
        "android.permission.BLUETOOTH",
        "android.permission.BLUETOOTH_ADMIN",
        "android.permission.CHANGE_NETWORK_STATE",
        "android.permission.CHANGE_WIFI_STATE",
        "android.permission.GET_TASKS",
        "android.permission.INTERNET",
        "android.permission.KILL_BACKGROUND_PROCESSES",
        "android.permission.READ_EXTERNAL_STORAGE",
        "android.permission.READ_PHONE_STATE",
        "android.permission.SYSTEM_ALERT_WINDOW",
        "android.permission.VIBRATE",
        "android.permission.WAKE_LOCK",
        "android.permission.WRITE_EXTERNAL_STORAGE",
        "android.permission.WRITE_SETTINGS"
      ]
    }
  ],
  "meta": {
    "generated": "2020-08-27T14:56:38.260341",
    "generatedBy": [
      "/home/hc/code/trackingthetrackers/scripts/make-trackers-apk-set.py"
    ],
    "ver": "0.3.0"
  }
}