{
  "apks": [
    {
      "applicationId": "com.yanyou.beautyvideo",
      "broadcastReceiverIntentFilterActionNames": [
        "LOCATION_SERVICE",
        "android.bluetooth.adapter.action.STATE_CHANGED",
        "android.intent.action.ACTION_POWER_CONNECTED",
        "android.intent.action.ACTION_POWER_DISCONNECTED",
        "android.intent.action.ACTION_SHUTDOWN",
        "android.intent.action.ANY_DATA_STATE",
        "android.intent.action.BOOT_COMPLETED",
        "android.intent.action.DATE_CHANGED",
        "android.intent.action.MAIN",
        "android.intent.action.MEDIA_EJECT",
        "android.intent.action.MEDIA_MOUNTED",
        "android.intent.action.PACKAGE_ADDED",
        "android.intent.action.PHONE_STATE",
        "android.intent.action.SERVICE_STATE",
        "android.intent.action.SIM_STATE_CHANGED",
        "android.intent.action.TIMEZONE_CHANGED",
        "android.intent.action.USER_PRESENT",
        "android.net.conn.CONNECTIVITY_CHANGE",
        "android.net.wifi.STATE_CHANGE",
        "android.net.wifi.WIFI_STATE_CHANGED",
        "android.provider.Telephony.SMS_DELIVER",
        "android.provider.Telephony.SMS_RECEIVED",
        "android.provider.Telephony.WAP_PUSH_RECEIVED",
        "com.ehoo.action.SEND",
        "com.skymobi.pay.action.plugin",
        "com.skymobi.pay.plugin.advert",
        "com.skymobi.pay.plugin.push",
        "com.skymobi.pay.plugin.recordupload"
      ],
      "dependencies": [],
      "domainNamesFilteredByExodus": [],
      "metaDataNames": [
        "PZ_CNO",
        "UMENG_APPKEY",
        "UMENG_CHANNEL",
        "ZMAppId",
        "ZMMerchantId",
        "ZMOtherEnv",
        "application_class_name",
        "com.snowfish.appid",
        "com.snowfish.channel",
        "com.snowfish.customer",
        "com.snowfish.sdk.version",
        "fqhx_snowfox_appid",
        "fqhx_snowfox_appkey",
        "fqhx_snowfox_locale",
        "hKey",
        "subchannelid"
      ],
      "sha256": "904e3bbe7c4764ef137277693d696947a6cbad22fb13918157401eb0751a88d1",
      "usesPermissions": [
        "android.permission.ACCESS_COARSE_LOCATION",
        "android.permission.ACCESS_FINE_LOCATION",
        "android.permission.ACCESS_NETWORK_STATE",
        "android.permission.ACCESS_WIFI_STATE",
        "android.permission.BLUETOOTH",
        "android.permission.CHANGE_CONFIGURATION",
        "android.permission.CHANGE_NETWORK_STATE",
        "android.permission.CHANGE_WIFI_STATE",
        "android.permission.DISABLE_KEYGUARD",
        "android.permission.GET_ACCOUNTS",
        "android.permission.GET_TASKS",
        "android.permission.INTERNET",
        "android.permission.MODIFY_PHONE_STATE",
        "android.permission.MOUNT_UNMOUNT_FILESYSTEMS",
        "android.permission.READ_EXTERNAL_STORAGE",
        "android.permission.READ_LOGS",
        "android.permission.READ_PHONE_STATE",
        "android.permission.READ_SMS",
        "android.permission.RECEIVE_BOOT_COMPLETED",
        "android.permission.RECEIVE_MMS",
        "android.permission.RECEIVE_SMS",
        "android.permission.RECEIVE_WAP_PUSH",
        "android.permission.RESTART_PACKAGES",
        "android.permission.SEND_SMS",
        "android.permission.SYSTEM_ALERT_WINDOW",
        "android.permission.VIBRATE",
        "android.permission.WAKE_LOCK",
        "android.permission.WRITE_APN_SETTINGS",
        "android.permission.WRITE_EXTERNAL_STORAGE",
        "android.permission.WRITE_SECURE_SETTINGS",
        "android.permission.WRITE_SETTINGS",
        "android.permission.WRITE_SMS",
        "com.android.launcher.permission.INSTALL_SHORTCUT",
        "com.android.launcher.permission.READ_SETTINGS",
        "com.android.launcher.permission.UNINSTALL_SHORTCUT"
      ]
    }
  ],
  "meta": {
    "generated": "2020-08-27T14:48:40.320910",
    "generatedBy": [
      "/home/hc/code/trackingthetrackers/scripts/make-trackers-apk-set.py"
    ],
    "ver": "0.3.0"
  }
}