{
  "apks": [
    {
      "applicationId": "com.appnow.hztfont",
      "broadcastReceiverIntentFilterActionNames": [
        "android.ad.ACTION_SHOW_TIP",
        "android.intent.action.PACKAGE_ADDED",
        "android.intent.action.PACKAGE_REMOVED",
        "android.net.conn.CONNECTIVITY_CHANGE"
      ],
      "dependencies": [
        "com.umeng.fb"
      ],
      "domainNamesFilteredByExodus": [
        "umeng.com"
      ],
      "metaDataNames": [
        "MAIN_ADS_CHANNEL",
        "MAIN_ADS_ID",
        "MAIN_APP_ID",
        "UMENG_APPKEY",
        "UMENG_CHANNEL"
      ],
      "sha256": "f50e5de9776ff23bc0a78619d4dd338016c01b0273d7acc722ec016a7c2b4219",
      "usesPermissions": [
        "android.permission.ACCESS_DOWNLOAD_MANAGER",
        "android.permission.ACCESS_NETWORK_STATE",
        "android.permission.ACCESS_WIFI_STATE",
        "android.permission.CHANGE_CONFIGURATION",
        "android.permission.GET_TASKS",
        "android.permission.INTERNET",
        "android.permission.READ_LOGS",
        "android.permission.READ_PHONE_STATE",
        "android.permission.SYSTEM_ALERT_WINDOW",
        "android.permission.WRITE_EXTERNAL_STORAGE",
        "android.permission.WRITE_SETTINGS",
        "com.android.browser.permission.READ_HISTORY_BOOKMARKS",
        "com.android.browser.permission.WRITE_HISTORY_BOOKMARKS"
      ]
    }
  ],
  "meta": {
    "generated": "2020-08-27T15:17:30.688659",
    "generatedBy": [
      "/home/hc/code/trackingthetrackers/scripts/make-trackers-apk-set.py"
    ],
    "ver": "0.3.0"
  }
}