{
  "apks": [
    {
      "applicationId": "com.backstone.insta.vintage.effects",
      "broadcastReceiverIntentFilterActionNames": [],
      "dependencies": [
        "com$startapp$android$publish",
        "com.applovin",
        "com.startapp.android.publish"
      ],
      "domainNamesFilteredByExodus": [
        ".google.com",
        "api.airpush.com",
        "applovin.com",
        "beta.airpush.com",
        "m.airpush.com"
      ],
      "metaDataNames": [
        "applovin.sdk.ad_refresh_seconds",
        "applovin.sdk.key",
        "com.dohrqqektw.vlxtxonahi101879.APIKEY",
        "com.dohrqqektw.vlxtxonahi101879.APPID",
        "com.startapp.android.APP_ID",
        "com.startapp.android.DEV_ID"
      ],
      "sha256": "867fa071611cc9139b5c8247b994ecda77dcf6fdf76fd204421000606e458f8d",
      "usesPermissions": [
        "android.permission.ACCESS_NETWORK_STATE",
        "android.permission.ACCESS_WIFI_STATE",
        "android.permission.GET_TASKS",
        "android.permission.INTERNET",
        "android.permission.READ_PHONE_STATE",
        "android.permission.SYSTEM_ALERT_WINDOW",
        "android.permission.WRITE_EXTERNAL_STORAGE"
      ]
    }
  ],
  "meta": {
    "generated": "2020-08-27T14:52:45.242220",
    "generatedBy": [
      "/home/hc/code/trackingthetrackers/scripts/make-trackers-apk-set.py"
    ],
    "ver": "0.3.0"
  }
}