{
  "apks": [
    {
      "applicationId": "br.com.gtlsistemas.finddiference2",
      "broadcastReceiverIntentFilterActionNames": [],
      "dependencies": [
        "com$google$tagmanager",
        "com.google.ads.",
        "com.google.android.gms.analytics.",
        "com.google.tagmanager",
        "com.scoreloop.client.android",
        "com_facebook_login"
      ],
      "domainNamesFilteredByExodus": [
        ".facebook.com",
        ".google.com",
        "doubleclick.net",
        "google-analytics.com",
        "www.googletagmanager.com"
      ],
      "metaDataNames": [
        "com.facebook.sdk.ApplicationId"
      ],
      "sha256": "248845a8f775d2398266ddf39f001abcbd12e81f80c7dba9408257b7d6f7bc78",
      "usesPermissions": [
        "android.permission.ACCESS_NETWORK_STATE",
        "android.permission.INTERNET"
      ]
    }
  ],
  "meta": {
    "generated": "2020-08-27T15:07:17.298057",
    "generatedBy": [
      "/home/hc/code/trackingthetrackers/scripts/make-trackers-apk-set.py"
    ],
    "ver": "0.3.0"
  }
}