{
  "apks": [
    {
      "applicationId": "yourlabs.kesas7",
      "broadcastReceiverIntentFilterActionNames": [],
      "dependencies": [
        "com.google.ads.",
        "com.revmob.ads."
      ],
      "domainNamesFilteredByExodus": [
        ".google.com"
      ],
      "metaDataNames": [],
      "sha256": "4d6a3fa6beeb80d6517b00632e52d6d37186c93c96b1434967e7a51c0bb6dd77",
      "usesPermissions": [
        "android.permission.ACCESS_NETWORK_STATE",
        "android.permission.ACCESS_WIFI_STATE",
        "android.permission.INTERNET",
        "android.permission.READ_PHONE_STATE"
      ]
    }
  ],
  "meta": {
    "generated": "2020-08-27T15:02:25.727961",
    "generatedBy": [
      "/home/hc/code/trackingthetrackers/scripts/make-trackers-apk-set.py"
    ],
    "ver": "0.3.0"
  }
}