{
  "apks": [
    {
      "applicationId": "com.jw.myproject_qt_app",
      "broadcastReceiverIntentFilterActionNames": [],
      "dependencies": [
        "com$fsn$cauly",
        "com.fsn.cauly",
        "com.google.ads.",
        "com.google.android.gms.ads.",
        "com.google.android.gms.analytics.",
        "com.google.android.gms.measurement.",
        "com.google.android.gms.tagmanager",
        "com_fsn_cauly"
      ],
      "domainNamesFilteredByExodus": [
        ".facebook.com",
        ".google.com",
        "ad.cauly.co.kr",
        "doubleclick.net",
        "google-analytics.com",
        "www.googletagmanager.com"
      ],
      "metaDataNames": [
        "com.kakao.sdk.AppKey"
      ],
      "sha256": "1bafedb8524e2b9523a389c304760f830aebd57784d623afffea1b418a6e8283",
      "usesPermissions": [
        "android.permission.ACCESS_FINE_LOCATION",
        "android.permission.ACCESS_NETWORK_STATE",
        "android.permission.CALL_PHONE",
        "android.permission.INTERNET"
      ]
    }
  ],
  "meta": {
    "generated": "2020-08-27T15:50:05.395600",
    "generatedBy": [
      "/home/hc/code/trackingthetrackers/scripts/make-trackers-apk-set.py"
    ],
    "ver": "0.3.0"
  }
}