{
  "apks": [
    {
      "applicationId": "com.android.mmreader1312",
      "broadcastReceiverIntentFilterActionNames": [],
      "dependencies": [
        "com.baidu.location",
        "com.tencent.lbs",
        "com.tencent.mobwin"
      ],
      "domainNamesFilteredByExodus": [
        ".google.com",
        "map.baidu.com"
      ],
      "metaDataNames": [
        "APP_ID",
        "APP_INTERVAL",
        "BaiduMobAd_APP_ID",
        "BaiduMobAd_APP_SEC",
        "Mobisage_channel",
        "Mobisage_publishID",
        "TAOBAO_PID"
      ],
      "sha256": "3e0ac3ec05c6f427844f91d99cfaec7b5d6043a5564828c8703d909ddc7ca36a",
      "usesPermissions": [
        "android.permission.ACCESS_COARSE_LOCATION",
        "android.permission.ACCESS_FINE_LOCATION",
        "android.permission.ACCESS_NETWORK_STATE",
        "android.permission.ACCESS_WIFI_STATE",
        "android.permission.CALL_PHONE",
        "android.permission.CHANGE_WIFI_STATE",
        "android.permission.INTERNET",
        "android.permission.READ_PHONE_STATE",
        "android.permission.WRITE",
        "android.permission.WRITE_EXTERNAL_STORAGE"
      ]
    }
  ],
  "meta": {
    "generated": "2020-08-27T15:14:10.427279",
    "generatedBy": [
      "/home/hc/code/trackingthetrackers/scripts/make-trackers-apk-set.py"
    ],
    "ver": "0.3.0"
  }
}