{
  "apks": [
    {
      "applicationId": "com.friendsart.rockerskull",
      "broadcastReceiverIntentFilterActionNames": [],
      "dependencies": [
        "com.revmob.ads.",
        "com.startapp.android.publish"
      ],
      "domainNamesFilteredByExodus": [
        ".google.com"
      ],
      "metaDataNames": [
        "android.service.wallpaper",
        "com.revmob.app.id",
        "com.startapp.android.APP_ID",
        "com.startapp.android.DEV_ID",
        "com.tapcontext.DEVELOPERKEY"
      ],
      "sha256": "e85bb88df19e1d8eace0f41a5d6a6dcd3f87d3f099e8bd187167912460fb6c0d",
      "usesPermissions": [
        "android.permission.ACCESS_NETWORK_STATE",
        "android.permission.ACCESS_WIFI_STATE",
        "android.permission.GET_TASKS",
        "android.permission.INTERNET",
        "android.permission.READ_PHONE_STATE",
        "android.permission.SYSTEM_ALERT_WINDOW"
      ]
    }
  ],
  "meta": {
    "generated": "2020-08-27T15:06:41.271362",
    "generatedBy": [
      "/home/hc/code/trackingthetrackers/scripts/make-trackers-apk-set.py"
    ],
    "ver": "0.3.0"
  }
}