{
  "apks": [
    {
      "applicationId": "com.tenthpowerapps.selenagomez",
      "broadcastReceiverIntentFilterActionNames": [],
      "dependencies": [],
      "domainNamesFilteredByExodus": [],
      "metaDataNames": [
        "android.service.wallpaper",
        "com.tapcontext.DEVELOPERKEY"
      ],
      "sha256": "a8dd8fddfc84da1c384da80d3f870b42bd6792ddca86bf1dd31e709a0805af38",
      "usesPermissions": [
        "android.permission.ACCESS_COARSE_LOCATION",
        "android.permission.ACCESS_FINE_LOCATION",
        "android.permission.ACCESS_NETWORK_STATE",
        "android.permission.ACCESS_WIFI_STATE",
        "android.permission.GET_ACCOUNTS",
        "android.permission.INTERNET",
        "android.permission.READ_PHONE_STATE"
      ]
    }
  ],
  "meta": {
    "generated": "2020-08-27T15:07:43.309917",
    "generatedBy": [
      "/home/hc/code/trackingthetrackers/scripts/make-trackers-apk-set.py"
    ],
    "ver": "0.3.0"
  }
}