{
  "apks": [
    {
      "applicationId": "com.example.ttest",
      "broadcastReceiverIntentFilterActionNames": [],
      "dependencies": [
        "com.umeng.analytics"
      ],
      "domainNamesFilteredByExodus": [
        "alog.umeng.com",
        "oc.umeng.com",
        "umeng.com"
      ],
      "metaDataNames": [],
      "sha256": "9925986f12db79c32f968afc18735ce7be878b2200106769840da4ef4b925920",
      "usesPermissions": []
    }
  ],
  "meta": {
    "generated": "2020-08-27T15:40:57.670263",
    "generatedBy": [
      "/home/hc/code/trackingthetrackers/scripts/make-trackers-apk-set.py"
    ],
    "ver": "0.3.0"
  }
}