{
  "apks": [
    {
      "applicationId": "ca.rmen.android.scrumchatter",
      "broadcastReceiverIntentFilterActionNames": [],
      "dependencies": [],
      "domainNamesFilteredByExodus": [],
      "metaDataNames": [
        "android.support.FILE_PROVIDER_PATHS",
        "android.support.PARENT_ACTIVITY"
      ],
      "sha256": "771d3febf33428bf5808207b251ac189cac3f9f492c659880eada63140257583",
      "usesPermissions": []
    }
  ],
  "meta": {
    "generated": "2020-08-27T17:12:51.850022",
    "generatedBy": [
      "/home/hc/code/trackingthetrackers/scripts/make-clean-apk-set.py"
    ],
    "generatedByCommitId": "40519285d6f404593fa655fa89b433743c25289e",
    "sourceDataCommitId": "888bb8f8c77ff55105fcab2ad84c263561eb1169",
    "ver": "0.3.0"
  }
}