{
  "apks": [
    {
      "applicationId": "vocabletrainer.heinecke.aron.vocabletrainer",
      "broadcastReceiverIntentFilterActionNames": [],
      "dependencies": [],
      "domainNamesFilteredByExodus": [],
      "metaDataNames": [
        "android.support.VERSION"
      ],
      "sha256": "aee7ed9f9a341d915ba5e98bd9f2d36968a4526a84eb0ddf473b7dcae8337bb8",
      "usesPermissions": []
    }
  ],
  "meta": {
    "generated": "2020-08-27T18:44:51.185420",
    "generatedBy": [
      "/home/hc/code/trackingthetrackers/scripts/make-clean-apk-set.py"
    ],
    "generatedByCommitId": "3839559c80042252d3b947fb61c86a18e8b31114",
    "sourceDataCommitId": "888bb8f8c77ff55105fcab2ad84c263561eb1169",
    "ver": "0.3.0"
  }
}