{
  "apks": [
    {
      "applicationId": "com.weimei.typingtrain",
      "broadcastReceiverIntentFilterActionNames": [
        "android.intent.action.PACKAGE_ADDED"
      ],
      "dependencies": [
        "com.umeng.fb",
        "net.youmi"
      ],
      "domainNamesFilteredByExodus": [
        "alog.umeng.com",
        "au.youmi.net",
        "oc.umeng.com",
        "umeng.com",
        "youmi.net"
      ],
      "metaDataNames": [
        "APP_ID",
        "APP_PID",
        "UMENG_APPKEY",
        "UMENG_CHANNEL"
      ],
      "sha256": "7ed1805ccb77880c0f8d5c681776019b3b3bb4a8e6e82900665dbc69432de5b9",
      "usesPermissions": [
        "android.permission.ACCESS_COARSE_LOCATION",
        "android.permission.ACCESS_COARSE_LOCATION",
        "android.permission.ACCESS_FINE_LOCATION",
        "android.permission.ACCESS_NETWORK_STATE",
        "android.permission.ACCESS_NETWORK_STATE",
        "android.permission.ACCESS_WIFI_STATE",
        "android.permission.ACCESS_WIFI_STATE",
        "android.permission.GET_TASKS",
        "android.permission.GET_TASKS",
        "android.permission.INTERNET",
        "android.permission.INTERNET",
        "android.permission.READ_LOGS",
        "android.permission.READ_PHONE_STATE",
        "android.permission.READ_PHONE_STATE",
        "android.permission.SYSTEM_ALERT_WINDOW",
        "android.permission.SYSTEM_ALERT_WINDOW",
        "android.permission.WRITE_EXTERNAL_STORAGE",
        "android.permission.WRITE_EXTERNAL_STORAGE"
      ]
    }
  ],
  "meta": {
    "generated": "2020-08-27T15:14:12.311461",
    "generatedBy": [
      "/home/hc/code/trackingthetrackers/scripts/make-trackers-apk-set.py"
    ],
    "ver": "0.3.0"
  }
}