{
  "apks": [
    {
      "applicationId": "com.nd.android.pandatheme.p_LOVE_I_U__esh",
      "broadcastReceiverIntentFilterActionNames": [],
      "dependencies": [],
      "domainNamesFilteredByExodus": [],
      "metaDataNames": [],
      "sha256": "633cf179714010900f0f0adb91c857bf1afd3643ed2b9268cd512795edbf4b21",
      "usesPermissions": []
    }
  ],
  "meta": {
    "generated": "2020-08-27T14:49:16.480623",
    "generatedBy": [
      "/home/hc/code/trackingthetrackers/scripts/make-trackers-apk-set.py"
    ],
    "ver": "0.3.0"
  }
}