{
  "apks": [
    {
      "applicationId": "com.zeapo.pwdstore",
      "broadcastReceiverIntentFilterActionNames": [],
      "dependencies": [],
      "domainNamesFilteredByExodus": [],
      "metaDataNames": [
        "android.PARENT_ACTIVITY1",
        "android.accessibilityservice",
        "android.support.PARENT_ACTIVITY"
      ],
      "sha256": "9fe0a292b25626ee447de1c97a2df27f392bab52500d3186d86a7528672d9a33",
      "usesPermissions": [
        "android.permission.BIND_ACCESSIBILITY_SERVICE",
        "android.permission.INTERNET",
        "android.permission.READ_EXTERNAL_STORAGE",
        "android.permission.SYSTEM_ALERT_WINDOW",
        "android.permission.WRITE_EXTERNAL_STORAGE"
      ]
    }
  ],
  "meta": {
    "generated": "2020-08-27T17:53:34.013803",
    "generatedBy": [
      "/home/hc/code/trackingthetrackers/scripts/make-clean-apk-set.py"
    ],
    "generatedByCommitId": "3839559c80042252d3b947fb61c86a18e8b31114",
    "sourceDataCommitId": "888bb8f8c77ff55105fcab2ad84c263561eb1169",
    "ver": "0.3.0"
  }
}