{
  "apks": [
    {
      "applicationId": "com.youpin.cn",
      "broadcastReceiverIntentFilterActionNames": [
        "android.intent.action.BOOT_COMPLETED",
        "android.intent.action.CBOOT_COMPLETED",
        "android.intent.action.PACKAGE_REMOVED",
        "android.intent.action.START_REPORT",
        "android.net.conn.CONNECTIVITY_CHANGE"
      ],
      "dependencies": [
        "com.umeng.analytics"
      ],
      "domainNamesFilteredByExodus": [
        "alog.umeng.com",
        "umeng.com"
      ],
      "metaDataNames": [
        "APPCODE",
        "APPDATA",
        "APPID",
        "APPKEY",
        "APPSECRET",
        "SYSKKEY",
        "SYSKNAME",
        "UMENG_APPKEY",
        "UMENG_CHANNEL",
        "VIASDKVERSION"
      ],
      "sha256": "ca81fc13fa9b08b3b7e38c81bd0e52901a78e5cb898eb1c3a37c12f17745c3e3",
      "usesPermissions": [
        "android.permission.ACCESS_COARSE_LOCATION",
        "android.permission.ACCESS_NETWORK_STATE",
        "android.permission.ACCESS_WIFI_STATE",
        "android.permission.CAMERA",
        "android.permission.CHANGE_NETWORK_STATE",
        "android.permission.FLASHLIGHT",
        "android.permission.INTERNET",
        "android.permission.INTERNET",
        "android.permission.MOUNT_UNMOUNT_FILESYSTEMS",
        "android.permission.READ_EXTERNAL_STORAGE",
        "android.permission.READ_PHONE_STATE",
        "android.permission.RECEIVE_BOOT_COMPLETED",
        "android.permission.SYSTEM_ALERT_WINDOW",
        "android.permission.SYSTEM_OVERLAY_WINDOW",
        "android.permission.VIBRATE",
        "android.permission.WRITE_EXTERNAL_STORAGE",
        "cn.swiftpass.wxpay.permission.MMOAUTH_CALLBACK",
        "cn.swiftpass.wxpay.permission.MM_MESSAGE",
        "xvtian.gai.receiver"
      ]
    }
  ],
  "meta": {
    "generated": "2020-08-27T15:26:07.589161",
    "generatedBy": [
      "/home/hc/code/trackingthetrackers/scripts/make-trackers-apk-set.py"
    ],
    "ver": "0.3.0"
  }
}