{
  "apks": [
    {
      "applicationId": "opencontacts.open.com.opencontacts",
      "broadcastReceiverIntentFilterActionNames": [
        "android.intent.action.PHONE_STATE"
      ],
      "dependencies": [],
      "domainNamesFilteredByExodus": [],
      "metaDataNames": [
        "DATABASE",
        "DOMAIN_PACKAGE_NAME",
        "QUERY_LOG",
        "VERSION",
        "android.support.VERSION"
      ],
      "sha256": "80b20b5dff3df48a1826f68750ced7facec1467df4ff0d9030f66d40265b8d6c",
      "usesPermissions": [
        "android.permission.CALL_PHONE",
        "android.permission.READ_CALL_LOG",
        "android.permission.READ_EXTERNAL_STORAGE",
        "android.permission.READ_PHONE_STATE",
        "android.permission.SYSTEM_ALERT_WINDOW",
        "android.permission.WRITE_EXTERNAL_STORAGE"
      ]
    }
  ],
  "meta": {
    "generated": "2020-08-27T18:21:29.654187",
    "generatedBy": [
      "/home/hc/code/trackingthetrackers/scripts/make-clean-apk-set.py"
    ],
    "generatedByCommitId": "3839559c80042252d3b947fb61c86a18e8b31114",
    "sourceDataCommitId": "888bb8f8c77ff55105fcab2ad84c263561eb1169",
    "ver": "0.3.0"
  }
}