{
  "apks": [
    {
      "applicationId": "org.projectmaxs.module.bluetooth",
      "broadcastReceiverIntentFilterActionNames": [
        "org.projectmaxs.EXPORT_SETTINGS",
        "org.projectmaxs.IMPORT_SETTINGS",
        "org.projectmaxs.REGISTER"
      ],
      "dependencies": [],
      "domainNamesFilteredByExodus": [],
      "metaDataNames": [],
      "sha256": "c686306c7b7505526fa3386dde429d6657c358b1d1b2c2f83a833d6ed81d00a7",
      "usesPermissions": [
        "android.permission.BLUETOOTH",
        "org.projectmaxs.permission.USE_MAIN",
        "org.projectmaxs.permission.USE_MAIN_AS_MODULE"
      ]
    }
  ],
  "meta": {
    "generated": "2020-08-27T18:34:15.908729",
    "generatedBy": [
      "/home/hc/code/trackingthetrackers/scripts/make-clean-apk-set.py"
    ],
    "generatedByCommitId": "3839559c80042252d3b947fb61c86a18e8b31114",
    "sourceDataCommitId": "888bb8f8c77ff55105fcab2ad84c263561eb1169",
    "ver": "0.3.0"
  }
}