{
  "apks": [
    {
      "applicationId": "com.gunshippenguin.openflood",
      "broadcastReceiverIntentFilterActionNames": [],
      "dependencies": [],
      "domainNamesFilteredByExodus": [],
      "metaDataNames": [],
      "sha256": "a0648cce317c6363310cebcfdbbaa17d485b04917d1b90460e536e5f814c1013",
      "usesPermissions": []
    }
  ],
  "meta": {
    "generated": "2020-08-27T17:32:25.530188",
    "generatedBy": [
      "/home/hc/code/trackingthetrackers/scripts/make-clean-apk-set.py"
    ],
    "generatedByCommitId": "40519285d6f404593fa655fa89b433743c25289e",
    "sourceDataCommitId": "888bb8f8c77ff55105fcab2ad84c263561eb1169",
    "ver": "0.3.0"
  }
}