{
  "apks": [
    {
      "applicationId": "skins.minecraft.hd",
      "broadcastReceiverIntentFilterActionNames": [
        "android.net.conn.CONNECTIVITY_CHANGE",
        "android.net.wifi.WIFI_STATE_CHANGED",
        "com.adeco.catalog2.WIDGET_BUTTON",
        "com.adeco.catalog2.WIDGET_BUTTON_BACK",
        "com.adeco.catalog2.WIDGET_BUTTON_CLOSE",
        "com.adeco.catalog2.WIDGET_BUTTON_NEXT"
      ],
      "dependencies": [
        "com$millennialmedia$",
        "com.google.android.gms.ads.",
        "com.millennialmedia.",
        "org.nexage."
      ],
      "domainNamesFilteredByExodus": [
        ".google.com",
        "millennialmedia.com"
      ],
      "metaDataNames": [
        "com.inappertising.ads.AFFILIATE_ID",
        "com.inappertising.ads.APPLICATION_KEY",
        "com.inappertising.ads.PUBLISHER_ID"
      ],
      "sha256": "33dabb53a8c0e298fd951e667a339ebb7ae633fa9580192a9dbbf149f87c4273",
      "usesPermissions": [
        "android.permission.ACCESS_COARSE_LOCATION",
        "android.permission.ACCESS_FINE_LOCATION",
        "android.permission.ACCESS_NETWORK_STATE",
        "android.permission.ACCESS_WIFI_STATE",
        "android.permission.INTERNET",
        "android.permission.READ_PHONE_STATE",
        "android.permission.SYSTEM_ALERT_WINDOW",
        "android.permission.WRITE_EXTERNAL_STORAGE"
      ]
    }
  ],
  "meta": {
    "generated": "2020-08-27T15:37:55.788202",
    "generatedBy": [
      "/home/hc/code/trackingthetrackers/scripts/make-trackers-apk-set.py"
    ],
    "ver": "0.3.0"
  }
}