{
  "apks": [
    {
      "applicationId": "fr.byped.bwarearea",
      "broadcastReceiverIntentFilterActionNames": [
        "android.bluetooth.device.action.ACL_CONNECTED",
        "android.bluetooth.device.action.ACL_DISCONNECTED"
      ],
      "dependencies": [],
      "domainNamesFilteredByExodus": [],
      "metaDataNames": [
        "android.arch.lifecycle.VERSION",
        "android.support.VERSION"
      ],
      "sha256": "efd364a8c22db1de39b7b45eea3aec1acdf05a64a8aba18ed8874468031d2a6d",
      "usesPermissions": [
        "android.permission.ACCESS_FINE_LOCATION",
        "android.permission.BLUETOOTH",
        "android.permission.BLUETOOTH_ADMIN",
        "android.permission.READ_EXTERNAL_STORAGE",
        "android.permission.SYSTEM_ALERT_WINDOW",
        "android.permission.WRITE_EXTERNAL_STORAGE"
      ]
    }
  ],
  "meta": {
    "generated": "2020-08-27T17:02:59.239507",
    "generatedBy": [
      "/home/hc/code/trackingthetrackers/scripts/make-clean-apk-set.py"
    ],
    "generatedByCommitId": "40519285d6f404593fa655fa89b433743c25289e",
    "sourceDataCommitId": "888bb8f8c77ff55105fcab2ad84c263561eb1169",
    "ver": "0.3.0"
  }
}