{
  "apks": [
    {
      "applicationId": "io.pslab",
      "broadcastReceiverIntentFilterActionNames": [],
      "dependencies": [],
      "domainNamesFilteredByExodus": [
        ".facebook.com",
        ".google.com",
        "api.tiles.mapbox.com"
      ],
      "metaDataNames": [
        "android.hardware.usb.action.USB_DEVICE_ATTACHED",
        "com.google.android.gms.version"
      ],
      "sha256": "425d6ed3d01c19fb39787f8e0132b76fb9588175f855bf6d35d7826cb295369d",
      "usesPermissions": [
        "android.permission.ACCESS_FINE_LOCATION",
        "android.permission.INTERNET",
        "android.permission.READ_EXTERNAL_STORAGE",
        "android.permission.RECORD_AUDIO",
        "android.permission.WRITE_EXTERNAL_STORAGE"
      ]
    }
  ],
  "meta": {
    "generated": "2020-08-27T18:14:00.744802",
    "generatedBy": [
      "/home/hc/code/trackingthetrackers/scripts/make-clean-apk-set.py"
    ],
    "generatedByCommitId": "3839559c80042252d3b947fb61c86a18e8b31114",
    "sourceDataCommitId": "888bb8f8c77ff55105fcab2ad84c263561eb1169",
    "ver": "0.3.0"
  }
}