{
  "apks": [
    {
      "applicationId": "com.bluemoon.shineeFandom",
      "broadcastReceiverIntentFilterActionNames": [
        "NOTIFICATION_DELETED_ACTION",
        "RestartReceiver.restart",
        "android.intent.action.BOOT_COMPLETED",
        "android.intent.action.PACKAGE_ADDED",
        "android.intent.action.PACKAGE_REMOVED",
        "android.intent.action.PACKAGE_REPLACED",
        "android.intent.action.USER_PRESENT",
        "com.android.vending.INSTALL_REFERRER",
        "com.google.android.c2dm.intent.RECEIVE",
        "com.google.android.c2dm.intent.REGISTRATION",
        "com.google.android.gms.measurement.UPLOAD",
        "com.skplanet.syrupad.action.SAID_CHANGED"
      ],
      "dependencies": [
        "com$admixer",
        "com$google$ads$",
        "com$inmobi",
        "com.admixer",
        "com.co.shallwead.sdk.",
        "com.crashlytics.",
        "com.facebook.ads",
        "com.flurry.",
        "com.fsn.cauly",
        "com.google.ads.",
        "com.google.android.gms.ads.",
        "com.google.android.gms.analytics.",
        "com.google.android.gms.measurement.",
        "com.google.android.gms.tagmanager",
        "com.igaworks.adbrix",
        "com.igaworks.adpopcorn",
        "com.inmobi",
        "com.skplanet.tad",
        "com_facebook_login",
        "io$fabric$",
        "io.fabric."
      ],
      "domainNamesFilteredByExodus": [
        ".facebook.com",
        ".google.com",
        "ad-brix.com",
        "admixer.co.kr",
        "adotsolution.com",
        "config.inmobi.com",
        "crashlytics.com",
        "doubleclick.net",
        "google-analytics.com",
        "i.w.inmobi.com",
        "inmobi.com",
        "inmobisdk-a.akamaihd.net",
        "sdkm.w.inmobi.com",
        "w.inmobi.com",
        "www.googletagmanager.com"
      ],
      "metaDataNames": [
        "com.facebook.sdk.ApplicationId",
        "com.google.android.gms.version",
        "igaworks_app_key",
        "igaworks_hash_key",
        "igaworks_market_info",
        "igaworks_reward_server_type",
        "io.fabric.ApiKey"
      ],
      "sha256": "0814d739124e2a101d0edaef0a5333e92eb9b1627f93a4646cef6805ad086e63",
      "usesPermissions": [
        "android.permission.ACCESS_COARSE_LOCATION",
        "android.permission.ACCESS_NETWORK_STATE",
        "android.permission.ACCESS_WIFI_STATE",
        "android.permission.DISABLE_KEYGUARD",
        "android.permission.GET_ACCOUNTS",
        "android.permission.GET_TASKS",
        "android.permission.INTERNET",
        "android.permission.READ_EXTERNAL_STORAGE",
        "android.permission.READ_PHONE_STATE",
        "android.permission.RECEIVE_BOOT_COMPLETED",
        "android.permission.SET_WALLPAPER",
        "android.permission.USE_CREDENTIALS",
        "android.permission.VIBRATE",
        "android.permission.WAKE_LOCK",
        "android.permission.WRITE_EXTERNAL_STORAGE",
        "android.permission.WRITE_SETTINGS",
        "com.bluemoon.shineeFandom.permission.C2D_MESSAGE",
        "com.google.android.c2dm.permission.RECEIVE"
      ]
    }
  ],
  "meta": {
    "generated": "2020-08-27T15:48:34.073330",
    "generatedBy": [
      "/home/hc/code/trackingthetrackers/scripts/make-trackers-apk-set.py"
    ],
    "ver": "0.3.0"
  }
}