{
  "apks": [
    {
      "applicationId": "comdwms.ezjwqoay.fertefesaeiws",
      "broadcastReceiverIntentFilterActionNames": [
        "android.intent.action.USER_PRESENT",
        "android.net.conn.CONNECTIVITY_CHANGE",
        "com.android.vending.INSTALL_REFERRER"
      ],
      "dependencies": [
        "com$google$ads$",
        "com$tapjoy$",
        "com$umeng$analytics",
        "com.applovin",
        "com.chartboost.sdk.",
        "com.google.ads.",
        "com.google.android.gms.ads.",
        "com.google.android.gms.analytics.",
        "com.google.android.gms.tagmanager",
        "com.sponsorpay",
        "com.tapjoy.",
        "com.umeng.analytics",
        "com.vungle.publisher.",
        "com_facebook_login"
      ],
      "domainNamesFilteredByExodus": [
        ".chartboost.com",
        ".facebook.com",
        ".google.com",
        "alog.umeng.com",
        "api.vungle.com",
        "applovin.com",
        "doubleclick.net",
        "engine.sponsorpay.com",
        "oc.umeng.com",
        "tapjoy.com",
        "tapjoyads.com",
        "umeng.com",
        "www.googletagmanager.com"
      ],
      "metaDataNames": [
        "ADX_CLIENT_ID",
        "APP_NAME",
        "SPONSORPAY_APP_ID",
        "UMENG_APPKEY",
        "UMENG_CHANNEL",
        "applovin.sdk.key",
        "com.facebook.sdk.ApplicationId",
        "com.google.android.gms.version"
      ],
      "sha256": "c713322dd0f020b1775e10d24665a0e65336ff99b4f34f661cf554200101bf9b",
      "usesPermissions": [
        "android.permission.ACCESS_COARSE_LOCATION",
        "android.permission.ACCESS_NETWORK_STATE",
        "android.permission.ACCESS_NETWORK_STATE",
        "android.permission.ACCESS_NETWORK_STATE",
        "android.permission.ACCESS_NETWORK_STATE",
        "android.permission.ACCESS_WIFI_STATE",
        "android.permission.ACCESS_WIFI_STATE",
        "android.permission.ACCESS_WIFI_STATE",
        "android.permission.ACCESS_WIFI_STATE",
        "android.permission.GET_ACCOUNTS",
        "android.permission.GET_TASKS",
        "android.permission.INTERNET",
        "android.permission.INTERNET",
        "android.permission.INTERNET",
        "android.permission.INTERNET",
        "android.permission.READ_PHONE_STATE",
        "android.permission.READ_PHONE_STATE",
        "android.permission.READ_PHONE_STATE",
        "android.permission.READ_PHONE_STATE",
        "android.permission.SYSTEM_ALERT_WINDOW",
        "android.permission.SYSTEM_ALERT_WINDOW",
        "android.permission.WAKE_LOCK",
        "android.permission.WRITE_EXTERNAL_STORAGE",
        "android.permission.WRITE_EXTERNAL_STORAGE",
        "android.permission.WRITE_EXTERNAL_STORAGE",
        "android.permission.WRITE_EXTERNAL_STORAGE",
        "com.android.launcher.permission.INSTALL_SHORTCUT",
        "com.android.vending.BILLING"
      ]
    }
  ],
  "meta": {
    "generated": "2020-08-27T15:13:44.619318",
    "generatedBy": [
      "/home/hc/code/trackingthetrackers/scripts/make-trackers-apk-set.py"
    ],
    "ver": "0.3.0"
  }
}