{
  "apks": [
    {
      "applicationId": "net.ihiztvqmxtnmv.kittencatsimulatordcraft",
      "broadcastReceiverIntentFilterActionNames": [],
      "dependencies": [],
      "domainNamesFilteredByExodus": [
        ".google.com"
      ],
      "metaDataNames": [],
      "sha256": "b85beb638c3a6d60467e452553010104aacb2d94e0a3f8f42baaf958642eafac",
      "usesPermissions": [
        "android.permission.INTERNET"
      ]
    }
  ],
  "meta": {
    "generated": "2020-08-27T14:53:25.933158",
    "generatedBy": [
      "/home/hc/code/trackingthetrackers/scripts/make-trackers-apk-set.py"
    ],
    "ver": "0.3.0"
  }
}