{
  "apks": [
    {
      "applicationId": "org.fitchfamily.android.gsmlocation",
      "broadcastReceiverIntentFilterActionNames": [],
      "dependencies": [],
      "domainNamesFilteredByExodus": [],
      "metaDataNames": [
        "org.microg.nlp.API_VERSION",
        "org.microg.nlp.BACKEND_SETTINGS_ACTIVITY",
        "org.microg.nlp.BACKEND_SUMMARY"
      ],
      "sha256": "ae562c65800c77345fba546694def217d2844bbd7d8b1f1fa9b1093f1831eb4d",
      "usesPermissions": [
        "android.permission.ACCESS_COARSE_LOCATION",
        "android.permission.INTERNET",
        "android.permission.WRITE_EXTERNAL_STORAGE"
      ]
    }
  ],
  "meta": {
    "generated": "2020-08-27T18:26:29.912077",
    "generatedBy": [
      "/home/hc/code/trackingthetrackers/scripts/make-clean-apk-set.py"
    ],
    "generatedByCommitId": "3839559c80042252d3b947fb61c86a18e8b31114",
    "sourceDataCommitId": "888bb8f8c77ff55105fcab2ad84c263561eb1169",
    "ver": "0.3.0"
  }
}