{
  "apks": [
    {
      "applicationId": "fb.video.downloader",
      "broadcastReceiverIntentFilterActionNames": [
        "android.intent.action.DOWNLOAD_NOTIFICATION_CLICKED",
        "com.android.vending.INSTALL_REFERRER",
        "com.google.android.c2dm.intent.RECEIVE",
        "com.google.android.c2dm.intent.REGISTRATION",
        "com.google.android.gms.measurement.UPLOAD",
        "com.inmobi.share.id"
      ],
      "dependencies": [
        "com.appbrain.",
        "com.crashlytics.",
        "com.google.ads.",
        "com.google.android.gms.ads.",
        "com.google.android.gms.analytics.",
        "com.google.android.gms.measurement.",
        "com.inmobi",
        "io.fabric."
      ],
      "domainNamesFilteredByExodus": [
        ".facebook.com",
        ".google.com",
        "config.inmobi.com",
        "crashlytics.com",
        "doubleclick.net",
        "google-analytics.com",
        "i.w.inmobi.com",
        "inmobi.com",
        "inmobisdk-a.akamaihd.net",
        "sdkm.w.inmobi.com",
        "w.inmobi.com"
      ],
      "metaDataNames": [
        "com.google.android.gms.version",
        "io.fabric.ApiKey"
      ],
      "sha256": "ac7e083b0786dfde0f2be42e187c06f59dd00a88282c2de0462828dcf9d3603f",
      "usesPermissions": [
        "android.permission.ACCESS_NETWORK_STATE",
        "android.permission.INTERNET",
        "android.permission.READ_EXTERNAL_STORAGE",
        "android.permission.WAKE_LOCK",
        "android.permission.WRITE_EXTERNAL_STORAGE",
        "com.google.android.c2dm.permission.RECEIVE",
        "fb.video.downloader.permission.C2D_MESSAGE"
      ]
    }
  ],
  "meta": {
    "generated": "2020-08-27T15:44:45.171124",
    "generatedBy": [
      "/home/hc/code/trackingthetrackers/scripts/make-trackers-apk-set.py"
    ],
    "ver": "0.3.0"
  }
}