{
  "apks": [
    {
      "applicationId": "net.daverix.urlforward",
      "broadcastReceiverIntentFilterActionNames": [],
      "dependencies": [],
      "domainNamesFilteredByExodus": [],
      "metaDataNames": [],
      "sha256": "0ed0dd48c1b79ac862912dc37d7033442fc37050cb42309a5cc53987b33e1d19",
      "usesPermissions": []
    }
  ],
  "meta": {
    "generated": "2020-08-27T17:04:21.308135",
    "generatedBy": [
      "/home/hc/code/trackingthetrackers/scripts/make-clean-apk-set.py"
    ],
    "generatedByCommitId": "40519285d6f404593fa655fa89b433743c25289e",
    "sourceDataCommitId": "888bb8f8c77ff55105fcab2ad84c263561eb1169",
    "ver": "0.3.0"
  }
}