{
  "apks": [
    {
      "applicationId": "com.sinyee.babybus.painting",
      "broadcastReceiverIntentFilterActionNames": [
        "android.intent.action.PACKAGE_ADDED"
      ],
      "dependencies": [
        "com.baidu.mobads",
        "com.google.ads.",
        "com.inmobi",
        "com.mdotm.android",
        "com.millennialmedia.",
        "com.tendcloud.tenddata.",
        "com.umeng.analytics",
        "com.umeng.fb",
        "net.youmi"
      ],
      "domainNamesFilteredByExodus": [
        ".google.com",
        "alog.umeng.com",
        "i.w.inmobi.com",
        "inmobi.com",
        "oc.umeng.com",
        "umeng.com",
        "w.inmobi.com"
      ],
      "metaDataNames": [
        "TD_APP_ID",
        "UMENG_APPKEY",
        "YJF_APP_CHANNEL",
        "YJF_APP_ID",
        "YJF_APP_KEY",
        "YJF_DEV_ID"
      ],
      "sha256": "ad6c3e0f2c708c3fe08c883b2bf55b9eab5863d30b0d5ad33a38ea43d2d9f056",
      "usesPermissions": [
        "android.permission.ACCESS_COARSE_LOCATION",
        "android.permission.ACCESS_FINE_LOCATION",
        "android.permission.ACCESS_NETWORK_STATE",
        "android.permission.ACCESS_NETWORK_STATE",
        "android.permission.ACCESS_WIFI_STATE",
        "android.permission.GET_TASKS",
        "android.permission.INTERNET",
        "android.permission.READ_LOGS",
        "android.permission.READ_PHONE_STATE",
        "android.permission.VIBRATE",
        "android.permission.WAKE_LOCK",
        "android.permission.WRITE_EXTERNAL_STORAGE"
      ]
    }
  ],
  "meta": {
    "generated": "2020-08-27T14:55:25.147915",
    "generatedBy": [
      "/home/hc/code/trackingthetrackers/scripts/make-trackers-apk-set.py"
    ],
    "ver": "0.3.0"
  }
}