{
  "apks": [
    {
      "applicationId": "com.kauf.talking.baum.TalkingEmilyBaby",
      "broadcastReceiverIntentFilterActionNames": [
        "android.intent.action.PHONE_STATE",
        "com.android.vending.INSTALL_REFERRER"
      ],
      "dependencies": [
        "com$amazon$device$ads",
        "com$scoreloop$client$android",
        "com$yume$android",
        "com.amazon.device.ads",
        "com.google.ads.",
        "com.google.adsx",
        "com.google.android.gms.ads.",
        "com.inmobi",
        "com.scoreloop.client.android",
        "com.vungle.publisher.",
        "com.yume.android",
        "io.presage."
      ],
      "domainNamesFilteredByExodus": [
        ".facebook.com",
        ".google.com",
        "adcolony.com",
        "androidads20.adcolony.com",
        "api.vungle.com",
        "doubleclick.net",
        "google-analytics.com",
        "i.w.inmobi.com",
        "inmobi.com",
        "inmobisdk-a.akamaihd.net",
        "presage.io",
        "sdkm.w.inmobi.com"
      ],
      "metaDataNames": [
        "com.google.android.gms.version",
        "com.google.android.gmsx.version"
      ],
      "sha256": "79a882d4df3361013ebd4f7c6b874deedd461a4676a74b6e96b15c988a5d5760",
      "usesPermissions": [
        "android.permission.ACCESS_COARSE_LOCATION",
        "android.permission.ACCESS_NETWORK_STATE",
        "android.permission.ACCESS_NETWORK_STATE",
        "android.permission.ACCESS_NETWORK_STATE",
        "android.permission.ACCESS_WIFI_STATE",
        "android.permission.ACCESS_WIFI_STATE",
        "android.permission.INTERNET",
        "android.permission.INTERNET",
        "android.permission.INTERNET",
        "android.permission.READ_EXTERNAL_STORAGE",
        "android.permission.READ_PHONE_STATE",
        "android.permission.READ_PHONE_STATE",
        "android.permission.RECORD_AUDIO",
        "android.permission.VIBRATE",
        "android.permission.WRITE_EXTERNAL_STORAGE",
        "android.permission.WRITE_EXTERNAL_STORAGE",
        "android.permission.WRITE_EXTERNAL_STORAGE"
      ]
    }
  ],
  "meta": {
    "generated": "2020-08-27T15:51:29.225274",
    "generatedBy": [
      "/home/hc/code/trackingthetrackers/scripts/make-trackers-apk-set.py"
    ],
    "ver": "0.3.0"
  }
}