{
  "apks": [
    {
      "applicationId": "mmmvden.qhgohln.jxc",
      "broadcastReceiverIntentFilterActionNames": [],
      "dependencies": [],
      "domainNamesFilteredByExodus": [],
      "metaDataNames": [],
      "sha256": "0e350b8732848c712ff1f673ebb29c59d842bd54a2ec32c4c0f260e03f05f4d0",
      "usesPermissions": []
    }
  ],
  "meta": {
    "generated": "2020-08-27T14:58:34.304526",
    "generatedBy": [
      "/home/hc/code/trackingthetrackers/scripts/make-trackers-apk-set.py"
    ],
    "ver": "0.3.0"
  }
}