{
  "apks": [
    {
      "applicationId": "com.roguetemple.hyperroid",
      "broadcastReceiverIntentFilterActionNames": [],
      "dependencies": [],
      "domainNamesFilteredByExodus": [],
      "metaDataNames": [],
      "sha256": "b8187a93f5fffe34c22cb83658ec59daaeedba6ffe4d913316fc8fb1abd11665",
      "usesPermissions": []
    }
  ],
  "meta": {
    "generated": "2020-08-27T17:46:54.517266",
    "generatedBy": [
      "/home/hc/code/trackingthetrackers/scripts/make-clean-apk-set.py"
    ],
    "generatedByCommitId": "40519285d6f404593fa655fa89b433743c25289e",
    "sourceDataCommitId": "888bb8f8c77ff55105fcab2ad84c263561eb1169",
    "ver": "0.3.0"
  }
}