{
  "apks": [
    {
      "applicationId": "com.addi",
      "broadcastReceiverIntentFilterActionNames": [],
      "dependencies": [],
      "domainNamesFilteredByExodus": [
        ".google.com"
      ],
      "metaDataNames": [],
      "sha256": "8594d86ee1c062600e606b6c37af1d0e02823b02e1c1364e7e9ed347ed9b3a0f",
      "usesPermissions": []
    }
  ],
  "meta": {
    "generated": "2020-08-27T16:52:16.914576",
    "generatedBy": [
      "/home/hc/code/trackingthetrackers/scripts/make-clean-apk-set.py"
    ],
    "generatedByCommitId": "40519285d6f404593fa655fa89b433743c25289e",
    "sourceDataCommitId": "888bb8f8c77ff55105fcab2ad84c263561eb1169",
    "ver": "0.3.0"
  }
}