{
  "apks": [
    {
      "applicationId": "net.osmand.plus",
      "broadcastReceiverIntentFilterActionNames": [
        "android.app.action.DEVICE_ADMIN_DISABLED",
        "android.app.action.DEVICE_ADMIN_ENABLED",
        "android.intent.action.CAMERA_BUTTON"
      ],
      "dependencies": [],
      "domainNamesFilteredByExodus": [
        ".facebook.com",
        ".google.com"
      ],
      "metaDataNames": [
        "android.app.device_admin",
        "android.support.FILE_PROVIDER_PATHS",
        "com.google.android.backup.api_key",
        "com.sec.android.multiwindow.DEFAULT_SIZE_H",
        "com.sec.android.multiwindow.DEFAULT_SIZE_W",
        "com.sec.android.multiwindow.MINIMUM_SIZE_H",
        "com.sec.android.multiwindow.MINIMUM_SIZE_W",
        "com.sec.android.support.multiwindow",
        "com.sec.minimode.icon.landscape.normal",
        "com.sec.minimode.icon.portrait.normal"
      ],
      "sha256": "478545b3ce1c9444d2593d93e0ac13b9269f07a4acd253f685d966082e15a8d7",
      "usesPermissions": [
        "18",
        "18",
        "android.permission.ACCESS_COARSE_LOCATION",
        "android.permission.ACCESS_FINE_LOCATION",
        "android.permission.ACCESS_LOCATION_EXTRA_COMMANDS",
        "android.permission.ACCESS_NETWORK_STATE",
        "android.permission.ACCESS_WIFI_STATE",
        "android.permission.BLUETOOTH",
        "android.permission.BROADCAST_STICKY",
        "android.permission.CAMERA",
        "android.permission.INTERNET",
        "android.permission.MODIFY_AUDIO_SETTINGS",
        "android.permission.RECORD_AUDIO",
        "android.permission.STORAGE",
        "android.permission.VIBRATE",
        "android.permission.WAKE_LOCK",
        "android.permission.WRITE_EXTERNAL_STORAGE"
      ]
    }
  ],
  "meta": {
    "generated": "2020-08-27T18:18:26.157773",
    "generatedBy": [
      "/home/hc/code/trackingthetrackers/scripts/make-clean-apk-set.py"
    ],
    "generatedByCommitId": "3839559c80042252d3b947fb61c86a18e8b31114",
    "sourceDataCommitId": "888bb8f8c77ff55105fcab2ad84c263561eb1169",
    "ver": "0.3.0"
  }
}