{
  "apks": [
    {
      "applicationId": "utrp.alinoz.wsfatkrip",
      "broadcastReceiverIntentFilterActionNames": [
        "android.intent.action.BOOT_COMPLETED",
        "com.android.vending.INSTALL_REFERRER"
      ],
      "dependencies": [
        "com$appnext$",
        "com.appbrain.",
        "com.appnext.",
        "com.google.ads.",
        "com.google.android.gms.ads.",
        "com.ironsource.",
        "com.revmob.ads.",
        "com.tapjoy."
      ],
      "domainNamesFilteredByExodus": [
        ".facebook.com",
        ".google.com",
        "adcolony.com",
        "androidads21.adcolony.com",
        "doubleclick.net",
        "tapjoy.com",
        "tapjoyads.com"
      ],
      "metaDataNames": [
        "com.google.android.gms.version",
        "com.google.android.maps.v2.API_KEY",
        "com.revmob.app.id"
      ],
      "sha256": "1b2de0de0c743c057142ce7c0785e502ecf0ea27aa4036786a9fe39c8c6250b5",
      "usesPermissions": [
        "android.permission.ACCESS_FINE_LOCATION",
        "android.permission.ACCESS_NETWORK_STATE",
        "android.permission.ACCESS_WIFI_STATE",
        "android.permission.GET_ACCOUNTS",
        "android.permission.INTERNET",
        "android.permission.RECEIVE_BOOT_COMPLETED",
        "android.permission.RECORD_AUDIO",
        "android.permission.SET_WALLPAPER",
        "android.permission.WAKE_LOCK",
        "android.permission.WRITE_EXTERNAL_STORAGE",
        "com.google.android.providers.gsf.permission.READ_GSERVICES"
      ]
    }
  ],
  "meta": {
    "generated": "2020-08-27T15:05:51.872922",
    "generatedBy": [
      "/home/hc/code/trackingthetrackers/scripts/make-trackers-apk-set.py"
    ],
    "ver": "0.3.0"
  }
}