{
  "apks": [
    {
      "applicationId": "com.divmob.aodonlinevn",
      "broadcastReceiverIntentFilterActionNames": [],
      "dependencies": [
        "com$tapjoy$",
        "com.flurry.",
        "com.google.ads.",
        "com.google.android.apps.analytics.",
        "com.inmobi",
        "com.millennialmedia.",
        "com.mobclix.android.sdk",
        "com.tapjoy."
      ],
      "domainNamesFilteredByExodus": [
        ".facebook.com",
        ".google.com",
        "doubleclick.net",
        "flurry.com",
        "tapjoy.com",
        "tapjoyads.com"
      ],
      "metaDataNames": [],
      "sha256": "67c21ad5df66feecf8f2df5a8909c14df2dd6c4482ec60bab48cc0a3ccb924d8",
      "usesPermissions": [
        "android.permission.ACCESS_COARSE_LOCATION",
        "android.permission.ACCESS_FINE_LOCATION",
        "android.permission.ACCESS_NETWORK_STATE",
        "android.permission.ACCESS_WIFI_STATE",
        "android.permission.INTERNET",
        "android.permission.KILL_BACKGROUND_PROCESSES",
        "android.permission.READ_PHONE_STATE",
        "android.permission.VIBRATE",
        "android.permission.WAKE_LOCK",
        "android.permission.WRITE_EXTERNAL_STORAGE",
        "com.android.vending.BILLING"
      ]
    }
  ],
  "meta": {
    "generated": "2020-08-27T15:03:49.377239",
    "generatedBy": [
      "/home/hc/code/trackingthetrackers/scripts/make-trackers-apk-set.py"
    ],
    "ver": "0.3.0"
  }
}