{
  "apks": [
    {
      "applicationId": "com.nbossard.packlist",
      "broadcastReceiverIntentFilterActionNames": [],
      "dependencies": [],
      "domainNamesFilteredByExodus": [
        ".google.com"
      ],
      "metaDataNames": [
        "android.support.AboutActivity",
        "android.support.PARENT_ACTIVITY"
      ],
      "sha256": "7c07ccb336767c3b6de53e6466ec4fbbe652a646ba86c3a1dbbffe7a7977f10e",
      "usesPermissions": []
    }
  ],
  "meta": {
    "generated": "2020-08-27T17:38:00.725379",
    "generatedBy": [
      "/home/hc/code/trackingthetrackers/scripts/make-clean-apk-set.py"
    ],
    "generatedByCommitId": "40519285d6f404593fa655fa89b433743c25289e",
    "sourceDataCommitId": "888bb8f8c77ff55105fcab2ad84c263561eb1169",
    "ver": "0.3.0"
  }
}