{
  "apks": [
    {
      "applicationId": "ccvimapgames.ccbikinihunt",
      "broadcastReceiverIntentFilterActionNames": [
        "CUSTOM_ACTION_UPDATE_COUNTERS",
        "CUSTOM_ACTION_UPDATE_DELIVERY",
        "android.provider.Telephony.SMS_RECEIVED"
      ],
      "dependencies": [
        "com.umeng.analytics"
      ],
      "domainNamesFilteredByExodus": [
        "alog.umeng.com",
        "oc.umeng.com",
        "umeng.com"
      ],
      "metaDataNames": [
        "UMENG_APPKEY",
        "UMENG_CHANNEL"
      ],
      "sha256": "dad55a2d3b1ffe1291d15315f643e4489fc55e08dc6845e396fb4fa2afdb2a33",
      "usesPermissions": [
        "android.permission.ACCESS_FINE_LOCATION",
        "android.permission.ACCESS_NETWORK_STATE",
        "android.permission.ACCESS_NETWORK_STATE",
        "android.permission.INTERNET",
        "android.permission.INTERNET",
        "android.permission.READ_PHONE_STATE",
        "android.permission.READ_PHONE_STATE",
        "android.permission.RECEIVE_SMS",
        "android.permission.SEND_SMS",
        "android.permission.VIBRATE"
      ]
    }
  ],
  "meta": {
    "generated": "2020-08-27T15:38:54.066276",
    "generatedBy": [
      "/home/hc/code/trackingthetrackers/scripts/make-trackers-apk-set.py"
    ],
    "ver": "0.3.0"
  }
}