{
  "apks": [
    {
      "applicationId": "com.enrico.earthquake.batterysimplysolid",
      "broadcastReceiverIntentFilterActionNames": [],
      "dependencies": [],
      "domainNamesFilteredByExodus": [
        ".google.com"
      ],
      "metaDataNames": [
        "android.service.wallpaper",
        "com.sec.android.multiwindow.DEFAULT_SIZE_H",
        "com.sec.android.multiwindow.DEFAULT_SIZE_W",
        "com.sec.android.multiwindow.MINIMUM_SIZE_H",
        "com.sec.android.multiwindow.MINIMUM_SIZE_W",
        "com.sec.android.support.multiwindow"
      ],
      "sha256": "dcb73124fb05a70b9108c5cfcb99713c5b6915cfa8d1893cd2042a798da1a72d",
      "usesPermissions": [
        "android.permission.BIND_WALLPAPER",
        "android.permission.SET_WALLPAPER"
      ]
    }
  ],
  "meta": {
    "generated": "2020-08-27T17:21:01.502880",
    "generatedBy": [
      "/home/hc/code/trackingthetrackers/scripts/make-clean-apk-set.py"
    ],
    "generatedByCommitId": "40519285d6f404593fa655fa89b433743c25289e",
    "sourceDataCommitId": "888bb8f8c77ff55105fcab2ad84c263561eb1169",
    "ver": "0.3.0"
  }
}