{
  "apks": [
    {
      "applicationId": "org.gnucash.android",
      "broadcastReceiverIntentFilterActionNames": [
        "android.appwidget.action.APPWIDGET_UPDATE",
        "android.intent.action.INSERT"
      ],
      "dependencies": [],
      "domainNamesFilteredByExodus": [],
      "metaDataNames": [
        "android.appwidget.provider"
      ],
      "sha256": "ba4e7e436abd7a71d3dad7dcc54b4157a926458fa43c28d9ff423da51f230421",
      "usesPermissions": [
        "Access SD Card",
        "Enables creation of accounts in GnuCash for Android",
        "Enables recording transactions in GnuCash for Android",
        "android.permission.WRITE_EXTERNAL_STORAGE",
        "org.gnucash.android.permission.CREATE_ACCOUNT",
        "org.gnucash.android.permission.RECORD_TRANSACTION"
      ]
    }
  ],
  "meta": {
    "generated": "2020-08-27T18:28:08.001929",
    "generatedBy": [
      "/home/hc/code/trackingthetrackers/scripts/make-clean-apk-set.py"
    ],
    "generatedByCommitId": "3839559c80042252d3b947fb61c86a18e8b31114",
    "sourceDataCommitId": "888bb8f8c77ff55105fcab2ad84c263561eb1169",
    "ver": "0.3.0"
  }
}