{
  "apks": [
    {
      "applicationId": "org.totschnig.myexpenses",
      "broadcastReceiverIntentFilterActionNames": [
        "android.appwidget.action.APPWIDGET_UPDATE",
        "android.intent.action.BOOT_COMPLETED",
        "android.intent.action.PACKAGE_REPLACED",
        "org.totschnig.myexpenses.SCHEDULED_BACKUP",
        "org.totschnig.myexpenses.UPDATE_WIDGET"
      ],
      "dependencies": [],
      "domainNamesFilteredByExodus": [
        ".facebook.com",
        ".google.com"
      ],
      "metaDataNames": [
        "android.appwidget.provider",
        "android.support.FILE_PROVIDER_PATHS",
        "android.support.PARENT_ACTIVITY",
        "com.samsung.android.sdk.multiwindow.enable",
        "com.sec.android.support.multiwindow"
      ],
      "sha256": "53d82d8007e2a512085ca0f805dc0054cb3985e2cde50a5403b1e0e8bee5f212",
      "usesPermissions": [
        "android.permission.READ_CALENDAR",
        "android.permission.RECEIVE_BOOT_COMPLETED",
        "android.permission.WRITE_CALENDAR",
        "android.permission.WRITE_EXTERNAL_STORAGE",
        "com.android.launcher.permission.INSTALL_SHORTCUT"
      ]
    }
  ],
  "meta": {
    "generated": "2020-08-27T18:39:33.312097",
    "generatedBy": [
      "/home/hc/code/trackingthetrackers/scripts/make-clean-apk-set.py"
    ],
    "generatedByCommitId": "3839559c80042252d3b947fb61c86a18e8b31114",
    "sourceDataCommitId": "888bb8f8c77ff55105fcab2ad84c263561eb1169",
    "ver": "0.3.0"
  }
}