{
  "apks": [
    {
      "applicationId": "org.projectmaxs.module.misc",
      "broadcastReceiverIntentFilterActionNames": [
        "org.projectmaxs.EXPORT_SETTINGS",
        "org.projectmaxs.IMPORT_SETTINGS",
        "org.projectmaxs.REGISTER"
      ],
      "dependencies": [],
      "domainNamesFilteredByExodus": [],
      "metaDataNames": [],
      "sha256": "f855fc2469b6b48fea1935ce2cb6f23eca3d9b4cf06cf34f57ae9ee3e6670b53",
      "usesPermissions": [
        "org.projectmaxs.permission.USE_MAIN",
        "org.projectmaxs.permission.USE_MAIN_AS_MODULE"
      ]
    }
  ],
  "meta": {
    "generated": "2020-08-27T18:34:36.308335",
    "generatedBy": [
      "/home/hc/code/trackingthetrackers/scripts/make-clean-apk-set.py"
    ],
    "generatedByCommitId": "3839559c80042252d3b947fb61c86a18e8b31114",
    "sourceDataCommitId": "888bb8f8c77ff55105fcab2ad84c263561eb1169",
    "ver": "0.3.0"
  }
}