{
  "apks": [
    {
      "applicationId": "com.perfect.playerch",
      "broadcastReceiverIntentFilterActionNames": [
        "android.intent.action.BOOT_COMPLETED",
        "android.intent.action.MEDIA_MOUNTED",
        "android.intent.action.PACKAGE_ADDED",
        "android.intent.action.USER_PRESENT",
        "android.net.conn.CONNECTIVITY_CHANGE",
        "com.nmbb.oplayer.action.MEDIA_SCANNER_SCAN_DIRECTORY",
        "com.nmbb.oplayer.action.MEDIA_SCANNER_SCAN_FILE"
      ],
      "dependencies": [
        "com.baidu.mobads",
        "com.google.ads.",
        "com.google.android.gms.ads.",
        "com.google.android.gms.analytics.",
        "com.google.android.gms.tagmanager",
        "com.umeng.analytics",
        "com_baidu_mobads"
      ],
      "domainNamesFilteredByExodus": [
        ".google.com",
        "alog.umeng.com",
        "doubleclick.net",
        "google-analytics.com",
        "oc.umeng.com",
        "umeng.com",
        "www.googletagmanager.com"
      ],
      "metaDataNames": [
        "BaiduMobAd_APP_ID",
        "BaiduMobAd_APP_SEC",
        "UMENG_APPKEY",
        "UMENG_CHANNEL",
        "ZMAD_IDENTITY",
        "ZMAD_KEY",
        "android.support.PARENT_ACTIVITY",
        "cEnd",
        "cStart",
        "com.google.android.gms.version",
        "idp"
      ],
      "sha256": "e9fe401ac4580165772f3f40cc3eee3653de2c330a29e57364363672541ba675",
      "usesPermissions": [
        "android.permission.ACCESS_COARSE_LOCATION",
        "android.permission.ACCESS_NETWORK_STATE",
        "android.permission.ACCESS_NETWORK_STATE",
        "android.permission.ACCESS_NETWORK_STATE",
        "android.permission.ACCESS_WIFI_STATE",
        "android.permission.ACCESS_WIFI_STATE",
        "android.permission.CHANGE_WIFI_STATE",
        "android.permission.GET_TASKS",
        "android.permission.INTERNET",
        "android.permission.INTERNET",
        "android.permission.KILL_BACKGROUND_PROCESSES",
        "android.permission.MOUNT_UNMOUNT_FILESYSTEMS",
        "android.permission.READ_EXTERNAL_STORAGE",
        "android.permission.READ_PHONE_STATE",
        "android.permission.READ_PHONE_STATE",
        "android.permission.RESTART_PACKAGES",
        "android.permission.WAKE_LOCK",
        "android.permission.WRITE_EXTERNAL_STORAGE",
        "android.permission.WRITE_EXTERNAL_STORAGE"
      ]
    }
  ],
  "meta": {
    "generated": "2020-08-27T15:51:08.058715",
    "generatedBy": [
      "/home/hc/code/trackingthetrackers/scripts/make-trackers-apk-set.py"
    ],
    "ver": "0.3.0"
  }
}