{
  "apks": [
    {
      "applicationId": "it.motoincontroroma",
      "broadcastReceiverIntentFilterActionNames": [],
      "dependencies": [
        "com.google.ads.",
        "com.google.android.gms.ads.",
        "org.appcelerator.titanium.analytics"
      ],
      "domainNamesFilteredByExodus": [
        ".google.com",
        "appcelerator.com",
        "appcelerator.net",
        "doubleclick.net"
      ],
      "metaDataNames": [
        "com.google.android.gms.version",
        "com.google.android.maps.v2.API_KEY"
      ],
      "sha256": "1fbc0f820d834fdb5300a572887cb51452597b1ebf5086b8215eed16ac560388",
      "usesPermissions": [
        "android.permission.ACCESS_COARSE_LOCATION",
        "android.permission.ACCESS_FINE_LOCATION",
        "android.permission.ACCESS_NETWORK_STATE",
        "android.permission.ACCESS_WIFI_STATE",
        "android.permission.CAMERA",
        "android.permission.INTERNET",
        "android.permission.VIBRATE",
        "android.permission.WRITE_EXTERNAL_STORAGE",
        "com.google.android.providers.gsf.permission.READ_GSERVICES",
        "it.motoincontroroma.permission.MAPS_RECEIVE"
      ]
    }
  ],
  "meta": {
    "generated": "2020-08-27T14:52:21.923734",
    "generatedBy": [
      "/home/hc/code/trackingthetrackers/scripts/make-trackers-apk-set.py"
    ],
    "ver": "0.3.0"
  }
}