{
  "apks": [
    {
      "applicationId": "za.co.lukestonehm.logicaldefence",
      "broadcastReceiverIntentFilterActionNames": [],
      "dependencies": [],
      "domainNamesFilteredByExodus": [],
      "metaDataNames": [
        "android.support.PARENT_ACTIVITY"
      ],
      "sha256": "3b185f5ef4a8bfd3d00293422c60194c4a8560cd8c12439579d07017f8324d37",
      "usesPermissions": []
    }
  ],
  "meta": {
    "generated": "2020-08-27T18:45:08.166479",
    "generatedBy": [
      "/home/hc/code/trackingthetrackers/scripts/make-clean-apk-set.py"
    ],
    "generatedByCommitId": "3839559c80042252d3b947fb61c86a18e8b31114",
    "sourceDataCommitId": "888bb8f8c77ff55105fcab2ad84c263561eb1169",
    "ver": "0.3.0"
  }
}