{
  "apks": [
    {
      "applicationId": "com.quaap.launchtime",
      "broadcastReceiverIntentFilterActionNames": [
        "android.intent.action.BADGE_COUNT_UPDATE",
        "android.intent.action.PACKAGE_ADDED",
        "android.intent.action.PACKAGE_REMOVED",
        "com.anddoes.launcher.COUNTER_CHANGED",
        "com.android.launcher.action.INSTALL_SHORTCUT",
        "com.sonyericsson.home.action.UPDATE_BADGE",
        "org.adw.launcher.counter.SEND"
      ],
      "dependencies": [],
      "domainNamesFilteredByExodus": [],
      "metaDataNames": [
        "android.arch.lifecycle.VERSION",
        "android.support.VERSION"
      ],
      "sha256": "4cdc6242505ab90c4225b1c8312f0806a54ba96a57c3f9d5f00190feb4611641",
      "usesPermissions": [
        "android.permission.BIND_APPWIDGET",
        "android.permission.INTERNET",
        "android.permission.WRITE_EXTERNAL_STORAGE"
      ]
    }
  ],
  "meta": {
    "generated": "2020-08-27T17:46:20.045068",
    "generatedBy": [
      "/home/hc/code/trackingthetrackers/scripts/make-clean-apk-set.py"
    ],
    "generatedByCommitId": "40519285d6f404593fa655fa89b433743c25289e",
    "sourceDataCommitId": "888bb8f8c77ff55105fcab2ad84c263561eb1169",
    "ver": "0.3.0"
  }
}