{
  "apks": [
    {
      "applicationId": "de.tobiasbielefeld.solitaire",
      "broadcastReceiverIntentFilterActionNames": [],
      "dependencies": [],
      "domainNamesFilteredByExodus": [
        ".google.com"
      ],
      "metaDataNames": [],
      "sha256": "546914da434b0fae81bcc611e3c7718a9f19a2f316f715e581471e3fa0e81264",
      "usesPermissions": []
    }
  ],
  "meta": {
    "generated": "2020-08-27T18:04:51.838728",
    "generatedBy": [
      "/home/hc/code/trackingthetrackers/scripts/make-clean-apk-set.py"
    ],
    "generatedByCommitId": "3839559c80042252d3b947fb61c86a18e8b31114",
    "sourceDataCommitId": "888bb8f8c77ff55105fcab2ad84c263561eb1169",
    "ver": "0.3.0"
  }
}