{
  "apks": [
    {
      "applicationId": "com.mobi.common.main.hl",
      "broadcastReceiverIntentFilterActionNames": [
        "action_application_start",
        "action_application_stop",
        "android.intent.action.BOOT_COMPLETED",
        "android.intent.action.HEADSET_PLUG",
        "android.intent.action.USER_PRESENT"
      ],
      "dependencies": [],
      "domainNamesFilteredByExodus": [],
      "metaDataNames": [
        "Mobi_ID",
        "Mobi_PID"
      ],
      "sha256": "c05e579fbe07e7d838268fbf92e81217b9344ff7efcaa37cd2f513ffa3f48915",
      "usesPermissions": [
        "android.permission.ACCESS_NETWORK_STATE",
        "android.permission.ACCESS_WIFI_STATE",
        "android.permission.DISABLE_KEYGUARD",
        "android.permission.EXPAND_STATUS_BAR",
        "android.permission.GET_TASKS",
        "android.permission.INTERNET",
        "android.permission.READ_PHONE_STATE",
        "android.permission.VIBRATE",
        "android.permission.WRITE_EXTERNAL_STORAGE"
      ]
    }
  ],
  "meta": {
    "generated": "2020-08-27T14:56:44.322861",
    "generatedBy": [
      "/home/hc/code/trackingthetrackers/scripts/make-trackers-apk-set.py"
    ],
    "ver": "0.3.0"
  }
}