{
  "apks": [
    {
      "applicationId": "com.monk.feiche",
      "broadcastReceiverIntentFilterActionNames": [
        "android.intent.action.PACKAGE_ADDED",
        "android.intent.action.USER_PRESENT",
        "android.net.conn.CONNECTIVITY_CHANGE"
      ],
      "dependencies": [
        "com.umeng.analytics"
      ],
      "domainNamesFilteredByExodus": [
        "alog.umeng.com",
        "oc.umeng.com",
        "umeng.com"
      ],
      "metaDataNames": [
        "UMENG_APPKEY",
        "UMENG_CHANNEL"
      ],
      "sha256": "9e3e8a6782933467a4ee262721d0cb780567c6335c6b5e48e650c6ba8c966e0b",
      "usesPermissions": [
        "android.permission.ACCESS_NETWORK_STATE",
        "android.permission.ACCESS_WIFI_STATE",
        "android.permission.CHANGE_WIFI_STATE",
        "android.permission.GET_TASKS",
        "android.permission.INTERNET",
        "android.permission.MOUNT_UNMOUNT_FILESYSTEMS",
        "android.permission.READ_PHONE_STATE",
        "android.permission.SYSTEM_ALERT_WINDOW",
        "android.permission.WAKE_LOCK",
        "android.permission.WRITE_EXTERNAL_STORAGE",
        "com.android.launcher.permission.INSTALL_SHORTCUT"
      ]
    }
  ],
  "meta": {
    "generated": "2020-08-27T15:22:16.364007",
    "generatedBy": [
      "/home/hc/code/trackingthetrackers/scripts/make-trackers-apk-set.py"
    ],
    "ver": "0.3.0"
  }
}