{
  "apks": [
    {
      "applicationId": "com.jiasoft.swreader",
      "broadcastReceiverIntentFilterActionNames": [
        "android.intent.action.PACKAGE_REMOVED",
        "android.net.conn.CONNECTIVITY_CHANGE",
        "com.changdu.PushNotificationReceiver.PushNotification",
        "com.changdu.RepeatNotificationReceiver.RepeatNotification",
        "com.changdu.home.SignNotificationReceiver",
        "com.changdu.zone.chapter.push.ChapterNotification",
        "com.changdu.zone.chapter.push.ChapterPush",
        "com.jiasoft.swreader.intent.action.COMMAND",
        "org.agoo.android.intent.action.RECEIVE",
        "org.agoo.android.intent.action.RE_ELECTION_V2",
        "safiap.GET_SHARED_DATA",
        "safiap.framework.ACTION_CANCEL_NOTIFICATION",
        "safiap.framework.ACTION_SET_TIMER"
      ],
      "dependencies": [
        "com.tencent.stat",
        "com.tencent.weiyun",
        "com.umeng.analytics",
        "com.umeng.fb",
        "com_facebook_login"
      ],
      "domainNamesFilteredByExodus": [
        "alog.umeng.com",
        "map.qq.com",
        "oc.umeng.com",
        "umeng.com"
      ],
      "metaDataNames": [
        "UMENG_APPKEY",
        "UMENG_MESSAGE_SECRET"
      ],
      "sha256": "d4f8a671b07eafc7e9f09bd2094b14069671e504b6970ff90a6a9e8e907c2ea8",
      "usesPermissions": [
        "android.permission.ACCESS_NETWORK_STATE",
        "android.permission.ACCESS_WIFI_STATE",
        "android.permission.CHANGE_CONFIGURATION",
        "android.permission.CHANGE_NETWORK_STATE",
        "android.permission.CHANGE_WIFI_STATE",
        "android.permission.GET_TASKS",
        "android.permission.INTERNET",
        "android.permission.MOUNT_UNMOUNT_FILESYSTEMS",
        "android.permission.PROCESS_OUTGOING_CALLS",
        "android.permission.READ_LOGS",
        "android.permission.READ_PHONE_STATE",
        "android.permission.SEND_SMS",
        "android.permission.SYSTEM_ALERT_WINDOW",
        "android.permission.VIBRATE",
        "android.permission.WAKE_LOCK",
        "android.permission.WRITE_EXTERNAL_STORAGE",
        "android.permission.WRITE_SETTINGS",
        "com.android.launcher.permission.INSTALL_SHORTCUT",
        "com.android.launcher.permission.READ_SETTINGS",
        "com.android.launcher.permission.UNINSTALL_SHORTCUT"
      ]
    }
  ],
  "meta": {
    "generated": "2020-08-27T15:28:21.138490",
    "generatedBy": [
      "/home/hc/code/trackingthetrackers/scripts/make-trackers-apk-set.py"
    ],
    "ver": "0.3.0"
  }
}