{
  "apks": [
    {
      "applicationId": "com.moez.QKSMS",
      "broadcastReceiverIntentFilterActionNames": [
        "android.appwidget.action.APPWIDGET_UPDATE",
        "android.intent.action.BOOT_COMPLETED",
        "android.intent.action.PACKAGE_CHANGED",
        "android.provider.Telephony.SMS_DELIVER",
        "android.provider.Telephony.SMS_RECEIVED",
        "android.provider.Telephony.WAP_PUSH_DELIVER",
        "android.provider.Telephony.WAP_PUSH_RECEIVED",
        "com.mariussoft.endlessjabber.action.extend",
        "com.moez.QKSMS.MARK_READ",
        "com.moez.QKSMS.MARK_SEEN",
        "com.moez.QKSMS.NOTIFY_SMS_FAILURE",
        "com.moez.QKSMS.SMS_DELIVERED",
        "com.moez.QKSMS.SMS_SENT",
        "com.moez.QKSMS.action.PENDING_PACKAGE_CHANGE",
        "com.moez.QKSMS.intent.action.ACTION_NOTIFY_DATASET_CHANGED",
        "com.moez.QKSMS.receiver.WearableIntentReceiver.REPLY"
      ],
      "dependencies": [],
      "domainNamesFilteredByExodus": [
        ".google.com"
      ],
      "metaDataNames": [
        "android.appwidget.provider",
        "protocolVersion"
      ],
      "sha256": "08db53e00a6fd35d0c332b89f6f5e6542cb86e99e86c9ea6757ace1bcbf76ce0",
      "usesPermissions": [
        "android.permission.ACCESS_COARSE_LOCATION",
        "android.permission.ACCESS_FINE_LOCATION",
        "android.permission.ACCESS_NETWORK_STATE",
        "android.permission.ACCESS_WIFI_STATE",
        "android.permission.CALL_PHONE",
        "android.permission.CAMERA",
        "android.permission.CHANGE_CONFIGURATION",
        "android.permission.CHANGE_NETWORK_STATE",
        "android.permission.CHANGE_WIFI_STATE",
        "android.permission.FLASHLIGHT",
        "android.permission.GET_ACCOUNTS",
        "android.permission.INTERNET",
        "android.permission.MANAGE_ACCOUNTS",
        "android.permission.NFC",
        "android.permission.READ_CALL_LOG",
        "android.permission.READ_CONTACTS",
        "android.permission.READ_EXTERNAL_STORAGE",
        "android.permission.READ_PHONE_STATE",
        "android.permission.READ_PROFILE",
        "android.permission.READ_SMS",
        "android.permission.RECEIVE_BOOT_COMPLETED",
        "android.permission.RECEIVE_MMS",
        "android.permission.RECEIVE_SMS",
        "android.permission.RECORD_AUDIO",
        "android.permission.SEND_SMS",
        "android.permission.SYSTEM_ALERT_WINDOW",
        "android.permission.USE_CREDENTIALS",
        "android.permission.VIBRATE",
        "android.permission.WAKE_LOCK",
        "android.permission.WRITE_CONTACTS",
        "android.permission.WRITE_EXTERNAL_STORAGE",
        "android.permission.WRITE_SMS",
        "com.anddoes.launcher.permission.UPDATE_COUNT",
        "com.android.vending.BILLING",
        "com.htc.launcher.permission.READ_SETTINGS",
        "com.htc.launcher.permission.UPDATE_SHORTCUT",
        "com.majeur.launcher.permission.UPDATE_BADGE",
        "com.sec.android.provider.badge.permission.READ",
        "com.sec.android.provider.badge.permission.WRITE",
        "com.sonyericsson.home.permission.BROADCAST_BADGE"
      ]
    }
  ],
  "meta": {
    "generated": "2020-08-27T17:37:36.538682",
    "generatedBy": [
      "/home/hc/code/trackingthetrackers/scripts/make-clean-apk-set.py"
    ],
    "generatedByCommitId": "40519285d6f404593fa655fa89b433743c25289e",
    "sourceDataCommitId": "888bb8f8c77ff55105fcab2ad84c263561eb1169",
    "ver": "0.3.0"
  }
}