{
  "apks": [
    {
      "applicationId": "de.vanitasvitae.enigmandroid",
      "broadcastReceiverIntentFilterActionNames": [],
      "dependencies": [],
      "domainNamesFilteredByExodus": [],
      "metaDataNames": [],
      "sha256": "be9ade1f234a19db91d19009034258ebb055569c2740224c4897beed9b4135c4",
      "usesPermissions": []
    }
  ],
  "meta": {
    "generated": "2020-08-27T18:05:05.603375",
    "generatedBy": [
      "/home/hc/code/trackingthetrackers/scripts/make-clean-apk-set.py"
    ],
    "generatedByCommitId": "3839559c80042252d3b947fb61c86a18e8b31114",
    "sourceDataCommitId": "888bb8f8c77ff55105fcab2ad84c263561eb1169",
    "ver": "0.3.0"
  }
}