{
  "apks": [
    {
      "applicationId": "com.leo.appmaster",
      "broadcastReceiverIntentFilterActionNames": [
        "android.intent.action.AIRPLANE_MODE",
        "android.intent.action.BOOT_COMPLETED",
        "android.intent.action.NEW_OUTGOING_CALL",
        "android.intent.action.PACKAGE_ADDED",
        "android.intent.action.PACKAGE_REMOVED",
        "android.intent.action.PACKAGE_REPLACED",
        "android.intent.action.PHONE_STATE",
        "android.intent.action.SCREEN_OFF",
        "android.intent.action.SCREEN_ON",
        "android.intent.action.USER_PRESENT",
        "android.net.conn.CONNECTIVITY_CHANGE",
        "android.provider.Telephony.GSM_SMS_RECEIVED",
        "android.provider.Telephony.SMS_RECEIVED",
        "android.provider.Telephony.SMS_RECEIVED_2",
        "com.android.vending.INSTALL_REFERRER",
        "com.du.appsadlib.CHECK_QUERY_ACTION",
        "com.du.appsadlib.CHECK_UPDATE_ACTION",
        "com.du.appsplatform.MSG_ACTION",
        "com.leo.appmaster.action.IPC_RECEIVER",
        "com.leo.appmaster.action.SCHEDULE",
        "com.leo.appmaster.alarmlock",
        "com.leo.appmaster.battery.saver.notifi.click.action.x",
        "com.leo.appmaster.restart",
        "com.leo.appmaster.update.remind"
      ],
      "dependencies": [
        "com$appsflyer$",
        "com.appsflyer.",
        "com.baidu.mobstat",
        "com.facebook.ads",
        "com.google.ads.",
        "com.google.android.gms.ads.",
        "com.mobvista."
      ],
      "domainNamesFilteredByExodus": [
        ".facebook.com",
        ".google.com",
        "analytics.rayjump.com",
        "appsflyer.com",
        "doubleclick.net",
        "net.rayjump.com",
        "rayjump.com",
        "setting.rayjump.com"
      ],
      "metaDataNames": [
        "AF_PRE_INSTALL_NAME",
        "BaiduMobAd_CHANNEL",
        "BaiduMobAd_EXCEPTION_LOG",
        "BaiduMobAd_SEND_STRATEGY",
        "BaiduMobAd_STAT_ID",
        "LEO_PRIORTY",
        "MbvAppKey",
        "MbvChannel",
        "MbvLicense",
        "com.google.android.gms.version",
        "leo_ad_key"
      ],
      "sha256": "69235b59d642bf8bab8ee18e5ca511891495666a4ed4c1f1cd239be5371bd5ca",
      "usesPermissions": [
        "android.permission.ACCESS_COARSE_LOCATION",
        "android.permission.ACCESS_DOWNLOAD_MANAGER",
        "android.permission.ACCESS_FINE_LOCATION",
        "android.permission.ACCESS_NETWORK_STATE",
        "android.permission.ACCESS_WIFI_STATE",
        "android.permission.BATTERY_STATS",
        "android.permission.BLUETOOTH",
        "android.permission.BLUETOOTH_ADMIN",
        "android.permission.CALL_PHONE",
        "android.permission.CAMERA",
        "android.permission.CHANGE_NETWORK_STATE",
        "android.permission.CHANGE_WIFI_STATE",
        "android.permission.DOWNLOAD_WITHOUT_NOTIFICATION",
        "android.permission.EXPAND_STATUS_BAR",
        "android.permission.FLASHLIGHT",
        "android.permission.GET_ACCOUNTS",
        "android.permission.GET_PACKAGE_SIZE",
        "android.permission.GET_TASKS",
        "android.permission.INTERNET",
        "android.permission.KILL_BACKGROUND_PROCESSES",
        "android.permission.MODIFY_AUDIO_SETTINGS",
        "android.permission.MOUNT_UNMOUNT_FILESYSTEMS",
        "android.permission.PACKAGE_USAGE_STATS",
        "android.permission.PROCESS_OUTGOING_CALLS",
        "android.permission.READ_CALL_LOG",
        "android.permission.READ_CONTACTS",
        "android.permission.READ_EXTERNAL_STORAGE",
        "android.permission.READ_PHONE_STATE",
        "android.permission.READ_SMS",
        "android.permission.RECEIVE_BOOT_COMPLETED",
        "android.permission.RECEIVE_SMS",
        "android.permission.SEND_SMS",
        "android.permission.SYSTEM_ALERT_WINDOW",
        "android.permission.SYSTEM_OVERLAY_WINDOW",
        "android.permission.VIBRATE",
        "android.permission.WAKE_LOCK",
        "android.permission.WRITE_CALL_LOG",
        "android.permission.WRITE_CONTACTS",
        "android.permission.WRITE_EXTERNAL_STORAGE",
        "android.permission.WRITE_SETTINGS",
        "android.permission.WRITE_SMS",
        "com.android.launcher.permission.INSTALL_SHORTCUT",
        "com.android.launcher.permission.READ_SETTINGS",
        "com.android.launcher.permission.UNINSTALL_SHORTCUT"
      ]
    }
  ],
  "meta": {
    "generated": "2020-08-27T15:34:27.568543",
    "generatedBy": [
      "/home/hc/code/trackingthetrackers/scripts/make-trackers-apk-set.py"
    ],
    "ver": "0.3.0"
  }
}