{
  "apks": [
    {
      "applicationId": "com.huaxia.finance",
      "broadcastReceiverIntentFilterActionNames": [
        "android.intent.action.BOOT_COMPLETED",
        "android.intent.action.PACKAGE_ADDED",
        "android.intent.action.PACKAGE_REMOVED",
        "android.intent.action.USER_PRESENT",
        "android.net.conn.CONNECTIVITY_CHANGE",
        "cn.jpush.android.intent.NOTIFICATION_RECEIVED_PROXY",
        "com.huaxia.finance.intent.action.COMMAND",
        "com.tencent.mm.plugin.openapi.Intent.ACTION_REFRESH_WXAPP",
        "org.agoo.android.intent.action.ELECTION_RESULT_V4",
        "org.agoo.android.intent.action.RECEIVE"
      ],
      "dependencies": [],
      "domainNamesFilteredByExodus": [],
      "metaDataNames": [
        "CHANNEL_ID",
        "JPUSH_APPKEY",
        "JPUSH_CHANNEL",
        "UMENG_APPKEY",
        "UMENG_CHANNEL",
        "UMENG_MESSAGE_SECRET",
        "com.google.android.gms.version"
      ],
      "sha256": "9808f629ea296262d0321fd75a2c6f34648012294a11485082de33d050c50669",
      "usesPermissions": [
        "android.permission.ACCESS_NETWORK_STATE",
        "android.permission.ACCESS_WIFI_STATE",
        "android.permission.BLUETOOTH",
        "android.permission.CHANGE_NETWORK_STATE",
        "android.permission.GET_TASKS",
        "android.permission.INTERNET",
        "android.permission.READ_CONTACTS",
        "android.permission.READ_PHONE_STATE",
        "android.permission.RECEIVE_BOOT_COMPLETED",
        "android.permission.RECORD_AUDIO",
        "android.permission.SYSTEM_ALERT_WINDOW",
        "android.permission.WAKE_LOCK",
        "android.permission.WRITE_EXTERNAL_STORAGE",
        "android.permission.WRITE_SETTINGS",
        "com.huaxia.finance.permission.JPUSH_MESSAGE",
        "com.umeng.message.example.permission.MIPUSH_RECEIVE"
      ]
    }
  ],
  "meta": {
    "generated": "2020-08-27T15:50:09.975250",
    "generatedBy": [
      "/home/hc/code/trackingthetrackers/scripts/make-trackers-apk-set.py"
    ],
    "ver": "0.3.0"
  }
}