{
  "apks": [
    {
      "applicationId": "com.memorado.brain.games1473932298",
      "broadcastReceiverIntentFilterActionNames": [
        "android.intent.action.BOOT_COMPLETED",
        "android.net.conn.CONNECTIVITY_CHANGE",
        "com.android.vending.INSTALL_REFERRER",
        "com.google.android.c2dm.intent.RECEIVE",
        "com.google.android.c2dm.intent.REGISTRATION",
        "com.google.android.gms.analytics.ANALYTICS_DISPATCH",
        "com.google.android.gms.measurement.UPLOAD"
      ],
      "dependencies": [
        "com$adjust$sdk$",
        "com$facebook$login",
        "com$facebook$share",
        "com.adjust.sdk.",
        "com.amplitude.",
        "com.crashlytics.",
        "com.facebook.appevents",
        "com.facebook.login",
        "com.facebook.share",
        "com.google.android.gms.ads.",
        "com.google.android.gms.analytics.",
        "com.google.android.gms.measurement.",
        "com.google.android.gms.tagmanager",
        "com.mopub.mobileads.",
        "com_crashlytics_",
        "com_facebook_login",
        "com_facebook_share",
        "io$fabric$",
        "io.fabric."
      ],
      "domainNamesFilteredByExodus": [
        ".facebook.com",
        ".google.com",
        "adjust.com",
        "amplitude.com",
        "api.amplitude.com",
        "crashlytics.com",
        "google-analytics.com",
        "www.googletagmanager.com"
      ],
      "metaDataNames": [
        "android.support.FILE_PROVIDER_PATHS",
        "com.facebook.sdk.ApplicationId",
        "com.google.android.gms.version",
        "io.fabric.ApiKey"
      ],
      "sha256": "585c2c1f41018a6cb2bc9b5d41cd6673eec6e6b98ac9041c0618559d851768e9",
      "usesPermissions": [
        "android.permission.ACCESS_FINE_LOCATION",
        "android.permission.ACCESS_NETWORK_STATE",
        "android.permission.ACCESS_WIFI_STATE",
        "android.permission.CHANGE_NETWORK_STATE",
        "android.permission.CHANGE_WIFI_STATE",
        "android.permission.INTERACT_ACROSS_USERS_FULL",
        "android.permission.INTERNET",
        "android.permission.READ_PHONE_STATE",
        "android.permission.RECEIVE_BOOT_COMPLETED",
        "android.permission.VIBRATE",
        "android.permission.WAKE_LOCK",
        "com.android.vending.BILLING",
        "com.google.android.c2dm.permission.RECEIVE",
        "com.memorado.brain.games1473932298.permission.C2D_MESSAGE"
      ]
    }
  ],
  "meta": {
    "generated": "2020-08-27T15:51:23.687597",
    "generatedBy": [
      "/home/hc/code/trackingthetrackers/scripts/make-trackers-apk-set.py"
    ],
    "ver": "0.3.0"
  }
}