{
  "apks": [
    {
      "applicationId": "com.ebaschiera.triplecamel",
      "broadcastReceiverIntentFilterActionNames": [],
      "dependencies": [
        "org.piwik"
      ],
      "domainNamesFilteredByExodus": [],
      "metaDataNames": [],
      "sha256": "aae47da33a6d91a390ba6ec0500f13f872f4f3b91e1192d62d8e716951037af6",
      "usesPermissions": [
        "android.permission.ACCESS_NETWORK_STATE",
        "android.permission.INTERNET"
      ]
    }
  ],
  "meta": {
    "generated": "2020-08-27T17:17:21.350576",
    "generatedBy": [
      "/home/hc/code/trackingthetrackers/scripts/make-clean-apk-set.py"
    ],
    "generatedByCommitId": "40519285d6f404593fa655fa89b433743c25289e",
    "sourceDataCommitId": "888bb8f8c77ff55105fcab2ad84c263561eb1169",
    "ver": "0.3.0"
  }
}