{
  "apks": [
    {
      "applicationId": "org.xphnx.ameixa",
      "broadcastReceiverIntentFilterActionNames": [],
      "dependencies": [],
      "domainNamesFilteredByExodus": [],
      "metaDataNames": [],
      "sha256": "a5665e04c0d4020d1f526704009eef49ba6f989a77f9f349883c7fe9c3b13d3b",
      "usesPermissions": []
    }
  ],
  "meta": {
    "generated": "2020-08-27T18:42:00.805874",
    "generatedBy": [
      "/home/hc/code/trackingthetrackers/scripts/make-clean-apk-set.py"
    ],
    "generatedByCommitId": "3839559c80042252d3b947fb61c86a18e8b31114",
    "sourceDataCommitId": "888bb8f8c77ff55105fcab2ad84c263561eb1169",
    "ver": "0.3.0"
  }
}