{
  "apks": [
    {
      "applicationId": "eu.quelltext.mundraub",
      "broadcastReceiverIntentFilterActionNames": [],
      "dependencies": [],
      "domainNamesFilteredByExodus": [
        ".google.com"
      ],
      "metaDataNames": [
        "android.support.PARENT_ACTIVITY",
        "android.support.VERSION"
      ],
      "sha256": "0280cd3f763dd29414906799279dd3c898ef8b70cad7c2b73c8adddd1ce69c36",
      "usesPermissions": [
        "android.permission.ACCESS_FINE_LOCATION",
        "android.permission.CAMERA",
        "android.permission.INTERNET",
        "android.permission.VIBRATE",
        "android.permission.WRITE_EXTERNAL_STORAGE"
      ]
    }
  ],
  "meta": {
    "generated": "2020-08-27T14:46:16.728336",
    "generatedBy": [
      "/home/hc/code/trackingthetrackers/scripts/make-trackers-apk-set.py"
    ],
    "ver": "0.3.0"
  }
}