{
  "apks": [
    {
      "applicationId": "name.soulayrol.rhaa.sholi",
      "broadcastReceiverIntentFilterActionNames": [],
      "dependencies": [],
      "domainNamesFilteredByExodus": [],
      "metaDataNames": [
        "android.support.PARENT_ACTIVITY"
      ],
      "sha256": "8ef04a895f43fddc5ec6a2ac4dfe447e7a551f543071ab09298dd8e2a1e02a28",
      "usesPermissions": []
    }
  ],
  "meta": {
    "generated": "2020-08-27T17:04:15.277302",
    "generatedBy": [
      "/home/hc/code/trackingthetrackers/scripts/make-clean-apk-set.py"
    ],
    "generatedByCommitId": "40519285d6f404593fa655fa89b433743c25289e",
    "sourceDataCommitId": "888bb8f8c77ff55105fcab2ad84c263561eb1169",
    "ver": "0.3.0"
  }
}