{
  "apks": [
    {
      "applicationId": "com.ailian.healthclub",
      "broadcastReceiverIntentFilterActionNames": [
        "android.intent.action.PACKAGE_ADDED",
        "android.intent.action.PACKAGE_REMOVED",
        "android.intent.action.USER_PRESENT",
        "android.net.conn.CONNECTIVITY_CHANGE",
        "android.provider.Telephony.SMS_RECEIVED",
        "cn.jpush.android.intent.ACTION_RICHPUSH_CALLBACK",
        "cn.jpush.android.intent.CONNECTION",
        "cn.jpush.android.intent.MESSAGE_RECEIVED",
        "cn.jpush.android.intent.NOTIFICATION_OPENED",
        "cn.jpush.android.intent.NOTIFICATION_RECEIVED",
        "cn.jpush.android.intent.NOTIFICATION_RECEIVED_PROXY",
        "cn.jpush.android.intent.REGISTRATION",
        "cn.jpush.android.intent.UNREGISTRATION"
      ],
      "dependencies": [],
      "domainNamesFilteredByExodus": [],
      "metaDataNames": [
        "BUG_HD_SDK_GENERAL_KEY",
        "JPUSH_APPKEY",
        "JPUSH_CHANNEL",
        "TESTIN_APPKEY",
        "UMENG_APPKEY",
        "UMENG_CHANNEL",
        "design_height",
        "design_width"
      ],
      "sha256": "32626ea560229b0f61998928743b7fcedf76e8e36cbc0206f90964151828cdee",
      "usesPermissions": [
        "android.permission.ACCESS_COARSE_LOCATION",
        "android.permission.ACCESS_FINE_LOCATION",
        "android.permission.ACCESS_LOCATION_EXTRA_COMMANDS",
        "android.permission.ACCESS_NETWORK_STATE",
        "android.permission.ACCESS_WIFI_STATE",
        "android.permission.CAMERA",
        "android.permission.CHANGE_NETWORK_STATE",
        "android.permission.CHANGE_WIFI_STATE",
        "android.permission.DISABLE_KEYGUARD",
        "android.permission.GET_TASKS",
        "android.permission.INTERNET",
        "android.permission.MOUNT_UNMOUNT_FILESYSTEMS",
        "android.permission.READ_EXTERNAL_STORAGE",
        "android.permission.READ_LOGS",
        "android.permission.READ_PHONE_STATE",
        "android.permission.RECEIVE_USER_PRESENT",
        "android.permission.SYSTEM_ALERT_WINDOW",
        "android.permission.VIBRATE",
        "android.permission.WAKE_LOCK",
        "android.permission.WRITE_EXTERNAL_STORAGE",
        "android.permission.WRITE_SETTINGS",
        "com.ailian.healthclub.permission.JPUSH_MESSAGE"
      ]
    }
  ],
  "meta": {
    "generated": "2020-08-27T15:21:17.831945",
    "generatedBy": [
      "/home/hc/code/trackingthetrackers/scripts/make-trackers-apk-set.py"
    ],
    "ver": "0.3.0"
  }
}