{
  "apks": [
    {
      "applicationId": "com.duckduckgo.mobile.android",
      "dependencies": [],
      "domainNamesFilteredByExodus": [
        ".google.com",
        "media.net"
      ],
      "sha256": "cff552ac23c7db7f59c0f0b5bcb0d1c07b5a624ae7668d35112e88e5ca6837d9",
      "usesPermissions": [
        "android.permission.ACCESS_NETWORK_STATE",
        "android.permission.INTERNET",
        "android.permission.RECEIVE_BOOT_COMPLETED",
        "android.permission.WAKE_LOCK",
        "android.permission.WRITE_EXTERNAL_STORAGE",
        "com.android.launcher.permission.INSTALL_SHORTCUT"
      ]
    }
  ],
  "meta": {
    "ver": "0.2.0"
  }
}