{
  "apks": [
    {
      "applicationId": "com.wantai.qvod",
      "broadcastReceiverIntentFilterActionNames": [
        "android.intent.action.BOOT_COMPLETED",
        "android.intent.action.CBOOT_COMPLETED",
        "android.intent.action.DOWNLOAD_COMPLETE",
        "android.intent.action.START_REPORT",
        "android.net.conn.CONNECTIVITY_CHANGE"
      ],
      "dependencies": [
        "com.baidu.mobstat"
      ],
      "domainNamesFilteredByExodus": [],
      "metaDataNames": [
        "APPCODE",
        "APPDATA",
        "APPID",
        "APPKEY",
        "APPSECRET",
        "BaiduMobAd_CELL_LOCATION",
        "BaiduMobAd_CHANNEL",
        "BaiduMobAd_GPS_LOCATION",
        "BaiduMobAd_ONLY_WIFI",
        "BaiduMobAd_STAT_ID",
        "BaiduMobAd_WIFI_LOCATION",
        "channel_id",
        "isback",
        "pay_amount",
        "pay_mode"
      ],
      "sha256": "4a3059abcf19dc8a36ee63c7aa53819f3e61eb4244dd4b34986be59102958180",
      "usesPermissions": [
        "android.permission.ACCESS_COARSE_LOCATION",
        "android.permission.ACCESS_FINE_LOCATION",
        "android.permission.ACCESS_NETWORK_STATE",
        "android.permission.ACCESS_WIFI_STATE",
        "android.permission.BLUETOOTH",
        "android.permission.DOWNLOAD_WITHOUT_NOTIFICATION",
        "android.permission.GET_TASKS",
        "android.permission.INTERNET",
        "android.permission.MOUNT_UNMOUNT_FILESYSTEMS",
        "android.permission.READ_EXTERNAL_STORAGE",
        "android.permission.READ_PHONE_STATE",
        "android.permission.RECEIVE_BOOT_COMPLETED",
        "android.permission.RESTART_PACKAGES",
        "android.permission.SYSTEM_ALERT_WINDOW",
        "android.permission.VIBRATE",
        "android.permission.WRITE_EXTERNAL_STORAGE",
        "android.permission.WRITE_SETTINGS",
        "android.webkit.permission.PLUGIN"
      ]
    }
  ],
  "meta": {
    "generated": "2020-08-27T15:47:44.051722",
    "generatedBy": [
      "/home/hc/code/trackingthetrackers/scripts/make-trackers-apk-set.py"
    ],
    "ver": "0.3.0"
  }
}