{
  "apks": [
    {
      "applicationId": "com.binarypandagames.gravityhero",
      "broadcastReceiverIntentFilterActionNames": [],
      "dependencies": [
        "com.google.ads.",
        "com.google.android.gms.ads."
      ],
      "domainNamesFilteredByExodus": [
        ".facebook.com",
        ".google.com",
        "doubleclick.net"
      ],
      "metaDataNames": [
        "android.app.lib_name",
        "com.google.android.gms.version",
        "unityplayer.ForwardNativeEventsToDalvik"
      ],
      "sha256": "cec102b78f88f4e72a37348483e84614db4dfc493bb1778bf1295dffa4aa770e",
      "usesPermissions": [
        "android.permission.ACCESS_COARSE_LOCATION",
        "android.permission.ACCESS_NETWORK_STATE",
        "android.permission.INTERNET",
        "android.permission.WAKE_LOCK"
      ]
    }
  ],
  "meta": {
    "generated": "2020-08-27T15:29:53.556548",
    "generatedBy": [
      "/home/hc/code/trackingthetrackers/scripts/make-trackers-apk-set.py"
    ],
    "ver": "0.3.0"
  }
}