{
  "apks": [
    {
      "applicationId": "chinh.viewpapericondemo",
      "broadcastReceiverIntentFilterActionNames": [
        "android.appwidget.action.APPWIDGET_UPDATE",
        "android.intent.action.PHONE_STATE",
        "pl.looksok.intent.action.CHANGE_PICTURE"
      ],
      "dependencies": [
        "com_facebook_login"
      ],
      "domainNamesFilteredByExodus": [
        ".facebook.com",
        ".google.com"
      ],
      "metaDataNames": [
        "android.appwidget.provider",
        "com.facebook.sdk.ApplicationId"
      ],
      "sha256": "8f79d7d3b73ca2c4018f9fe8126b83ba4fb053c4c5939013445b7f6d0422d5d7",
      "usesPermissions": [
        "android.permission.ACCESS_NETWORK_STATE",
        "android.permission.ACCESS_WIFI_STATE",
        "android.permission.INTERNET",
        "android.permission.READ_CALL_LOG",
        "android.permission.READ_CONTACTS",
        "android.permission.READ_PHONE_STATE",
        "android.permission.READ_SMS",
        "android.permission.SYSTEM_ALERT_WINDOW"
      ]
    }
  ],
  "meta": {
    "generated": "2020-08-27T14:52:25.955295",
    "generatedBy": [
      "/home/hc/code/trackingthetrackers/scripts/make-trackers-apk-set.py"
    ],
    "ver": "0.3.0"
  }
}