{
  "apks": [
    {
      "applicationId": "com.cobaltplay.twodplatformer2",
      "broadcastReceiverIntentFilterActionNames": [
        "android.intent.action.BOOT_COMPLETED",
        "android.intent.action.QUICKBOOT_POWERON",
        "com.amazon.inapp.purchasing.NOTIFY",
        "com.android.vending.INSTALL_REFERRER",
        "com.android.vending.billing.IN_APP_NOTIFY",
        "com.android.vending.billing.PURCHASE_STATE_CHANGED",
        "com.android.vending.billing.RESPONSE_CODE",
        "mobi.dash.extras.FORCE_START"
      ],
      "dependencies": [
        "com$aarki",
        "com$amazon$insights",
        "com$heyzap$sdk$ads$",
        "com$mopub$mobileads$",
        "com.aarki",
        "com.amazon.insights",
        "com.chartboost.sdk.",
        "com.flurry.",
        "com.google.ads.",
        "com.google.android.gms.ads.",
        "com.heyzap.sdk.ads.",
        "com.millennialmedia.",
        "com.mobileapptracker",
        "com.mopub.mobileads.",
        "com.tapjoy."
      ],
      "domainNamesFilteredByExodus": [
        ".chartboost.com",
        ".google.com",
        "ads.heyzap.com",
        "doubleclick.net",
        "flurry.com",
        "millennialmedia.com",
        "mobileapptracking.com",
        "mopub.com",
        "stats.unity3d.com",
        "tapjoyads.com"
      ],
      "metaDataNames": [],
      "sha256": "8852e3e9a1d44f14618d86e588141ea414fbfd53de1cf03f896d8b0c6a309504",
      "usesPermissions": [
        "android.permission.ACCESS_COARSE_LOCATION",
        "android.permission.ACCESS_NETWORK_STATE",
        "android.permission.ACCESS_NETWORK_STATE",
        "android.permission.ACCESS_WIFI_STATE",
        "android.permission.GET_ACCOUNTS",
        "android.permission.GET_TASKS",
        "android.permission.INTERNET",
        "android.permission.INTERNET",
        "android.permission.INTERNET",
        "android.permission.INTERNET",
        "android.permission.INTERNET",
        "android.permission.READ_CONTACTS",
        "android.permission.READ_LOGS",
        "android.permission.READ_PHONE_STATE",
        "android.permission.RECEIVE_BOOT_COMPLETED",
        "android.permission.SYSTEM_ALERT_WINDOW",
        "android.permission.WAKE_LOCK",
        "android.permission.WRITE_EXTERNAL_STORAGE",
        "android.permission.WRITE_EXTERNAL_STORAGE",
        "com.android.vending.BILLING"
      ]
    }
  ],
  "meta": {
    "generated": "2020-08-27T15:34:15.442359",
    "generatedBy": [
      "/home/hc/code/trackingthetrackers/scripts/make-trackers-apk-set.py"
    ],
    "ver": "0.3.0"
  }
}