{
  "apks": [
    {
      "applicationId": "com.magmamobile.game.DoctorBubbleHalloween",
      "broadcastReceiverIntentFilterActionNames": [
        "com.android.vending.INSTALL_REFERRER"
      ],
      "dependencies": [
        "com$inmobi",
        "com.google.ads.",
        "com.google.android.apps.analytics.",
        "com.inmobi",
        "com.mdotm.android",
        "com.millennialmedia."
      ],
      "domainNamesFilteredByExodus": [
        ".facebook.com",
        ".google.com",
        "doubleclick.net",
        "google-analytics.com"
      ],
      "metaDataNames": [],
      "sha256": "2d507b2ff31080fb48c25cf0e4cd7f435f69d05f965e717ecf28372cbbf4fb30",
      "usesPermissions": [
        "android.permission.ACCESS_NETWORK_STATE",
        "android.permission.INTERNET",
        "android.permission.READ_PHONE_STATE",
        "android.permission.VIBRATE"
      ]
    }
  ],
  "meta": {
    "generated": "2020-08-27T15:36:51.863648",
    "generatedBy": [
      "/home/hc/code/trackingthetrackers/scripts/make-trackers-apk-set.py"
    ],
    "ver": "0.3.0"
  }
}