{
  "apks": [
    {
      "applicationId": "de.baumann.sieben",
      "broadcastReceiverIntentFilterActionNames": [],
      "dependencies": [],
      "domainNamesFilteredByExodus": [],
      "metaDataNames": [],
      "sha256": "7b2d71659f9a53fe2609faa16eeb3a744cf185cdc7a287a7a3859524691c7e6e",
      "usesPermissions": []
    }
  ],
  "meta": {
    "generated": "2020-08-27T17:56:44.395607",
    "generatedBy": [
      "/home/hc/code/trackingthetrackers/scripts/make-clean-apk-set.py"
    ],
    "generatedByCommitId": "3839559c80042252d3b947fb61c86a18e8b31114",
    "sourceDataCommitId": "888bb8f8c77ff55105fcab2ad84c263561eb1169",
    "ver": "0.3.0"
  }
}