{
  "apks": [
    {
      "applicationId": "au.com.wallaceit.reddinator",
      "broadcastReceiverIntentFilterActionNames": [
        "android.appwidget.action.APPWIDGET_DELETED",
        "android.appwidget.action.APPWIDGET_ENABLED",
        "android.appwidget.action.APPWIDGET_UPDATE",
        "android.appwidget.action.APPWIDGET_UPDATE_OPTIONS",
        "android.intent.action.BOOT_COMPLETED",
        "android.intent.action.PACKAGE_FIRST_LAUNCH",
        "android.intent.action.PACKAGE_REPLACED",
        "android.intent.action.PACKAGE_RESTARTED",
        "au.com.wallaceit.redinator.WidgetProvider.APPWIDGET_AUTO_UPDATE",
        "au.com.wallaceit.redinator.WidgetProvider.APPWIDGET_UPDATE_FEED",
        "au.com.wallaceit.redinator.WidgetProvider.ITEM_CLICK"
      ],
      "dependencies": [],
      "domainNamesFilteredByExodus": [
        ".google.com"
      ],
      "metaDataNames": [
        "android.appwidget.provider"
      ],
      "sha256": "4745a0ec8711d39457f2109eeaf99e5d9eb90dcf056caa9f86b037bffde5e54a",
      "usesPermissions": [
        "android.permission.ACCESS_NETWORK_STATE",
        "android.permission.INTERNET",
        "android.permission.RECEIVE_BOOT_COMPLETED"
      ]
    }
  ],
  "meta": {
    "generated": "2020-08-27T17:11:53.368568",
    "generatedBy": [
      "/home/hc/code/trackingthetrackers/scripts/make-clean-apk-set.py"
    ],
    "generatedByCommitId": "40519285d6f404593fa655fa89b433743c25289e",
    "sourceDataCommitId": "888bb8f8c77ff55105fcab2ad84c263561eb1169",
    "ver": "0.3.0"
  }
}