{
  "apks": [
    {
      "applicationId": "cn.zhui.client988306",
      "broadcastReceiverIntentFilterActionNames": [
        "android.cn.zhui.push988306",
        "android.intent.action.BOOT_COMPLETED"
      ],
      "dependencies": [
        "com.baidu.mapapi"
      ],
      "domainNamesFilteredByExodus": [],
      "metaDataNames": [],
      "sha256": "fbeeb5f232f36c566bb54f736e9f76c87b491308e38f6e6f34fb4c2076eb5f6f",
      "usesPermissions": [
        "android.permission.ACCESS_COARSE_LOCATION",
        "android.permission.ACCESS_FINE_LOCATION",
        "android.permission.ACCESS_LOCATION_EXTRA_COMMANDS",
        "android.permission.ACCESS_NETWORK_STATE",
        "android.permission.ACCESS_WIFI_STATE",
        "android.permission.CAMERA",
        "android.permission.CHANGE_WIFI_STATE",
        "android.permission.INTERNET",
        "android.permission.READ_PHONE_STATE",
        "android.permission.RECEIVE_BOOT_COMPLETED",
        "android.permission.RECORD_VIDEO",
        "android.permission.VIBRATE",
        "android.permission.WRITE_EXTERNAL_STORAGE",
        "com.android.launcher.permission.INSTALL_SHORTCUT",
        "com.android.launcher.permission.READ_SETTINGS",
        "com.android.launcher.permission.UNINSTALL_SHORTCUT"
      ]
    }
  ],
  "meta": {
    "generated": "2020-08-27T14:48:35.376413",
    "generatedBy": [
      "/home/hc/code/trackingthetrackers/scripts/make-trackers-apk-set.py"
    ],
    "ver": "0.3.0"
  }
}