{
  "apks": [
    {
      "applicationId": "com.zysdxlsjyx.model",
      "broadcastReceiverIntentFilterActionNames": [
        "android.intent.action.ACTION_POWER_CONNECTED",
        "android.intent.action.PACKAGE_ADDED",
        "android.intent.action.PACKAGE_REMOVED",
        "android.intent.action.PACKAGE_REPLACED",
        "android.net.conn.CONNECTIVITY_CHANGE",
        "com.secneo.plugin.action.APP_STARTED",
        "com.secneo.plugin.action.DAILY",
        "com.secneo.plugin.action.HOURLY",
        "com.secneo.proxy.action.CUSTOM"
      ],
      "dependencies": [],
      "domainNamesFilteredByExodus": [
        "map.baidu.com"
      ],
      "metaDataNames": [
        "BANGCLE_APP_KEY",
        "BANGCLE_SDK_VERSION",
        "CNZZ_APP_KEY",
        "CNZZ_CHANGE_ID"
      ],
      "sha256": "8d7b840a41a7b773519d51f77dc859520eafaea7be9983db641016c4c1f7d27d",
      "usesPermissions": [
        "android.permission.ACCESS_COARSE_LOCATION",
        "android.permission.ACCESS_COARSE_LOCATION",
        "android.permission.ACCESS_FINE_LOCATION",
        "android.permission.ACCESS_NETWORK_STATE",
        "android.permission.ACCESS_NETWORK_STATE",
        "android.permission.ACCESS_WIFI_STATE",
        "android.permission.GET_TASKS",
        "android.permission.INTERNET",
        "android.permission.INTERNET",
        "android.permission.MOUNT_UNMOUNT_FILESYSTEMS",
        "android.permission.READ_PHONE_STATE",
        "android.permission.READ_PHONE_STATE",
        "android.permission.SYSTEM_ALERT_WINDOW",
        "android.permission.WAKE_LOCK",
        "android.permission.WRITE_EXTERNAL_STORAGE",
        "android.permission.WRITE_EXTERNAL_STORAGE",
        "android.permission.WRITE_SETTINGS",
        "com.android.launcher.permission.INSTALL_SHORTCUT"
      ]
    }
  ],
  "meta": {
    "generated": "2020-08-27T15:07:15.470501",
    "generatedBy": [
      "/home/hc/code/trackingthetrackers/scripts/make-trackers-apk-set.py"
    ],
    "ver": "0.3.0"
  }
}