{
  "apks": [
    {
      "applicationId": "fr.chenry.android.freshrss",
      "broadcastReceiverIntentFilterActionNames": [],
      "dependencies": [],
      "domainNamesFilteredByExodus": [],
      "metaDataNames": [],
      "sha256": "75f6c7c1d826c0a335052deadff58508f2438a82578e3e7cd8e1aa2faa0aaaa5",
      "usesPermissions": [
        "android.permission.FOREGROUND_SERVICE",
        "android.permission.INTERNET"
      ]
    }
  ],
  "meta": {
    "generated": "2020-08-27T18:08:49.580810",
    "generatedBy": [
      "/home/hc/code/trackingthetrackers/scripts/make-clean-apk-set.py"
    ],
    "generatedByCommitId": "3839559c80042252d3b947fb61c86a18e8b31114",
    "sourceDataCommitId": "888bb8f8c77ff55105fcab2ad84c263561eb1169",
    "ver": "0.3.0"
  }
}