{
  "apks": [
    {
      "applicationId": "com.rigid.birthdroid",
      "broadcastReceiverIntentFilterActionNames": [
        "android.appwidget.action.APPWIDGET_UPDATE",
        "com.rigid.birthdroid.CLICK",
        "com.rigid.birthdroid.PREFS_UPDATE"
      ],
      "dependencies": [],
      "domainNamesFilteredByExodus": [],
      "metaDataNames": [
        "android.appwidget.provider"
      ],
      "sha256": "401ac8d0e764abfe7da5e47086ab1b99a523841d84ebafbb6ec7b120b77d71af",
      "usesPermissions": [
        "android.permission.READ_CONTACTS"
      ]
    }
  ],
  "meta": {
    "generated": "2020-08-27T17:46:53.224028",
    "generatedBy": [
      "/home/hc/code/trackingthetrackers/scripts/make-clean-apk-set.py"
    ],
    "generatedByCommitId": "40519285d6f404593fa655fa89b433743c25289e",
    "sourceDataCommitId": "888bb8f8c77ff55105fcab2ad84c263561eb1169",
    "ver": "0.3.0"
  }
}