{
  "apks": [
    {
      "applicationId": "org.cyanogenmod.wundergroundcmweatherprovider",
      "broadcastReceiverIntentFilterActionNames": [],
      "dependencies": [],
      "domainNamesFilteredByExodus": [
        ".google.com"
      ],
      "metaDataNames": [
        "cyanogenmod.weatherservice"
      ],
      "sha256": "d21aa5d5c6ca7769945c19e0540b451b97b88368e9cd24ac4ac5326c84de182e",
      "usesPermissions": [
        "android.permission.ACCESS_COARSE_LOCATION",
        "android.permission.ACCESS_FINE_LOCATION",
        "android.permission.INTERNET",
        "cyanogenmod.permission.ACCESS_WEATHER_MANAGER"
      ]
    }
  ],
  "meta": {
    "generated": "2020-08-27T18:24:27.755814",
    "generatedBy": [
      "/home/hc/code/trackingthetrackers/scripts/make-clean-apk-set.py"
    ],
    "generatedByCommitId": "3839559c80042252d3b947fb61c86a18e8b31114",
    "sourceDataCommitId": "888bb8f8c77ff55105fcab2ad84c263561eb1169",
    "ver": "0.3.0"
  }
}