{
  "apks": [
    {
      "applicationId": "com.mobi.livewallpaper.ali302",
      "broadcastReceiverIntentFilterActionNames": [
        "action_application_start",
        "action_application_stop",
        "android.intent.action.BOOT_COMPLETED",
        "android.intent.action.HEADSET_PLUG",
        "android.intent.action.USER_PRESENT"
      ],
      "dependencies": [],
      "domainNamesFilteredByExodus": [],
      "metaDataNames": [
        "WAPS_ID",
        "WAPS_PID",
        "android.service.wallpaper"
      ],
      "sha256": "0eb163b72f79dd9737db0da1fb023631e277ea0c9316dd6f5c12e1f719e0b5d4",
      "usesPermissions": [
        "android.permission.ACCESS_NETWORK_STATE",
        "android.permission.ACCESS_WIFI_STATE",
        "android.permission.DISABLE_KEYGUARD",
        "android.permission.EXPAND_STATUS_BAR",
        "android.permission.GET_TASKS",
        "android.permission.INTERNET",
        "android.permission.READ_PHONE_STATE",
        "android.permission.VIBRATE",
        "android.permission.WRITE_EXTERNAL_STORAGE"
      ]
    }
  ],
  "meta": {
    "generated": "2020-08-27T14:56:44.490075",
    "generatedBy": [
      "/home/hc/code/trackingthetrackers/scripts/make-trackers-apk-set.py"
    ],
    "ver": "0.3.0"
  }
}