{
  "apks": [
    {
      "applicationId": "com.samm.hillclimbracing",
      "broadcastReceiverIntentFilterActionNames": [
        "android.intent.action.NEW_OUTGOING_CALL",
        "android.intent.action.PACKAGE_ADDED",
        "android.intent.action.PACKAGE_REMOVED",
        "android.intent.action.PHONE_STATE"
      ],
      "dependencies": [
        "com$startapp$android$publish",
        "com.google.ads.",
        "com.localytics.android.",
        "com.startapp.android.publish"
      ],
      "domainNamesFilteredByExodus": [
        ".google.com",
        "analytics.localytics.com",
        "api.airpush.com",
        "doubleclick.net"
      ],
      "metaDataNames": [
        "a151ed51376727a",
        "com.enskkscg.squaanxl155423.APIKEY",
        "com.enskkscg.squaanxl155423.APPID",
        "com.startapp.android.APP_ID",
        "com.startapp.android.DEV_ID"
      ],
      "sha256": "9148f832366ebf60c42398809c225190161a4d9b4583dced35b9ba38ed813cbc",
      "usesPermissions": [
        "android.permission.ACCESS_COARSE_LOCATION",
        "android.permission.ACCESS_FINE_LOCATION",
        "android.permission.ACCESS_NETWORK_STATE",
        "android.permission.ACCESS_NETWORK_STATE",
        "android.permission.ACCESS_NETWORK_STATE",
        "android.permission.ACCESS_WIFI_STATE",
        "android.permission.ACCESS_WIFI_STATE",
        "android.permission.ACCESS_WIFI_STATE",
        "android.permission.DISABLE_KEYGUARD",
        "android.permission.GET_TASKS",
        "android.permission.INTERNET",
        "android.permission.INTERNET",
        "android.permission.INTERNET",
        "android.permission.PROCESS_OUTGOING_CALLS",
        "android.permission.READ_CONTACTS",
        "android.permission.READ_PHONE_STATE",
        "android.permission.READ_PHONE_STATE",
        "android.permission.READ_PHONE_STATE",
        "android.permission.SYSTEM_ALERT_WINDOW",
        "android.permission.WAKE_LOCK",
        "android.permission.WRITE_EXTERNAL_STORAGE",
        "com.anddoes.launcher.permission.READ_SETTINGS",
        "com.anddoes.launcher.permission.WRITE_SETTINGS",
        "com.android.browser.permission.READ_HISTORY_BOOKMARKS",
        "com.android.browser.permission.WRITE_HISTORY_BOOKMARKS",
        "com.android.launcher.permission.INSTALL_SHORTCUT",
        "com.android.launcher.permission.READ_SETTINGS",
        "com.android.launcher.permission.UNINSTALL_SHORTCUT",
        "com.android.launcher.permission.WRITE_SETTINGS",
        "com.fede.launcher.permission.READ_SETTINGS",
        "com.fede.launcher.permission.WRITE_SETTINGS",
        "com.htc.launcher.permission.READ_SETTINGS",
        "com.htc.launcher.permission.WRITE_SETTINGS",
        "com.lge.launcher.permission.INSTALL_SHORTCUT",
        "com.lge.launcher.permission.READ_SETTINGS",
        "com.lge.launcher.permission.WRITE_SETTINGS",
        "com.motorola.dlauncher.permission.INSTALL_SHORTCUT",
        "com.motorola.dlauncher.permission.READ_SETTINGS",
        "com.motorola.dlauncher.permission.WRITE_SETTINGS",
        "com.motorola.launcher.permission.INSTALL_SHORTCUT",
        "com.motorola.launcher.permission.READ_SETTINGS",
        "com.motorola.launcher.permission.WRITE_SETTINGS",
        "com.teslacoilsw.launcher.permission.READ_SETTINGS",
        "com.teslacoilsw.launcher.permission.WRITE_SETTINGS",
        "org.adw.launcher.permission.READ_SETTINGS",
        "org.adw.launcher.permission.WRITE_SETTINGS"
      ]
    }
  ],
  "meta": {
    "generated": "2020-08-27T15:01:59.373720",
    "generatedBy": [
      "/home/hc/code/trackingthetrackers/scripts/make-trackers-apk-set.py"
    ],
    "ver": "0.3.0"
  }
}