{
  "apks": [
    {
      "applicationId": "air.com.eoinduffy.boxysewuu",
      "broadcastReceiverIntentFilterActionNames": [],
      "dependencies": [
        "com.google.android.gms.analytics."
      ],
      "domainNamesFilteredByExodus": [
        ".google.com"
      ],
      "metaDataNames": [
        "autoOrients",
        "containsVideo",
        "fullScreen",
        "initialcontent",
        "namespaceVersion",
        "uniqueappversionid"
      ],
      "sha256": "f008095aa95157a07f9acf7bebd18e0e5a2a49d368a836505d9adf035069f3c9",
      "usesPermissions": [
        "android.permission.ACCESS_NETWORK_STATE",
        "android.permission.ACCESS_WIFI_STATE",
        "android.permission.GET_TASKS",
        "android.permission.INTERNET",
        "android.permission.READ_PHONE_STATE",
        "android.permission.SYSTEM_ALERT_WINDOW",
        "android.permission.WRITE_EXTERNAL_STORAGE"
      ]
    }
  ],
  "meta": {
    "generated": "2020-08-27T15:49:42.431281",
    "generatedBy": [
      "/home/hc/code/trackingthetrackers/scripts/make-trackers-apk-set.py"
    ],
    "ver": "0.3.0"
  }
}