{
  "apks": [
    {
      "applicationId": "org.jsl.wfwt",
      "broadcastReceiverIntentFilterActionNames": [],
      "dependencies": [],
      "domainNamesFilteredByExodus": [],
      "metaDataNames": [],
      "sha256": "a84d7f1fe7811e44a2518872e6b3d9ed0bce0e09ee5e39e57a59b670c26c0359",
      "usesPermissions": [
        "android.permission.INTERNET",
        "android.permission.RECORD_AUDIO"
      ]
    }
  ],
  "meta": {
    "generated": "2020-08-27T18:28:40.448825",
    "generatedBy": [
      "/home/hc/code/trackingthetrackers/scripts/make-clean-apk-set.py"
    ],
    "generatedByCommitId": "3839559c80042252d3b947fb61c86a18e8b31114",
    "sourceDataCommitId": "888bb8f8c77ff55105fcab2ad84c263561eb1169",
    "ver": "0.3.0"
  }
}