{
  "apks": [
    {
      "applicationId": "com.github.quarck.calnotify",
      "broadcastReceiverIntentFilterActionNames": [
        "android.intent.action.BOOT_COMPLETED",
        "android.intent.action.EVENTEX_REMINDER",
        "android.intent.action.EVENT_REMINDER",
        "android.intent.action.MY_PACKAGE_REPLACED",
        "android.intent.action.PROVIDER_CHANGED",
        "android.intent.action.QUICKBOOT_POWERON"
      ],
      "dependencies": [],
      "domainNamesFilteredByExodus": [],
      "metaDataNames": [],
      "sha256": "d5d389feee8fcf676c7986f0893789bf753fe0e8cb11e36321d2f69da0348f4f",
      "usesPermissions": [
        "android.permission.READ_CALENDAR",
        "android.permission.RECEIVE_BOOT_COMPLETED",
        "android.permission.VIBRATE",
        "android.permission.WAKE_LOCK",
        "android.permission.WRITE_CALENDAR"
      ]
    }
  ],
  "meta": {
    "generated": "2020-08-27T17:31:17.698943",
    "generatedBy": [
      "/home/hc/code/trackingthetrackers/scripts/make-clean-apk-set.py"
    ],
    "generatedByCommitId": "40519285d6f404593fa655fa89b433743c25289e",
    "sourceDataCommitId": "888bb8f8c77ff55105fcab2ad84c263561eb1169",
    "ver": "0.3.0"
  }
}