{
  "apks": [
    {
      "applicationId": "org.nv95.openmanga",
      "broadcastReceiverIntentFilterActionNames": [
        "android.intent.action.ACTION_POWER_CONNECTED",
        "android.intent.action.ACTION_POWER_DISCONNECTED",
        "android.intent.action.BATTERY_LOW",
        "android.intent.action.BATTERY_OKAY",
        "android.intent.action.BOOT_COMPLETED",
        "android.intent.action.DEVICE_STORAGE_LOW",
        "android.intent.action.DEVICE_STORAGE_OK",
        "android.intent.action.TIMEZONE_CHANGED",
        "android.intent.action.TIME_SET",
        "android.net.conn.CONNECTIVITY_CHANGE",
        "androidx.work.impl.background.systemalarm.UpdateProxies"
      ],
      "dependencies": [],
      "domainNamesFilteredByExodus": [],
      "metaDataNames": [
        "android.support.FILE_PROVIDER_PATHS"
      ],
      "sha256": "cf44f1ac2c358f27b33f4554872ec4c2cee9c29991b8e8787cb9bbbc67647bf3",
      "usesPermissions": [
        "android.permission.ACCESS_NETWORK_STATE",
        "android.permission.ACCESS_WIFI_STATE",
        "android.permission.FOREGROUND_SERVICE",
        "android.permission.INTERNET",
        "android.permission.READ_EXTERNAL_STORAGE",
        "android.permission.RECEIVE_BOOT_COMPLETED",
        "android.permission.WAKE_LOCK",
        "android.permission.WRITE_EXTERNAL_STORAGE",
        "com.android.launcher.permission.INSTALL_SHORTCUT"
      ]
    }
  ],
  "meta": {
    "generated": "2020-08-27T17:06:13.509677",
    "generatedBy": [
      "/home/hc/code/trackingthetrackers/scripts/make-clean-apk-set.py"
    ],
    "generatedByCommitId": "40519285d6f404593fa655fa89b433743c25289e",
    "sourceDataCommitId": "888bb8f8c77ff55105fcab2ad84c263561eb1169",
    "ver": "0.3.0"
  }
}