{
  "apks": [
    {
      "applicationId": "de.markusfisch.android.shadereditor",
      "broadcastReceiverIntentFilterActionNames": [
        "android.intent.action.ACTION_POWER_CONNECTED",
        "android.intent.action.BATTERY_LOW",
        "android.intent.action.BATTERY_OKAY"
      ],
      "dependencies": [],
      "domainNamesFilteredByExodus": [],
      "metaDataNames": [
        "android.service.wallpaper",
        "android.support.VERSION"
      ],
      "sha256": "167dfc8ff384e286b0f7260727da7fcc6ea41df88f5a4fdfd7d30c1378a69121",
      "usesPermissions": [
        "19",
        "android.permission.READ_EXTERNAL_STORAGE"
      ]
    }
  ],
  "meta": {
    "generated": "2020-08-27T18:01:34.708639",
    "generatedBy": [
      "/home/hc/code/trackingthetrackers/scripts/make-clean-apk-set.py"
    ],
    "generatedByCommitId": "3839559c80042252d3b947fb61c86a18e8b31114",
    "sourceDataCommitId": "888bb8f8c77ff55105fcab2ad84c263561eb1169",
    "ver": "0.3.0"
  }
}