{
  "apks": [
    {
      "applicationId": "ru.glesik.nostrangersms",
      "broadcastReceiverIntentFilterActionNames": [
        "android.provider.Telephony.SMS_RECEIVED"
      ],
      "dependencies": [],
      "domainNamesFilteredByExodus": [],
      "metaDataNames": [],
      "sha256": "02ba071988933c61888d46376d03e00f5ab0d450625efb945542423dfbda062b",
      "usesPermissions": [
        "android.permission.READ_CONTACTS",
        "android.permission.READ_SMS",
        "android.permission.RECEIVE_SMS",
        "android.permission.WRITE_SMS"
      ]
    }
  ],
  "meta": {
    "generated": "2020-08-27T18:43:15.180068",
    "generatedBy": [
      "/home/hc/code/trackingthetrackers/scripts/make-clean-apk-set.py"
    ],
    "generatedByCommitId": "3839559c80042252d3b947fb61c86a18e8b31114",
    "sourceDataCommitId": "888bb8f8c77ff55105fcab2ad84c263561eb1169",
    "ver": "0.3.0"
  }
}