{
  "apks": [
    {
      "applicationId": "com.qygame.CandyPlanet",
      "broadcastReceiverIntentFilterActionNames": [
        "android.intent.action.BOOT_COMPLETED",
        "android.intent.action.USER_PRESENT",
        "android.net.conn.CONNECTIVITY_CHANGE",
        "com.igexin.sdk.action.7fjUl2Z3LH6xYy7NQK4ni4",
        "com.igexin.sdk.action.KAzf5SiLil9ZeBsf2a48PA",
        "com.igexin.sdk.action.pushmanager",
        "com.igexin.sdk.action.refreshls",
        "safiap.GET_SHARED_DATA",
        "safiap.framework.ACTION_CANCEL_NOTIFICATION",
        "safiap.framework.ACTION_SET_TIMER"
      ],
      "dependencies": [
        "com.baidu.location",
        "com.umeng.analytics",
        "org.cocos2dx"
      ],
      "domainNamesFilteredByExodus": [
        "alog.umeng.com",
        "oc.umeng.com",
        "umeng.com"
      ],
      "metaDataNames": [
        "EGAME_CHANNEL",
        "PUSH_APPID",
        "PUSH_APPKEY",
        "PUSH_APPSECRET",
        "PUSH_GROUPID",
        "TD_APP_ID",
        "TD_CHANNEL_ID",
        "TD_GROUP_ID",
        "UMENG_APPKEY",
        "UMENG_CHANNEL",
        "wostore_billing_chinaunicom",
        "wostore_billing_otherpay",
        "wostore_billing_sms"
      ],
      "sha256": "b7465aa450dd7497e6cc304e191895e71b8e1e3c9955cd5c1dcc24b794dcd74a",
      "usesPermissions": [
        "android.permission.ACCESS_NETWORK_STATE",
        "android.permission.ACCESS_NETWORK_STATE",
        "android.permission.ACCESS_WIFI_STATE",
        "android.permission.ACCESS_WIFI_STATE",
        "android.permission.CALL_PHONE",
        "android.permission.CHANGE_WIFI_STATE",
        "android.permission.DISABLE_KEYGUARD",
        "android.permission.GET_ACCOUNTS",
        "android.permission.GET_TASKS",
        "android.permission.INTERNET",
        "android.permission.INTERNET",
        "android.permission.INTERNET",
        "android.permission.MANAGE_ACCOUNTS",
        "android.permission.MOUNT_UNMOUNT_FILESYSTEMS",
        "android.permission.READ_PHONE_STATE",
        "android.permission.READ_PHONE_STATE",
        "android.permission.READ_PHONE_STATE",
        "android.permission.SEND_SMS",
        "android.permission.SEND_SMS",
        "android.permission.WAKE_LOCK",
        "android.permission.WRITE_EXTERNAL_STORAGE",
        "android.permission.WRITE_EXTERNAL_STORAGE",
        "android.permission.WRITE_EXTERNAL_STORAGE"
      ]
    }
  ],
  "meta": {
    "generated": "2020-08-27T15:14:49.630886",
    "generatedBy": [
      "/home/hc/code/trackingthetrackers/scripts/make-trackers-apk-set.py"
    ],
    "ver": "0.3.0"
  }
}