{
  "apks": [
    {
      "applicationId": "ukxwtcsl.auhjgciur.n",
      "broadcastReceiverIntentFilterActionNames": [],
      "dependencies": [],
      "domainNamesFilteredByExodus": [],
      "metaDataNames": [],
      "sha256": "2cbd56f83edff72830cdfbb898c9f0e8673e141bc83d0c3716da5773ee44bf83",
      "usesPermissions": []
    }
  ],
  "meta": {
    "generated": "2020-08-27T15:03:08.455305",
    "generatedBy": [
      "/home/hc/code/trackingthetrackers/scripts/make-trackers-apk-set.py"
    ],
    "ver": "0.3.0"
  }
}