{
  "apks": [
    {
      "applicationId": "com.technext.kiddopuzzle",
      "broadcastReceiverIntentFilterActionNames": [
        "android.intent.action.BOOT_COMPLETED",
        "com.google.android.c2dm.intent.RECEIVE",
        "com.google.android.c2dm.intent.REGISTRATION"
      ],
      "dependencies": [
        "com.chartboost.sdk.",
        "com.google.ads.",
        "com.google.android.gms.analytics."
      ],
      "domainNamesFilteredByExodus": [
        ".chartboost.com",
        ".google.com",
        "api.airpush.com",
        "doubleclick.net",
        "google-analytics.com"
      ],
      "metaDataNames": [
        "android.support.PARENT_ACTIVITY",
        "com.jkabdmmh.fxwistjr149705.APIKEY",
        "com.jkabdmmh.fxwistjr149705.APPID"
      ],
      "sha256": "8417da1634a5c611b0e18ce642a2f4250ac161cfa4cee15361ddfd672d757a37",
      "usesPermissions": [
        "android.permission.ACCESS_COARSE_LOCATION",
        "android.permission.ACCESS_FINE_LOCATION",
        "android.permission.ACCESS_NETWORK_STATE",
        "android.permission.ACCESS_WIFI_STATE",
        "android.permission.GET_ACCOUNTS",
        "android.permission.INTERNET",
        "android.permission.READ_PHONE_STATE",
        "android.permission.RECEIVE_BOOT_COMPLETED",
        "android.permission.VIBRATE",
        "android.permission.WAKE_LOCK",
        "android.permission.WRITE_EXTERNAL_STORAGE",
        "com.google.android.c2dm.permission.RECEIVE",
        "com.technext.kiddopuzzle.permission.C2D_MESSAGE"
      ]
    }
  ],
  "meta": {
    "generated": "2020-08-27T15:10:50.612826",
    "generatedBy": [
      "/home/hc/code/trackingthetrackers/scripts/make-trackers-apk-set.py"
    ],
    "ver": "0.3.0"
  }
}