{
  "apks": [
    {
      "applicationId": "com.ea.game.pvz2_row",
      "broadcastReceiverIntentFilterActionNames": [
        "com.android.vending.INSTALL_REFERRER",
        "com.google.android.c2dm.intent.RECEIVE",
        "com.google.android.c2dm.intent.REGISTRATION"
      ],
      "dependencies": [],
      "domainNamesFilteredByExodus": [
        ".facebook.com",
        ".google.com",
        "api.swrve.com",
        "content.swrve.com",
        "doubleclick.net",
        "mobileapptracking.com"
      ],
      "metaDataNames": [
        "GooglePlayExpansionEnabled",
        "TBDt",
        "com.google.android.gms.appstate.APP_ID",
        "com.google.android.gms.games.APP_ID",
        "com.google.android.gms.version"
      ],
      "sha256": "841127581177180d3e7d5a098372ac37c551199082996073e6f0af0b09829faf",
      "usesPermissions": [
        "android.permission.ACCESS_NETWORK_STATE",
        "android.permission.ACCESS_WIFI_STATE",
        "android.permission.GET_ACCOUNTS",
        "android.permission.INTERNET",
        "android.permission.READ_SMS",
        "android.permission.RECEIVE_SMS",
        "android.permission.SEND_SMS",
        "android.permission.VIBRATE",
        "android.permission.WAKE_LOCK",
        "android.permission.WRITE_EXTERNAL_STORAGE",
        "android.permission.WRITE_SMS",
        "com.android.vending.BILLING",
        "com.android.vending.CHECK_LICENSE",
        "com.ea.game.pvz2_row.permission.C2D_MESSAGE",
        "com.google.android.c2dm.permission.RECEIVE"
      ]
    }
  ],
  "meta": {
    "generated": "2020-08-27T15:07:22.340466",
    "generatedBy": [
      "/home/hc/code/trackingthetrackers/scripts/make-trackers-apk-set.py"
    ],
    "ver": "0.3.0"
  }
}