{
  "apks": [
    {
      "applicationId": "com.ophone.reader.ui",
      "broadcastReceiverIntentFilterActionNames": [
        "PLUGIN_INSTALL_ACTIONcom.ophone.reader.ui",
        "PLUGIN_UNZIP_ACTIONcom.ophone.reader.ui",
        "action_identity_changecom.ophone.reader.ui",
        "android.intent.action.BOOT_COMPLETED",
        "android.intent.action.PHONE_STATE",
        "android.intent.action.TIMEZONE_CHANGED",
        "android.intent.action.USER_PRESENT",
        "android.net.conn.CONNECTIVITY_CHANGEcom.ophone.reader.ui",
        "com.igexin.sdk.action.refreshls",
        "com.igexin.sdk.action.wR6RDRBkJ071EC4ltvpK86",
        "office_bright_broadcast_receiver",
        "office_broadcast_receivercom.ophone.reader.ui",
        "pdf_broadcast_receivercom.ophone.reader.ui"
      ],
      "dependencies": [
        "com.baidu.location"
      ],
      "domainNamesFilteredByExodus": [
        "alog.umeng.com",
        "map.baidu.com",
        "oc.umeng.com",
        "umeng.com"
      ],
      "metaDataNames": [
        "MANA_APPKEY",
        "MANA_APPV",
        "MANA_CHANNEL",
        "MANA_MANUAL",
        "OFFLINE_MAX_MB",
        "OFFLINE_SDCARD_DIR",
        "SEND_MOD",
        "UMENG_APPKEY",
        "appid",
        "appkey",
        "appsecret",
        "com.baidu.lbsapi.API_KEY",
        "groupid",
        "wx_app_id"
      ],
      "sha256": "1812d6ea70232d2ba7217389ed28d0b1b84029eda0352886408bc5ab9fab51ab",
      "usesPermissions": [
        "android.permission.ACCESS_COARSE_LOCATION",
        "android.permission.ACCESS_FINE_LOCATION",
        "android.permission.ACCESS_NETWORK_STATE",
        "android.permission.ACCESS_WIFI_STATE",
        "android.permission.CALL_PHONE",
        "android.permission.CAMERA",
        "android.permission.CHANGE_NETWORK_STATE",
        "android.permission.CHANGE_WIFI_STATE",
        "android.permission.DISABLE_KEYGUARD",
        "android.permission.EXPAND_STATUS_BAR",
        "android.permission.GET_TASKS",
        "android.permission.INTERNET",
        "android.permission.MODIFY_AUDIO_SETTINGS",
        "android.permission.MOUNT_UNMOUNT_FILESYSTEMS",
        "android.permission.READ_CONTACTS",
        "android.permission.READ_LOGS",
        "android.permission.READ_PHONE_STATE",
        "android.permission.READ_SMS",
        "android.permission.RECEIVE_BOOT_COMPLETED",
        "android.permission.RECEIVE_SMS",
        "android.permission.RECORD_AUDIO",
        "android.permission.RESTART_PACKAGES",
        "android.permission.RESTART_PACKAGES",
        "android.permission.SEND_SMS",
        "android.permission.SYSTEM_ALERT_WINDOW",
        "android.permission.VIBRATE",
        "android.permission.VIBRATE",
        "android.permission.WAKE_LOCK",
        "android.permission.WRITE_EXTERNAL_STORAGE",
        "android.permission.WRITE_SETTINGS",
        "android.permission.WRITE_SMS",
        "com.android.launcher.permission.INSTALL_SHORTCUT",
        "com.android.launcher.permission.READ_SETTINGS",
        "com.android.launcher.permission.UNINSTALL_SHORTCUT"
      ]
    }
  ],
  "meta": {
    "generated": "2020-08-27T15:41:31.725570",
    "generatedBy": [
      "/home/hc/code/trackingthetrackers/scripts/make-trackers-apk-set.py"
    ],
    "ver": "0.3.0"
  }
}