{
  "apks": [
    {
      "applicationId": "fr.gouv.etalab.mastodon",
      "broadcastReceiverIntentFilterActionNames": [
        "RestartLiveNotificationService",
        "StopLiveNotificationReceiver",
        "android.intent.action.BOOT_COMPLETED",
        "android.intent.action.MY_PACKAGE_REPLACED",
        "android.intent.action.QUICKBOOT_POWERON",
        "com.evernote.android.job.v14.RUN_JOB",
        "com.htc.intent.action.QUICKBOOT_POWERON",
        "net.vrallev.android.job.v14.RUN_JOB"
      ],
      "dependencies": [],
      "domainNamesFilteredByExodus": [],
      "metaDataNames": [
        "android.support.FILE_PROVIDER_PATHS"
      ],
      "sha256": "ef99933ebc4cb5788f454bb1838fafaa676bb5475cd58796b7566b6d459043c7",
      "usesPermissions": [
        "android.permission.ACCESS_NETWORK_STATE",
        "android.permission.INTERNET",
        "android.permission.READ_EXTERNAL_STORAGE",
        "android.permission.RECEIVE_BOOT_COMPLETED",
        "android.permission.WAKE_LOCK",
        "android.permission.WRITE_EXTERNAL_STORAGE"
      ]
    }
  ],
  "meta": {
    "generated": "2020-08-27T18:10:29.379001",
    "generatedBy": [
      "/home/hc/code/trackingthetrackers/scripts/make-clean-apk-set.py"
    ],
    "generatedByCommitId": "3839559c80042252d3b947fb61c86a18e8b31114",
    "sourceDataCommitId": "888bb8f8c77ff55105fcab2ad84c263561eb1169",
    "ver": "0.3.0"
  }
}