{
  "apks": [
    {
      "applicationId": "com.greenaddress.greenbits_android_wallet",
      "broadcastReceiverIntentFilterActionNames": [],
      "dependencies": [],
      "domainNamesFilteredByExodus": [
        ".facebook.com",
        ".google.com"
      ],
      "metaDataNames": [
        "android.hardware.usb.action.USB_DEVICE_ATTACHED",
        "android.nfc.action.TECH_DISCOVERED",
        "android.support.PARENT_ACTIVITY",
        "android.support.VERSION"
      ],
      "sha256": "22ea43b50dcd6bef3c92afaf5aedf1065f029b59836de07220ca5a5d5df54f98",
      "usesPermissions": [
        "android.permission.ACCESS_NETWORK_STATE",
        "android.permission.CAMERA",
        "android.permission.INTERNET",
        "android.permission.NFC"
      ]
    }
  ],
  "meta": {
    "generated": "2020-08-27T17:32:03.189124",
    "generatedBy": [
      "/home/hc/code/trackingthetrackers/scripts/make-clean-apk-set.py"
    ],
    "generatedByCommitId": "40519285d6f404593fa655fa89b433743c25289e",
    "sourceDataCommitId": "888bb8f8c77ff55105fcab2ad84c263561eb1169",
    "ver": "0.3.0"
  }
}