{
  "apks": [
    {
      "applicationId": "com.fsck.k9",
      "broadcastReceiverIntentFilterActionNames": [
        "android.appwidget.action.APPWIDGET_UPDATE",
        "android.intent.action.BOOT_COMPLETED",
        "android.intent.action.DEVICE_STORAGE_LOW",
        "android.intent.action.DEVICE_STORAGE_OK",
        "android.intent.action.MEDIA_MOUNTED",
        "android.net.conn.BACKGROUND_DATA_SETTING_CHANGED",
        "android.net.conn.CONNECTIVITY_CHANGE",
        "com.android.sync.SYNC_CONN_STATUS_CHANGED",
        "com.fsck.k9.K9RemoteControl.requestAccounts",
        "com.fsck.k9.K9RemoteControl.set",
        "com.fsck.k9.service.BroadcastReceiver.scheduleIntent",
        "com.fsck.k9.service.CoreReceiver.wakeLockRelease"
      ],
      "dependencies": [],
      "domainNamesFilteredByExodus": [
        ".google.com"
      ],
      "metaDataNames": [
        "android.app.default_searchable",
        "android.app.searchable",
        "android.appwidget.provider"
      ],
      "sha256": "7f7549d58b556b9ab86b0d8c6ff38299383c03f3c088d954579544c3de74d7c2",
      "usesPermissions": [
        "android.permission.ACCESS_NETWORK_STATE",
        "android.permission.INTERNET",
        "android.permission.READ_CONTACTS",
        "android.permission.READ_SYNC_SETTINGS",
        "android.permission.RECEIVE_BOOT_COMPLETED",
        "android.permission.VIBRATE",
        "android.permission.WAKE_LOCK",
        "android.permission.WRITE_CONTACTS",
        "android.permission.WRITE_EXTERNAL_STORAGE",
        "com.fsck.k9.permission.DELETE_MESSAGES",
        "com.fsck.k9.permission.READ_ATTACHMENT",
        "com.fsck.k9.permission.READ_MESSAGES",
        "com.fsck.k9.permission.REMOTE_CONTROL",
        "org.thialfihar.android.apg.permission.READ_KEY_DETAILS"
      ]
    }
  ],
  "meta": {
    "generated": "2020-08-27T17:22:38.683215",
    "generatedBy": [
      "/home/hc/code/trackingthetrackers/scripts/make-clean-apk-set.py"
    ],
    "generatedByCommitId": "40519285d6f404593fa655fa89b433743c25289e",
    "sourceDataCommitId": "888bb8f8c77ff55105fcab2ad84c263561eb1169",
    "ver": "0.3.0"
  }
}