{
  "apks": [
    {
      "applicationId": "com.sunnybeach.khmersongs",
      "broadcastReceiverIntentFilterActionNames": [],
      "dependencies": [],
      "domainNamesFilteredByExodus": [],
      "metaDataNames": [
        "com.tapcontext.DEVELOPERKEY"
      ],
      "sha256": "0961059c0e59666e7f0feb9b2e2c0167e64d7e6af79ac36f82619286fc9ed7b9",
      "usesPermissions": [
        "android.permission.ACCESS_NETWORK_STATE",
        "android.permission.INTERNET",
        "android.permission.READ_PHONE_STATE"
      ]
    }
  ],
  "meta": {
    "generated": "2020-08-27T14:49:55.073337",
    "generatedBy": [
      "/home/hc/code/trackingthetrackers/scripts/make-trackers-apk-set.py"
    ],
    "ver": "0.3.0"
  }
}