{
  "apks": [
    {
      "applicationId": "org.ea.sqrl",
      "broadcastReceiverIntentFilterActionNames": [],
      "dependencies": [],
      "domainNamesFilteredByExodus": [],
      "metaDataNames": [
        "android.support.FILE_PROVIDER_PATHS"
      ],
      "sha256": "564f4444fca80ac15dde9b55351a4b4c472485823a5098b7e4ecab8cd4cb9ead",
      "usesPermissions": [
        "android.permission.CAMERA",
        "android.permission.INTERNET",
        "android.permission.USE_BIOMETRIC"
      ]
    }
  ],
  "meta": {
    "generated": "2020-08-27T17:05:15.207147",
    "generatedBy": [
      "/home/hc/code/trackingthetrackers/scripts/make-clean-apk-set.py"
    ],
    "generatedByCommitId": "40519285d6f404593fa655fa89b433743c25289e",
    "sourceDataCommitId": "888bb8f8c77ff55105fcab2ad84c263561eb1169",
    "ver": "0.3.0"
  }
}