{
  "apks": [
    {
      "applicationId": "ca.cmetcalfe.locationshare",
      "broadcastReceiverIntentFilterActionNames": [],
      "dependencies": [],
      "domainNamesFilteredByExodus": [
        ".google.com"
      ],
      "metaDataNames": [
        "android.support.PARENT_ACTIVITY"
      ],
      "sha256": "c1f7ccd1b561db59e403c35d5090329931ab66c41274f38923cf2c1ac6db06e0",
      "usesPermissions": [
        "android.permission.ACCESS_FINE_LOCATION"
      ]
    }
  ],
  "meta": {
    "generated": "2020-08-27T16:51:54.203589",
    "generatedBy": [
      "/home/hc/code/trackingthetrackers/scripts/make-clean-apk-set.py"
    ],
    "generatedByCommitId": "40519285d6f404593fa655fa89b433743c25289e",
    "sourceDataCommitId": "888bb8f8c77ff55105fcab2ad84c263561eb1169",
    "ver": "0.3.0"
  }
}