{
  "apks": [
    {
      "applicationId": "com.meifjhgjkfdhgkjfhgj",
      "broadcastReceiverIntentFilterActionNames": [
        "safiap.GET_SHARED_DATA",
        "safiap.framework.ACTION_CANCEL_NOTIFICATION",
        "safiap.framework.ACTION_SET_TIMER"
      ],
      "dependencies": [
        "org.cocos2dx"
      ],
      "domainNamesFilteredByExodus": [],
      "metaDataNames": [
        "android.app.lib_name"
      ],
      "sha256": "13a39a9322f4cd6040beb3fe716dae3fde66d0a9ea8e288bb61295793dbf37d9",
      "usesPermissions": [
        "android.permission.ACCESS_NETWORK_STATE",
        "android.permission.ACCESS_NETWORK_STATE",
        "android.permission.ACCESS_WIFI_STATE",
        "android.permission.ACCESS_WIFI_STATE",
        "android.permission.GET_TASKS",
        "android.permission.INTERNET",
        "android.permission.INTERNET",
        "android.permission.MOUNT_UNMOUNT_FILESYSTEMS",
        "android.permission.READ_PHONE_STATE",
        "android.permission.READ_PHONE_STATE",
        "android.permission.SEND_SMS",
        "android.permission.SYSTEM_ALERT_WINDOW",
        "android.permission.WRITE_EXTERNAL_STORAGE",
        "android.permission.WRITE_EXTERNAL_STORAGE"
      ]
    }
  ],
  "meta": {
    "generated": "2020-08-27T15:06:56.745333",
    "generatedBy": [
      "/home/hc/code/trackingthetrackers/scripts/make-trackers-apk-set.py"
    ],
    "ver": "0.3.0"
  }
}