{
  "apks": [
    {
      "applicationId": "net.mobilecraft.parkingmadnessat",
      "broadcastReceiverIntentFilterActionNames": [
        "android.intent.action.MY_PACKAGE_REPLACED",
        "android.intent.action.PACKAGE_ADDED",
        "android.intent.action.USER_PRESENT",
        "android.net.conn.CONNECTIVITY_CHANGE",
        "com.google.android.c2dm.intent.RECEIVE",
        "com.google.android.c2dm.intent.REGISTRATION"
      ],
      "dependencies": [
        "com.chartboost.sdk.",
        "com.google.ads."
      ],
      "domainNamesFilteredByExodus": [
        ".chartboost.com",
        ".facebook.com",
        ".google.com",
        "doubleclick.net",
        "stats.unity3d.com"
      ],
      "metaDataNames": [
        "APPCHANNEL",
        "cEnd",
        "cStart",
        "com.facebook.sdk.ApplicationId",
        "com.prime31.ChartboostPlugin",
        "com.prime31.FacebookPlugin",
        "unityplayer.ForwardNativeEventsToDalvik"
      ],
      "sha256": "41c56b553e3a4777a4eca18783a7bb73de310fc00807ae1ff0a876afa6c2a757",
      "usesPermissions": [
        "android.permission.ACCESS_NETWORK_STATE",
        "android.permission.ACCESS_NETWORK_STATE",
        "android.permission.ACCESS_WIFI_STATE",
        "android.permission.GET_ACCOUNTS",
        "android.permission.GET_TASKS",
        "android.permission.INTERNET",
        "android.permission.INTERNET",
        "android.permission.INTERNET",
        "android.permission.KILL_BACKGROUND_PROCESSES",
        "android.permission.READ_PHONE_STATE",
        "android.permission.READ_PHONE_STATE",
        "android.permission.SYSTEM_ALERT_WINDOW",
        "android.permission.VIBRATE",
        "android.permission.WAKE_LOCK",
        "android.permission.WAKE_LOCK",
        "android.permission.WRITE_EXTERNAL_STORAGE",
        "com.android.vending.BILLING",
        "com.google.android.c2dm.permission.RECEIVE",
        "net.mobilecraft.parkingmadness.permission.C2D_MESSAGE"
      ]
    }
  ],
  "meta": {
    "generated": "2020-08-27T15:38:27.966926",
    "generatedBy": [
      "/home/hc/code/trackingthetrackers/scripts/make-trackers-apk-set.py"
    ],
    "ver": "0.3.0"
  }
}