{
  "apks": [
    {
      "applicationId": "com.mdc.ustv",
      "broadcastReceiverIntentFilterActionNames": [
        "android.intent.action.PHONE_STATE",
        "com.amazon.inapp.purchasing.NOTIFY"
      ],
      "dependencies": [
        "com$amazon$device$ads",
        "com$smaato$soma$",
        "com.amazon.device.ads",
        "com.google.ads.",
        "com.inmobi",
        "com.mobclix.android.sdk",
        "com.revmob.ads.",
        "com.smaato.soma."
      ],
      "domainNamesFilteredByExodus": [
        ".facebook.com",
        ".google.com",
        "ads.mobclix.com",
        "data.mobclix.com",
        "i.w.inmobi.com",
        "inmobi.com",
        "media.net",
        "mobclix.com",
        "openx.com",
        "smaato.net",
        "soma.smaato.net",
        "w.inmobi.com"
      ],
      "metaDataNames": [
        "clevernet_site_token",
        "com.mobclix.APPLICATION_ID",
        "type_device",
        "type_tv"
      ],
      "sha256": "fba020b10499b50030942e291fffb8e9ec4b5da96bf0fd7ad613b1c079957f58",
      "usesPermissions": [
        "android.permission.ACCESS_NETWORK_STATE",
        "android.permission.INTERNET",
        "android.permission.READ_PHONE_STATE",
        "android.permission.WRITE_EXTERNAL_STORAGE",
        "android.permission.WRITE_SETTINGS"
      ]
    }
  ],
  "meta": {
    "generated": "2020-08-27T15:04:21.570417",
    "generatedBy": [
      "/home/hc/code/trackingthetrackers/scripts/make-trackers-apk-set.py"
    ],
    "ver": "0.3.0"
  }
}