{
  "apks": [
    {
      "applicationId": "com.ringames.fantasticteam1459550540",
      "broadcastReceiverIntentFilterActionNames": [
        "android.net.conn.CONNECTIVITY_CHANGE",
        "com.android.vending.INSTALL_REFERRER"
      ],
      "dependencies": [
        "com$sponsorpay",
        "com$tapjoy$",
        "com.flurry.",
        "com.google.ads.",
        "com.google.android.gms.ads.",
        "com.google.android.gms.analytics.",
        "com.google.android.gms.measurement.",
        "com.google.android.gms.tagmanager",
        "com.inmobi",
        "com.millennialmedia.",
        "com.mobclix.android.sdk",
        "com.sponsorpay",
        "com.tapjoy."
      ],
      "domainNamesFilteredByExodus": [
        ".facebook.com",
        ".google.com",
        "doubleclick.net",
        "flurry.com",
        "google-analytics.com",
        "stats.unity3d.com",
        "tapjoy.com",
        "tapjoyads.com",
        "www.googletagmanager.com"
      ],
      "metaDataNames": [
        "android.app.lib_name",
        "com.google.android.gms.version",
        "com.prime31.FlurryPlugin",
        "unityplayer.ForwardNativeEventsToDalvik"
      ],
      "sha256": "c4fdedf8d3f87ea2dc8095838b598e97ee30d4e62c60d756870f11213e3d3709",
      "usesPermissions": [
        "android.permission.ACCESS_COARSE_LOCATION",
        "android.permission.ACCESS_NETWORK_STATE",
        "android.permission.INTERNET",
        "android.permission.READ_PHONE_STATE",
        "android.permission.WAKE_LOCK",
        "android.permission.WRITE_EXTERNAL_STORAGE",
        "com.android.vending.BILLING"
      ]
    }
  ],
  "meta": {
    "generated": "2020-08-27T15:50:57.994903",
    "generatedBy": [
      "/home/hc/code/trackingthetrackers/scripts/make-trackers-apk-set.py"
    ],
    "ver": "0.3.0"
  }
}