{
  "apks": [
    {
      "applicationId": "com.pocketchunk.sosntsywyyy",
      "broadcastReceiverIntentFilterActionNames": [],
      "dependencies": [],
      "domainNamesFilteredByExodus": [],
      "metaDataNames": [
        "com.sosceo.android.ads.SOSCEO_APP_ID"
      ],
      "sha256": "dd86de341a13db7f4b4e36e644ff75f8955eee77c750d904797a511465ec35c3",
      "usesPermissions": [
        "android.permission.ACCESS_COARSE_LOCATION",
        "android.permission.ACCESS_COARSE_UPDATES",
        "android.permission.ACCESS_FINE_LOCATION",
        "android.permission.CALL_PHONE",
        "android.permission.INTERNET",
        "android.permission.READ_CONTACTS",
        "android.permission.READ_PHONE_STATE",
        "android.permission.SEND_SMS",
        "android.permission.WRITE_CONTACTS"
      ]
    }
  ],
  "meta": {
    "generated": "2020-08-27T14:59:38.323757",
    "generatedBy": [
      "/home/hc/code/trackingthetrackers/scripts/make-trackers-apk-set.py"
    ],
    "ver": "0.3.0"
  }
}