{
  "apks": [
    {
      "applicationId": "com.playink.burger.maker",
      "broadcastReceiverIntentFilterActionNames": [
        "android.intent.action.BOOT_COMPLETED",
        "android.intent.action.PACKAGE_ADDED",
        "android.intent.action.PACKAGE_RESTARTED",
        "android.net.conn.CONNECTIVITY_CHANGE"
      ],
      "dependencies": [
        "com$apptentive$",
        "com$heyzap$sdk$ads$",
        "com.apptentive.",
        "com.chartboost.sdk.",
        "com.flurry.",
        "com.google.ads.",
        "com.heyzap.sdk.ads.",
        "com.inmobi",
        "com.millennialmedia.",
        "com.mobclix.android.sdk"
      ],
      "domainNamesFilteredByExodus": [
        ".chartboost.com",
        ".google.com",
        "ads.heyzap.com",
        "api.airpush.com",
        "api.apptentive.com",
        "beta.airpush.com",
        "doubleclick.net",
        "flurry.com",
        "m.airpush.com"
      ],
      "metaDataNames": [
        "_screenid_lrg",
        "_screenid_med",
        "_screenid_std",
        "_screenid_xlrg",
        "apptentive_api_key",
        "com.jvvwlvv.vvympnr87180.APIKEY",
        "com.jvvwlvv.vvympnr87180.APPID"
      ],
      "sha256": "38db60360692a442ab6bcd6676a5816394beeb0d052f6c1f644f28116b2c1d67",
      "usesPermissions": [
        "android.permission.ACCESS_COARSE_LOCATION",
        "android.permission.ACCESS_NETWORK_STATE",
        "android.permission.ACCESS_WIFI_STATE",
        "android.permission.GET_ACCOUNTS",
        "android.permission.INTERNET",
        "android.permission.READ_PHONE_STATE",
        "android.permission.RECEIVE_BOOT_COMPLETED",
        "android.permission.SET_WALLPAPER",
        "android.permission.VIBRATE",
        "android.permission.VIBRATE",
        "android.permission.WAKE_LOCK",
        "android.permission.WRITE_EXTERNAL_STORAGE",
        "com.android.launcher.permission.INSTALL_SHORTCUT",
        "com.android.vending.BILLING"
      ]
    }
  ],
  "meta": {
    "generated": "2020-08-27T15:01:24.700424",
    "generatedBy": [
      "/home/hc/code/trackingthetrackers/scripts/make-trackers-apk-set.py"
    ],
    "ver": "0.3.0"
  }
}