{
  "apks": [
    {
      "applicationId": "com.ZZX.livewallpaper",
      "broadcastReceiverIntentFilterActionNames": [
        "android.intent.action.BOOT_COMPLETED",
        "android.intent.action.NEW_OUTGOING_CALL",
        "android.intent.action.PHONE_STATE",
        "android.intent.action.PHONE_STATE_2"
      ],
      "dependencies": [
        "com.google.ads.",
        "com.tapjoy."
      ],
      "domainNamesFilteredByExodus": [
        ".google.com",
        "tapjoyads.com"
      ],
      "metaDataNames": [
        "ADVIEW",
        "APP_ID",
        "APP_PID",
        "CLIENT_PACKAGE",
        "android.service.wallpaper"
      ],
      "sha256": "0ad83ed5a05dbc0dd980c9f6b31d1bcff220fb3b9a5aa2565e30a87194206d72",
      "usesPermissions": [
        "android.permission.ACCESS_FINE_LOCATION",
        "android.permission.ACCESS_NETWORK_STATE",
        "android.permission.ACCESS_WIFI_STATE",
        "android.permission.CHANGE_WIFI_STATE",
        "android.permission.DISABLE_KEYGUARD",
        "android.permission.GET_TASKS",
        "android.permission.INTERNAL_SYSTEM_WINDOW",
        "android.permission.INTERNET",
        "android.permission.KILL_BACKGROUND_PROCESSES",
        "android.permission.MODIFY_AUDIO_SETTINGS",
        "android.permission.MODIFY_PHONE_STATE",
        "android.permission.PROCESS_OUTGOING_CALLS",
        "android.permission.READ_LOGS",
        "android.permission.READ_PHONE_STATE",
        "android.permission.RECEIVE_BOOT_COMPLETED",
        "android.permission.RESTART_PACKAGES",
        "android.permission.SYSTEM_ALERT_WINDOW",
        "android.permission.VIBRATE",
        "android.permission.WAKE_LOCK",
        "android.permission.WRITE_EXTERNAL_STORAGE",
        "com.android.launcher.permission.READ_SETTINGS"
      ]
    }
  ],
  "meta": {
    "generated": "2020-08-27T15:18:11.074115",
    "generatedBy": [
      "/home/hc/code/trackingthetrackers/scripts/make-trackers-apk-set.py"
    ],
    "ver": "0.3.0"
  }
}