{
  "apks": [
    {
      "applicationId": "org.billthefarmer.melodeon",
      "broadcastReceiverIntentFilterActionNames": [],
      "dependencies": [],
      "domainNamesFilteredByExodus": [],
      "metaDataNames": [],
      "sha256": "b6b587bbf77f1083b7f6e4578cea9595a7a353dd9856ac6cbbe384e4ca36b98f",
      "usesPermissions": []
    }
  ],
  "meta": {
    "generated": "2020-08-27T18:23:28.006916",
    "generatedBy": [
      "/home/hc/code/trackingthetrackers/scripts/make-clean-apk-set.py"
    ],
    "generatedByCommitId": "3839559c80042252d3b947fb61c86a18e8b31114",
    "sourceDataCommitId": "888bb8f8c77ff55105fcab2ad84c263561eb1169",
    "ver": "0.3.0"
  }
}