{
  "apks": [
    {
      "applicationId": "cityfreqs.com.pilfershushjammer",
      "broadcastReceiverIntentFilterActionNames": [],
      "dependencies": [],
      "domainNamesFilteredByExodus": [],
      "metaDataNames": [],
      "sha256": "2e851c121f3706dccae8725a857dc2ded16e0f4d3b1c5cb26ae6020c4aa7fe21",
      "usesPermissions": [
        "android.permission.FOREGROUND_SERVICE",
        "android.permission.RECORD_AUDIO"
      ]
    }
  ],
  "meta": {
    "generated": "2020-08-27T17:13:28.195736",
    "generatedBy": [
      "/home/hc/code/trackingthetrackers/scripts/make-clean-apk-set.py"
    ],
    "generatedByCommitId": "40519285d6f404593fa655fa89b433743c25289e",
    "sourceDataCommitId": "888bb8f8c77ff55105fcab2ad84c263561eb1169",
    "ver": "0.3.0"
  }
}