{
  "apks": [
    {
      "applicationId": "info.guardianproject.cacert",
      "broadcastReceiverIntentFilterActionNames": [],
      "dependencies": [],
      "domainNamesFilteredByExodus": [],
      "metaDataNames": [],
      "sha256": "d2aa60e0d83f51098db89554970402428e3c422cfd7908d85275672060d5edd9",
      "usesPermissions": []
    }
  ],
  "meta": {
    "generated": "2020-08-27T18:12:35.831398",
    "generatedBy": [
      "/home/hc/code/trackingthetrackers/scripts/make-clean-apk-set.py"
    ],
    "generatedByCommitId": "3839559c80042252d3b947fb61c86a18e8b31114",
    "sourceDataCommitId": "888bb8f8c77ff55105fcab2ad84c263561eb1169",
    "ver": "0.3.0"
  }
}