{
  "apks": [
    {
      "applicationId": "com.appling.ios7autumn",
      "broadcastReceiverIntentFilterActionNames": [
        "com.android.vending.INSTALL_REFERRER"
      ],
      "dependencies": [
        "com.appbrain.",
        "com.google.ads."
      ],
      "domainNamesFilteredByExodus": [
        ".google.com",
        "doubleclick.net"
      ],
      "metaDataNames": [
        "android.service.wallpaper"
      ],
      "sha256": "80db302cfd90a326d390c963e6d30cbdac5b7bccfda12948662ad8fc21aa9d32",
      "usesPermissions": [
        "android.permission.ACCESS_NETWORK_STATE",
        "android.permission.INTERNET"
      ]
    }
  ],
  "meta": {
    "generated": "2020-08-27T15:46:35.834462",
    "generatedBy": [
      "/home/hc/code/trackingthetrackers/scripts/make-trackers-apk-set.py"
    ],
    "ver": "0.3.0"
  }
}