{
  "apks": [
    {
      "applicationId": "com.hs.net.hopesspecial",
      "broadcastReceiverIntentFilterActionNames": [],
      "dependencies": [],
      "domainNamesFilteredByExodus": [
        ".facebook.com",
        ".google.com"
      ],
      "metaDataNames": [
        "ZHUGE_APPKEY",
        "ZHUGE_CHANNEL"
      ],
      "sha256": "3d54a7c6dd7ae7973fe156011d50c6d6246e2254f0916b1e859370a18e558e68",
      "usesPermissions": [
        "android.permission.ACCESS_COARSE_LOCATION",
        "android.permission.ACCESS_FINE_LOCATION",
        "android.permission.ACCESS_NETWORK_STATE",
        "android.permission.ACCESS_WIFI_STATE",
        "android.permission.BROADCAST_STICKY",
        "android.permission.CAMERA",
        "android.permission.CHANGE_NETWORK_STATE",
        "android.permission.CHANGE_WIFI_STATE",
        "android.permission.GET_ACCOUNTS",
        "android.permission.GET_TASKS",
        "android.permission.INTERNET",
        "android.permission.KILL_BACKGROUND_PROCESSES",
        "android.permission.MANAGE_ACCOUNTS",
        "android.permission.MODIFY_AUDIO_SETTINGS",
        "android.permission.MOUNT_UNMOUNT_FILESYSTEMS",
        "android.permission.READ_EXTERNAL_STORAGE",
        "android.permission.READ_PHONE_STATE",
        "android.permission.RESTART_PACKAGES",
        "android.permission.SYSTEM_ALERT_WINDOW",
        "android.permission.VIBRATE",
        "android.permission.WAKE_LOCK",
        "android.permission.WRITE_APN_SETTINGS",
        "android.permission.WRITE_EXTERNAL_STORAGE",
        "com.android.launcher.permission.INSTALL_SHORTCUT"
      ]
    }
  ],
  "meta": {
    "generated": "2020-08-27T15:44:48.379496",
    "generatedBy": [
      "/home/hc/code/trackingthetrackers/scripts/make-trackers-apk-set.py"
    ],
    "ver": "0.3.0"
  }
}