{
  "apks": [
    {
      "applicationId": "com.termux.window",
      "broadcastReceiverIntentFilterActionNames": [],
      "dependencies": [],
      "domainNamesFilteredByExodus": [],
      "metaDataNames": [],
      "sha256": "78060c2bca812ed17c3df89c7bbde3e56ce45bc62ec431a1957e5c0cc32ff7fe",
      "usesPermissions": [
        "android.permission.SYSTEM_ALERT_WINDOW",
        "android.permission.VIBRATE"
      ]
    }
  ],
  "meta": {
    "generated": "2020-08-27T17:00:52.012924",
    "generatedBy": [
      "/home/hc/code/trackingthetrackers/scripts/make-clean-apk-set.py"
    ],
    "generatedByCommitId": "40519285d6f404593fa655fa89b433743c25289e",
    "sourceDataCommitId": "888bb8f8c77ff55105fcab2ad84c263561eb1169",
    "ver": "0.3.0"
  }
}