{
  "apks": [
    {
      "applicationId": "com.makecom.hindismsdukan",
      "broadcastReceiverIntentFilterActionNames": [],
      "dependencies": [
        "com.revmob.ads.",
        "com.revmob.adsc",
        "org.altbeacon.beacon."
      ],
      "domainNamesFilteredByExodus": [
        ".google.com"
      ],
      "metaDataNames": [
        "com.revmob.app.id"
      ],
      "sha256": "ff783fb7db4c09f2adf9b46bcbba6ce75c2bd607eb5f689882b3d5e9e24da146",
      "usesPermissions": [
        "android.permission.INTERNET"
      ]
    }
  ],
  "meta": {
    "generated": "2020-08-27T15:38:34.046352",
    "generatedBy": [
      "/home/hc/code/trackingthetrackers/scripts/make-trackers-apk-set.py"
    ],
    "ver": "0.3.0"
  }
}