{
  "apks": [
    {
      "applicationId": "com.digital.game.mi",
      "broadcastReceiverIntentFilterActionNames": [],
      "dependencies": [
        "org.cocos2dx"
      ],
      "domainNamesFilteredByExodus": [],
      "metaDataNames": [],
      "sha256": "f4b95aa024d3603bbcb7646c8a3370046c4521c23b17846e8c4e7b297b6f072e",
      "usesPermissions": [
        "android.permission.ACCESS_NETWORK_STATE",
        "android.permission.ACCESS_WIFI_STATE",
        "android.permission.ACCESS_WIFI_STATE",
        "android.permission.GET_TASKS",
        "android.permission.INTERNET",
        "android.permission.MOUNT_UNMOUNT_FILESYSTEMS",
        "android.permission.READ_LOGS",
        "android.permission.READ_PHONE_STATE",
        "android.permission.READ_PHONE_STATE",
        "android.permission.SEND_SMS",
        "android.permission.SYSTEM_ALERT_WINDOW",
        "android.permission.WRITE_EXTERNAL_STORAGE",
        "android.permission.WRITE_EXTERNAL_STORAGE",
        "com.xiaomi.sdk.permission.PAYMENT"
      ]
    }
  ],
  "meta": {
    "generated": "2020-08-27T15:10:44.856179",
    "generatedBy": [
      "/home/hc/code/trackingthetrackers/scripts/make-trackers-apk-set.py"
    ],
    "ver": "0.3.0"
  }
}