{
  "apks": [
    {
      "applicationId": "org.walleth",
      "broadcastReceiverIntentFilterActionNames": [],
      "dependencies": [],
      "domainNamesFilteredByExodus": [],
      "metaDataNames": [
        "android.arch.core.VERSION",
        "android.arch.lifecycle.VERSION",
        "android.arch.persistence.db.VERSION",
        "android.arch.persistence.db.framework.VERSION",
        "android.arch.persistence.room.VERSION",
        "android.support.VERSION"
      ],
      "sha256": "5f9112d47b98d0eb24b7274a969b95790c00068ac0ae61f30c6d63b2f3623a88",
      "usesPermissions": [
        "android.permission.CAMERA",
        "android.permission.INTERNET",
        "android.permission.READ_LOGS"
      ]
    }
  ],
  "meta": {
    "generated": "2020-08-27T18:41:38.504611",
    "generatedBy": [
      "/home/hc/code/trackingthetrackers/scripts/make-clean-apk-set.py"
    ],
    "generatedByCommitId": "3839559c80042252d3b947fb61c86a18e8b31114",
    "sourceDataCommitId": "888bb8f8c77ff55105fcab2ad84c263561eb1169",
    "ver": "0.3.0"
  }
}