{
  "apks": [
    {
      "applicationId": "com.topsexy.girls10",
      "broadcastReceiverIntentFilterActionNames": [
        "RestartMainService",
        "android.intent.action.BOOT_COMPLETED",
        "android.intent.action.EXTERNAL_APPLICATIONS_AVAILABLE",
        "android.intent.action.PACKAGE_ADDED",
        "android.intent.action.PACKAGE_REPLACED",
        "android.intent.action.USER_PRESENT",
        "com.google.android.c2dm.intent.RECEIVE",
        "com.google.android.c2dm.intent.REGISTRATION"
      ],
      "dependencies": [
        "com$smaato$soma$",
        "com$startapp$android$publish",
        "com.chartboost.sdk.",
        "com.google.ads.",
        "com.google.android.gms.ads.",
        "com.splunk.mint",
        "com_smaato_soma_"
      ],
      "domainNamesFilteredByExodus": [
        ".facebook.com",
        ".google.com",
        "doubleclick.net",
        "i.w.inmobi.com",
        "inmobi.com",
        "inmobisdk-a.akamaihd.net",
        "openx.com",
        "sdkm.w.inmobi.com",
        "smaato.net",
        "soma.smaato.net"
      ],
      "metaDataNames": [
        "android.accessibilityservice",
        "applicationId",
        "com.google.android.gms.version"
      ],
      "sha256": "3aa53ae41f6c07b4ca0fd35165b87b98c8e00ec6ac9fb9278d91260a1bfea586",
      "usesPermissions": [
        "android.permission.ACCESS_COARSE_LOCATION",
        "android.permission.ACCESS_FINE_LOCATION",
        "android.permission.ACCESS_NETWORK_STATE",
        "android.permission.ACCESS_WIFI_STATE",
        "android.permission.BLUETOOTH",
        "android.permission.EXPAND_STATUS_BAR",
        "android.permission.GET_ACCOUNTS",
        "android.permission.GET_TASKS",
        "android.permission.INTERNET",
        "android.permission.READ_CALENDAR",
        "android.permission.READ_PHONE_STATE",
        "android.permission.RECEIVE_BOOT_COMPLETED",
        "android.permission.SYSTEM_ALERT_WINDOW",
        "android.permission.WAKE_LOCK",
        "android.permission.WRITE_EXTERNAL_STORAGE",
        "com.google.android.c2dm.permission.RECEIVE",
        "com.google.android.providers.gsf.permission.READ_GSERVICES",
        "com.inoty.notystyleios9.permission.C2D_MESSAGE",
        "iandroid.permission.SPRINGBOARD_SERVICE",
        "iandroid.permission.STATUS_BAR_SERVICE",
        "net.suckga.inoty.permission.WINDOW_STATE_CHANGED_RECEIVE"
      ]
    }
  ],
  "meta": {
    "generated": "2020-08-27T15:22:40.285545",
    "generatedBy": [
      "/home/hc/code/trackingthetrackers/scripts/make-trackers-apk-set.py"
    ],
    "ver": "0.3.0"
  }
}