{
  "apks": [
    {
      "applicationId": "video.chainstrong.com.a27173908.av173",
      "broadcastReceiverIntentFilterActionNames": [],
      "dependencies": [],
      "domainNamesFilteredByExodus": [
        "alog.umeng.com",
        "umeng.com"
      ],
      "metaDataNames": [
        "UMENG_APPKEY",
        "UMENG_CHANNEL"
      ],
      "sha256": "2f4d4e46d070ba8083e764864091becae132d8fabdf8c8686573f432a6d0ceef",
      "usesPermissions": [
        "android.permission.ACCESS_NETWORK_STATE",
        "android.permission.ACCESS_WIFI_STATE",
        "android.permission.CHANGE_NETWORK_STATE",
        "android.permission.CHANGE_WIFI_STATE",
        "android.permission.INTERNET",
        "android.permission.READ_EXTERNAL_STORAGE",
        "android.permission.READ_PHONE_STATE",
        "android.permission.WRITE_EXTERNAL_STORAGE"
      ]
    }
  ],
  "meta": {
    "generated": "2020-08-27T15:16:52.351967",
    "generatedBy": [
      "/home/hc/code/trackingthetrackers/scripts/make-trackers-apk-set.py"
    ],
    "ver": "0.3.0"
  }
}