{
  "apks": [
    {
      "applicationId": "nodomain.freeyourgadget.gadgetbridge",
      "broadcastReceiverIntentFilterActionNames": [
        "android.bluetooth.adapter.action.STATE_CHANGED",
        "android.intent.action.NEW_OUTGOING_CALL",
        "android.intent.action.PHONE_STATE",
        "android.provider.Telephony.SMS_RECEIVED",
        "com.andrew.apollo.metachanged",
        "com.fsck.k9.intent.action.EMAIL_RECEIVED",
        "nodomain.freeyourgadget.gadgetbridge.callcontrol",
        "nodomain.freeyourgadget.gadgetbridge.musiccontrol"
      ],
      "dependencies": [],
      "domainNamesFilteredByExodus": [],
      "metaDataNames": [
        "android.support.PARENT_ACTIVITY"
      ],
      "sha256": "26b9ccd6ed2bf4fa7b8d2961d6fa4251d8f87445ad81b2b402634334f5549894",
      "usesPermissions": [
        "android.permission.BLUETOOTH",
        "android.permission.CALL_PHONE",
        "android.permission.PROCESS_OUTGOING_CALLS",
        "android.permission.READ_CONTACTS",
        "android.permission.READ_PHONE_STATE",
        "android.permission.RECEIVE_SMS",
        "com.fsck.k9.permission.READ_MESSAGES"
      ]
    }
  ],
  "meta": {
    "generated": "2020-08-27T18:21:15.998675",
    "generatedBy": [
      "/home/hc/code/trackingthetrackers/scripts/make-clean-apk-set.py"
    ],
    "generatedByCommitId": "3839559c80042252d3b947fb61c86a18e8b31114",
    "sourceDataCommitId": "888bb8f8c77ff55105fcab2ad84c263561eb1169",
    "ver": "0.3.0"
  }
}