{
  "apks": [
    {
      "applicationId": "cn.xg.hudongbaike",
      "broadcastReceiverIntentFilterActionNames": [],
      "dependencies": [
        "net_youmi"
      ],
      "domainNamesFilteredByExodus": [
        ".google.com"
      ],
      "metaDataNames": [
        "Wooboo_PID"
      ],
      "sha256": "5643212908708761f958e4dc86923e3ce5ec1200dce46a18bfe9f81aa3e69c72",
      "usesPermissions": [
        "android.permission.INTERNET"
      ]
    }
  ],
  "meta": {
    "generated": "2020-08-27T14:59:38.187721",
    "generatedBy": [
      "/home/hc/code/trackingthetrackers/scripts/make-trackers-apk-set.py"
    ],
    "ver": "0.3.0"
  }
}