{
  "apks": [
    {
      "applicationId": "io.gitlab.mudassir.youtubecacher",
      "broadcastReceiverIntentFilterActionNames": [],
      "dependencies": [],
      "domainNamesFilteredByExodus": [],
      "metaDataNames": [],
      "sha256": "8d6ee18df30fda24df7f1ae2478bb3926dde9fb688cad40589f5fd809ea846c0",
      "usesPermissions": [
        "android.permission.INTERNET",
        "android.permission.WAKE_LOCK"
      ]
    }
  ],
  "meta": {
    "generated": "2020-08-27T17:03:38.616375",
    "generatedBy": [
      "/home/hc/code/trackingthetrackers/scripts/make-clean-apk-set.py"
    ],
    "generatedByCommitId": "40519285d6f404593fa655fa89b433743c25289e",
    "sourceDataCommitId": "888bb8f8c77ff55105fcab2ad84c263561eb1169",
    "ver": "0.3.0"
  }
}