{
  "apks": [
    {
      "applicationId": "tag.tjtiji.c",
      "broadcastReceiverIntentFilterActionNames": [],
      "dependencies": [],
      "domainNamesFilteredByExodus": [],
      "metaDataNames": [],
      "sha256": "907a1728de74e657c16804f93124d59b4084a79ca4480b5d24a5b37c74988ecb",
      "usesPermissions": []
    }
  ],
  "meta": {
    "generated": "2020-08-27T14:58:55.957683",
    "generatedBy": [
      "/home/hc/code/trackingthetrackers/scripts/make-trackers-apk-set.py"
    ],
    "ver": "0.3.0"
  }
}