{
  "apks": [
    {
      "applicationId": "com.SecUpwN.AIMSICD",
      "broadcastReceiverIntentFilterActionNames": [
        "android.intent.action.BOOT_COMPLETED"
      ],
      "dependencies": [],
      "domainNamesFilteredByExodus": [],
      "metaDataNames": [
        "android.support.PARENT_ACTIVITY"
      ],
      "sha256": "083dd59e73fdd03fa75f0141a31144b126cecab6187a526bc4ca13f92217a568",
      "usesPermissions": [
        "android.permission.ACCESS_COARSE_LOCATION",
        "android.permission.ACCESS_COARSE_UPDATES",
        "android.permission.ACCESS_FINE_LOCATION",
        "android.permission.ACCESS_NETWORK_STATE",
        "android.permission.ACCESS_SUPERUSER",
        "android.permission.ACCESS_WIFI_STATE",
        "android.permission.CHANGE_NETWORK_STATE",
        "android.permission.INTERACT_ACROSS_USERS_FULL",
        "android.permission.INTERNET",
        "android.permission.READ_EXTERNAL_STORAGE",
        "android.permission.READ_PHONE_STATE",
        "android.permission.VIBRATE",
        "android.permission.WAKE_LOCK",
        "android.permission.WRITE_EXTERNAL_STORAGE",
        "android.phone.receiveDetailedCallState",
        "com.android.permission.HANDOVER_STATUS",
        "com.sec.android.app.cm.permission.PERMISSION_MANAGEMENT",
        "com.sec.android.app.controlpanel.permission.PRIVATE",
        "com.sec.android.app.factorymode.permission.KEYSTRING",
        "com.sec.android.app.phoneutil.permission.KEYSTRING",
        "com.sec.android.app.servicemodeapp.permission.KEYSTRING",
        "com.sec.android.phone.permission.DATA_ROAMING_SETTINGS_ENHANCED",
        "com.sec.android.phone.permission.READ_CALL_SETTINGS",
        "com.sec.android.phone.permission.WRITE_CALL_SETTINGS",
        "com.sec.factory.permission.KEYSTRING",
        "com.sec.modem.settings.permission.KEYSTRING",
        "org.simalliance.openmobileapi.SMARTCARD"
      ]
    }
  ],
  "meta": {
    "generated": "2020-08-27T17:13:39.768973",
    "generatedBy": [
      "/home/hc/code/trackingthetrackers/scripts/make-clean-apk-set.py"
    ],
    "generatedByCommitId": "40519285d6f404593fa655fa89b433743c25289e",
    "sourceDataCommitId": "888bb8f8c77ff55105fcab2ad84c263561eb1169",
    "ver": "0.3.0"
  }
}