{
  "apks": [
    {
      "applicationId": "br.com.dgimenes.nasapic",
      "broadcastReceiverIntentFilterActionNames": [],
      "dependencies": [
        "com.flurry."
      ],
      "domainNamesFilteredByExodus": [
        ".google.com",
        "flurry.com"
      ],
      "metaDataNames": [
        "flurry.ApiKey",
        "io.fabric.ApiKey"
      ],
      "sha256": "330a51db1fe0d0e9838f3c6afc590134027d2d4a07f098903128162a84b199ae",
      "usesPermissions": [
        "android.permission.ACCESS_NETWORK_STATE",
        "android.permission.INTERNET",
        "android.permission.RECEIVE_BOOT_COMPLETED",
        "android.permission.SET_WALLPAPER"
      ]
    }
  ],
  "meta": {
    "generated": "2020-08-27T17:12:16.949793",
    "generatedBy": [
      "/home/hc/code/trackingthetrackers/scripts/make-clean-apk-set.py"
    ],
    "generatedByCommitId": "40519285d6f404593fa655fa89b433743c25289e",
    "sourceDataCommitId": "888bb8f8c77ff55105fcab2ad84c263561eb1169",
    "ver": "0.3.0"
  }
}