{
  "apks": [
    {
      "applicationId": "org.wikipedia",
      "broadcastReceiverIntentFilterActionNames": [
        ".notifications.NotificationPollBroadcastReceiver.ACTION_POLL",
        "android.appwidget.action.APPWIDGET_UPDATE",
        "android.intent.action.BOOT_COMPLETED",
        "com.android.vending.INSTALL_REFERRER"
      ],
      "dependencies": [
        "com.mapbox.mapboxsdk.",
        "net$hockeyapp$",
        "net.hockeyapp."
      ],
      "domainNamesFilteredByExodus": [
        ".google.com",
        "hockeyapp.net"
      ],
      "metaDataNames": [
        "android.accounts.AccountAuthenticator",
        "android.appwidget.provider",
        "android.content.SyncAdapter",
        "android.support.FILE_PROVIDER_PATHS",
        "android.support.PARENT_ACTIVITY",
        "channel",
        "com.sec.android.support.multiwindow",
        "net.hockeyapp.android.appIdentifier"
      ],
      "sha256": "7b349df96b8e11d09d6fedfde48bec9e46bc18757558f5f5de0a5d0b505f2331",
      "usesPermissions": [
        "22",
        "22",
        "22",
        "android.permission.ACCESS_FINE_LOCATION",
        "android.permission.ACCESS_NETWORK_STATE",
        "android.permission.ACCESS_WIFI_STATE",
        "android.permission.AUTHENTICATE_ACCOUNTS",
        "android.permission.GET_ACCOUNTS",
        "android.permission.INTERNET",
        "android.permission.MANAGE_ACCOUNTS",
        "android.permission.READ_EXTERNAL_STORAGE",
        "android.permission.RECEIVE_BOOT_COMPLETED",
        "android.permission.REQUEST_INSTALL_PACKAGES",
        "android.permission.VIBRATE",
        "android.permission.WAKE_LOCK",
        "android.permission.WRITE_EXTERNAL_STORAGE"
      ]
    }
  ],
  "meta": {
    "generated": "2020-08-27T14:48:15.988473",
    "generatedBy": [
      "/home/hc/code/trackingthetrackers/scripts/make-trackers-apk-set.py"
    ],
    "ver": "0.3.0"
  }
}