{
  "apks": [
    {
      "applicationId": "org.dmfs.tasks",
      "broadcastReceiverIntentFilterActionNames": [
        "android.appwidget.action.APPWIDGET_UPDATE",
        "android.intent.action.BOOT_COMPLETED",
        "android.intent.action.DATE_CHANGED",
        "android.intent.action.PACKAGE_ADDED",
        "android.intent.action.PACKAGE_FIRST_LAUNCH",
        "android.intent.action.PACKAGE_REPLACED",
        "android.intent.action.PROVIDER_CHANGED",
        "android.intent.action.QUICKBOOT_POWERON",
        "android.intent.action.TIMEZONE_CHANGED",
        "android.intent.action.TIME_SET",
        "org.dmfs.android.tasks.TASK_DUE",
        "org.dmfs.android.tasks.TASK_START",
        "org.dmfs.tasks.DATABASE_INITIALIZED",
        "org.dmfs.tasks.action.TASKWIDGET_UPDATE",
        "org.dmfs.tasks.action.notification.ACTION_UNDO_TIMEOUT",
        "org.dmfs.tasks.action.notification.COMPLETE",
        "org.dmfs.tasks.action.notification.DELAY_1D",
        "org.dmfs.tasks.action.notification.DELAY_1H",
        "org.dmfs.tasks.action.notification.DESTRUCT",
        "org.dmfs.tasks.action.notification.UNDO",
        "org.dmfs.tasks.action.notification.UNPIN",
        "org.dmfs.tasks.intent.ACTION_DAY_CHANGED"
      ],
      "dependencies": [],
      "domainNamesFilteredByExodus": [
        ".google.com"
      ],
      "metaDataNames": [
        "android.appwidget.provider",
        "android.support.PARENT_ACTIVITY",
        "android.support.VERSION",
        "description",
        "protocolVersion",
        "settingsActivity",
        "worldReadable"
      ],
      "sha256": "567315c766d90809595a363037d6525a65a7e81600647670ffd77e447986f822",
      "usesPermissions": [
        "android.permission.GET_ACCOUNTS",
        "android.permission.READ_CONTACTS",
        "android.permission.READ_SYNC_SETTINGS",
        "android.permission.RECEIVE_BOOT_COMPLETED",
        "android.permission.VIBRATE",
        "com.android.alarm.permission.SET_ALARM",
        "org.dmfs.permission.READ_TASKS",
        "org.dmfs.permission.WRITE_TASKS"
      ]
    }
  ],
  "meta": {
    "generated": "2020-08-27T18:24:37.806348",
    "generatedBy": [
      "/home/hc/code/trackingthetrackers/scripts/make-clean-apk-set.py"
    ],
    "generatedByCommitId": "3839559c80042252d3b947fb61c86a18e8b31114",
    "sourceDataCommitId": "888bb8f8c77ff55105fcab2ad84c263561eb1169",
    "ver": "0.3.0"
  }
}