{
  "apks": [
    {
      "applicationId": "com.mobincube.android.sc_XZKC6",
      "broadcastReceiverIntentFilterActionNames": [
        "com.google.android.c2dm.intent.REGISTRATION"
      ],
      "dependencies": [
        "com$inneractive$api$ads",
        "com$millennialmedia$",
        "com$smaato$soma$",
        "com.google.ads.",
        "com.google.android.gms.ads.",
        "com.google.android.gms.analytics.",
        "com.google.android.gms.tagmanager",
        "com.inmobi",
        "com.inneractive.api.ads",
        "com.millennialmedia.",
        "com.revmob.ads.",
        "com.smaato.soma.",
        "com_smaato_soma_"
      ],
      "domainNamesFilteredByExodus": [
        ".facebook.com",
        ".google.com",
        "doubleclick.net",
        "et.w.inmobi.com",
        "google-analytics.com",
        "i.w.inmobi.com",
        "inmobi.com",
        "inmobisdk-a.akamaihd.net",
        "millennialmedia.com",
        "openx.com",
        "smaato.net",
        "soma.smaato.net",
        "w.inmobi.com",
        "www.googletagmanager.com"
      ],
      "metaDataNames": [
        "com.google.android.gms.version"
      ],
      "sha256": "16bade0bddbdd408b82b205eefecb9b2cec2f30c97f3531a1b88e78bbfe54859",
      "usesPermissions": [
        "android.permission.ACCESS_CORSE_LOCATION",
        "android.permission.ACCESS_FINE_LOCATION",
        "android.permission.ACCESS_NETWORK_STATE",
        "android.permission.ACCESS_WIFI_STATE",
        "android.permission.INTERNET",
        "android.permission.READ_PHONE_STATE",
        "android.permission.WRITE_EXTERNAL_STORAGE"
      ]
    }
  ],
  "meta": {
    "generated": "2020-08-27T15:15:28.757282",
    "generatedBy": [
      "/home/hc/code/trackingthetrackers/scripts/make-trackers-apk-set.py"
    ],
    "ver": "0.3.0"
  }
}