{
  "apks": [
    {
      "applicationId": "com.ghstudios.android.mhgendatabase",
      "broadcastReceiverIntentFilterActionNames": [],
      "dependencies": [],
      "domainNamesFilteredByExodus": [],
      "metaDataNames": [
        "android.support.PARENT_ACTIVITY"
      ],
      "sha256": "36a00f8f000865a8d91a34889c0e5712133048909112a2af0512a1c6afa40977",
      "usesPermissions": []
    }
  ],
  "meta": {
    "generated": "2020-08-27T16:55:33.321276",
    "generatedBy": [
      "/home/hc/code/trackingthetrackers/scripts/make-clean-apk-set.py"
    ],
    "generatedByCommitId": "40519285d6f404593fa655fa89b433743c25289e",
    "sourceDataCommitId": "888bb8f8c77ff55105fcab2ad84c263561eb1169",
    "ver": "0.3.0"
  }
}