{
  "apks": [
    {
      "applicationId": "com.umonistudio.tile",
      "broadcastReceiverIntentFilterActionNames": [
        "android.intent.action.BOOT_COMPLETED",
        "android.intent.action.EXTERNAL_APPLICATIONS_AVAILABLE",
        "android.intent.action.PACKAGE_ADDED",
        "android.intent.action.PACKAGE_REMOVED",
        "android.intent.action.PACKAGE_REPLACED",
        "android.intent.action.USER_PRESENT",
        "android.media.RINGER_MODE_CHANGED",
        "android.net.conn.CONNECTIVITY_CHANGE",
        "com.cleanmaster.sdk.cmd",
        "com.das.CHECK_UPLOAD_ACTION_FILE",
        "com.du.appsadlib.ADS_ACTION",
        "com.du.appsadlib.CHECK_QUERY_ACTION",
        "com.du.appsadlib.CHECK_UPDATE_ACTION",
        "com.du.appsplatform.CORE_RECEIVER",
        "com.du.appsplatform.MSG_ACTION",
        "com.du.appsplatform.UPDATE_LOAD_FILE_SEQ",
        "com.google.android.c2dm.intent.RECEIVE",
        "com.google.android.c2dm.intent.REGISTRATION",
        "com.umonistudio.tile.intent.action.ACTIVE_REPORT",
        "com.umonistudio.tile.intent.action.COMMAND",
        "com.umonistudio.tile.intent.action.GET_CONFIG",
        "com.umonistudio.tile.intent.action.my_time_last_push",
        "org.agoo.android.intent.action.RECEIVE",
        "org.agoo.android.intent.action.RE_ELECTION_V2"
      ],
      "dependencies": [
        "com$facebook$ads",
        "com$google$ads$",
        "com$inmobi",
        "com.baidu.mobads",
        "com.chartboost.sdk.",
        "com.cmcm.",
        "com.facebook.ads",
        "com.flurry.",
        "com.google.ads.",
        "com.google.android.gms.ads.",
        "com.google.android.gms.analytics.",
        "com.google.android.gms.tagmanager",
        "com.inmobi",
        "com.ironsource.",
        "com.unity3d.ads",
        "com.vungle.publisher.",
        "org.cocos2dx"
      ],
      "domainNamesFilteredByExodus": [
        ".chartboost.com",
        ".facebook.com",
        ".google.com",
        "alog.umeng.com",
        "api.vungle.com",
        "cmcm.com",
        "doubleclick.net",
        "flurry.com",
        "google-analytics.com",
        "i.w.inmobi.com",
        "inmobi.com",
        "inmobi.net",
        "inmobisdk-a.akamaihd.net",
        "oc.umeng.com",
        "sdkm.w.inmobi.com",
        "umeng.com",
        "www.googletagmanager.com"
      ],
      "metaDataNames": [
        "CM_APP_ID",
        "GAMEBOX_APP_ID",
        "GAMEBOX_AUTHORITIES_CONFIG",
        "GAMEBOX_AUTHORITIES_GAME_DATA",
        "GAMEBOX_AUTHORITIES_SYNC_IPC",
        "GAMEBOX_KINFOC_PRODUCT_ID",
        "MbvChannel",
        "MbvLicense",
        "MbvProduction",
        "UMENG_APPKEY",
        "UMENG_MESSAGE_SECRET",
        "com.facebook.sdk.ApplicationId",
        "com.google.android.gms.games.APP_ID",
        "com.google.android.gms.version",
        "watch_dog_authority"
      ],
      "sha256": "99bd2b043071e688b2a2f08b0b55188771c0320de941a2c3455e8e5be285b431",
      "usesPermissions": [
        "android.permission.ACCESS_COARSE_LOCATION",
        "android.permission.ACCESS_COARSE_UPDATES",
        "android.permission.ACCESS_DOWNLOAD_MANAGER",
        "android.permission.ACCESS_NETWORK_STATE",
        "android.permission.ACCESS_WIFI_STATE",
        "android.permission.ACCESS_WIFI_STATE",
        "android.permission.BATTERY_STATS",
        "android.permission.CHANGE_NETWORK_STATE",
        "android.permission.CHANGE_WIFI_STATE",
        "android.permission.DOWNLOAD_WITHOUT_NOTIFICATION",
        "android.permission.GET_ACCOUNTS",
        "android.permission.GET_TASKS",
        "android.permission.INTERNET",
        "android.permission.KILL_BACKGROUND_PROCESSES",
        "android.permission.MOUNT_UNMOUNT_FILESYSTEMS",
        "android.permission.READ_EXTERNAL_STORAGE",
        "android.permission.READ_LOGS",
        "android.permission.READ_PHONE_STATE",
        "android.permission.RECEIVE_BOOT_COMPLETED",
        "android.permission.RESTART_PACKAGES",
        "android.permission.SYSTEM_ALERT_WINDOW",
        "android.permission.SYSTEM_OVERLAY_WINDOW",
        "android.permission.WAKE_LOCK",
        "android.permission.WRITE_EXTERNAL_STORAGE",
        "android.permission.WRITE_SETTINGS",
        "com.android.launcher.permission.INSTALL_SHORTCUT",
        "com.android.launcher.permission.UNINSTALL_SHORTCUT",
        "com.google.android.c2dm.permission.RECEIVE",
        "com.google.android.providers.gsf.permission.READ_GSERVICES",
        "com.umonistudio.tile.permission.AIDL_SERVICE",
        "com.umonistudio.tile.permission.C2D_MESSAGE"
      ]
    }
  ],
  "meta": {
    "generated": "2020-08-27T15:46:45.663023",
    "generatedBy": [
      "/home/hc/code/trackingthetrackers/scripts/make-trackers-apk-set.py"
    ],
    "ver": "0.3.0"
  }
}