{
  "apks": [
    {
      "applicationId": "com.drp.kimmilyoner",
      "broadcastReceiverIntentFilterActionNames": [
        "com.android.vending.INSTALL_REFERRER"
      ],
      "dependencies": [
        "com$appnext$",
        "com$startapp$android$publish",
        "com.appnext.",
        "com.google.ads.",
        "com.ironsource.",
        "com.startapp.android.publish"
      ],
      "domainNamesFilteredByExodus": [
        ".facebook.com",
        ".google.com",
        "api.airpush.com"
      ],
      "metaDataNames": [
        "com.btrdtpxci.ntmxggvbb158224.APIKEY",
        "com.btrdtpxci.ntmxggvbb158224.APPID",
        "com.startapp.android.APP_ID",
        "com.startapp.android.DEV_ID"
      ],
      "sha256": "9d161ea5e8a0beb3827c91ada3aada49d570fa519632beb9b8a0c1eea42379fd",
      "usesPermissions": [
        "android.permission.ACCESS_NETWORK_STATE",
        "android.permission.ACCESS_WIFI_STATE",
        "android.permission.GET_ACCOUNTS",
        "android.permission.INTERNET",
        "android.permission.READ_PHONE_STATE"
      ]
    }
  ],
  "meta": {
    "generated": "2020-08-27T15:06:00.024612",
    "generatedBy": [
      "/home/hc/code/trackingthetrackers/scripts/make-trackers-apk-set.py"
    ],
    "ver": "0.3.0"
  }
}