{
  "apks": [
    {
      "applicationId": "com.mangobile.kingturnunderworld",
      "broadcastReceiverIntentFilterActionNames": [],
      "dependencies": [],
      "domainNamesFilteredByExodus": [],
      "metaDataNames": [],
      "sha256": "ed97ad360da6bf304524268e8f47a53f2728d2330dbc4fb30cb7a059af5d44a5",
      "usesPermissions": [
        "android.permission.WRITE_EXTERNAL_STORAGE",
        "com.android.vending.CHECK_LICENSE"
      ]
    }
  ],
  "meta": {
    "generated": "2020-08-27T15:20:13.535392",
    "generatedBy": [
      "/home/hc/code/trackingthetrackers/scripts/make-trackers-apk-set.py"
    ],
    "ver": "0.3.0"
  }
}