{
  "apks": [
    {
      "applicationId": "sexy.videos.poonam.pandey.hot",
      "broadcastReceiverIntentFilterActionNames": [],
      "dependencies": [
        "com.airpush.",
        "com.apsalar.sdk."
      ],
      "domainNamesFilteredByExodus": [
        ".facebook.com",
        ".google.com",
        "api.airpush.com",
        "beta.airpush.com",
        "e.apsalar.com",
        "m.airpush.com"
      ],
      "metaDataNames": [
        "com.airpush.android.APIKEY",
        "com.airpush.android.APPID",
        "com.tapcontext.DEVELOPERKEY"
      ],
      "sha256": "cd8350038f801a42062c158bbbcd3c5bea11595dd7af8c0d65b149cb834818f8",
      "usesPermissions": [
        "android.permission.ACCESS_COARSE_LOCATION",
        "android.permission.ACCESS_FINE_LOCATION",
        "android.permission.ACCESS_NETWORK_STATE",
        "android.permission.ACCESS_NETWORK_STATE",
        "android.permission.ACCESS_WIFI_STATE",
        "android.permission.ACCESS_WIFI_STATE",
        "android.permission.ACCESS_WIFI_STATE",
        "android.permission.GET_ACCOUNTS",
        "android.permission.GET_ACCOUNTS",
        "android.permission.INTERNET",
        "android.permission.INTERNET",
        "android.permission.INTERNET",
        "android.permission.READ_EXTERNAL_STORAGE",
        "android.permission.READ_PHONE_STATE",
        "android.permission.READ_PHONE_STATE",
        "android.permission.RECEIVE_BOOT_COMPLETED",
        "android.permission.RECEIVE_BOOT_COMPLETED",
        "android.permission.RECEIVE_BOOT_COMPLETED",
        "android.permission.SET_WALLPAPER",
        "android.permission.VIBRATE",
        "android.permission.WAKE_LOCK",
        "android.permission.WRITE_EXTERNAL_STORAGE",
        "android.permission.WRITE_EXTERNAL_STORAGE",
        "android.permission.WRITE_EXTERNAL_STORAGE",
        "com.android.browser.permission.READ_HISTORY_BOOKMARKS",
        "com.android.browser.permission.READ_HISTORY_BOOKMARKS",
        "com.android.browser.permission.WRITE_HISTORY_BOOKMARKS",
        "com.android.browser.permission.WRITE_HISTORY_BOOKMARKS",
        "com.android.launcher.permission.INSTALL_SHORTCUT",
        "com.android.launcher.permission.INSTALL_SHORTCUT",
        "com.android.launcher.permission.READ_SETTINGS",
        "com.android.launcher.permission.UNINSTALL_SHORTCUT",
        "com.android.launcher.permission.WRITE_SETTINGS",
        "com.fede.launcher.permission.READ_SETTINGS",
        "com.fede.launcher.permission.WRITE_SETTINGS",
        "com.htc.launcher.permission.READ_SETTINGS",
        "com.htc.launcher.permission.WRITE_SETTINGS",
        "com.lge.launcher.permission.INSTALL_SHORTCUT",
        "com.lge.launcher.permission.READ_SETTINGS",
        "com.lge.launcher.permission.WRITE_SETTINGS",
        "com.motorola.dlauncher.permission.INSTALL_SHORTCUT",
        "com.motorola.dlauncher.permission.READ_SETTINGS",
        "com.motorola.dlauncher.permission.WRITE_SETTINGS",
        "com.motorola.launcher.permission.INSTALL_SHORTCUT",
        "com.motorola.launcher.permission.READ_SETTINGS",
        "com.motorola.launcher.permission.WRITE_SETTINGS",
        "org.adw.launcher.permission.READ_SETTINGS",
        "org.adw.launcher.permission.WRITE_SETTINGS"
      ]
    }
  ],
  "meta": {
    "generated": "2020-08-27T15:01:33.938884",
    "generatedBy": [
      "/home/hc/code/trackingthetrackers/scripts/make-trackers-apk-set.py"
    ],
    "ver": "0.3.0"
  }
}