{
  "apks": [
    {
      "applicationId": "com.ultramegasoft.flavordex2",
      "broadcastReceiverIntentFilterActionNames": [],
      "dependencies": [],
      "domainNamesFilteredByExodus": [],
      "metaDataNames": [
        "android.support.FILE_PROVIDER_PATHS",
        "android.support.PARENT_ACTIVITY",
        "com.google.android.backup.api_key"
      ],
      "sha256": "d19c70974b0e3b64e6717466362ad2c520efb1d522081bb223d855f6de98d8fe",
      "usesPermissions": [
        "android.permission.ACCESS_COARSE_LOCATION",
        "android.permission.WRITE_EXTERNAL_STORAGE",
        "com.flavordex.permissions.ACCESS_DATA",
        "com.ultramegasoft.flavordex2.lite.permission.ACCESS_DATA"
      ]
    }
  ],
  "meta": {
    "generated": "2020-08-27T17:01:02.300179",
    "generatedBy": [
      "/home/hc/code/trackingthetrackers/scripts/make-clean-apk-set.py"
    ],
    "generatedByCommitId": "40519285d6f404593fa655fa89b433743c25289e",
    "sourceDataCommitId": "888bb8f8c77ff55105fcab2ad84c263561eb1169",
    "ver": "0.3.0"
  }
}