{
  "apks": [
    {
      "applicationId": "com.phamtasticwallpapers.siddharth_malhotra",
      "broadcastReceiverIntentFilterActionNames": [
        "android.intent.action.BOOT_COMPLETED",
        "android.intent.action.PACKAGE_REPLACED",
        "com.google.android.c2dm.intent.RECEIVE",
        "com.google.android.c2dm.intent.REGISTRATION"
      ],
      "dependencies": [
        "com$urbanairship",
        "com.flurry.",
        "com.google.ads.",
        "com.inmobi",
        "com.millennialmedia.",
        "com.mobclix.android.sdk",
        "com.urbanairship"
      ],
      "domainNamesFilteredByExodus": [
        ".google.com",
        "api.airpush.com",
        "device-api.urbanairship.com",
        "flurry.com",
        "urbanairship.com"
      ],
      "metaDataNames": [
        "appwiz_app_id",
        "com.uovsnabxv.lqdgksarf152063.APIKEY",
        "com.uovsnabxv.lqdgksarf152063.APPID"
      ],
      "sha256": "d60ac048341727b35c80a73825733e562d839152d01255c8a6175c051093c3c0",
      "usesPermissions": [
        "android.permission.ACCESS_COARSE_LOCATION",
        "android.permission.ACCESS_COARSE_LOCATION",
        "android.permission.ACCESS_FINE_LOCATION",
        "android.permission.ACCESS_FINE_LOCATION",
        "android.permission.ACCESS_NETWORK_STATE",
        "android.permission.ACCESS_WIFI_STATE",
        "android.permission.GET_ACCOUNTS",
        "android.permission.GET_ACCOUNTS",
        "android.permission.INTERNET",
        "android.permission.READ_PHONE_STATE",
        "android.permission.RECEIVE_BOOT_COMPLETED",
        "android.permission.SET_WALLPAPER",
        "android.permission.VIBRATE",
        "android.permission.WAKE_LOCK",
        "android.permission.WRITE_EXTERNAL_STORAGE",
        "com.android.browser.permission.READ_HISTORY_BOOKMARKS",
        "com.android.launcher.permission.INSTALL_SHORTCUT",
        "com.google.android.c2dm.permission.RECEIVE",
        "com.phamtasticwallpapers.siddharth_malhotra.permission.C2D_MESSAGE",
        "com.sec.android.app.browser.permission.HOMEPAGE"
      ]
    }
  ],
  "meta": {
    "generated": "2020-08-27T15:01:58.787341",
    "generatedBy": [
      "/home/hc/code/trackingthetrackers/scripts/make-trackers-apk-set.py"
    ],
    "ver": "0.3.0"
  }
}