{
  "apks": [
    {
      "applicationId": "qua.msex13.ui",
      "broadcastReceiverIntentFilterActionNames": [
        "android.intent.action.BOOT_COMPLETED"
      ],
      "dependencies": [
        "com$startapp$android$publish",
        "com.google.ads.",
        "com.google.android.gms.ads.",
        "com.google.android.gms.analytics.",
        "com.google.android.gms.tagmanager",
        "com.startapp.android.publish"
      ],
      "domainNamesFilteredByExodus": [
        ".google.com",
        "beta.airpush.com",
        "doubleclick.net",
        "google-analytics.com",
        "www.googletagmanager.com"
      ],
      "metaDataNames": [
        "com.fyvhxny.iviuhpy100486.APIKEY",
        "com.fyvhxny.iviuhpy100486.APPID",
        "com.google.android.gms.version",
        "com.samsung.android.sdk.multiwindow.enable",
        "com.samsung.android.sdk.multiwindow.multiinstance.enable",
        "com.sec.android.multiwindow.STYLE",
        "com.sec.android.support.multiwindow"
      ],
      "sha256": "828dc2777048d7d5c113cd74092b9c353772b2c7392a111e3ea6b51cff05983d",
      "usesPermissions": [
        "android.permission.ACCESS_COARSE_LOCATION",
        "android.permission.ACCESS_FINE_LOCATION",
        "android.permission.ACCESS_NETWORK_STATE",
        "android.permission.ACCESS_NETWORK_STATE",
        "android.permission.ACCESS_NETWORK_STATE",
        "android.permission.ACCESS_WIFI_STATE",
        "android.permission.GET_ACCOUNTS",
        "android.permission.GET_TASKS",
        "android.permission.INTERNET",
        "android.permission.INTERNET",
        "android.permission.READ_PHONE_STATE",
        "android.permission.READ_PHONE_STATE",
        "android.permission.RECEIVE_BOOT_COMPLETED",
        "android.permission.SYSTEM_ALERT_WINDOW",
        "android.permission.WRITE_EXTERNAL_STORAGE",
        "com.android.browser.permission.READ_HISTORY_BOOKMARKS",
        "com.android.launcher.permission.INSTALL_SHORTCUT",
        "com.samsung.android.providers.context.permission.WRITE_USE_APP_FEATURE_SURVEY"
      ]
    }
  ],
  "meta": {
    "generated": "2020-08-27T15:37:15.664945",
    "generatedBy": [
      "/home/hc/code/trackingthetrackers/scripts/make-trackers-apk-set.py"
    ],
    "ver": "0.3.0"
  }
}