{
  "apks": [
    {
      "applicationId": "com.termux",
      "broadcastReceiverIntentFilterActionNames": [],
      "dependencies": [],
      "domainNamesFilteredByExodus": [
        ".google.com"
      ],
      "metaDataNames": [
        "android.app.shortcuts",
        "android.max_aspect",
        "com.sec.android.support.multiwindow"
      ],
      "sha256": "5516e2fcb1f36d7d846cfa905bcdb20cefa60b9cfa89153aa34248a5be2be472",
      "usesPermissions": [
        "android.permission.FOREGROUND_SERVICE",
        "android.permission.INTERNET",
        "android.permission.VIBRATE",
        "android.permission.WAKE_LOCK",
        "android.permission.WRITE_EXTERNAL_STORAGE"
      ]
    }
  ],
  "meta": {
    "generated": "2020-08-27T17:51:19.643841",
    "generatedBy": [
      "/home/hc/code/trackingthetrackers/scripts/make-clean-apk-set.py"
    ],
    "generatedByCommitId": "40519285d6f404593fa655fa89b433743c25289e",
    "sourceDataCommitId": "888bb8f8c77ff55105fcab2ad84c263561eb1169",
    "ver": "0.3.0"
  }
}