{
  "apks": [
    {
      "applicationId": "com.lesspass.android",
      "broadcastReceiverIntentFilterActionNames": [],
      "dependencies": [],
      "domainNamesFilteredByExodus": [],
      "metaDataNames": [],
      "sha256": "8ca71abb6612b2a884e50960a8b8f034edfed640f1ecb2e9241cf4df5b4c5fa7",
      "usesPermissions": [
        "android.permission.INTERNET",
        "android.permission.USE_FINGERPRINT"
      ]
    }
  ],
  "meta": {
    "generated": "2020-08-27T16:59:33.572534",
    "generatedBy": [
      "/home/hc/code/trackingthetrackers/scripts/make-clean-apk-set.py"
    ],
    "generatedByCommitId": "40519285d6f404593fa655fa89b433743c25289e",
    "sourceDataCommitId": "888bb8f8c77ff55105fcab2ad84c263561eb1169",
    "ver": "0.3.0"
  }
}