{
  "apks": [
    {
      "applicationId": "nodomain.freeyourgadget.gadgetbridge",
      "broadcastReceiverIntentFilterActionNames": [
        "android.appwidget.action.APPWIDGET_UPDATE",
        "android.bluetooth.adapter.action.STATE_CHANGED",
        "nodomain.freeyourgadget.gadgetbridge.SLEEP_ALARM_WIDGET_CLICK",
        "nodomain.freeyourgadget.gadgetbridge.callcontrol",
        "nodomain.freeyourgadget.gadgetbridge.musiccontrol"
      ],
      "dependencies": [],
      "domainNamesFilteredByExodus": [],
      "metaDataNames": [
        "android.appwidget.provider",
        "android.support.PARENT_ACTIVITY"
      ],
      "sha256": "319d851ebb25fe9f07ddfd27bacf29131158eda2a2577da7eb80e700255869f1",
      "usesPermissions": [
        "android.permission.ACCESS_COARSE_LOCATION",
        "android.permission.BLUETOOTH",
        "android.permission.BLUETOOTH_ADMIN",
        "android.permission.CALL_PHONE",
        "android.permission.PROCESS_OUTGOING_CALLS",
        "android.permission.READ_CALENDAR",
        "android.permission.READ_CONTACTS",
        "android.permission.READ_EXTERNAL_STORAGE",
        "android.permission.READ_PHONE_STATE",
        "android.permission.RECEIVE_SMS",
        "android.permission.SEND_SMS",
        "com.fsck.k9.permission.READ_MESSAGES"
      ]
    }
  ],
  "meta": {
    "generated": "2020-08-27T18:20:58.238538",
    "generatedBy": [
      "/home/hc/code/trackingthetrackers/scripts/make-clean-apk-set.py"
    ],
    "generatedByCommitId": "3839559c80042252d3b947fb61c86a18e8b31114",
    "sourceDataCommitId": "888bb8f8c77ff55105fcab2ad84c263561eb1169",
    "ver": "0.3.0"
  }
}