{
  "apks": [
    {
      "applicationId": "com.hmygames.SchoolBusExtended",
      "broadcastReceiverIntentFilterActionNames": [],
      "dependencies": [
        "com$google$ads$",
        "com$inmobi",
        "com$millennialmedia$",
        "com.google.ads.",
        "com.google.android.gms.ads.",
        "com.google.android.gms.analytics.",
        "com.google.android.gms.tagmanager",
        "com.inmobi",
        "com.mdotm.android",
        "com.millennialmedia.",
        "com.mobfox."
      ],
      "domainNamesFilteredByExodus": [
        ".facebook.com",
        ".google.com",
        "doubleclick.net",
        "google-analytics.com",
        "i.w.inmobi.com",
        "inmobi.com",
        "inmobi.net",
        "inmobisdk-a.akamaihd.net",
        "millennialmedia.com",
        "www.googletagmanager.com"
      ],
      "metaDataNames": [
        "com.google.android.gms.version",
        "unityplayer.ForwardNativeEventsToDalvik",
        "y_ch",
        "y_key"
      ],
      "sha256": "3fae989df46012e8cd5cd1f94c489d919f1b598f61fbae0442a2671a4b780a92",
      "usesPermissions": [
        "android.permission.ACCESS_NETWORK_STATE",
        "android.permission.ACCESS_WIFI_STATE",
        "android.permission.GET_TASKS",
        "android.permission.INTERNET",
        "android.permission.READ_PHONE_STATE",
        "android.permission.VIBRATE",
        "android.permission.WAKE_LOCK",
        "android.permission.WRITE_EXTERNAL_STORAGE"
      ]
    }
  ],
  "meta": {
    "generated": "2020-08-27T15:29:03.706932",
    "generatedBy": [
      "/home/hc/code/trackingthetrackers/scripts/make-trackers-apk-set.py"
    ],
    "ver": "0.3.0"
  }
}