{
  "apks": [
    {
      "applicationId": "com.sega.battletoads.coma.ui",
      "broadcastReceiverIntentFilterActionNames": [
        "android.net.conn.CONNECTIVITY_CHANGE",
        "android.net.wifi.WIFI_STATE_CHANGED"
      ],
      "dependencies": [
        "com$millennialmedia$",
        "com.google.android.gms.ads.",
        "com.millennialmedia.",
        "org.nexage."
      ],
      "domainNamesFilteredByExodus": [
        ".google.com",
        "millennialmedia.com"
      ],
      "metaDataNames": [
        "com.google.android.gms.version",
        "com.inappertising.ads.AFFILIATE_ID",
        "com.inappertising.ads.APPLICATION_KEY",
        "com.inappertising.ads.FLURRY_KEY",
        "com.inappertising.ads.PUBLISHER_ID"
      ],
      "sha256": "b5347346fab9a3a0f00b7fb37c31d508e3c3b546d943c49efb4ed2ad22cbb768",
      "usesPermissions": [
        "android.permission.ACCESS_COARSE_LOCATION",
        "android.permission.ACCESS_FINE_LOCATION",
        "android.permission.ACCESS_NETWORK_STATE",
        "android.permission.ACCESS_WIFI_STATE",
        "android.permission.GET_TASKS",
        "android.permission.INTERNET",
        "android.permission.READ_PHONE_STATE",
        "android.permission.SYSTEM_ALERT_WINDOW",
        "android.permission.WRITE_EXTERNAL_STORAGE"
      ]
    }
  ],
  "meta": {
    "generated": "2020-08-27T15:33:30.373429",
    "generatedBy": [
      "/home/hc/code/trackingthetrackers/scripts/make-trackers-apk-set.py"
    ],
    "ver": "0.3.0"
  }
}