{
  "apks": [
    {
      "applicationId": "com.nimblebit.nimblequest2",
      "broadcastReceiverIntentFilterActionNames": [
        "android.intent.action.BOOT_COMPLETED",
        "com.amazon.inapp.purchasing.NOTIFY",
        "com.android.vending.INSTALL_REFERRER",
        "com.google.android.c2dm.intent.RECEIVE",
        "com.google.android.c2dm.intent.REGISTRATION"
      ],
      "dependencies": [
        "com$chartboost$sdk$",
        "com$millennialmedia$",
        "com$mopub$mobileads$",
        "com.chartboost.sdk.",
        "com.flurry.",
        "com.google.ads.",
        "com.inmobi",
        "com.millennialmedia.",
        "com.mobclix.android.sdk",
        "com.mobileapptracker",
        "com.mopub.mobileads."
      ],
      "domainNamesFilteredByExodus": [
        ".chartboost.com",
        ".facebook.com",
        ".google.com",
        "api.vungle.com",
        "doubleclick.net",
        "flurry.com",
        "millennialmedia.com",
        "mobileapptracking.com",
        "mopub.com",
        "stats.unity3d.com"
      ],
      "metaDataNames": [
        "android.app.lib_name",
        "com.facebook.sdk.ApplicationId",
        "unityplayer.ForwardNativeEventsToDalvik"
      ],
      "sha256": "43a49d5e3adfa970a276dce221aa46ac9115507034cad84b74e52aed4b541bdc",
      "usesPermissions": [
        "android.permission.ACCESS_COARSE_LOCATION",
        "android.permission.ACCESS_FINE_LOCATION",
        "android.permission.ACCESS_NETWORK_STATE",
        "android.permission.ACCESS_WIFI_STATE",
        "android.permission.GET_ACCOUNTS",
        "android.permission.GET_TASKS",
        "android.permission.INTERNET",
        "android.permission.INTERNET",
        "android.permission.INTERNET",
        "android.permission.INTERNET",
        "android.permission.READ_CONTACTS",
        "android.permission.READ_LOGS",
        "android.permission.READ_PHONE_STATE",
        "android.permission.RECEIVE_BOOT_COMPLETED",
        "android.permission.SYSTEM_ALERT_WINDOW",
        "android.permission.WAKE_LOCK",
        "android.permission.WRITE_EXTERNAL_STORAGE",
        "android.permission.WRITE_EXTERNAL_STORAGE",
        "com.android.launcher.permission.INSTALL_SHORTCUT",
        "com.android.launcher.permission.UNINSTALL_SHORTCUT",
        "com.android.vending.BILLING",
        "com.google.android.c2dm.permission.RECEIVE",
        "com.nimblebit.nimblequest2.permission.C2D_MESSAGE"
      ]
    }
  ],
  "meta": {
    "generated": "2020-08-27T15:12:17.258698",
    "generatedBy": [
      "/home/hc/code/trackingthetrackers/scripts/make-trackers-apk-set.py"
    ],
    "ver": "0.3.0"
  }
}