{
  "apks": [
    {
      "applicationId": "com.qusu.mobilelight",
      "broadcastReceiverIntentFilterActionNames": [
        "android.intent.action.PACKAGE_ADDED"
      ],
      "dependencies": [
        "net.youmi"
      ],
      "domainNamesFilteredByExodus": [
        "au.youmi.net",
        "youmi.net"
      ],
      "metaDataNames": [],
      "sha256": "ec4d51c0bf29e23cb08f0c791f078249724f160efdb9349e68061c967f0e52ad",
      "usesPermissions": [
        "android.permission.ACCESS_NETWORK_STATE",
        "android.permission.ACCESS_WIFI_STATE",
        "android.permission.FLASHLIGHT",
        "android.permission.GET_TASKS",
        "android.permission.HARDWARE_TEST",
        "android.permission.INTERNET",
        "android.permission.READ_PHONE_STATE",
        "android.permission.SYSTEM_ALERT_WINDOW",
        "android.permission.WRITE_EXTERNAL_STORAGE"
      ]
    }
  ],
  "meta": {
    "generated": "2020-08-27T15:10:58.826406",
    "generatedBy": [
      "/home/hc/code/trackingthetrackers/scripts/make-trackers-apk-set.py"
    ],
    "ver": "0.3.0"
  }
}