{
  "apks": [
    {
      "applicationId": "org.mariotaku.twidere",
      "broadcastReceiverIntentFilterActionNames": [
        "android.intent.action.ACTION_POWER_CONNECTED",
        "android.intent.action.ACTION_POWER_DISCONNECTED",
        "android.net.conn.CONNECTIVITY_CHANGE",
        "android.net.wifi.supplicant.CONNECTION_CHANGE",
        "android.provider.Telephony.SECRET_CODE",
        "edu.ucdavis.earlybird.UPLOAD_PROFILE"
      ],
      "dependencies": [],
      "domainNamesFilteredByExodus": [],
      "metaDataNames": [
        "android.app.default_searchable",
        "android.app.searchable",
        "android.support.PARENT_ACTIVITY",
        "com.google.android.backup.api_key",
        "com.google.android.maps.v2.API_KEY",
        "com.sec.android.multiwindow.DEFAULT_SIZE_H",
        "com.sec.android.multiwindow.DEFAULT_SIZE_W",
        "com.sec.android.multiwindow.MINIMUM_SIZE_H",
        "com.sec.android.multiwindow.MINIMUM_SIZE_W",
        "com.sec.android.support.multiwindow"
      ],
      "sha256": "a334bdb2954656354178125b50b5dd9e4abc1e899b2cae24909571c75452c073",
      "usesPermissions": [
        "android.permission.ACCESS_COARSE_LOCATION",
        "android.permission.ACCESS_FINE_LOCATION",
        "android.permission.ACCESS_NETWORK_STATE",
        "android.permission.INTERNET",
        "android.permission.READ_EXTERNAL_STORAGE",
        "android.permission.VIBRATE",
        "android.permission.WRITE_EXTERNAL_STORAGE",
        "com.google.android.providers.gsf.permission.READ_GSERVICES"
      ]
    }
  ],
  "meta": {
    "generated": "2020-08-27T18:31:59.505645",
    "generatedBy": [
      "/home/hc/code/trackingthetrackers/scripts/make-clean-apk-set.py"
    ],
    "generatedByCommitId": "3839559c80042252d3b947fb61c86a18e8b31114",
    "sourceDataCommitId": "888bb8f8c77ff55105fcab2ad84c263561eb1169",
    "ver": "0.3.0"
  }
}