{
  "apks": [
    {
      "applicationId": "gmveip.ixx.uiaw",
      "broadcastReceiverIntentFilterActionNames": [],
      "dependencies": [],
      "domainNamesFilteredByExodus": [],
      "metaDataNames": [],
      "sha256": "98883966e383d650d7669c078be3f114c5330cb2a2ed2f824236decaa4cd4ca8",
      "usesPermissions": []
    }
  ],
  "meta": {
    "generated": "2020-08-27T15:05:30.907909",
    "generatedBy": [
      "/home/hc/code/trackingthetrackers/scripts/make-trackers-apk-set.py"
    ],
    "ver": "0.3.0"
  }
}