{
  "apks": [
    {
      "applicationId": "com.baidu.appsearch",
      "broadcastReceiverIntentFilterActionNames": [
        "android.appwidget.action.APPWIDGET_UPDATE",
        "android.intent.action.BOOT_COMPLETED",
        "android.intent.action.MEDIA_EJECT",
        "android.intent.action.MEDIA_MOUNTED",
        "android.intent.action.PACKAGE_ADDED",
        "android.intent.action.PACKAGE_CHANGED",
        "android.intent.action.PACKAGE_REMOVED",
        "android.intent.action.PACKAGE_REPLACED",
        "android.intent.action.TIME_SET",
        "android.net.conn.CONNECTIVITY_CHANGE",
        "baidu.intent.action.NEWSHARE",
        "baidu.intent.action.SHARE",
        "baidu.intent.action.SHARE_V6",
        "com.baidu.android.moplus.action.START",
        "com.baidu.android.pcsuite.START",
        "com.baidu.android.pushservice.action.BIND_SYNC",
        "com.baidu.android.pushservice.action.MESSAGE",
        "com.baidu.android.pushservice.action.METHOD",
        "com.baidu.android.pushservice.action.RECEIVE",
        "com.baidu.android.pushservice.action.media.CLICK",
        "com.baidu.android.pushservice.action.notification.SHOW",
        "com.baidu.appsearch.APP_UPDATER_ALARM_ACTION",
        "com.baidu.appsearch.action.ACRESEND",
        "com.baidu.appsearch.action.ACRPT",
        "com.baidu.appsearch.action.APPCHECKBYLAUNCH",
        "com.baidu.appsearch.action.CHECKSENDSTATISTICDATA",
        "com.baidu.appsearch.action.FIRSTTMEREFRESH",
        "com.baidu.appsearch.action.NORMALREFRESH",
        "com.baidu.appsearch.action.REFRESH",
        "com.baidu.appsearch.appmanagewdiget.ICONCLICK",
        "com.baidu.appsearch.appmanagewdiget.IMAGECLICK",
        "com.baidu.appsearch.appmanagewdiget.MOREAPPBTNCLICK",
        "com.baidu.appsearch.appmanagewdiget.REFRESH",
        "com.baidu.appsearch.intent.action.DOWNLOAD_NOTIFICATION_CLICKED",
        "com.baidu.appsearch.launchfloatview",
        "com.baidu.appsearch.swiftp.ACTION_START_FTPSERVER",
        "com.baidu.appsearch.swiftp.ACTION_STOP_FTPSERVER",
        "com.baidu.appsearch.util.action.NOTIFICATION.DOWNLOAD",
        "com.baidu.appsearch.wdiget.APPMANAGECLICK",
        "com.baidu.appsearch.wdiget.DOWNLOADCLICK",
        "com.baidu.appsearch.wdiget.IMAGECLICK",
        "com.baidu.appsearch.wdiget.MYAPPBTNCLICK",
        "com.baidu.appsearch.wdiget.REFRESH",
        "com.baidu.appsearch.wdiget.SEARCHBTNCLICK",
        "com.baidu.appsearch.wdiget.UPDATE",
        "com.baidu.pcsuite.SERVICE_CONNECTED",
        "com.baidu.pcsuite.SERVICE_DISCONNECTED",
        "com.baidu.tiebasdk.broadcast.service",
        "com.baidu.tiebasdk.broadcast.sync",
        "com.baidu.tiebasdk.broadcast.syncLogin",
        "com.baidu.tiebasdk.broadcast.syncLoginFromAS",
        "com.baidu.tiebasdk.broadcast.syncLogoutFromAS"
      ],
      "dependencies": [
        "com.baidu.location",
        "com.baidu.mobstat"
      ],
      "domainNamesFilteredByExodus": [
        ".google.com",
        "map.baidu.com"
      ],
      "metaDataNames": [
        "BaiduMobAd_CELL_LOCATION",
        "BaiduMobAd_EXCEPTION_LOG",
        "BaiduMobAd_GPS_LOCATION",
        "BaiduMobAd_STAT_ID",
        "BaiduMobAd_WIFI_LOCATION",
        "DisableApplist",
        "DisableLocalServer",
        "DisableService",
        "DisableStatistic",
        "EnablePrivate",
        "IsBaiduApp",
        "android.appwidget.provider",
        "com.baidu.android.GB2L.client",
        "versionName"
      ],
      "sha256": "39ca854437678ea053209996356da5e606b6c7d9aea9fd3debe711a4583f8616",
      "usesPermissions": [
        "android.permission.ACCESS_COARSE_LOCATION",
        "android.permission.ACCESS_FINE_LOCATION",
        "android.permission.ACCESS_NETWORK_STATE",
        "android.permission.ACCESS_WIFI_STATE",
        "android.permission.BATTERY_STATS",
        "android.permission.BLUETOOTH",
        "android.permission.BLUETOOTH_ADMIN",
        "android.permission.BROADCAST_STICKY",
        "android.permission.CAMERA",
        "android.permission.CHANGE_COMPONENT_ENABLED_STATE",
        "android.permission.CHANGE_NETWORK_STATE",
        "android.permission.CHANGE_WIFI_STATE",
        "android.permission.CLEAR_APP_CACHE",
        "android.permission.DELETE_PACKAGES",
        "android.permission.DISABLE_KEYGUARD",
        "android.permission.FLASHLIGHT",
        "android.permission.FORCE_STOP_PACKAGES",
        "android.permission.GET_PACKAGE_SIZE",
        "android.permission.GET_TASKS",
        "android.permission.GET_TASKS",
        "android.permission.INSTALL_PACKAGES",
        "android.permission.INTERNET",
        "android.permission.KILL_BACKGROUND_PROCESSES",
        "android.permission.MOUNT_UNMOUNT_FILESYSTEMS",
        "android.permission.READ_CALL_LOG",
        "android.permission.READ_CONTACTS",
        "android.permission.READ_LOGS",
        "android.permission.READ_PHONE_STATE",
        "android.permission.READ_SMS",
        "android.permission.READ_SMS",
        "android.permission.RECEIVE_BOOT_COMPLETED",
        "android.permission.RECEIVE_SMS",
        "android.permission.RECORD_AUDIO",
        "android.permission.RESTART_PACKAGES",
        "android.permission.SEND_SMS",
        "android.permission.SEND_SMS",
        "android.permission.SEND_SMS",
        "android.permission.SET_ACTIVITY_WATCHER",
        "android.permission.SET_WALLPAPER",
        "android.permission.SYSTEM_ALERT_WINDOW",
        "android.permission.VIBRATE",
        "android.permission.WAKE_LOCK",
        "android.permission.WRITE_CALL_LOG",
        "android.permission.WRITE_CONTACTS",
        "android.permission.WRITE_EXTERNAL_STORAGE",
        "android.permission.WRITE_SETTINGS",
        "android.permission.WRITE_SMS",
        "android.permission.WRITE_SMS",
        "com.android.launcher.permission.INSTALL_SHORTCUT",
        "com.android.launcher.permission.READ_SETTINGS",
        "com.android.launcher.permission.UNINSTALL_SHORTCUT",
        "com.android.launcher.permission.WRITE_SETTINGS",
        "com.baidu.appsearch.permission.LAUNCH",
        "com.baidu.permission.SHARE",
        "com.fede.launcher.permission.READ_SETTINGS",
        "com.fede.launcher.permission.WRITE_SETTINGS",
        "com.htc.launcher.permission.READ_SETTINGS",
        "com.htc.launcher.permission.WRITE_SETTINGS",
        "com.lge.launcher.permission.READ_SETTINGS",
        "com.lge.launcher.permission.WRITE_SETTINGS",
        "com.qihoo360.launcher.permission.READ_SETTINGS",
        "com.qihoo360.launcher.permission.WRITE_SETTINGS",
        "com.sec.android.app.twlauncher.settings.READ_SETTINGS",
        "com.sec.android.app.twlauncher.settings.WRITE_SETTINGS",
        "net.qihoo.launcher.permission.READ_SETTINGS",
        "net.qihoo.launcher.permission.WRITE_SETTINGS",
        "org.adw.launcher.permission.READ_SETTINGS",
        "org.adw.launcher.permission.WRITE_SETTINGS",
        "org.adwfreak.launcher.permission.READ_SETTINGS",
        "org.adwfreak.launcher.permission.WRITE_SETTINGS"
      ]
    }
  ],
  "meta": {
    "generated": "2020-08-27T15:26:27.146301",
    "generatedBy": [
      "/home/hc/code/trackingthetrackers/scripts/make-trackers-apk-set.py"
    ],
    "ver": "0.3.0"
  }
}