{
  "apks": [
    {
      "applicationId": "com.bankey.candy",
      "broadcastReceiverIntentFilterActionNames": [
        "android.net.conn.CONNECTIVITY_CHANGE"
      ],
      "dependencies": [
        "com$google$ads$",
        "com$inmobi",
        "com.chartboost.sdk.",
        "com.google.ads.",
        "com.inmobi",
        "com.umeng.analytics"
      ],
      "domainNamesFilteredByExodus": [
        ".chartboost.com",
        ".facebook.com",
        ".google.com",
        "alog.umeng.com",
        "api.airpush.com",
        "doubleclick.net",
        "i.w.inmobi.com",
        "inmobi.com",
        "inmobisdk-a.akamaihd.net",
        "oc.umeng.com",
        "umeng.com"
      ],
      "metaDataNames": [
        "UMENG_APPKEY",
        "UMENG_CHANNEL",
        "com.google.android.gms.games.APP_ID",
        "com.rqmdp.qsvdl101760.APIKEY",
        "com.rqmdp.qsvdl101760.APPID"
      ],
      "sha256": "18418af6914ff4a7f06a6c907bf23de740dcf90a6f65642819a7e4a76acf6b2a",
      "usesPermissions": [
        "android.permission.ACCESS_COARSE_LOCATION",
        "android.permission.ACCESS_COARSE_UPDATES",
        "android.permission.ACCESS_NETWORK_STATE",
        "android.permission.ACCESS_WIFI_STATE",
        "android.permission.INTERNET",
        "android.permission.READ_PHONE_STATE",
        "android.permission.VIBRATE",
        "android.permission.WAKE_LOCK",
        "android.permission.WRITE_EXTERNAL_STORAGE"
      ]
    }
  ],
  "meta": {
    "generated": "2020-08-27T15:11:27.386313",
    "generatedBy": [
      "/home/hc/code/trackingthetrackers/scripts/make-trackers-apk-set.py"
    ],
    "ver": "0.3.0"
  }
}