{
  "apks": [
    {
      "applicationId": "com.nd.android.htcrzhds",
      "broadcastReceiverIntentFilterActionNames": [
        "com.nd.android.pandareader.PushAppNotificationReceiver.PushAppNotification",
        "com.nd.android.pandareader.PushNotificationReceiver.PushNotification",
        "com.nd.android.pandareader.RepeatNotificationReceiver.RepeatNotification",
        "com.nd.android.pandareader.actionSmsSend",
        "com.nd.android.pandareader.addchapterInfo",
        "com.nd.android.pandareader.backupHistory",
        "com.nd.android.pandareader.restoreHistory",
        "com.nd.android.pandareader.zone.chapter.push.ChapterNotification",
        "com.nd.android.pandareader.zone.chapter.push.ChapterPush",
        "com.tencent.mm.plugin.openapi.Intent.ACTION_REFRESH_WXAPP"
      ],
      "dependencies": [
        "com.tencent.stat"
      ],
      "domainNamesFilteredByExodus": [
        ".google.com"
      ],
      "metaDataNames": [
        "android.app.default_searchable",
        "android.app.searchable"
      ],
      "sha256": "cd25fdd6a0fab50bb81ec21809ca2e6591e85ca8fbc5091fd64165611c15112b",
      "usesPermissions": [
        "android.permission.ACCESS_COARSE_LOCATION",
        "android.permission.ACCESS_FINE_LOCATION",
        "android.permission.ACCESS_NETWORK_STATE",
        "android.permission.ACCESS_WIFI_STATE",
        "android.permission.CHANGE_CONFIGURATION",
        "android.permission.CHANGE_NETWORK_STATE",
        "android.permission.CHANGE_WIFI_STATE",
        "android.permission.DEVICE_POWER",
        "android.permission.GET_TASKS",
        "android.permission.INTERNET",
        "android.permission.PROCESS_OUTGOING_CALLS",
        "android.permission.READ_PHONE_STATE",
        "android.permission.SEND_SMS",
        "android.permission.SET_ORIENTATION",
        "android.permission.SYSTEM_ALERT_WINDOW",
        "android.permission.VIBRATE",
        "android.permission.WAKE_LOCK",
        "android.permission.WRITE_EXTERNAL_STORAGE",
        "android.permission.WRITE_SETTINGS",
        "com.android.launcher.permission.INSTALL_SHORTCUT",
        "com.android.launcher.permission.READ_SETTINGS",
        "com.android.launcher.permission.UNINSTALL_SHORTCUT"
      ]
    }
  ],
  "meta": {
    "generated": "2020-08-27T14:56:46.702982",
    "generatedBy": [
      "/home/hc/code/trackingthetrackers/scripts/make-trackers-apk-set.py"
    ],
    "ver": "0.3.0"
  }
}