{
  "apks": [
    {
      "applicationId": "ovh.ice.icecons",
      "broadcastReceiverIntentFilterActionNames": [],
      "dependencies": [],
      "domainNamesFilteredByExodus": [],
      "metaDataNames": [],
      "sha256": "79615a15ed132e5838868f9bdf8f4155fae4a6265c62c71f2867a22cbc91c1ae",
      "usesPermissions": [
        "android.permission.SET_WALLPAPER",
        "android.permission.SET_WALLPAPER_HINTS"
      ]
    }
  ],
  "meta": {
    "generated": "2020-08-27T18:42:27.235644",
    "generatedBy": [
      "/home/hc/code/trackingthetrackers/scripts/make-clean-apk-set.py"
    ],
    "generatedByCommitId": "3839559c80042252d3b947fb61c86a18e8b31114",
    "sourceDataCommitId": "888bb8f8c77ff55105fcab2ad84c263561eb1169",
    "ver": "0.3.0"
  }
}