{
  "apks": [
    {
      "applicationId": "com.axelby.podax",
      "broadcastReceiverIntentFilterActionNames": [
        "android.appwidget.action.APPWIDGET_UPDATE",
        "android.intent.action.BOOT_COMPLETED",
        "android.intent.action.DOWNLOAD_COMPLETE",
        "android.intent.action.DOWNLOAD_NOTIFICATION_CLICKED",
        "android.intent.action.MEDIA_BUTTON",
        "com.axelby.podax.ACTIVE_PODCAST"
      ],
      "dependencies": [],
      "domainNamesFilteredByExodus": [
        ".google.com"
      ],
      "metaDataNames": [
        "android.accounts.AccountAuthenticator",
        "android.appwidget.provider",
        "android.content.SyncAdapter"
      ],
      "sha256": "446a2b2badf4e80b27974cf97d9cc928cbb1e5786ee50496a0a2df0cb1c98fb6",
      "usesPermissions": [
        "android.permission.ACCESS_NETWORK_STATE",
        "android.permission.AUTHENTICATE_ACCOUNTS",
        "android.permission.GET_ACCOUNTS",
        "android.permission.INTERNET",
        "android.permission.READ_EXTERNAL_STORAGE",
        "android.permission.READ_SYNC_SETTINGS",
        "android.permission.READ_SYNC_STATS",
        "android.permission.RECEIVE_BOOT_COMPLETED",
        "android.permission.USE_CREDENTIALS",
        "android.permission.WRITE_EXTERNAL_STORAGE",
        "android.permission.WRITE_SYNC_SETTINGS"
      ]
    }
  ],
  "meta": {
    "generated": "2020-08-27T17:15:17.675346",
    "generatedBy": [
      "/home/hc/code/trackingthetrackers/scripts/make-clean-apk-set.py"
    ],
    "generatedByCommitId": "40519285d6f404593fa655fa89b433743c25289e",
    "sourceDataCommitId": "888bb8f8c77ff55105fcab2ad84c263561eb1169",
    "ver": "0.3.0"
  }
}