{
  "apks": [
    {
      "applicationId": "org.ccc.fb",
      "broadcastReceiverIntentFilterActionNames": [
        "android.intent.action.PACKAGE_ADDED",
        "android.intent.action.PACKAGE_REMOVED",
        "android.net.conn.CONNECTIVITY_CHANGE"
      ],
      "dependencies": [
        "com.baidu.mobads",
        "com.crashlytics.",
        "com.google.ads.",
        "com.umeng.fb",
        "com_crashlytics_",
        "net.youmi"
      ],
      "domainNamesFilteredByExodus": [
        ".google.com",
        "alog.umeng.com",
        "au.youmi.net",
        "crashlytics.com",
        "doubleclick.net",
        "oc.umeng.com",
        "umeng.com",
        "youmi.net"
      ],
      "metaDataNames": [
        "ADS_HIDE_MODE",
        "APPS_HIDE_MODE",
        "AuthorizeAdapter",
        "BDAPPUNIONSDK_APIKEY",
        "BaiduMobAd_APP_ID",
        "BaiduMobAd_APP_SEC",
        "DIANJIN_ADS",
        "QZoneWebShareAdapter",
        "UMENG_APPKEY",
        "UMENG_CHANNEL",
        "WAPS_ADS",
        "com.crashlytics.ApiKey"
      ],
      "sha256": "56c30bf1c9ba2183ce615d1843ea61d7cc104d4bd107140f5ac9ab5dc60111ec",
      "usesPermissions": [
        "android.permission.ACCESS_COARSE_LOCATION",
        "android.permission.ACCESS_NETWORK_STATE",
        "android.permission.ACCESS_WIFI_STATE",
        "android.permission.GET_TASKS",
        "android.permission.INTERNET",
        "android.permission.MOUNT_UNMOUNT_FILESYSTEMS",
        "android.permission.READ_EXTERNAL_STORAGE",
        "android.permission.READ_LOGS",
        "android.permission.READ_PHONE_STATE",
        "android.permission.SYSTEM_ALERT_WINDOW",
        "android.permission.WAKE_LOCK",
        "android.permission.WRITE_EXTERNAL_STORAGE"
      ]
    }
  ],
  "meta": {
    "generated": "2020-08-27T15:24:31.238714",
    "generatedBy": [
      "/home/hc/code/trackingthetrackers/scripts/make-trackers-apk-set.py"
    ],
    "ver": "0.3.0"
  }
}