{
  "apks": [
    {
      "applicationId": "ru.playsoftware.j2meloader",
      "broadcastReceiverIntentFilterActionNames": [],
      "dependencies": [],
      "domainNamesFilteredByExodus": [
        "hockeyapp.net"
      ],
      "metaDataNames": [
        "android.max_aspect",
        "android.support.FILE_PROVIDER_PATHS"
      ],
      "sha256": "394e9114b9c2d9e56c79a6d60275531c062af277aacd53d4e0de9d2b64a6141d",
      "usesPermissions": [
        "25",
        "android.permission.INTERNET",
        "android.permission.VIBRATE",
        "android.permission.WAKE_LOCK",
        "android.permission.WRITE_EXTERNAL_STORAGE",
        "com.android.launcher.permission.INSTALL_SHORTCUT"
      ]
    }
  ],
  "meta": {
    "generated": "2020-08-27T18:43:25.794117",
    "generatedBy": [
      "/home/hc/code/trackingthetrackers/scripts/make-clean-apk-set.py"
    ],
    "generatedByCommitId": "3839559c80042252d3b947fb61c86a18e8b31114",
    "sourceDataCommitId": "888bb8f8c77ff55105fcab2ad84c263561eb1169",
    "ver": "0.3.0"
  }
}