{
  "apks": [
    {
      "applicationId": "com.menny.android.anysoftkeyboard",
      "broadcastReceiverIntentFilterActionNames": [],
      "dependencies": [],
      "domainNamesFilteredByExodus": [],
      "metaDataNames": [
        "android.app.shortcuts",
        "android.view.im",
        "com.google.android.backup.api_key"
      ],
      "sha256": "3140e0c997bb3bfc2f3f8063651495bd9ef854aa18a20a7241986ab1b01c6fbc",
      "usesPermissions": [
        "android.permission.READ_CONTACTS",
        "android.permission.READ_USER_DICTIONARY",
        "android.permission.VIBRATE",
        "android.permission.WRITE_EXTERNAL_STORAGE",
        "android.permission.WRITE_USER_DICTIONARY"
      ]
    }
  ],
  "meta": {
    "generated": "2020-08-27T17:36:59.266996",
    "generatedBy": [
      "/home/hc/code/trackingthetrackers/scripts/make-clean-apk-set.py"
    ],
    "generatedByCommitId": "40519285d6f404593fa655fa89b433743c25289e",
    "sourceDataCommitId": "888bb8f8c77ff55105fcab2ad84c263561eb1169",
    "ver": "0.3.0"
  }
}