{
  "apks": [
    {
      "applicationId": "org.epstudios.morbidmeter",
      "broadcastReceiverIntentFilterActionNames": [
        "android.appwidget.action.APPWIDGET_UPDATE"
      ],
      "dependencies": [],
      "domainNamesFilteredByExodus": [],
      "metaDataNames": [
        "android.appwidget.provider"
      ],
      "sha256": "e3174be1974d4056c090c62b62c9fe0fc3faf03b8fe5477045fb4103c7c6a8df",
      "usesPermissions": []
    }
  ],
  "meta": {
    "generated": "2020-08-27T18:24:57.296734",
    "generatedBy": [
      "/home/hc/code/trackingthetrackers/scripts/make-clean-apk-set.py"
    ],
    "generatedByCommitId": "3839559c80042252d3b947fb61c86a18e8b31114",
    "sourceDataCommitId": "888bb8f8c77ff55105fcab2ad84c263561eb1169",
    "ver": "0.3.0"
  }
}