{
  "apks": [
    {
      "applicationId": "me.zeeroooo.materialfb",
      "broadcastReceiverIntentFilterActionNames": [],
      "dependencies": [
        "com_facebook_login",
        "com_facebook_share"
      ],
      "domainNamesFilteredByExodus": [
        ".facebook.com"
      ],
      "metaDataNames": [
        "android.support.PARENT_ACTIVITY",
        "com.facebook.sdk.ApplicationId"
      ],
      "sha256": "fa6158b5a6cdc8fb9b27033929635bc73b212c6a6c2072ea00d49e3517eed3b7",
      "usesPermissions": [
        "android.permission.ACCESS_FINE_LOCATION",
        "android.permission.ACCESS_NETWORK_STATE",
        "android.permission.CAMERA",
        "android.permission.INTERNET",
        "android.permission.READ_EXTERNAL_STORAGE",
        "android.permission.VIBRATE",
        "android.permission.WRITE_EXTERNAL_STORAGE"
      ]
    }
  ],
  "meta": {
    "generated": "2020-08-27T18:16:24.430282",
    "generatedBy": [
      "/home/hc/code/trackingthetrackers/scripts/make-clean-apk-set.py"
    ],
    "generatedByCommitId": "3839559c80042252d3b947fb61c86a18e8b31114",
    "sourceDataCommitId": "888bb8f8c77ff55105fcab2ad84c263561eb1169",
    "ver": "0.3.0"
  }
}