{
  "apks": [
    {
      "applicationId": "de.ub0r.android.websms",
      "broadcastReceiverIntentFilterActionNames": [
        "de.ub0r.android.websms.RUN_SEND",
        "de.ub0r.android.websms.connector.CANCEL",
        "de.ub0r.android.websms.connector.CAPTCHA_REQUEST",
        "de.ub0r.android.websms.connector.INFO",
        "de.ub0r.android.websms.connector.RESEND",
        "de.ub0r.android.websms.connector.UPDATE"
      ],
      "dependencies": [
        "com.google.ads."
      ],
      "domainNamesFilteredByExodus": [
        ".google.com"
      ],
      "metaDataNames": [],
      "sha256": "4fae75ee2ef476cad51182e7e6cd950c56974cf783c395cf5af3e39e606d790f",
      "usesPermissions": [
        "android.permission.ACCESS_NETWORK_STATE",
        "android.permission.INTERNET",
        "android.permission.READ_CONTACTS",
        "android.permission.READ_PHONE_STATE",
        "android.permission.READ_SMS",
        "android.permission.SEND_SMS",
        "android.permission.VIBRATE",
        "android.permission.WRITE_SMS"
      ]
    }
  ],
  "meta": {
    "generated": "2020-08-27T18:05:01.569438",
    "generatedBy": [
      "/home/hc/code/trackingthetrackers/scripts/make-clean-apk-set.py"
    ],
    "generatedByCommitId": "3839559c80042252d3b947fb61c86a18e8b31114",
    "sourceDataCommitId": "888bb8f8c77ff55105fcab2ad84c263561eb1169",
    "ver": "0.3.0"
  }
}