{
  "apks": [
    {
      "applicationId": "com.kodarkooperativet.notificationstopwatch",
      "broadcastReceiverIntentFilterActionNames": [],
      "dependencies": [],
      "domainNamesFilteredByExodus": [],
      "metaDataNames": [],
      "sha256": "a7c3feab089b8f1ee8f92ccca791245f05126b2688f3acee8595b40f13cfc796",
      "usesPermissions": []
    }
  ],
  "meta": {
    "generated": "2020-08-27T16:59:30.622264",
    "generatedBy": [
      "/home/hc/code/trackingthetrackers/scripts/make-clean-apk-set.py"
    ],
    "generatedByCommitId": "40519285d6f404593fa655fa89b433743c25289e",
    "sourceDataCommitId": "888bb8f8c77ff55105fcab2ad84c263561eb1169",
    "ver": "0.3.0"
  }
}