{
  "apks": [
    {
      "applicationId": "de.hampager.dapnetmobile",
      "broadcastReceiverIntentFilterActionNames": [],
      "dependencies": [],
      "domainNamesFilteredByExodus": [],
      "metaDataNames": [
        "android.max_aspect",
        "android.support.PARENT_ACTIVITY",
        "android.support.VERSION"
      ],
      "sha256": "8ebbedcff225f2adf7c595f96c0459929d0a6ba6f48ad8233495e41eaa234cf3",
      "usesPermissions": [
        "android.permission.INTERNET"
      ]
    }
  ],
  "meta": {
    "generated": "2020-08-27T18:00:41.862756",
    "generatedBy": [
      "/home/hc/code/trackingthetrackers/scripts/make-clean-apk-set.py"
    ],
    "generatedByCommitId": "3839559c80042252d3b947fb61c86a18e8b31114",
    "sourceDataCommitId": "888bb8f8c77ff55105fcab2ad84c263561eb1169",
    "ver": "0.3.0"
  }
}