{
  "apks": [
    {
      "applicationId": "com.magix.camera_mx",
      "broadcastReceiverIntentFilterActionNames": [
        "android.intent.action.BOOT_COMPLETED",
        "android.intent.action.EXTERNAL_APPLICATIONS_AVAILABLE",
        "android.intent.action.PACKAGE_REPLACED",
        "android.intent.action.USER_PRESENT",
        "com.google.android.c2dm.intent.RECEIVE",
        "com.google.android.c2dm.intent.REGISTRATION",
        "com.inmobi.share.id",
        "com.parse.push.intent.DELETE",
        "com.parse.push.intent.OPEN",
        "com.parse.push.intent.RECEIVE",
        "cryopiggy.start"
      ],
      "dependencies": [
        "com$startapp$android$publish",
        "com.amazon.device.ads",
        "com.applovin",
        "com.chartboost.sdk.",
        "com.facebook.ads",
        "com.flurry.",
        "com.flymob.sdk.",
        "com.google.ads.",
        "com.google.android.gms.ads.",
        "com.google.android.gms.analytics.",
        "com.google.android.gms.tagmanager",
        "com.inmobi",
        "com.mopub.mobileads.",
        "com.startapp.android.publish",
        "com_facebook_login"
      ],
      "domainNamesFilteredByExodus": [
        ".facebook.com",
        ".google.com",
        "api.mixpanel.com",
        "config.inmobi.com",
        "flurry.com",
        "google-analytics.com",
        "i.l.inmobicdn.net",
        "i.w.inmobi.com",
        "inmobi.com",
        "inmobicdn.net",
        "mixpanel.com",
        "sdkm.w.inmobi.com",
        "track.adform.net",
        "w.inmobi.com",
        "www.googletagmanager.com"
      ],
      "metaDataNames": [
        "android.service.wallpaper",
        "android.support.FILE_PROVIDER_PATHS",
        "com.facebook.sdk.ApplicationId",
        "com.google.android.gms.version",
        "com.parse.push.notification_icon",
        "io.mobby.sdk.APP_ID",
        "io.mobby.sdk.DEBUG",
        "io.mobby.sdk.SERVER"
      ],
      "sha256": "5cac0a89e2929eaec513f4ca0ed939d0d6e3a688750149ae10ca5fd03eb1e3db",
      "usesPermissions": [
        ".permission.C2D_MESSAGE",
        "android.permission.ACCESS_FINE_LOCATION",
        "android.permission.ACCESS_NETWORK_STATE",
        "android.permission.ACCESS_WIFI_STATE",
        "android.permission.CAMERA",
        "android.permission.GET_ACCOUNTS",
        "android.permission.GET_TASKS",
        "android.permission.INTERNET",
        "android.permission.READ_PHONE_STATE",
        "android.permission.RECEIVE_BOOT_COMPLETED",
        "android.permission.RECORD_AUDIO",
        "android.permission.SET_WALLPAPER",
        "android.permission.VIBRATE",
        "android.permission.WAKE_LOCK",
        "android.permission.WRITE_EXTERNAL_STORAGE",
        "com.android.launcher.permission.INSTALL_SHORTCUT",
        "com.google.android.c2dm.permission.RECEIVE",
        "com.magix.camera_mx.flymob.sdk.broadcast"
      ]
    }
  ],
  "meta": {
    "generated": "2020-08-27T15:47:09.747828",
    "generatedBy": [
      "/home/hc/code/trackingthetrackers/scripts/make-trackers-apk-set.py"
    ],
    "ver": "0.3.0"
  }
}