{
  "apks": [
    {
      "applicationId": "ch.logixisland.anuto",
      "broadcastReceiverIntentFilterActionNames": [],
      "dependencies": [],
      "domainNamesFilteredByExodus": [],
      "metaDataNames": [],
      "sha256": "edf22f1d4eac4ffe28c08ce35abefbf9a99a29426c39a410bda0a1542716be6a",
      "usesPermissions": []
    }
  ],
  "meta": {
    "generated": "2020-08-27T17:13:21.882277",
    "generatedBy": [
      "/home/hc/code/trackingthetrackers/scripts/make-clean-apk-set.py"
    ],
    "generatedByCommitId": "40519285d6f404593fa655fa89b433743c25289e",
    "sourceDataCommitId": "888bb8f8c77ff55105fcab2ad84c263561eb1169",
    "ver": "0.3.0"
  }
}