{
  "apks": [
    {
      "applicationId": "com.github.axet.mover",
      "broadcastReceiverIntentFilterActionNames": [
        "android.intent.action.BOOT_COMPLETED",
        "android.intent.action.EXTERNAL_APPLICATIONS_AVAILABLE",
        "android.intent.action.PACKAGE_REPLACED",
        "android.intent.action.QUICKBOOT_POWERON",
        "com.htc.intent.action.QUICKBOOT_POWERON"
      ],
      "dependencies": [],
      "domainNamesFilteredByExodus": [],
      "metaDataNames": [
        "android.support.VERSION"
      ],
      "sha256": "f66332462a8b93539c714f811c079f9eedaeec749698ec4aee9f679e94c1a128",
      "usesPermissions": [
        "android.permission.READ_EXTERNAL_STORAGE",
        "android.permission.RECEIVE_BOOT_COMPLETED",
        "android.permission.REQUEST_IGNORE_BATTERY_OPTIMIZATIONS",
        "android.permission.WRITE_EXTERNAL_STORAGE"
      ]
    }
  ],
  "meta": {
    "generated": "2020-08-27T17:26:10.350676",
    "generatedBy": [
      "/home/hc/code/trackingthetrackers/scripts/make-clean-apk-set.py"
    ],
    "generatedByCommitId": "40519285d6f404593fa655fa89b433743c25289e",
    "sourceDataCommitId": "888bb8f8c77ff55105fcab2ad84c263561eb1169",
    "ver": "0.3.0"
  }
}