{
  "apks": [
    {
      "applicationId": "org.fitchfamily.android.gsmlocation",
      "broadcastReceiverIntentFilterActionNames": [],
      "dependencies": [],
      "domainNamesFilteredByExodus": [
        ".facebook.com",
        ".google.com"
      ],
      "metaDataNames": [
        "org.microg.nlp.API_VERSION",
        "org.microg.nlp.BACKEND_SETTINGS_ACTIVITY",
        "org.microg.nlp.BACKEND_SUMMARY"
      ],
      "sha256": "94b090781987248b17d1204703e9f8ae057494cb0bbe3e1bf5ca9364405c1749",
      "usesPermissions": [
        "android.permission.ACCESS_COARSE_LOCATION",
        "android.permission.INTERNET",
        "android.permission.WAKE_LOCK"
      ]
    }
  ],
  "meta": {
    "generated": "2020-08-27T18:26:27.370481",
    "generatedBy": [
      "/home/hc/code/trackingthetrackers/scripts/make-clean-apk-set.py"
    ],
    "generatedByCommitId": "3839559c80042252d3b947fb61c86a18e8b31114",
    "sourceDataCommitId": "888bb8f8c77ff55105fcab2ad84c263561eb1169",
    "ver": "0.3.0"
  }
}