{
  "apks": [
    {
      "applicationId": "goodfree.wallpapers.HairDesignPractical",
      "broadcastReceiverIntentFilterActionNames": [],
      "dependencies": [],
      "domainNamesFilteredByExodus": [
        "api.airpush.com"
      ],
      "metaDataNames": [
        "com.ojvttpbynw.hfayhrstyl136339.APIKEY",
        "com.ojvttpbynw.hfayhrstyl136339.APPID"
      ],
      "sha256": "0e30aa89c72f592e556bf0117ac3f54c42f09d81bf58c9d1d36a9735bd8ad922",
      "usesPermissions": [
        "android.permission.ACCESS_COARSE_LOCATION",
        "android.permission.ACCESS_FINE_LOCATION",
        "android.permission.ACCESS_NETWORK_STATE",
        "android.permission.ACCESS_WIFI_STATE",
        "android.permission.INTERNET",
        "android.permission.READ_PHONE_STATE",
        "android.permission.SET_WALLPAPER",
        "android.permission.WRITE",
        "android.permission.WRITE_EXTERNAL_STORAGE",
        "android.permission.WRITE_EXTERNAL_STORAGE"
      ]
    }
  ],
  "meta": {
    "generated": "2020-08-27T15:17:27.689260",
    "generatedBy": [
      "/home/hc/code/trackingthetrackers/scripts/make-trackers-apk-set.py"
    ],
    "ver": "0.3.0"
  }
}