{
  "apks": [
    {
      "applicationId": "com.zola.bmi",
      "broadcastReceiverIntentFilterActionNames": [],
      "dependencies": [],
      "domainNamesFilteredByExodus": [],
      "metaDataNames": [],
      "sha256": "92eab5041d314d2a2784eb8f02e33286870359a11708f5ba9934e3c90343d391",
      "usesPermissions": []
    }
  ],
  "meta": {
    "generated": "2020-08-27T17:54:04.167814",
    "generatedBy": [
      "/home/hc/code/trackingthetrackers/scripts/make-clean-apk-set.py"
    ],
    "generatedByCommitId": "3839559c80042252d3b947fb61c86a18e8b31114",
    "sourceDataCommitId": "888bb8f8c77ff55105fcab2ad84c263561eb1169",
    "ver": "0.3.0"
  }
}