{
  "apks": [
    {
      "applicationId": "zok.aneddssaaroid.dfdotssssdd",
      "broadcastReceiverIntentFilterActionNames": [
        "android.intent.action.BOOT_COMPLETED",
        "android.intent.action.PACKAGE_ADDED",
        "android.intent.action.PACKAGE_REMOVED",
        "android.intent.action.USER_PRESENT",
        "android.net.conn.CONNECTIVITY_CHANGE",
        "com.snail.action.client",
        "droid.snail.action.st",
        "droid_snaillib_apkrun_intent.receiver.1",
        "droid_snaillib_apkrun_intent.receiver.2",
        "droid_snaillib_apkrun_intent.receiver.3",
        "droid_snaillib_apkrun_intent.receiver.4",
        "droid_snaillib_apkrun_intent.receiver.5"
      ],
      "dependencies": [
        "com.flurry."
      ],
      "domainNamesFilteredByExodus": [
        ".google.com",
        "flurry.com"
      ],
      "metaDataNames": [
        "SNAIL_CHANNEL_ID",
        "SNAIL_DEV_ID",
        "SNAIL_SDK_LOC",
        "feiwo_appkey",
        "version"
      ],
      "sha256": "7b8488e276c992396583bbeede57c090dd55c0365344d1330bab589c8e86bb24",
      "usesPermissions": [
        "android.permission.ACCESS_COARSE_LOCATION",
        "android.permission.ACCESS_COARSE_LOCATION",
        "android.permission.ACCESS_COARSE_LOCATION",
        "android.permission.ACCESS_COARSE_LOCATION",
        "android.permission.ACCESS_FINE_LOCATION",
        "android.permission.ACCESS_FINE_LOCATION",
        "android.permission.ACCESS_FINE_LOCATION",
        "android.permission.ACCESS_FINE_LOCATION",
        "android.permission.ACCESS_LOCATION_EXTRA_COMMANDS",
        "android.permission.ACCESS_LOCATION_EXTRA_COMMANDS",
        "android.permission.ACCESS_MOCK_LOCATION",
        "android.permission.ACCESS_MOCK_LOCATION",
        "android.permission.ACCESS_NETWORK_STATE",
        "android.permission.ACCESS_NETWORK_STATE",
        "android.permission.ACCESS_NETWORK_STATE",
        "android.permission.ACCESS_NETWORK_STATE",
        "android.permission.ACCESS_NETWORK_STATE",
        "android.permission.ACCESS_NETWORK_STATE",
        "android.permission.ACCESS_NETWORK_STATE",
        "android.permission.ACCESS_NETWORK_STATE",
        "android.permission.ACCESS_NETWORK_STATE",
        "android.permission.ACCESS_NETWORK_STATE",
        "android.permission.ACCESS_WIFI_STATE",
        "android.permission.ACCESS_WIFI_STATE",
        "android.permission.ACCESS_WIFI_STATE",
        "android.permission.ACCESS_WIFI_STATE",
        "android.permission.ACCESS_WIFI_STATE",
        "android.permission.ACCESS_WIFI_STATE",
        "android.permission.ACCESS_WIFI_STATE",
        "android.permission.ACCESS_WIFI_STATE",
        "android.permission.ACCESS_WIFI_STATE",
        "android.permission.ACCESS_WIFI_STATE",
        "android.permission.ACCESS_WIFI_STATE",
        "android.permission.ACCESS_WIFI_STATE",
        "android.permission.ACCESS_WIFI_STATE",
        "android.permission.CHANGE_WIFI_STATE",
        "android.permission.CHANGE_WIFI_STATE",
        "android.permission.DOWNLOAD_WITHOUT_NOTIFICATION",
        "android.permission.DOWNLOAD_WITHOUT_NOTIFICATION",
        "android.permission.DOWNLOAD_WITHOUT_NOTIFICATION",
        "android.permission.DOWNLOAD_WITHOUT_NOTIFICATION",
        "android.permission.DOWNLOAD_WITHOUT_NOTIFICATION",
        "android.permission.GET_TASKS",
        "android.permission.GET_TASKS",
        "android.permission.GET_TASKS",
        "android.permission.GET_TASKS",
        "android.permission.GET_TASKS",
        "android.permission.GET_TASKS",
        "android.permission.GET_TASKS",
        "android.permission.GET_TASKS",
        "android.permission.GET_TASKS",
        "android.permission.INTERNET",
        "android.permission.INTERNET",
        "android.permission.INTERNET",
        "android.permission.INTERNET",
        "android.permission.INTERNET",
        "android.permission.INTERNET",
        "android.permission.INTERNET",
        "android.permission.INTERNET",
        "android.permission.INTERNET",
        "android.permission.INTERNET",
        "android.permission.INTERNET",
        "android.permission.MOUNT_UNMOUNT_FILESYSTEMS",
        "android.permission.MOUNT_UNMOUNT_FILESYSTEMS",
        "android.permission.MOUNT_UNMOUNT_FILESYSTEMS",
        "android.permission.MOUNT_UNMOUNT_FILESYSTEMS",
        "android.permission.MOUNT_UNMOUNT_FILESYSTEMS",
        "android.permission.MOUNT_UNMOUNT_FILESYSTEMS",
        "android.permission.MOUNT_UNMOUNT_FILESYSTEMS",
        "android.permission.READ_EXTERNAL_STORAGE",
        "android.permission.READ_EXTERNAL_STORAGE",
        "android.permission.READ_EXTERNAL_STORAGE",
        "android.permission.READ_PHONE_STATE",
        "android.permission.READ_PHONE_STATE",
        "android.permission.READ_PHONE_STATE",
        "android.permission.READ_PHONE_STATE",
        "android.permission.READ_PHONE_STATE",
        "android.permission.READ_PHONE_STATE",
        "android.permission.READ_PHONE_STATE",
        "android.permission.READ_PHONE_STATE",
        "android.permission.READ_PHONE_STATE",
        "android.permission.READ_PHONE_STATE",
        "android.permission.RECEIVE_BOOT_COMPLETED",
        "android.permission.RECEIVE_BOOT_COMPLETED",
        "android.permission.RECEIVE_BOOT_COMPLETED",
        "android.permission.RECEIVE_BOOT_COMPLETED",
        "android.permission.RECEIVE_BOOT_COMPLETED",
        "android.permission.RECEIVE_BOOT_COMPLETED",
        "android.permission.RECEIVE_BOOT_COMPLETED",
        "android.permission.RECEIVE_BOOT_COMPLETED",
        "android.permission.RECEIVE_BOOT_COMPLETED",
        "android.permission.RECORD_AUDIO",
        "android.permission.RECORD_AUDIO",
        "android.permission.RECORD_AUDIO",
        "android.permission.RESTART_PACKAGES",
        "android.permission.RESTART_PACKAGES",
        "android.permission.RESTART_PACKAGES",
        "android.permission.SYSTEM_ALERT_WINDOW",
        "android.permission.SYSTEM_ALERT_WINDOW",
        "android.permission.SYSTEM_ALERT_WINDOW",
        "android.permission.SYSTEM_ALERT_WINDOW",
        "android.permission.SYSTEM_ALERT_WINDOW",
        "android.permission.SYSTEM_ALERT_WINDOW",
        "android.permission.SYSTEM_ALERT_WINDOW",
        "android.permission.SYSTEM_ALERT_WINDOW",
        "android.permission.SYSTEM_ALERT_WINDOW",
        "android.permission.VIBRATE",
        "android.permission.VIBRATE",
        "android.permission.VIBRATE",
        "android.permission.WAKE_LOCK",
        "android.permission.WAKE_LOCK",
        "android.permission.WAKE_LOCK",
        "android.permission.WRITE_EXTERNAL_STORAGE",
        "android.permission.WRITE_EXTERNAL_STORAGE",
        "android.permission.WRITE_EXTERNAL_STORAGE",
        "android.permission.WRITE_EXTERNAL_STORAGE",
        "android.permission.WRITE_EXTERNAL_STORAGE",
        "android.permission.WRITE_EXTERNAL_STORAGE",
        "android.permission.WRITE_EXTERNAL_STORAGE",
        "android.permission.WRITE_EXTERNAL_STORAGE",
        "android.permission.WRITE_EXTERNAL_STORAGE",
        "android.permission.WRITE_EXTERNAL_STORAGE",
        "com.android.launcher.permission.INSTALL_SHORTCUT",
        "com.android.launcher.permission.INSTALL_SHORTCUT",
        "com.android.launcher.permission.INSTALL_SHORTCUT",
        "com.android.launcher.permission.UNINSTALL_SHORTCUT"
      ]
    }
  ],
  "meta": {
    "generated": "2020-08-27T15:28:30.055786",
    "generatedBy": [
      "/home/hc/code/trackingthetrackers/scripts/make-trackers-apk-set.py"
    ],
    "ver": "0.3.0"
  }
}