{
  "apks": [
    {
      "applicationId": "com.smartandroidapps.audiowidgetpros",
      "broadcastReceiverIntentFilterActionNames": [
        "android.appwidget.action.APPWIDGET_UPDATE",
        "android.intent.action.BOOT_COMPLETED",
        "android.intent.action.LOCALE_CHANGED",
        "android.intent.action.PACKAGE_ADDED",
        "android.intent.action.TIMEZONE_CHANGED",
        "android.intent.action.TIME_SET",
        "android.intent.action.USER_PRESENT",
        "android.media.RINGER_MODE_CHANGED",
        "android.media.VOLUME_CHANGED_ACTION",
        "com.smartandroidapps.audiowidgetpro.APPLY_SCHEDULE"
      ],
      "dependencies": [],
      "domainNamesFilteredByExodus": [
        ".google.com"
      ],
      "metaDataNames": [
        "android.appwidget.provider",
        "com.google.android.backup.api_key"
      ],
      "sha256": "6fb386530204ede904c795ebb7f33b61746e7fa9b86c8a199c4995fa8944feea",
      "usesPermissions": [
        "android.permission.ACCESS_NETWORK_STATE",
        "android.permission.ACCESS_WIFI_STATE",
        "android.permission.GET_TASKS",
        "android.permission.INTERNET",
        "android.permission.READ_EXTERNAL_STORAGE",
        "android.permission.READ_PHONE_STATE",
        "android.permission.RECEIVE_BOOT_COMPLETED",
        "android.permission.SYSTEM_ALERT_WINDOW",
        "android.permission.VIBRATE",
        "android.permission.WAKE_LOCK",
        "android.permission.WRITE_EXTERNAL_STORAGE",
        "android.permission.WRITE_EXTERNAL_STORAGE",
        "android.permission.WRITE_SETTINGS",
        "com.android.launcher.permission.INSTALL_SHORTCUT",
        "com.android.launcher.permission.INSTALL_SHORTCUT",
        "com.android.launcher.permission.READ_SETTINGS",
        "com.android.vending.CHECK_LICENSE"
      ]
    }
  ],
  "meta": {
    "generated": "2020-08-27T15:31:12.327511",
    "generatedBy": [
      "/home/hc/code/trackingthetrackers/scripts/make-trackers-apk-set.py"
    ],
    "ver": "0.3.0"
  }
}