{
  "apks": [
    {
      "applicationId": "com.nk.nxjg",
      "broadcastReceiverIntentFilterActionNames": [
        "android.intent.action.BOOT_COMPLETED",
        "android.intent.action.PACKAGE_ADDED",
        "android.intent.action.offers.REDOWNLOAD",
        "android.intent.action.push.REDOWNLOAD"
      ],
      "dependencies": [
        "com.baidu.location"
      ],
      "domainNamesFilteredByExodus": [
        ".google.com",
        "map.baidu.com"
      ],
      "metaDataNames": [
        "INTEGRAL_PROXY_ID",
        "PUBLISHER_ID_OFFERS",
        "PUBLISHER_ID_PUSH",
        "PUSH_PROXY_ID",
        "TESTMODE_OFFERS",
        "TESTMODE_PUSH"
      ],
      "sha256": "67bc76eeab7035dcad100f7285f70f8be4397e421fcbe2f1565fbf7455f0395c",
      "usesPermissions": [
        "android.permission.ACCESS_COARSE_LOCATION",
        "android.permission.ACCESS_FINE_LOCATION",
        "android.permission.ACCESS_NETWORK_STATE",
        "android.permission.ACCESS_WIFI_STATE",
        "android.permission.CHANGE_NETWORK_STATE",
        "android.permission.CHANGE_WIFI_STATE",
        "android.permission.GET_TASKS",
        "android.permission.INTERNET",
        "android.permission.KILL_BACKGROUND_PROCESSES",
        "android.permission.MOUNT_UNMOUNT_FILESYSTEMS",
        "android.permission.READ_EXTERNAL_STORAGE",
        "android.permission.READ_PHONE_STATE",
        "android.permission.RESTART_PACKAGES",
        "android.permission.SYSTEM_ALERT_WINDOW",
        "android.permission.VIBRATE",
        "android.permission.WRITE_EXTERNAL_STORAGE"
      ]
    }
  ],
  "meta": {
    "generated": "2020-08-27T15:17:13.928422",
    "generatedBy": [
      "/home/hc/code/trackingthetrackers/scripts/make-trackers-apk-set.py"
    ],
    "ver": "0.3.0"
  }
}