{
  "apks": [
    {
      "applicationId": "com.prettysimple.criminalcaseandroid",
      "broadcastReceiverIntentFilterActionNames": [
        "android.intent.action.BOOT_COMPLETED",
        "com.android.vending.INSTALL_REFERRER",
        "com.cocos.push.service.action.AUTOCHECK",
        "com.cocos.push.service.action.MESSAGE",
        "com.cocos.push.service.action.MESSAGE_V2",
        "com.cocos.push.service.action.RECEIVE",
        "com.cocos.push.service.action.UPDATE",
        "com.cocos.push.service.action.notification.CANCEL",
        "com.cocos.push.service.action.notification.SHOW",
        "com.prettysimple.criminalcase.notifications"
      ],
      "dependencies": [
        "com.crashlytics.",
        "com.google.android.gms.ads.",
        "com.google.android.gms.analytics.",
        "com.google.android.gms.tagmanager",
        "com_facebook_login",
        "io.fabric.",
        "org.cocos2dx"
      ],
      "domainNamesFilteredByExodus": [
        ".facebook.com",
        ".google.com",
        "crashlytics.com",
        "doubleclick.net",
        "google-analytics.com",
        "www.googletagmanager.com"
      ],
      "metaDataNames": [
        "ADX_CLIENT_ID",
        "APP_NAME",
        "cocos_aid",
        "cocos_cid",
        "com.crashlytics.ApiKey",
        "com.facebook.sdk.ApplicationId",
        "com.google.android.gms.version",
        "xx_channel_id"
      ],
      "sha256": "12635869f2ca24932086a2955e2f3ec8fe5acee7c4eddaf8a654b7b817784f41",
      "usesPermissions": [
        "android.permission.ACCESS_NETWORK_STATE",
        "android.permission.ACCESS_NETWORK_STATE",
        "android.permission.ACCESS_WIFI_STATE",
        "android.permission.ACCESS_WIFI_STATE",
        "android.permission.GET_ACCOUNTS",
        "android.permission.GET_TASKS",
        "android.permission.INTERNET",
        "android.permission.INTERNET",
        "android.permission.READ_PHONE_STATE",
        "android.permission.READ_PHONE_STATE",
        "android.permission.RECEIVE_BOOT_COMPLETED",
        "android.permission.SYSTEM_ALERT_WINDOW",
        "android.permission.VIBRATE",
        "android.permission.WRITE_EXTERNAL_STORAGE",
        "android.permission.WRITE_EXTERNAL_STORAGE",
        "com.android.launcher.permission.INSTALL_SHORTCUT",
        "com.android.launcher.permission.READ_SETTINGS",
        "com.android.launcher.permission.UNINSTALL_SHORTCUT",
        "com.android.vending.BILLING"
      ]
    }
  ],
  "meta": {
    "generated": "2020-08-27T15:32:55.344213",
    "generatedBy": [
      "/home/hc/code/trackingthetrackers/scripts/make-trackers-apk-set.py"
    ],
    "ver": "0.3.0"
  }
}