{
  "apks": [
    {
      "applicationId": "com.shirley.philpersonality",
      "broadcastReceiverIntentFilterActionNames": [
        "android.intent.action.BOOT_COMPLETED",
        "push_alm"
      ],
      "dependencies": [
        "com.airpush.",
        "com.google.ads.",
        "com.inmobi",
        "com.mdotm.android",
        "com.millennialmedia.",
        "net.youmi",
        "net_youmi"
      ],
      "domainNamesFilteredByExodus": [
        ".google.com",
        "api.airpush.com",
        "beta.airpush.com",
        "umeng.com",
        "youmi.net"
      ],
      "metaDataNames": [
        "ADMOGO_KEY",
        "CLIENT_PACKAGE",
        "UMENG_APPKEY",
        "WAPS_ID",
        "WAPS_PID",
        "WAPS_TESTMODE"
      ],
      "sha256": "9b3edc987cff4d7bf083ce4ff6601c0b2fc5b2da422c2f684107fbf19aa7a9ca",
      "usesPermissions": [
        "android.permission.ACCESS_COARSE_LOCATION",
        "android.permission.ACCESS_FINE_LOCATION",
        "android.permission.ACCESS_NETWORK_STATE",
        "android.permission.ACCESS_WIFI_STATE",
        "android.permission.GET_TASKS",
        "android.permission.INTERNET",
        "android.permission.MOUNT_UNMOUNT_FILESYSTEMS",
        "android.permission.READ_LOGS",
        "android.permission.READ_PHONE_STATE",
        "android.permission.RECEIVE_BOOT_COMPLETED",
        "android.permission.VIBRATE",
        "android.permission.WRITE_EXTERNAL_STORAGE"
      ]
    }
  ],
  "meta": {
    "generated": "2020-08-27T15:20:30.342717",
    "generatedBy": [
      "/home/hc/code/trackingthetrackers/scripts/make-trackers-apk-set.py"
    ],
    "ver": "0.3.0"
  }
}