{
  "apks": [
    {
      "applicationId": "net.sourceforge.opencamera",
      "broadcastReceiverIntentFilterActionNames": [
        "android.appwidget.action.APPWIDGET_UPDATE"
      ],
      "dependencies": [],
      "domainNamesFilteredByExodus": [
        ".google.com"
      ],
      "metaDataNames": [
        "android.appwidget.provider"
      ],
      "sha256": "7feb42583f4a354548f765b25ad6814593a99b719680b088350dd824bbc0d21b",
      "usesPermissions": [
        "android.permission.ACCESS_FINE_LOCATION",
        "android.permission.CAMERA",
        "android.permission.RECORD_AUDIO",
        "android.permission.WRITE_EXTERNAL_STORAGE"
      ]
    }
  ],
  "meta": {
    "generated": "2020-08-27T18:19:20.511828",
    "generatedBy": [
      "/home/hc/code/trackingthetrackers/scripts/make-clean-apk-set.py"
    ],
    "generatedByCommitId": "3839559c80042252d3b947fb61c86a18e8b31114",
    "sourceDataCommitId": "888bb8f8c77ff55105fcab2ad84c263561eb1169",
    "ver": "0.3.0"
  }
}