{
  "apks": [
    {
      "applicationId": "com.forrestguice.suntimeswidget",
      "broadcastReceiverIntentFilterActionNames": [
        "android.appwidget.action.APPWIDGET_UPDATE",
        "android.intent.action.BOOT_COMPLETED",
        "android.intent.action.TIME_SET",
        "suntimes.CLOCK_WIDGET_UPDATE",
        "suntimes.MOON_WIDGET_UPDATE",
        "suntimes.SOLSTICE_WIDGET_UPDATE",
        "suntimes.SUNTIMES_ALARM_UPDATE",
        "suntimes.SUNTIMES_THEME_UPDATE",
        "suntimes.SUNTIMES_WIDGET_UPDATE",
        "suntimes.SUNTIMES_WIDGET_UPDATE1",
        "suntimes.SUNTIMES_WIDGET_UPDATE2",
        "suntimeswidget.alarm.disable",
        "suntimeswidget.alarm.dismiss",
        "suntimeswidget.alarm.schedule",
        "suntimeswidget.alarm.show",
        "suntimeswidget.alarm.silent",
        "suntimeswidget.alarm.snooze",
        "suntimeswidget.alarm.timeout"
      ],
      "dependencies": [],
      "domainNamesFilteredByExodus": [],
      "metaDataNames": [
        "android.app.shortcuts",
        "android.appwidget.provider",
        "android.support.FILE_PROVIDER_PATHS",
        "android.support.VERSION"
      ],
      "sha256": "2ed002ce2f96c6f9a0739f9d90555bf3736f4fda5365ace974e415ee3bc610c8",
      "usesPermissions": [
        "18",
        "android.permission.ACCESS_COARSE_LOCATION",
        "android.permission.ACCESS_FINE_LOCATION",
        "android.permission.RECEIVE_BOOT_COMPLETED",
        "android.permission.VIBRATE",
        "android.permission.WRITE_EXTERNAL_STORAGE",
        "com.android.alarm.permission.SET_ALARM"
      ]
    }
  ],
  "meta": {
    "generated": "2020-08-27T17:22:13.983337",
    "generatedBy": [
      "/home/hc/code/trackingthetrackers/scripts/make-clean-apk-set.py"
    ],
    "generatedByCommitId": "40519285d6f404593fa655fa89b433743c25289e",
    "sourceDataCommitId": "888bb8f8c77ff55105fcab2ad84c263561eb1169",
    "ver": "0.3.0"
  }
}