{
  "apks": [
    {
      "applicationId": "org.bobstuff.bobball",
      "broadcastReceiverIntentFilterActionNames": [],
      "dependencies": [],
      "domainNamesFilteredByExodus": [],
      "metaDataNames": [],
      "sha256": "40181ac1c0ad8c6df88d633c7f4c5fefc92282bbaaabdfe5fc2c3ff0219b0f47",
      "usesPermissions": []
    }
  ],
  "meta": {
    "generated": "2020-08-27T18:23:49.172578",
    "generatedBy": [
      "/home/hc/code/trackingthetrackers/scripts/make-clean-apk-set.py"
    ],
    "generatedByCommitId": "3839559c80042252d3b947fb61c86a18e8b31114",
    "sourceDataCommitId": "888bb8f8c77ff55105fcab2ad84c263561eb1169",
    "ver": "0.3.0"
  }
}