{
  "apks": [
    {
      "applicationId": "xt.com.tongyong.id7946r",
      "broadcastReceiverIntentFilterActionNames": [
        "android.intent.action.BOOT_COMPLETED",
        "android.intent.action.PACKAGE_ADDED",
        "android.intent.action.PACKAGE_REMOVED",
        "android.intent.action.USER_PRESENT",
        "android.net.conn.CONNECTIVITY_CHANGE",
        "com.baidu.android.pushservice.action.BIND_SYNC",
        "com.baidu.android.pushservice.action.MESSAGE",
        "com.baidu.android.pushservice.action.METHOD",
        "com.baidu.android.pushservice.action.RECEIVE",
        "com.baidu.android.pushservice.action.media.CLICK",
        "com.baidu.android.pushservice.action.notification.CLICK",
        "com.baidu.android.pushservice.action.notification.SHOW"
      ],
      "dependencies": [],
      "domainNamesFilteredByExodus": [
        ".google.com"
      ],
      "metaDataNames": [
        "cn.knet.seal.sdk.apikey"
      ],
      "sha256": "aa0613aa2229f1a1e6dc625420a3368268e51ffb5a9855f331b688c4341bc8ec",
      "usesPermissions": [
        "android.permission.ACCESS_COARSE_LOCATION",
        "android.permission.ACCESS_FINE_LOCATION",
        "android.permission.ACCESS_NETWORK_STATE",
        "android.permission.ACCESS_NETWORK_STATE",
        "android.permission.ACCESS_WIFI_STATE",
        "android.permission.ACCESS_WIFI_STATE",
        "android.permission.BAIDU_LOCATION_SERVICE",
        "android.permission.BROADCAST_STICKY",
        "android.permission.CALL_PHONE",
        "android.permission.CAMERA",
        "android.permission.CHANGE_WIFI_STATE",
        "android.permission.DISABLE_KEYGUARD",
        "android.permission.GET_TASKS",
        "android.permission.INTERNET",
        "android.permission.INTERNET",
        "android.permission.INTERNET",
        "android.permission.MOUNT_UNMOUNT_FILESYSTEMS",
        "android.permission.READ_LOGS",
        "android.permission.READ_PHONE_STATE",
        "android.permission.READ_PHONE_STATE",
        "android.permission.RECEIVE_BOOT_COMPLETED",
        "android.permission.SYSTEM_ALERT_WINDOW",
        "android.permission.SYSTEM_ALERT_WINDOW",
        "android.permission.VIBRATE",
        "android.permission.WAKE_LOCK",
        "android.permission.WRITE_EXTERNAL_STORAGE",
        "android.permission.WRITE_EXTERNAL_STORAGE",
        "android.permission.WRITE_SETTINGS",
        "com.android.launcher.permission.INSTALL_SHORTCUT"
      ]
    }
  ],
  "meta": {
    "generated": "2020-08-27T15:22:10.126858",
    "generatedBy": [
      "/home/hc/code/trackingthetrackers/scripts/make-trackers-apk-set.py"
    ],
    "ver": "0.3.0"
  }
}