{
  "apks": [
    {
      "applicationId": "net.sourceforge.solitaire_cg",
      "broadcastReceiverIntentFilterActionNames": [],
      "dependencies": [],
      "domainNamesFilteredByExodus": [
        ".google.com"
      ],
      "metaDataNames": [],
      "sha256": "4a1a9436b641c417f7bb3fbb171d5ba92ad1ddddb47242b76d9e08236bb29335",
      "usesPermissions": []
    }
  ],
  "meta": {
    "generated": "2020-08-27T17:04:38.000725",
    "generatedBy": [
      "/home/hc/code/trackingthetrackers/scripts/make-clean-apk-set.py"
    ],
    "generatedByCommitId": "40519285d6f404593fa655fa89b433743c25289e",
    "sourceDataCommitId": "888bb8f8c77ff55105fcab2ad84c263561eb1169",
    "ver": "0.3.0"
  }
}