{
  "apks": [
    {
      "applicationId": "lwcr07snowmountain.lwp",
      "broadcastReceiverIntentFilterActionNames": [
        "android.intent.action.BOOT_COMPLETED",
        "android.intent.action.USER_PRESENT"
      ],
      "dependencies": [
        "com$startapp$android$publish",
        "com.ironsource.",
        "com.startapp.android.publish",
        "com_facebook_login"
      ],
      "domainNamesFilteredByExodus": [
        ".facebook.com",
        ".google.com",
        "api.airpush.com"
      ],
      "metaDataNames": [
        "android.service.wallpaper",
        "com.ybjk.qlft111182.APIKEY",
        "com.ybjk.qlft111182.APPID"
      ],
      "sha256": "5086446554005b1e78494a059109ada6a03d69f055659499e4612714fdde0149",
      "usesPermissions": [
        "android.permission.ACCESS_COARSE_LOCATION",
        "android.permission.ACCESS_FINE_LOCATION",
        "android.permission.ACCESS_NETWORK_STATE",
        "android.permission.ACCESS_WIFI_STATE",
        "android.permission.INTERNET",
        "android.permission.READ_PHONE_STATE",
        "android.permission.RECEIVE_BOOT_COMPLETED",
        "android.permission.WRITE_EXTERNAL_STORAGE"
      ]
    }
  ],
  "meta": {
    "generated": "2020-08-27T15:10:45.445214",
    "generatedBy": [
      "/home/hc/code/trackingthetrackers/scripts/make-trackers-apk-set.py"
    ],
    "ver": "0.3.0"
  }
}