{
  "apks": [
    {
      "applicationId": "com.ridgelineapps.resdicegame",
      "broadcastReceiverIntentFilterActionNames": [],
      "dependencies": [],
      "domainNamesFilteredByExodus": [],
      "metaDataNames": [],
      "sha256": "6236ce17f1759ae79e5ba934b5c7d9789afc45f1a94cba1978f578bb709b2c65",
      "usesPermissions": []
    }
  ],
  "meta": {
    "generated": "2020-08-27T17:00:33.221050",
    "generatedBy": [
      "/home/hc/code/trackingthetrackers/scripts/make-clean-apk-set.py"
    ],
    "generatedByCommitId": "40519285d6f404593fa655fa89b433743c25289e",
    "sourceDataCommitId": "888bb8f8c77ff55105fcab2ad84c263561eb1169",
    "ver": "0.3.0"
  }
}