{
  "apks": [
    {
      "applicationId": "com.owncloud.android",
      "broadcastReceiverIntentFilterActionNames": [
        "android.net.wifi.STATE_CHANGE"
      ],
      "dependencies": [],
      "domainNamesFilteredByExodus": [
        ".google.com"
      ],
      "metaDataNames": [
        "android.accounts.AccountAuthenticator",
        "android.app.searchable",
        "android.content.SyncAdapter",
        "android.support.FILE_PROVIDER_PATHS"
      ],
      "sha256": "524b0d3e8ceaa7e781016d67276f14d776d7c2996c3be7ca2d03a310ae032fc7",
      "usesPermissions": [
        "22",
        "android.permission.ACCESS_NETWORK_STATE",
        "android.permission.AUTHENTICATE_ACCOUNTS",
        "android.permission.BROADCAST_STICKY",
        "android.permission.FOREGROUND_SERVICE",
        "android.permission.GET_ACCOUNTS",
        "android.permission.INTERNET",
        "android.permission.MANAGE_ACCOUNTS",
        "android.permission.READ_SYNC_SETTINGS",
        "android.permission.READ_SYNC_STATS",
        "android.permission.RECEIVE_BOOT_COMPLETED",
        "android.permission.USE_CREDENTIALS",
        "android.permission.USE_FINGERPRINT",
        "android.permission.WAKE_LOCK",
        "android.permission.WRITE_EXTERNAL_STORAGE",
        "android.permission.WRITE_SYNC_SETTINGS"
      ]
    }
  ],
  "meta": {
    "generated": "2020-08-27T17:45:45.997452",
    "generatedBy": [
      "/home/hc/code/trackingthetrackers/scripts/make-clean-apk-set.py"
    ],
    "generatedByCommitId": "40519285d6f404593fa655fa89b433743c25289e",
    "sourceDataCommitId": "888bb8f8c77ff55105fcab2ad84c263561eb1169",
    "ver": "0.3.0"
  }
}