{
  "apks": [
    {
      "applicationId": "biz.neoline.books.zotov.apocalypse",
      "broadcastReceiverIntentFilterActionNames": [
        "com.android.vending.INSTALL_REFERRER"
      ],
      "dependencies": [
        "com.google.android.apps.analytics."
      ],
      "domainNamesFilteredByExodus": [
        "google-analytics.com"
      ],
      "metaDataNames": [
        "android.app.default_searchable",
        "android.app.searchable"
      ],
      "sha256": "f57f8ae073d58c8e20af9e2c75386b167b565ac9eca2cabbe5dbca23e462cbeb",
      "usesPermissions": [
        "android.permission.ACCESS_NETWORK_STATE",
        "android.permission.INTERNET",
        "android.permission.READ_PHONE_STATE",
        "android.permission.READ_SMS",
        "android.permission.RECEIVE_SMS",
        "android.permission.SEND_SMS",
        "android.permission.WAKE_LOCK",
        "android.permission.WRITE_EXTERNAL_STORAGE",
        "android.permission.WRITE_SETTINGS",
        "android.permission.WRITE_SMS"
      ]
    }
  ],
  "meta": {
    "generated": "2020-08-27T14:51:32.488339",
    "generatedBy": [
      "/home/hc/code/trackingthetrackers/scripts/make-trackers-apk-set.py"
    ],
    "ver": "0.3.0"
  }
}