{
  "apks": [
    {
      "applicationId": "com.dozingcatsoftware.bouncy",
      "broadcastReceiverIntentFilterActionNames": [],
      "dependencies": [],
      "domainNamesFilteredByExodus": [],
      "metaDataNames": [],
      "sha256": "dbb50d18e4e006917b60ca6c4e5c747ba8938c813c0c8a75b41d3dd0db868af8",
      "usesPermissions": []
    }
  ],
  "meta": {
    "generated": "2020-08-27T17:17:07.864652",
    "generatedBy": [
      "/home/hc/code/trackingthetrackers/scripts/make-clean-apk-set.py"
    ],
    "generatedByCommitId": "40519285d6f404593fa655fa89b433743c25289e",
    "sourceDataCommitId": "888bb8f8c77ff55105fcab2ad84c263561eb1169",
    "ver": "0.3.0"
  }
}