{
  "apks": [
    {
      "applicationId": "ru.playsoftware.j2meloader",
      "broadcastReceiverIntentFilterActionNames": [],
      "dependencies": [],
      "domainNamesFilteredByExodus": [
        "hockeyapp.net"
      ],
      "metaDataNames": [
        "android.support.FILE_PROVIDER_PATHS"
      ],
      "sha256": "7b124da0006876024dc7a7ebd847415d27fa60c4861287f7d051fd74b82db260",
      "usesPermissions": [
        "android.permission.INTERNET",
        "android.permission.RECORD_AUDIO",
        "android.permission.VIBRATE",
        "android.permission.WAKE_LOCK",
        "android.permission.WRITE_EXTERNAL_STORAGE",
        "com.android.launcher.permission.INSTALL_SHORTCUT"
      ]
    }
  ],
  "meta": {
    "generated": "2020-08-27T18:43:21.004866",
    "generatedBy": [
      "/home/hc/code/trackingthetrackers/scripts/make-clean-apk-set.py"
    ],
    "generatedByCommitId": "3839559c80042252d3b947fb61c86a18e8b31114",
    "sourceDataCommitId": "888bb8f8c77ff55105fcab2ad84c263561eb1169",
    "ver": "0.3.0"
  }
}