{
  "apks": [
    {
      "applicationId": "com.fr3ts0n.ecu.gui.androbd",
      "broadcastReceiverIntentFilterActionNames": [],
      "dependencies": [],
      "domainNamesFilteredByExodus": [],
      "metaDataNames": [
        "android.hardware.usb.action.USB_DEVICE_ATTACHED"
      ],
      "sha256": "e6ca15c9966459579bd716cba1f887b6edd4f567236bfcef81303b6ced391d4f",
      "usesPermissions": [
        "android.permission.BLUETOOTH",
        "android.permission.BLUETOOTH_ADMIN",
        "android.permission.WAKE_LOCK",
        "android.permission.WRITE_EXTERNAL_STORAGE"
      ]
    }
  ],
  "meta": {
    "generated": "2020-08-27T17:22:25.169411",
    "generatedBy": [
      "/home/hc/code/trackingthetrackers/scripts/make-clean-apk-set.py"
    ],
    "generatedByCommitId": "40519285d6f404593fa655fa89b433743c25289e",
    "sourceDataCommitId": "888bb8f8c77ff55105fcab2ad84c263561eb1169",
    "ver": "0.3.0"
  }
}