{
  "apks": [
    {
      "applicationId": "com.smithdtyler.prettygoodmusicplayer",
      "broadcastReceiverIntentFilterActionNames": [
        "android.intent.action.HEADSET_PLUG",
        "android.intent.action.MEDIA_BUTTON"
      ],
      "dependencies": [],
      "domainNamesFilteredByExodus": [],
      "metaDataNames": [],
      "sha256": "4fea535615e381670427cbde64ab090e68f9e10d8a1252387bd927a1d25628f3",
      "usesPermissions": [
        "android.permission.BLUETOOTH",
        "android.permission.MODIFY_AUDIO_SETTINGS",
        "android.permission.READ_EXTERNAL_STORAGE"
      ]
    }
  ],
  "meta": {
    "generated": "2020-08-27T17:49:06.534517",
    "generatedBy": [
      "/home/hc/code/trackingthetrackers/scripts/make-clean-apk-set.py"
    ],
    "generatedByCommitId": "40519285d6f404593fa655fa89b433743c25289e",
    "sourceDataCommitId": "888bb8f8c77ff55105fcab2ad84c263561eb1169",
    "ver": "0.3.0"
  }
}