{
  "apks": [
    {
      "applicationId": "com.simplemobiletools.gallery",
      "broadcastReceiverIntentFilterActionNames": [
        "com.android.vending.INSTALL_REFERRER",
        "com.simplemobiletools.REFRESH_MEDIA",
        "com.simplemobiletools.commons.SHARED_THEME_ACTIVATED",
        "com.simplemobiletools.commons.SHARED_THEME_UPDATED"
      ],
      "dependencies": [],
      "domainNamesFilteredByExodus": [
        ".facebook.com",
        ".google.com"
      ],
      "metaDataNames": [
        "android.app.default_searchable",
        "android.support.FILE_PROVIDER_PATHS"
      ],
      "sha256": "92f90be96e0e7ba74c0e83ca730e764bf1d6dbee320fbb0659665f42fc8d6fb6",
      "usesPermissions": [
        "android.permission.SET_WALLPAPER",
        "android.permission.USE_FINGERPRINT",
        "android.permission.WRITE_EXTERNAL_STORAGE"
      ]
    }
  ],
  "meta": {
    "generated": "2020-08-27T17:48:26.249619",
    "generatedBy": [
      "/home/hc/code/trackingthetrackers/scripts/make-clean-apk-set.py"
    ],
    "generatedByCommitId": "40519285d6f404593fa655fa89b433743c25289e",
    "sourceDataCommitId": "888bb8f8c77ff55105fcab2ad84c263561eb1169",
    "ver": "0.3.0"
  }
}