{
  "apks": [
    {
      "applicationId": "com.mobi.screensaver.mbq8",
      "broadcastReceiverIntentFilterActionNames": [
        "action_application_start",
        "action_application_stop",
        "android.intent.action.BOOT_COMPLETED",
        "android.intent.action.HEADSET_PLUG",
        "android.intent.action.MEDIA_EJECT",
        "android.intent.action.MEDIA_MOUNTED",
        "android.intent.action.USER_PRESENT"
      ],
      "dependencies": [],
      "domainNamesFilteredByExodus": [],
      "metaDataNames": [
        "Mobi_ID",
        "Mobi_PID"
      ],
      "sha256": "1ae91b7b7d86ba3ec9ad1d0efa4a25259ed752ad2dc786199a3af27da79b29be",
      "usesPermissions": [
        "android.permission.ACCESS_NETWORK_STATE",
        "android.permission.ACCESS_WIFI_STATE",
        "android.permission.DISABLE_KEYGUARD",
        "android.permission.EXPAND_STATUS_BAR",
        "android.permission.GET_TASKS",
        "android.permission.INTERNET",
        "android.permission.READ_EXTERNAL_STORAGE",
        "android.permission.READ_PHONE_STATE",
        "android.permission.SET_WALLPAPER",
        "android.permission.VIBRATE",
        "android.permission.WRITE_EXTERNAL_STORAGE"
      ]
    }
  ],
  "meta": {
    "generated": "2020-08-27T15:08:07.135024",
    "generatedBy": [
      "/home/hc/code/trackingthetrackers/scripts/make-trackers-apk-set.py"
    ],
    "ver": "0.3.0"
  }
}