{
  "apks": [
    {
      "applicationId": "info.staticfree.SuperGenPass",
      "broadcastReceiverIntentFilterActionNames": [],
      "dependencies": [],
      "domainNamesFilteredByExodus": [],
      "metaDataNames": [],
      "sha256": "2234d1f55654148c4c308d93d6b9ee29a16e00d35e4eefc5f84e48671de769a2",
      "usesPermissions": []
    }
  ],
  "meta": {
    "generated": "2020-08-27T18:12:52.737200",
    "generatedBy": [
      "/home/hc/code/trackingthetrackers/scripts/make-clean-apk-set.py"
    ],
    "generatedByCommitId": "3839559c80042252d3b947fb61c86a18e8b31114",
    "sourceDataCommitId": "888bb8f8c77ff55105fcab2ad84c263561eb1169",
    "ver": "0.3.0"
  }
}