{
  "apks": [
    {
      "applicationId": "cn.kuwo.player",
      "broadcastReceiverIntentFilterActionNames": [
        "HAP_BIND",
        "android.appwidget.action.APPWIDGET_DELETED",
        "android.appwidget.action.APPWIDGET_DISABLED",
        "android.appwidget.action.APPWIDGET_ENABLED",
        "android.appwidget.action.APPWIDGET_UPDATE",
        "android.bluetooth.adapter.action.STATE_CHANGED",
        "android.bluetooth.device.action.ACL_CONNECTED",
        "android.bluetooth.device.action.ACL_DISCONNECTED",
        "android.bluetooth.device.action.BOND_STATE_CHANGED",
        "android.intent.action.ACTION_SHUTDOWN",
        "android.intent.action.ANY_DATA_STATE",
        "android.intent.action.BOOT_COMPLETED",
        "android.intent.action.DATE_CHANGED",
        "android.intent.action.DOWNLOAD_COMPLETE",
        "android.intent.action.MEDIA_BUTTON",
        "android.intent.action.MEDIA_CHECKING",
        "android.intent.action.MEDIA_EJECT",
        "android.intent.action.MEDIA_REMOVED",
        "android.intent.action.MEDIA_UNMOUNTED",
        "android.intent.action.PACKAGE_ADDED",
        "android.intent.action.PACKAGE_REMOVED",
        "android.intent.action.PACKAGE_REPLACED",
        "android.intent.action.REBOOT",
        "android.intent.action.USER_PRESENT",
        "android.media.AUDIO_BECOMING_NOISY",
        "android.media.RINGER_MODE_CHANGED",
        "android.net.conn.CONNECTIVITY_CHANGE",
        "android.net.wifi.STATE_CHANGE",
        "android.net.wifi.WIFI_STATE_CHANGED",
        "cn.kuwo.player.CHANGE_MODE",
        "cn.kuwo.player.INIT_FINISHED",
        "cn.kuwo.player.INIT_START",
        "cn.kuwo.player.NEXT",
        "cn.kuwo.player.PREV",
        "cn.kuwo.player.TOGGLE_PAUSE",
        "cn.kuwo.player.action.ConfigChanged",
        "cn.kuwo.player.imcs.action.MUSIC_CONTROL",
        "cn.kuwo.player.intent.action.mvdownload",
        "cn.kuwo.show.ui.room.RoomFragment.follow",
        "cn.kuwo.show.ui.room.RoomFragment.getcoin",
        "cn.kuwo.show.ui.room.RoomFragment.plumes",
        "cn.kuwo.show.ui.room.RoomFragment.sign",
        "com.xiaomi.mipush.ERROR",
        "com.xiaomi.mipush.MESSAGE_ARRIVED",
        "com.xiaomi.mipush.RECEIVE_MESSAGE",
        "com.xiaomi.push.PING_TIMER"
      ],
      "dependencies": [
        "com.baidu.location",
        "com.umeng.analytics"
      ],
      "domainNamesFilteredByExodus": [
        ".google.com",
        "alog.umeng.com",
        "oc.umeng.com",
        "umeng.com"
      ],
      "metaDataNames": [
        "Sijlakey",
        "UMENG_APPKEY",
        "UMENG_CHANNEL",
        "android.appwidget.provider",
        "com.amap.api.v2.apikey",
        "fakever",
        "formalpackage",
        "gamehallshield",
        "internalver",
        "ire_channel",
        "ire_key",
        "ire_url",
        "mip_version",
        "svninfo",
        "usetesthost"
      ],
      "sha256": "5e5e2517910db2a0263ffa87dea68c025fc8132da3fbbe532159beae837e2e25",
      "usesPermissions": [
        "android.permission.ACCESS_COARSE_LOCATION",
        "android.permission.ACCESS_FINE_LOCATION",
        "android.permission.ACCESS_NETWORK_STATE",
        "android.permission.ACCESS_WIFI_STATE",
        "android.permission.BLUETOOTH",
        "android.permission.CAMERA",
        "android.permission.CHANGE_NETWORK_STATE",
        "android.permission.CHANGE_WIFI_STATE",
        "android.permission.DISABLE_KEYGUARD",
        "android.permission.DISABLE_KEYGUARD",
        "android.permission.DOWNLOAD_WITHOUT_NOTIFICATION",
        "android.permission.FLASHLIGHT",
        "android.permission.GET_TASKS",
        "android.permission.INTERNET",
        "android.permission.KILL_BACKGROUND_PROCESSES",
        "android.permission.MODIFY_AUDIO_SETTINGS",
        "android.permission.MOUNT_FORMAT_FILESYSTEMS",
        "android.permission.MOUNT_UNMOUNT_FILESYSTEMS",
        "android.permission.PACKAGE_USAGE_STATS",
        "android.permission.READ_CONTACTS",
        "android.permission.READ_EXTERNAL_STORAGE",
        "android.permission.READ_LOGS",
        "android.permission.READ_PHONE_STATE",
        "android.permission.RECEIVE_BOOT_COMPLETED",
        "android.permission.RECORD_AUDIO",
        "android.permission.REORDER_TASKS",
        "android.permission.SEND_SMS",
        "android.permission.SYSTEM_ALERT_WINDOW",
        "android.permission.SYSTEM_OVERLAY_WINDOW",
        "android.permission.VIBRATE",
        "android.permission.WAKE_LOCK",
        "android.permission.WRITE_EXTERNAL_STORAGE",
        "android.permission.WRITE_MEDIA_STORAGE",
        "android.permission.WRITE_SETTINGS",
        "cn.kuwo.player.permission.MIPUSH_RECEIVE",
        "com.android.browser.permission.READ_HISTORY_BOOKMARKS",
        "com.android.launcher.permission.INSTALL_SHORTCUT",
        "com.android.launcher.permission.READ_SETTINGS",
        "com.android.launcher.permission.READ_SETTINGS",
        "com.android.launcher.permission.UNINSTALL_SHORTCUT",
        "com.android.launcher.permission.WRITE_SETTINGS",
        "com.android.launcher.permission.WRITE_SETTINGS",
        "imcs.permission.MUSIC_CONTROL"
      ]
    }
  ],
  "meta": {
    "generated": "2020-08-27T15:50:39.211532",
    "generatedBy": [
      "/home/hc/code/trackingthetrackers/scripts/make-trackers-apk-set.py"
    ],
    "ver": "0.3.0"
  }
}