{
  "apks": [
    {
      "applicationId": "com.clas.fsh.gags",
      "broadcastReceiverIntentFilterActionNames": [
        "android.appwidget.action.APPWIDGET_UPDATE",
        "android.intent.action.BOOT_COMPLETED"
      ],
      "dependencies": [
        "com$startapp$android$publish",
        "com.google.ads.",
        "com.google.android.gms.ads.",
        "com.google.android.gms.analytics.",
        "com.google.android.gms.tagmanager",
        "com.ironsource.",
        "com.startapp.android.publish",
        "com.vungle.publisher.",
        "com_facebook_login"
      ],
      "domainNamesFilteredByExodus": [
        ".facebook.com",
        ".google.com",
        "api.vungle.com",
        "doubleclick.net",
        "google-analytics.com",
        "ingest.vungle.com",
        "www.googletagmanager.com"
      ],
      "metaDataNames": [
        "android.appwidget.provider",
        "android.service.wallpaper",
        "com.clach.gaen0803.APIKEY",
        "com.clach.gaen0803.APPID",
        "com.google.android.gms.version"
      ],
      "sha256": "fe1ca682686b78591ac33900de88d67e14b4779b11f826ec60e2e18382ebea78",
      "usesPermissions": [
        "android.permission.ACCESS_COARSE_LOCATION",
        "android.permission.ACCESS_FINE_LOCATION",
        "android.permission.ACCESS_NETWORK_STATE",
        "android.permission.ACCESS_WIFI_STATE",
        "android.permission.GET_ACCOUNTS",
        "android.permission.INTERNET",
        "android.permission.READ_PHONE_STATE",
        "android.permission.RECEIVE_BOOT_COMPLETED",
        "android.permission.WAKE_LOCK",
        "android.permission.WRITE_EXTERNAL_STORAGE",
        "com.android.browser.permission.READ_HISTORY_BOOKMARKS"
      ]
    }
  ],
  "meta": {
    "generated": "2020-08-27T15:50:19.435261",
    "generatedBy": [
      "/home/hc/code/trackingthetrackers/scripts/make-trackers-apk-set.py"
    ],
    "ver": "0.3.0"
  }
}