{
  "apks": [
    {
      "applicationId": "com.android.Ohlight",
      "broadcastReceiverIntentFilterActionNames": [
        "android.appwidget.action.APPWIDGET_DISABLED",
        "android.appwidget.action.APPWIDGET_ENABLED",
        "android.appwidget.action.APPWIDGET_UPDATE",
        "android.bluetooth.adapter.action.STATE_CHANGED",
        "android.intent.action.BOOT_COMPLETED",
        "android.intent.action.PACKAGE_ADDED",
        "android.intent.action.USER_PRESENT",
        "android.location.PROVIDERS_CHANGED",
        "android.net.conn.BACKGROUND_DATA_SETTING_CHANGED",
        "android.net.conn.MOBILE_CONNECTIVITY_CHANGE",
        "android.net.wifi.WIFI_STATE_CHANGED",
        "com.android.Ohlight.OhLightOnlyWidget.torch",
        "com.android.Ohlight.OhLightOnlyWidget.torch.update",
        "com.android.Ohlight.OhlightMain.torch",
        "com.android.Ohlight.appWidgetUpdate.bt",
        "com.android.Ohlight.appWidgetUpdate.cacl",
        "com.android.Ohlight.appWidgetUpdate.camera",
        "com.android.Ohlight.appWidgetUpdate.compass",
        "com.android.Ohlight.appWidgetUpdate.data",
        "com.android.Ohlight.appWidgetUpdate.gps",
        "com.android.Ohlight.appWidgetUpdate.music",
        "com.android.Ohlight.appWidgetUpdate.shake",
        "com.android.Ohlight.appWidgetUpdate.torch",
        "com.android.Ohlight.appWidgetUpdate.torch.update",
        "com.android.Ohlight.appWidgetUpdate.wifi",
        "com.android.sync.SYNC_CONN_STATUS_CHANGED",
        "com.lseiei.downloadManager"
      ],
      "dependencies": [
        "com.baidu.location"
      ],
      "domainNamesFilteredByExodus": [
        "map.baidu.com"
      ],
      "metaDataNames": [
        "UN_KEY",
        "android.appwidget.provider"
      ],
      "sha256": "655ad392080e7ae895b933c5b90847ec68e361cd131f271dbf56208c09ab0d15",
      "usesPermissions": [
        "android.permission.ACCESS_COARSE_LOCATION",
        "android.permission.ACCESS_FINE_LOCATION",
        "android.permission.ACCESS_NETWORK_STATE",
        "android.permission.ACCESS_NETWORK_STATE",
        "android.permission.ACCESS_NETWORK_STATE",
        "android.permission.ACCESS_NETWORK_STATE",
        "android.permission.ACCESS_WIFI_STATE",
        "android.permission.ACCESS_WIFI_STATE",
        "android.permission.ACCESS_WIMAX_STATE",
        "android.permission.BLUETOOTH",
        "android.permission.BLUETOOTH_ADMIN",
        "android.permission.CAMERA",
        "android.permission.CHANGE_NETWORK_STATE",
        "android.permission.CHANGE_WIFI_STATE",
        "android.permission.CHANGE_WIMAX_STATE",
        "android.permission.CLEAR_APP_USER_DATA",
        "android.permission.DEVICE_POWER",
        "android.permission.FLASHLIGHT",
        "android.permission.GET_TASKS",
        "android.permission.INTERNET",
        "android.permission.INTERNET",
        "android.permission.INTERNET",
        "android.permission.MOUNT_UNMOUNT_FILESYSTEMS",
        "android.permission.READ_LOGS",
        "android.permission.READ_PHONE_STATE",
        "android.permission.READ_PHONE_STATE",
        "android.permission.RECEIVE_BOOT_COMPLETED",
        "android.permission.SYSTEM_ALERT_WINDOW",
        "android.permission.SYSTEM_ALERT_WINDOW",
        "android.permission.WAKE_LOCK",
        "android.permission.WRITE_EXTERNAL_STORAGE",
        "android.permission.WRITE_EXTERNAL_STORAGE",
        "android.permission.WRITE_EXTERNAL_STORAGE",
        "android.permission.WRITE_SECURE_SETTINGS",
        "android.permission.WRITE_SETTINGS"
      ]
    }
  ],
  "meta": {
    "generated": "2020-08-27T15:42:31.131769",
    "generatedBy": [
      "/home/hc/code/trackingthetrackers/scripts/make-trackers-apk-set.py"
    ],
    "ver": "0.3.0"
  }
}