{
  "apks": [
    {
      "applicationId": "com.gunshippenguin.openflood",
      "broadcastReceiverIntentFilterActionNames": [],
      "dependencies": [],
      "domainNamesFilteredByExodus": [],
      "metaDataNames": [],
      "sha256": "aa21c1868ab16babb7773fed14a966b8f507716f0d3327db603e40cc4836aa55",
      "usesPermissions": []
    }
  ],
  "meta": {
    "generated": "2020-08-27T17:32:26.279283",
    "generatedBy": [
      "/home/hc/code/trackingthetrackers/scripts/make-clean-apk-set.py"
    ],
    "generatedByCommitId": "40519285d6f404593fa655fa89b433743c25289e",
    "sourceDataCommitId": "888bb8f8c77ff55105fcab2ad84c263561eb1169",
    "ver": "0.3.0"
  }
}