{
  "apks": [
    {
      "applicationId": "com.chzb.gn.jwz.qmlsz.yxd8849.a241",
      "broadcastReceiverIntentFilterActionNames": [
        "android.intent.action.DOWNLOAD_COMPLETE",
        "android.intent.action.PACKAGE_ADDED",
        "android.intent.action.PACKAGE_REPLACED",
        "android.intent.action.USER_PRESENT",
        "android.net.conn.CONNECTIVITY_CHANGE"
      ],
      "dependencies": [
        "org.cocos2dx"
      ],
      "domainNamesFilteredByExodus": [
        ".google.com"
      ],
      "metaDataNames": [
        "LOGIN_SHOW"
      ],
      "sha256": "62fd7e4148dd9b6dae44ca1301519ff20ec694c45db21f4159b8f62e5374e1ab",
      "usesPermissions": [
        "android.permission.ACCESS_COARSE_LOCATION",
        "android.permission.ACCESS_COARSE_UPDATES",
        "android.permission.ACCESS_FINE_LOCATION",
        "android.permission.ACCESS_LOCATION_EXTRA_COMMANDS",
        "android.permission.ACCESS_NETWORK_STATE",
        "android.permission.ACCESS_NETWORK_STATE",
        "android.permission.ACCESS_WIFI_STATE",
        "android.permission.CALL_PHONE",
        "android.permission.CHANGE_NETWORK_STATE",
        "android.permission.CHANGE_WIFI_STATE",
        "android.permission.GET_TASKS",
        "android.permission.INTERACT_ACROSS_USERS_FULL",
        "android.permission.INTERNET",
        "android.permission.INTERNET",
        "android.permission.MODIFY_PHONE_STATE",
        "android.permission.MOUNT_UNMOUNT_FILESYSTEMS",
        "android.permission.MOUNT_UNMOUNT_FILESYSTEMS",
        "android.permission.READ_EXTERNAL_STORAGE",
        "android.permission.READ_EXTERNAL_STORAGE",
        "android.permission.READ_PHONE_STATE",
        "android.permission.READ_PHONE_STATE",
        "android.permission.READ_SMS",
        "android.permission.RECEIVE_BOOT_COMPLETED",
        "android.permission.RECEIVE_SMS",
        "android.permission.RECEIVE_USER_PRESENT",
        "android.permission.RECEIVE_USER_PRESENT",
        "android.permission.RESTART_PACKAGES",
        "android.permission.SEND_SMS",
        "android.permission.SYSTEM_ALERT_WINDOW",
        "android.permission.SYSTEM_ALERT_WINDOW",
        "android.permission.VIBRATE",
        "android.permission.VIBRATE",
        "android.permission.WAKE_LOCK",
        "android.permission.WAKE_LOCK",
        "android.permission.WRITE_APN_SETTINGS",
        "android.permission.WRITE_EXTERNAL_STORAGE",
        "android.permission.WRITE_EXTERNAL_STORAGE",
        "android.permission.WRITE_EXTERNAL_STORAGE",
        "android.permission.WRITE_SETTINGS",
        "android.permission.WRITE_SMS",
        "com.chzb.gn.jwz.leyo.permission.JPUSH_MESSAGE"
      ]
    }
  ],
  "meta": {
    "generated": "2020-08-27T15:09:04.288180",
    "generatedBy": [
      "/home/hc/code/trackingthetrackers/scripts/make-trackers-apk-set.py"
    ],
    "ver": "0.3.0"
  }
}