{
  "apks": [
    {
      "applicationId": "nodomain.freeyourgadget.gadgetbridge",
      "broadcastReceiverIntentFilterActionNames": [
        "android.appwidget.action.APPWIDGET_UPDATE",
        "android.bluetooth.adapter.action.STATE_CHANGED",
        "android.intent.action.BOOT_COMPLETED",
        "nodomain.freeyourgadget.gadgetbridge.SLEEP_ALARM_WIDGET_CLICK",
        "nodomain.freeyourgadget.gadgetbridge.callcontrol",
        "nodomain.freeyourgadget.gadgetbridge.musiccontrol",
        "ru.gelin.android.weather.notification.ACTION_WEATHER_UPDATE_2"
      ],
      "dependencies": [],
      "domainNamesFilteredByExodus": [],
      "metaDataNames": [
        "android.appwidget.provider",
        "android.support.FILE_PROVIDER_PATHS",
        "android.support.PARENT_ACTIVITY",
        "android.support.VERSION"
      ],
      "sha256": "e74b530154e8bbd7ab6c0b387e93b87d50d1cdd7f9c686f83cbf7071d5cbd1e3",
      "usesPermissions": [
        "android.permission.ACCESS_COARSE_LOCATION",
        "android.permission.BLUETOOTH",
        "android.permission.BLUETOOTH_ADMIN",
        "android.permission.CALL_PHONE",
        "android.permission.PROCESS_OUTGOING_CALLS",
        "android.permission.READ_CALENDAR",
        "android.permission.READ_CONTACTS",
        "android.permission.READ_EXTERNAL_STORAGE",
        "android.permission.READ_PHONE_STATE",
        "android.permission.RECEIVE_BOOT_COMPLETED",
        "android.permission.RECEIVE_SMS",
        "android.permission.SEND_SMS"
      ]
    }
  ],
  "meta": {
    "generated": "2020-08-27T18:20:47.607437",
    "generatedBy": [
      "/home/hc/code/trackingthetrackers/scripts/make-clean-apk-set.py"
    ],
    "generatedByCommitId": "3839559c80042252d3b947fb61c86a18e8b31114",
    "sourceDataCommitId": "888bb8f8c77ff55105fcab2ad84c263561eb1169",
    "ver": "0.3.0"
  }
}