{
  "apks": [
    {
      "applicationId": "com.android.mmreader375",
      "broadcastReceiverIntentFilterActionNames": [],
      "dependencies": [
        "com.baidu.location",
        "com.tencent.lbs",
        "com.tencent.mobwin"
      ],
      "domainNamesFilteredByExodus": [
        ".google.com",
        "map.baidu.com"
      ],
      "metaDataNames": [
        "APP_ID",
        "APP_INTERVAL",
        "BaiduMobAd_APP_ID",
        "BaiduMobAd_APP_SEC",
        "Mobisage_channel",
        "Mobisage_publishID",
        "TAOBAO_PID"
      ],
      "sha256": "fe1eeaae931159e3782a2eedb0a540de10873c98c0d667d673aef9326cf89d46",
      "usesPermissions": [
        "android.permission.ACCESS_COARSE_LOCATION",
        "android.permission.ACCESS_FINE_LOCATION",
        "android.permission.ACCESS_NETWORK_STATE",
        "android.permission.ACCESS_WIFI_STATE",
        "android.permission.CALL_PHONE",
        "android.permission.CHANGE_WIFI_STATE",
        "android.permission.INTERNET",
        "android.permission.READ_PHONE_STATE",
        "android.permission.WRITE",
        "android.permission.WRITE_EXTERNAL_STORAGE"
      ]
    }
  ],
  "meta": {
    "generated": "2020-08-27T15:14:10.487224",
    "generatedBy": [
      "/home/hc/code/trackingthetrackers/scripts/make-trackers-apk-set.py"
    ],
    "ver": "0.3.0"
  }
}