{
  "apks": [
    {
      "applicationId": "xxxvideos.media.com",
      "broadcastReceiverIntentFilterActionNames": [],
      "dependencies": [],
      "domainNamesFilteredByExodus": [],
      "metaDataNames": [],
      "sha256": "15619b693efa92d7ab84981a3fed18433398fe48553ed6ba9786c167ac9f37f4",
      "usesPermissions": [
        "android.permission.GET_ACCOUNTS",
        "android.permission.INTERNET",
        "android.permission.READ_PROFILE"
      ]
    }
  ],
  "meta": {
    "generated": "2020-08-27T15:29:49.824616",
    "generatedBy": [
      "/home/hc/code/trackingthetrackers/scripts/make-trackers-apk-set.py"
    ],
    "ver": "0.3.0"
  }
}