{
  "apks": [
    {
      "applicationId": "com.frrahat.quransimple",
      "broadcastReceiverIntentFilterActionNames": [],
      "dependencies": [],
      "domainNamesFilteredByExodus": [
        ".facebook.com",
        ".google.com",
        "google-analytics.com"
      ],
      "metaDataNames": [
        "android.support.PARENT_ACTIVITY"
      ],
      "sha256": "7608833b1beebb2c0c99c20d883e4330bd6cc56f667890ee5f5f295faea6241c",
      "usesPermissions": []
    }
  ],
  "meta": {
    "generated": "2020-08-27T17:22:31.012977",
    "generatedBy": [
      "/home/hc/code/trackingthetrackers/scripts/make-clean-apk-set.py"
    ],
    "generatedByCommitId": "40519285d6f404593fa655fa89b433743c25289e",
    "sourceDataCommitId": "888bb8f8c77ff55105fcab2ad84c263561eb1169",
    "ver": "0.3.0"
  }
}