{
  "apks": [
    {
      "applicationId": "ca.rmen.android.poetassistant",
      "broadcastReceiverIntentFilterActionNames": [
        "action_wotd"
      ],
      "dependencies": [],
      "domainNamesFilteredByExodus": [
        ".google.com"
      ],
      "metaDataNames": [
        "android.app.searchable",
        "android.support.FILE_PROVIDER_PATHS",
        "android.support.PARENT_ACTIVITY"
      ],
      "sha256": "0c9837b3f85fcb40bc6234cd3679555a862341f9a1c312585a4c448efa06fa4c",
      "usesPermissions": [
        "android.permission.RECEIVE_BOOT_COMPLETED"
      ]
    }
  ],
  "meta": {
    "generated": "2020-08-27T16:51:57.212201",
    "generatedBy": [
      "/home/hc/code/trackingthetrackers/scripts/make-clean-apk-set.py"
    ],
    "generatedByCommitId": "40519285d6f404593fa655fa89b433743c25289e",
    "sourceDataCommitId": "888bb8f8c77ff55105fcab2ad84c263561eb1169",
    "ver": "0.3.0"
  }
}