{
  "apks": [
    {
      "applicationId": "com.kasuroid.connect",
      "broadcastReceiverIntentFilterActionNames": [
        "android.intent.action.BOOT_COMPLETED",
        "com.android.vending.INSTALL_REFERRER"
      ],
      "dependencies": [
        "com.google.android.gms.analytics.",
        "com_google_ads_"
      ],
      "domainNamesFilteredByExodus": [],
      "metaDataNames": [
        "ADMOB_ALLOW_LOCATION_FOR_ADS",
        "ADMOB_PUBLISHER_ID"
      ],
      "sha256": "473187c51474fdf3fd00ddf1799b81b347dd909470b34fbeac350a60b6bc5a31",
      "usesPermissions": [
        "android.permission.ACCESS_COARSE_LOCATION",
        "android.permission.ACCESS_NETWORK_STATE",
        "android.permission.CHANGE_NETWORK_STATE",
        "android.permission.INTERNET",
        "android.permission.INTERNET",
        "android.permission.READ_PHONE_STATE",
        "android.permission.RECEIVE_BOOT_COMPLETED",
        "android.permission.VIBRATE",
        "android.permission.WAKE_LOCK",
        "android.permission.WRITE_EXTERNAL_STORAGE",
        "com.android.launcher.permission.INSTALL_SHORTCUT",
        "com.android.launcher.permission.UNINSTALL_SHORTCUT"
      ]
    }
  ],
  "meta": {
    "generated": "2020-08-27T15:38:18.269570",
    "generatedBy": [
      "/home/hc/code/trackingthetrackers/scripts/make-trackers-apk-set.py"
    ],
    "ver": "0.3.0"
  }
}