{
  "apks": [
    {
      "applicationId": "com.mydream.wifi",
      "broadcastReceiverIntentFilterActionNames": [
        "android.intent.action.ACTION_POWER_CONNECTED",
        "android.intent.action.ACTION_POWER_DISCONNECTED",
        "android.intent.action.BOOT_COMPLETED",
        "android.intent.action.PACKAGE_REMOVED",
        "android.intent.action.USER_PRESENT",
        "android.net.conn.CONNECTIVITY_CHANGE",
        "com.mydream.wifi.action.notification.delete",
        "com.mydream.wifi.intent.action.COMMAND",
        "com.wifibanlv.action.local_push",
        "io.rong.push.HeartBeat",
        "io.rong.push.message",
        "org.agoo.android.intent.action.ELECTION_RESULT_V4",
        "org.agoo.android.intent.action.RECEIVE"
      ],
      "dependencies": [],
      "domainNamesFilteredByExodus": [
        "map.baidu.com",
        "umeng.com"
      ],
      "metaDataNames": [
        "APP_CLASS",
        "BaiduMobAd_APP_ID",
        "QBSDKAppKey",
        "RONG_CLOUD_APP_KEY",
        "UMENG_APPKEY",
        "UMENG_CHANNEL",
        "UMENG_MESSAGE_SECRET",
        "com.baidu.lbsapi.API_KEY"
      ],
      "sha256": "8daecac991c12b4f9fcfa5a06916d49b524bcb5e5de72a0f780367be6df7e333",
      "usesPermissions": [
        "android.permission.ACCESS_COARSE_LOCATION",
        "android.permission.ACCESS_FIND_LOCATION",
        "android.permission.ACCESS_FINE_LOCATION",
        "android.permission.ACCESS_FINE_LOCATION",
        "android.permission.ACCESS_NETWORK_STATE",
        "android.permission.ACCESS_WIFI_STATE",
        "android.permission.BROADCAST_PACKAGE_ADDED",
        "android.permission.BROADCAST_PACKAGE_CHANGED",
        "android.permission.BROADCAST_PACKAGE_INSTALL",
        "android.permission.BROADCAST_PACKAGE_REPLACED",
        "android.permission.CALL_PHONE",
        "android.permission.CHANGE_NETWORK_STATE",
        "android.permission.CHANGE_WIFI_STATE",
        "android.permission.GET_ACCOUNTS",
        "android.permission.GET_TASKS",
        "android.permission.INTERNET",
        "android.permission.MOUNT_UNMOUNT_FILESYSTEMS",
        "android.permission.READ_LOGS",
        "android.permission.READ_PHONE_STATE",
        "android.permission.READ_SMS",
        "android.permission.RECEIVE_BOOT_COMPLETED",
        "android.permission.RECEIVE_SMS",
        "android.permission.RECORD_AUDIO",
        "android.permission.RESTART_PACKAGES",
        "android.permission.SEND_SMS",
        "android.permission.VIBRATE",
        "android.permission.WAKE_LOCK",
        "android.permission.WRITE_EXTERNAL_STORAGE",
        "android.permission.WRITE_SETTINGS",
        "com.android.launcher.permission.INSTALL_SHORTCUT",
        "com.android.launcher.permission.READ_SETTINGS",
        "com.android.launcher.permission.UNINSTALL_SHORTCUT"
      ]
    }
  ],
  "meta": {
    "generated": "2020-08-27T15:27:04.114686",
    "generatedBy": [
      "/home/hc/code/trackingthetrackers/scripts/make-trackers-apk-set.py"
    ],
    "ver": "0.3.0"
  }
}