{
  "apks": [
    {
      "applicationId": "gtkw.lyfa.hjaajxclg",
      "broadcastReceiverIntentFilterActionNames": [],
      "dependencies": [],
      "domainNamesFilteredByExodus": [],
      "metaDataNames": [],
      "sha256": "d28bbdefc4cfc28b4fb3e36da18bb3734094b47504b6526663272726ad710ad4",
      "usesPermissions": []
    }
  ],
  "meta": {
    "generated": "2020-08-27T14:58:48.840232",
    "generatedBy": [
      "/home/hc/code/trackingthetrackers/scripts/make-trackers-apk-set.py"
    ],
    "ver": "0.3.0"
  }
}