{
  "apks": [
    {
      "applicationId": "libretasks.app",
      "broadcastReceiverIntentFilterActionNames": [
        "LOCATION_CHANGED",
        "MISSED_CALL",
        "NETWORK_AVAILABLE",
        "OmniRestart",
        "OmniStart",
        "PHONE_CALL_ENDED",
        "PHONE_RINGING",
        "SERVICE_AVAILABLE",
        "TIME_TICK",
        "android.intent.action.ACTION_POWER_CONNECTED",
        "android.intent.action.ACTION_POWER_DISCONNECTED",
        "android.intent.action.BATTERY_LOW",
        "android.intent.action.BATTERY_OKAY",
        "android.intent.action.BOOT_COMPLETED",
        "android.intent.action.CAMERA_BUTTON",
        "android.intent.action.DEVICE_STORAGE_LOW",
        "android.intent.action.DEVICE_STORAGE_OK",
        "android.intent.action.DOCK_EVENT",
        "android.intent.action.GTALK_CONNECTED",
        "android.intent.action.GTALK_DISCONNECTED",
        "android.intent.action.HEADSET_PLUG",
        "android.intent.action.INPUT_METHOD_CHANGED",
        "android.intent.action.PHONE_STATE",
        "android.intent.action.SCREEN_OFF",
        "android.intent.action.SCREEN_ON",
        "android.intent.action.TIMEZONE_CHANGED",
        "android.intent.action.USER_PRESENT",
        "android.intent.action.WALLPAPER_CHANGED",
        "android.provider.Telephony.SMS_RECEIVED"
      ],
      "dependencies": [],
      "domainNamesFilteredByExodus": [],
      "metaDataNames": [],
      "sha256": "1ece72b7855d97391146dc47ec255eab09054cba08dd510bc37653a7f086df57",
      "usesPermissions": [
        "android.permission.ACCESS_COARSE_LOCATION",
        "android.permission.ACCESS_FINE_LOCATION",
        "android.permission.ACCESS_FINE_LOCATION",
        "android.permission.ACCESS_LOCATION_EXTRA_COMMANDS",
        "android.permission.ACCESS_NETWORK_STATE",
        "android.permission.ACCESS_WIFI_STATE",
        "android.permission.BATTERY_STATS",
        "android.permission.BLUETOOTH",
        "android.permission.BLUETOOTH_ADMIN",
        "android.permission.CALL_PHONE",
        "android.permission.CAMERA",
        "android.permission.CHANGE_COMPONENT_ENABLED_STATE",
        "android.permission.CHANGE_CONFIGURATION",
        "android.permission.CHANGE_NETWORK_STATE",
        "android.permission.CHANGE_WIFI_MULTICAST_STATE",
        "android.permission.CHANGE_WIFI_STATE",
        "android.permission.DEVICE_POWER",
        "android.permission.GET_ACCOUNTS",
        "android.permission.GLOBAL_SEARCH",
        "android.permission.INJECT_EVENTS",
        "android.permission.INTERNET",
        "android.permission.KILL_BACKGROUND_PROCESSES",
        "android.permission.MANAGE_ACCOUNTS",
        "android.permission.MANAGE_APP_TOKENS",
        "android.permission.MODIFY_AUDIO_SETTINGS",
        "android.permission.MODIFY_PHONE_STATE",
        "android.permission.PERSISTENT_ACTIVITY",
        "android.permission.PROCESS_OUTGOING_CALLS",
        "android.permission.READ_CALENDAR",
        "android.permission.READ_CONTACTS",
        "android.permission.READ_LOGS",
        "android.permission.READ_OWNER_DATA",
        "android.permission.READ_PHONE_STATE",
        "android.permission.READ_SMS",
        "android.permission.RECEIVE_BOOT_COMPLETED",
        "android.permission.RECEIVE_MMS",
        "android.permission.RECEIVE_SMS",
        "android.permission.SEND_SMS",
        "android.permission.SET_ACTIVITY_WATCHER",
        "android.permission.SYSTEM_ALERT_WINDOW",
        "android.permission.USE_CREDENTIALS",
        "android.permission.VIBRATE",
        "android.permission.WRITE_SETTINGS",
        "android.permission.WRITE_SMS"
      ]
    }
  ],
  "meta": {
    "generated": "2020-08-27T17:03:59.621553",
    "generatedBy": [
      "/home/hc/code/trackingthetrackers/scripts/make-clean-apk-set.py"
    ],
    "generatedByCommitId": "40519285d6f404593fa655fa89b433743c25289e",
    "sourceDataCommitId": "888bb8f8c77ff55105fcab2ad84c263561eb1169",
    "ver": "0.3.0"
  }
}