{
  "apks": [
    {
      "applicationId": "com.wolas.awesomewallpaper",
      "broadcastReceiverIntentFilterActionNames": [],
      "dependencies": [],
      "domainNamesFilteredByExodus": [],
      "metaDataNames": [
        "android.service.wallpaper"
      ],
      "sha256": "b0a1c56ddca25ccf3893163b9c91def71caaeba2895ebee760ee61eb23d483f4",
      "usesPermissions": []
    }
  ],
  "meta": {
    "generated": "2020-08-27T17:01:17.354240",
    "generatedBy": [
      "/home/hc/code/trackingthetrackers/scripts/make-clean-apk-set.py"
    ],
    "generatedByCommitId": "40519285d6f404593fa655fa89b433743c25289e",
    "sourceDataCommitId": "888bb8f8c77ff55105fcab2ad84c263561eb1169",
    "ver": "0.3.0"
  }
}