{
  "apks": [
    {
      "applicationId": "com.bulkypix.onepath2",
      "broadcastReceiverIntentFilterActionNames": [
        "android.intent.action.BOOT_COMPLETED",
        "com.android.vending.INSTALL_REFERRER"
      ],
      "dependencies": [
        "com$millennialmedia$",
        "com$mopub$mobileads$",
        "com.chartboost.sdk.",
        "com.flurry.",
        "com.google.ads.",
        "com.inmobi",
        "com.millennialmedia.",
        "com.mobclix.android.sdk",
        "com.mobileapptracker",
        "com.mopub.mobileads.",
        "org.cocos2dx"
      ],
      "domainNamesFilteredByExodus": [
        ".chartboost.com",
        ".facebook.com",
        ".google.com",
        "doubleclick.net",
        "flurry.com",
        "millennialmedia.com",
        "mobileapptracking.com",
        "mopub.com"
      ],
      "metaDataNames": [],
      "sha256": "bbca8b399aac16a54a841364632e7919df6bc8d6bc094cc7d10b65c5e4da867b",
      "usesPermissions": [
        "android.permission.ACCESS_COARSE_LOCATION",
        "android.permission.ACCESS_FINE_LOCATION",
        "android.permission.ACCESS_NETWORK_STATE",
        "android.permission.ACCESS_WIFI_STATE",
        "android.permission.GET_ACCOUNTS",
        "android.permission.GET_TASKS",
        "android.permission.INTERNET",
        "android.permission.READ_CONTACTS",
        "android.permission.READ_LOGS",
        "android.permission.READ_PHONE_STATE",
        "android.permission.RECEIVE_BOOT_COMPLETED",
        "android.permission.SYSTEM_ALERT_WINDOW",
        "android.permission.WAKE_LOCK",
        "android.permission.WRITE_EXTERNAL_STORAGE",
        "com.android.launcher.permission.INSTALL_SHORTCUT",
        "com.android.launcher.permission.UNINSTALL_SHORTCUT"
      ]
    }
  ],
  "meta": {
    "generated": "2020-08-27T15:29:19.885741",
    "generatedBy": [
      "/home/hc/code/trackingthetrackers/scripts/make-trackers-apk-set.py"
    ],
    "ver": "0.3.0"
  }
}