{
  "apks": [
    {
      "applicationId": "com.tomaszmarzeion.notepad",
      "broadcastReceiverIntentFilterActionNames": [],
      "dependencies": [],
      "domainNamesFilteredByExodus": [],
      "metaDataNames": [],
      "sha256": "4423701aba89f35ebf33ae8e6610e358d48f7743b5a71c604d5e9d6d7614e2a9",
      "usesPermissions": []
    }
  ],
  "meta": {
    "generated": "2020-08-27T17:00:55.877579",
    "generatedBy": [
      "/home/hc/code/trackingthetrackers/scripts/make-clean-apk-set.py"
    ],
    "generatedByCommitId": "40519285d6f404593fa655fa89b433743c25289e",
    "sourceDataCommitId": "888bb8f8c77ff55105fcab2ad84c263561eb1169",
    "ver": "0.3.0"
  }
}