{
  "apks": [
    {
      "applicationId": "com.autonavi.xmgd.navigatorq",
      "broadcastReceiverIntentFilterActionNames": [
        "android.intent.action.MEDIA_UNMOUNTED",
        "android.intent.action.PACKAGE_ADDED",
        "android.intent.action.USER_PRESENT",
        "android.net.conn.CONNECTIVITY_CHANGE",
        "com.autonavi.xmgd.broadcast.TRACE_START",
        "com.autonavi.xmgd.broadcast.TRACE_STOP",
        "com.autonavi.xmgd.citydata.ADD_CITY",
        "com.autonavi.xmgd.citydata.DEL_CITY",
        "com.autonavi.xmgd.navigator.CAR_MODE",
        "com.autonavi.xmgd.navigator.broadcast.COMMAND",
        "com.autonavi.xmgd.plugin.action.ar.start",
        "com.autonavi.xmgd.plugin.action.highwaymode.start",
        "com.plugin.action.exit_app",
        "com.plugin.action.exit_update",
        "com.plugin.action.restart_app",
        "com.plugin.installapk.realtraffic.start",
        "com.plugin.installapk.realtraffic.stop",
        "com.plugin.installapk.speechcommand.speechreceiver"
      ],
      "dependencies": [
        "com.umeng.analytics"
      ],
      "domainNamesFilteredByExodus": [
        ".google.com",
        "alog.umeng.com",
        "oc.umeng.com",
        "umeng.com"
      ],
      "metaDataNames": [
        "UMENG_APPKEY",
        "UMENG_CHANNEL",
        "j-id"
      ],
      "sha256": "3e770daf1c4b09070346a5b9583977c8c25a71c18bd2175ac15039cf18a991cc",
      "usesPermissions": [
        "android.permission.ACCESS_COARSE_LOCATION",
        "android.permission.ACCESS_FINE_LOCATION",
        "android.permission.ACCESS_NETWORK_STATE",
        "android.permission.ACCESS_NETWORK_STATE",
        "android.permission.ACCESS_WIFI_STATE",
        "android.permission.ACCESS_WIFI_STATE",
        "android.permission.BLUETOOTH",
        "android.permission.BLUETOOTH_ADMIN",
        "android.permission.CALL_PHONE",
        "android.permission.CAMERA",
        "android.permission.CHANGE_NETWORK_STATE",
        "android.permission.CHANGE_WIFI_STATE",
        "android.permission.GET_TASKS",
        "android.permission.GET_TASKS",
        "android.permission.INTERNET",
        "android.permission.INTERNET",
        "android.permission.READ_LOGS",
        "android.permission.READ_PHONE_STATE",
        "android.permission.READ_PHONE_STATE",
        "android.permission.RECORD_AUDIO",
        "android.permission.SYSTEM_ALERT_WINDOW",
        "android.permission.SYSTEM_ALERT_WINDOW",
        "android.permission.VIBRATE",
        "android.permission.WAKE_LOCK",
        "android.permission.WRITE_EXTERNAL_STORAGE",
        "android.permission.WRITE_EXTERNAL_STORAGE",
        "com.android.launcher.permission.INSTALL_SHORTCUT",
        "com.android.launcher.permission.INSTALL_SHORTCUT"
      ]
    }
  ],
  "meta": {
    "generated": "2020-08-27T15:13:37.502100",
    "generatedBy": [
      "/home/hc/code/trackingthetrackers/scripts/make-trackers-apk-set.py"
    ],
    "ver": "0.3.0"
  }
}