{
  "apks": [
    {
      "applicationId": "com.limboworks.zuqiufengyun.nearme.gamecenter",
      "broadcastReceiverIntentFilterActionNames": [
        "android.intent.action.BOOT_COMPLETED",
        "android.intent.action.DATE_CHANGED",
        "android.intent.action.MAIN",
        "android.intent.action.PHONE_STATE",
        "android.intent.action.SIM_STATE_CHANGED",
        "android.intent.action.TIMEZONE_CHANGED",
        "android.intent.action.USER_PRESENT",
        "android.net.conn.CONNECTIVITY_CHANGE",
        "android.net.wifi.STATE_CHANGE",
        "android.net.wifi.WIFI_STATE_CHANGED",
        "com.ehoo.action.SEND",
        "com.limboworks.honorofcup.UpdateServiceReceiver",
        "com.limboworks.honorofcup.pushservice",
        "com.limboworks.honorofcup.pushservice_reset"
      ],
      "dependencies": [
        "com.facebook.share",
        "com.google.android.gms.analytics.",
        "com_facebook_login"
      ],
      "domainNamesFilteredByExodus": [
        ".google.com",
        "umeng.com"
      ],
      "metaDataNames": [
        "CHINA_UNICOM_MOBILE_CHANNEL",
        "ShieldSmsTag",
        "UMENG_APPKEY",
        "UMENG_CHANNEL",
        "WECHAT_ID",
        "aspectRatio",
        "autoOrients",
        "containsVideo",
        "fullScreen",
        "initialcontent",
        "namespaceVersion",
        "uniqueappversionid"
      ],
      "sha256": "87a2866e61db6e741b16f6f8951eb79ad8e00957b073ef418025529b1c86ee4a",
      "usesPermissions": [
        "android.permission.ACCESS_COARSE_LOCATION",
        "android.permission.ACCESS_FINE_LOCATION",
        "android.permission.ACCESS_NETWORK_STATE",
        "android.permission.ACCESS_WIFI_STATE",
        "android.permission.CALL_PHONE",
        "android.permission.CHANGE_CONFIGURATION",
        "android.permission.CHANGE_NETWORK_STATE",
        "android.permission.CHANGE_WIFI_STATE",
        "android.permission.DISABLE_KEYGUARD",
        "android.permission.GET_TASKS",
        "android.permission.INSTALL_PACKAGES",
        "android.permission.INTERNET",
        "android.permission.MOUNT_UNMOUNT_FILESYSTEMS",
        "android.permission.READ_EXTERNAL_STORAGE",
        "android.permission.READ_PHONE_STATE",
        "android.permission.READ_SMS",
        "android.permission.RECEIVE_BOOT_COMPLETED",
        "android.permission.RECEIVE_SMS",
        "android.permission.RUN_INSTRUMENTATION",
        "android.permission.SEND_SMS",
        "android.permission.SYSTEM_ALERT_WINDOW",
        "android.permission.VIBRATE",
        "android.permission.WAKE_LOCK",
        "android.permission.WRITE_EXTERNAL_STORAGE",
        "android.permission.WRITE_SETTINGS",
        "android.permission.WRITE_SMS"
      ]
    }
  ],
  "meta": {
    "generated": "2020-08-27T15:38:45.959014",
    "generatedBy": [
      "/home/hc/code/trackingthetrackers/scripts/make-trackers-apk-set.py"
    ],
    "ver": "0.3.0"
  }
}