{
  "apks": [
    {
      "applicationId": "fr.neamar.kiss",
      "broadcastReceiverIntentFilterActionNames": [
        "android.intent.action.ACTION_MEDIA_MOUNTED",
        "android.intent.action.ACTION_MEDIA_REMOVED",
        "android.intent.action.MEDIA_MOUNTED",
        "android.intent.action.MEDIA_REMOVED",
        "android.intent.action.PACKAGE_ADDED",
        "android.intent.action.PACKAGE_REMOVED",
        "android.intent.action.PHONE_STATE",
        "android.provider.Telephony.SMS_RECEIVED",
        "com.android.launcher.action.INSTALL_SHORTCUT",
        "com.android.launcher.action.UNINSTALL_SHORTCUT"
      ],
      "dependencies": [],
      "domainNamesFilteredByExodus": [
        ".google.com"
      ],
      "metaDataNames": [
        "com.android.systemui.action_assist_icon"
      ],
      "sha256": "65b303aa1882da8225c81dd415ef5415b72e5f84f71af7eb09926a5b83b741ea",
      "usesPermissions": [
        "android.permission.ACCESS_NETWORK_STATE",
        "android.permission.ACCESS_WIFI_STATE",
        "android.permission.BLUETOOTH",
        "android.permission.BLUETOOTH_ADMIN",
        "android.permission.CALL_PHONE",
        "android.permission.CAMERA",
        "android.permission.CHANGE_NETWORK_STATE",
        "android.permission.CHANGE_WIFI_STATE",
        "android.permission.FLASHLIGHT",
        "android.permission.READ_CONTACTS",
        "android.permission.READ_PHONE_STATE",
        "android.permission.READ_SYNC_SETTINGS",
        "android.permission.RECEIVE_SMS",
        "android.permission.WRITE_SETTINGS",
        "android.permission.WRITE_SYNC_SETTINGS"
      ]
    }
  ],
  "meta": {
    "generated": "2020-08-27T18:11:02.737752",
    "generatedBy": [
      "/home/hc/code/trackingthetrackers/scripts/make-clean-apk-set.py"
    ],
    "generatedByCommitId": "3839559c80042252d3b947fb61c86a18e8b31114",
    "sourceDataCommitId": "888bb8f8c77ff55105fcab2ad84c263561eb1169",
    "ver": "0.3.0"
  }
}