{
  "apks": [
    {
      "applicationId": "com.yrueabw.uiwnehd",
      "broadcastReceiverIntentFilterActionNames": [
        "android.app.action.DEVICE_ADMIN_ENABLED",
        "android.intent.action.BOOT_COMPLETED",
        "android.intent.action.SCREEN_ON",
        "android.provider.Telephony.SMS_RECEIVED",
        "android.provider.Telephony.WAP_PUSH_RECEIVED",
        "com.android.mms.transaction.MESSAGE_SENT"
      ],
      "dependencies": [],
      "domainNamesFilteredByExodus": [],
      "metaDataNames": [
        "android.app.device_admin"
      ],
      "sha256": "c1bd97f622362127c1e06948c53783ba80db54f25b5dfc291de4f90166a46cc8",
      "usesPermissions": [
        "android.permission.CALL_PHONE",
        "android.permission.GET_TASKS",
        "android.permission.INTERNET",
        "android.permission.READ_CONTACTS",
        "android.permission.READ_PHONE_STATE",
        "android.permission.READ_PHONE_STATE",
        "android.permission.READ_SMS",
        "android.permission.RECEIVE_BOOT_COMPLETED",
        "android.permission.RECEIVE_SMS",
        "android.permission.RESTART_PACKAGES",
        "android.permission.SEND_SMS",
        "android.permission.WAKE_LOCK",
        "android.permission.WRITE_SMS"
      ]
    }
  ],
  "meta": {
    "generated": "2020-08-27T14:53:20.504350",
    "generatedBy": [
      "/home/hc/code/trackingthetrackers/scripts/make-trackers-apk-set.py"
    ],
    "ver": "0.3.0"
  }
}