{
  "apks": [
    {
      "applicationId": "io.oversec.one",
      "broadcastReceiverIntentFilterActionNames": [
        "android.provider.Telephony.SECRET_CODE"
      ],
      "dependencies": [],
      "domainNamesFilteredByExodus": [
        ".google.com"
      ],
      "metaDataNames": [
        "android.accessibilityservice",
        "android.nfc.disable_beam_default"
      ],
      "sha256": "464c8bfe875690479f06798b1fafd416f4584375726b94bbae6aea8ed4cc036f",
      "usesPermissions": [
        "android.hardware.telephony",
        "android.permission.CAMERA",
        "android.permission.READ_EXTERNAL_STORAGE",
        "android.permission.SYSTEM_ALERT_WINDOW",
        "com.android.vending.BILLING",
        "false"
      ]
    }
  ],
  "meta": {
    "generated": "2020-08-27T18:13:52.332459",
    "generatedBy": [
      "/home/hc/code/trackingthetrackers/scripts/make-clean-apk-set.py"
    ],
    "generatedByCommitId": "3839559c80042252d3b947fb61c86a18e8b31114",
    "sourceDataCommitId": "888bb8f8c77ff55105fcab2ad84c263561eb1169",
    "ver": "0.3.0"
  }
}