{
  "apks": [
    {
      "applicationId": "com.tgelec.aqsh",
      "broadcastReceiverIntentFilterActionNames": [
        "action_new_voice_inserted",
        "intent_action_new_message"
      ],
      "dependencies": [
        "com.tencent.bugly."
      ],
      "domainNamesFilteredByExodus": [
        ".facebook.com",
        ".google.com",
        "bugly.qq.com"
      ],
      "metaDataNames": [
        "AA_DB_NAME",
        "AA_DB_VERSION",
        "com.amap.api.v2.apikey",
        "com.bumptech.glide.integration.okhttp3.OkHttpGlideModule",
        "com.tgelec.aqsh.utils.glide.GlideModuleImpl"
      ],
      "sha256": "aa82854c909ea2469aa0b69d1fdba5189ce68e4ac59af563cb6ab0f126d63879",
      "usesPermissions": [
        "android.permission.ACCESS_COARSE_LOCATION",
        "android.permission.ACCESS_FINE_LOCATION",
        "android.permission.ACCESS_NETWORK_STATE",
        "android.permission.ACCESS_WIFI_STATE",
        "android.permission.BLUETOOTH",
        "android.permission.BLUETOOTH_ADMIN",
        "android.permission.CALL_PHONE",
        "android.permission.CAMERA",
        "android.permission.CHANGE_CONFIGURATION",
        "android.permission.CHANGE_WIFI_STATE",
        "android.permission.FLASHLIGHT",
        "android.permission.GET_ACCOUNTS",
        "android.permission.GET_TASKS",
        "android.permission.INTERNET",
        "android.permission.MANAGE_ACCOUNTS",
        "android.permission.READ_CONTACTS",
        "android.permission.READ_EXTERNAL_STORAGE",
        "android.permission.READ_PHONE_STATE",
        "android.permission.RECORD_AUDIO",
        "android.permission.VIBRATE",
        "android.permission.WAKE_LOCK",
        "android.permission.WRITE_EXTERNAL_STORAGE"
      ]
    }
  ],
  "meta": {
    "generated": "2020-08-27T15:36:28.498386",
    "generatedBy": [
      "/home/hc/code/trackingthetrackers/scripts/make-trackers-apk-set.py"
    ],
    "ver": "0.3.0"
  }
}