{
  "apks": [
    {
      "applicationId": "de.jkliemann.parkendd",
      "broadcastReceiverIntentFilterActionNames": [],
      "dependencies": [],
      "domainNamesFilteredByExodus": [],
      "metaDataNames": [],
      "sha256": "aedd4cd1b3f6b9ffa75136b1371ccac0c27e92a6e14ce0f82fae77e6acdd0d87",
      "usesPermissions": [
        "android.permission.INTERNET"
      ]
    }
  ],
  "meta": {
    "generated": "2020-08-27T18:00:53.148105",
    "generatedBy": [
      "/home/hc/code/trackingthetrackers/scripts/make-clean-apk-set.py"
    ],
    "generatedByCommitId": "3839559c80042252d3b947fb61c86a18e8b31114",
    "sourceDataCommitId": "888bb8f8c77ff55105fcab2ad84c263561eb1169",
    "ver": "0.3.0"
  }
}