{
  "apks": [
    {
      "applicationId": "de.tutao.tutanota",
      "broadcastReceiverIntentFilterActionNames": [
        "android.intent.action.BOOT_COMPLETED",
        "android.intent.action.LOCKED_BOOT_COMPLETED"
      ],
      "dependencies": [],
      "domainNamesFilteredByExodus": [
        ".facebook.com",
        ".google.com"
      ],
      "metaDataNames": [
        "android.support.FILE_PROVIDER_PATHS"
      ],
      "sha256": "24b4e8c626198fcf924b68724c3d57aa415fccaebb7d1e014aefa03a1585ae0e",
      "usesPermissions": [
        "android.permission.ACCESS_NETWORK_STATE",
        "android.permission.INTERNET",
        "android.permission.READ_CONTACTS",
        "android.permission.READ_EXTERNAL_STORAGE",
        "android.permission.RECEIVE_BOOT_COMPLETED",
        "android.permission.REQUEST_IGNORE_BATTERY_OPTIMIZATIONS",
        "android.permission.VIBRATE",
        "android.permission.WRITE_EXTERNAL_STORAGE"
      ]
    }
  ],
  "meta": {
    "generated": "2020-08-27T18:04:59.810051",
    "generatedBy": [
      "/home/hc/code/trackingthetrackers/scripts/make-clean-apk-set.py"
    ],
    "generatedByCommitId": "3839559c80042252d3b947fb61c86a18e8b31114",
    "sourceDataCommitId": "888bb8f8c77ff55105fcab2ad84c263561eb1169",
    "ver": "0.3.0"
  }
}