{
  "apks": [
    {
      "applicationId": "com.wireguard.android",
      "broadcastReceiverIntentFilterActionNames": [
        "android.intent.action.ACTION_SHUTDOWN",
        "android.intent.action.BOOT_COMPLETED",
        "com.wireguard.android.action.REFRESH_TUNNEL_STATES",
        "com.wireguard.android.action.SET_TUNNEL_DOWN",
        "com.wireguard.android.action.SET_TUNNEL_UP"
      ],
      "dependencies": [],
      "domainNamesFilteredByExodus": [],
      "metaDataNames": [
        "android.service.quicksettings.ACTIVE_TILE"
      ],
      "sha256": "374a688cf4b92e316bffd3891c54d3e23734e5fca3c9c1c4eb87c3f9098c8100",
      "usesPermissions": [
        "android.permission.CAMERA",
        "android.permission.INTERNET",
        "android.permission.RECEIVE_BOOT_COMPLETED",
        "android.permission.WRITE_EXTERNAL_STORAGE"
      ]
    }
  ],
  "meta": {
    "generated": "2020-08-27T17:52:52.722964",
    "generatedBy": [
      "/home/hc/code/trackingthetrackers/scripts/make-clean-apk-set.py"
    ],
    "generatedByCommitId": "3839559c80042252d3b947fb61c86a18e8b31114",
    "sourceDataCommitId": "888bb8f8c77ff55105fcab2ad84c263561eb1169",
    "ver": "0.3.0"
  }
}