{
  "apks": [
    {
      "applicationId": "openfoodfacts.github.scrachx.openfood",
      "broadcastReceiverIntentFilterActionNames": [],
      "dependencies": [],
      "domainNamesFilteredByExodus": [],
      "metaDataNames": [
        "DATABASE",
        "DOMAIN_PACKAGE_NAME",
        "QUERY_LOG",
        "VERSION",
        "android.support.PARENT_ACTIVITY"
      ],
      "sha256": "c6a527c21386b5bb6c35d909487af18f2a2169a091a65affb51754ccfea63adf",
      "usesPermissions": [
        "android.permission.ACCESS_NETWORK_STATE",
        "android.permission.CAMERA",
        "android.permission.INTERNET",
        "android.permission.READ_EXTERNAL_STORAGE",
        "android.permission.WRITE_EXTERNAL_STORAGE"
      ]
    }
  ],
  "meta": {
    "generated": "2020-08-27T18:21:42.608247",
    "generatedBy": [
      "/home/hc/code/trackingthetrackers/scripts/make-clean-apk-set.py"
    ],
    "generatedByCommitId": "3839559c80042252d3b947fb61c86a18e8b31114",
    "sourceDataCommitId": "888bb8f8c77ff55105fcab2ad84c263561eb1169",
    "ver": "0.3.0"
  }
}