{
  "apks": [
    {
      "applicationId": "com.android.keychain",
      "broadcastReceiverIntentFilterActionNames": [],
      "dependencies": [],
      "domainNamesFilteredByExodus": [],
      "metaDataNames": [],
      "sha256": "2d617e39a82c7560acb5e124cac34dc2d562bae01ec4696d7691886187d2b949",
      "usesPermissions": []
    }
  ],
  "meta": {
    "generated": "2020-08-27T14:59:29.713577",
    "generatedBy": [
      "/home/hc/code/trackingthetrackers/scripts/make-trackers-apk-set.py"
    ],
    "ver": "0.3.0"
  }
}