{
  "apks": [
    {
      "applicationId": "org.servalproject",
      "broadcastReceiverIntentFilterActionNames": [
        "android.intent.action.AIRPLANE_MODE",
        "android.intent.action.BOOT_COMPLETED",
        "android.intent.action.MEDIA_EJECT",
        "android.intent.action.MEDIA_MOUNTED",
        "android.intent.action.MEDIA_UNMOUNTED",
        "android.intent.action.NEW_OUTGOING_CALL",
        "org.servalproject.rhizome.MessageLogUpdated"
      ],
      "dependencies": [],
      "domainNamesFilteredByExodus": [
        ".google.com"
      ],
      "metaDataNames": [
        "android.accounts.AccountAuthenticator",
        "android.content.SyncAdapter",
        "android.provider.CONTACTS_STRUCTURE"
      ],
      "sha256": "adcbf96030e578eb5818933148c0ac276a3a5e5323dbd4f8ba0710fc78a7cff2",
      "usesPermissions": [
        "android.permission.ACCESS_WIFI_STATE",
        "android.permission.AUTHENTICATE_ACCOUNTS",
        "android.permission.BLUETOOTH",
        "android.permission.BLUETOOTH_ADMIN",
        "android.permission.BROADCAST_STICKY",
        "android.permission.CALL_PHONE",
        "android.permission.CHANGE_WIFI_MULTICAST_STATE",
        "android.permission.CHANGE_WIFI_STATE",
        "android.permission.DISABLE_KEYGUARD",
        "android.permission.GET_ACCOUNTS",
        "android.permission.INTERNET",
        "android.permission.MANAGE_ACCOUNTS",
        "android.permission.MODIFY_AUDIO_SETTINGS",
        "android.permission.PROCESS_OUTGOING_CALLS",
        "android.permission.READ_CONTACTS",
        "android.permission.READ_PHONE_STATE",
        "android.permission.READ_SYNC_SETTINGS",
        "android.permission.RECEIVE_BOOT_COMPLETED",
        "android.permission.RECORD_AUDIO",
        "android.permission.VIBRATE",
        "android.permission.WAKE_LOCK",
        "android.permission.WRITE_CONTACTS",
        "android.permission.WRITE_EXTERNAL_STORAGE",
        "android.permission.WRITE_SETTINGS",
        "android.permission.WRITE_SYNC_SETTINGS",
        "org.servalproject.meshms.SEND_MESHMS",
        "org.servalproject.rhizome.RECEIVE_FILE"
      ]
    }
  ],
  "meta": {
    "generated": "2020-08-27T18:36:01.162921",
    "generatedBy": [
      "/home/hc/code/trackingthetrackers/scripts/make-clean-apk-set.py"
    ],
    "generatedByCommitId": "3839559c80042252d3b947fb61c86a18e8b31114",
    "sourceDataCommitId": "888bb8f8c77ff55105fcab2ad84c263561eb1169",
    "ver": "0.3.0"
  }
}