{
  "apks": [
    {
      "applicationId": "org.lumicall.android",
      "broadcastReceiverIntentFilterActionNames": [
        "android.intent.action.BOOT_COMPLETED",
        "android.intent.action.EXTERNAL_APPLICATIONS_AVAILABLE",
        "android.intent.action.EXTERNAL_APPLICATIONS_UNAVAILABLE",
        "android.intent.action.NEW_OUTGOING_CALL",
        "android.intent.action.PACKAGE_REPLACED",
        "android.provider.Telephony.SMS_RECEIVED",
        "org.lumicall.SMS_DELIVERED",
        "org.lumicall.SMS_SENT"
      ],
      "dependencies": [],
      "domainNamesFilteredByExodus": [],
      "metaDataNames": [],
      "sha256": "e2bb153dabb32f5cbd37d4441806ab9801dde168a7bc23559e2039213b27568e",
      "usesPermissions": [
        "android.permission.ACCESS_NETWORK_STATE",
        "android.permission.ACCESS_WIFI_STATE",
        "android.permission.BLUETOOTH",
        "android.permission.CALL_PHONE",
        "android.permission.CAMERA",
        "android.permission.CHANGE_WIFI_MULTICAST_STATE",
        "android.permission.CHANGE_WIFI_STATE",
        "android.permission.DISABLE_KEYGUARD",
        "android.permission.GET_ACCOUNTS",
        "android.permission.INTERNET",
        "android.permission.MODIFY_AUDIO_SETTINGS",
        "android.permission.PROCESS_OUTGOING_CALLS",
        "android.permission.READ_CONTACTS",
        "android.permission.READ_PHONE_STATE",
        "android.permission.RECEIVE_BOOT_COMPLETED",
        "android.permission.RECEIVE_SMS",
        "android.permission.RECORD_AUDIO",
        "android.permission.SEND_SMS",
        "android.permission.VIBRATE",
        "android.permission.WAKE_LOCK",
        "android.permission.WRITE_CONTACTS",
        "android.permission.WRITE_SETTINGS"
      ]
    }
  ],
  "meta": {
    "generated": "2020-08-27T17:06:03.321743",
    "generatedBy": [
      "/home/hc/code/trackingthetrackers/scripts/make-clean-apk-set.py"
    ],
    "generatedByCommitId": "40519285d6f404593fa655fa89b433743c25289e",
    "sourceDataCommitId": "888bb8f8c77ff55105fcab2ad84c263561eb1169",
    "ver": "0.3.0"
  }
}