{
  "apks": [
    {
      "applicationId": "com.poyea.hovaen2",
      "broadcastReceiverIntentFilterActionNames": [],
      "dependencies": [
        "com.baidu.mobads",
        "com.umeng.analytics",
        "com.umeng.fb"
      ],
      "domainNamesFilteredByExodus": [
        ".google.com",
        "alog.umeng.com",
        "oc.umeng.com",
        "umeng.com"
      ],
      "metaDataNames": [
        "UMENG_APPKEY",
        "aspectRatio",
        "autoOrients",
        "com.google.android.gms.version",
        "containsVideo",
        "fullScreen",
        "initialcontent",
        "namespaceVersion",
        "uniqueappversionid"
      ],
      "sha256": "f8a88c81d4e2ce6d743db0e2d9e350c3716c02e634a0130c0aacc4ff3698eecb",
      "usesPermissions": [
        "android.permission.ACCESS_COARSE_LOCATION",
        "android.permission.ACCESS_NETWORK_STATE",
        "android.permission.ACCESS_NETWORK_STATE",
        "android.permission.ACCESS_WIFI_STATE",
        "android.permission.ACCESS_WIFI_STATE",
        "android.permission.GET_TASKS",
        "android.permission.INTERNET",
        "android.permission.INTERNET",
        "android.permission.READ_PHONE_STATE",
        "android.permission.READ_PHONE_STATE",
        "android.permission.SYSTEM_ALERT_WINDOW",
        "android.permission.WRITE_EXTERNAL_STORAGE",
        "android.permission.WRITE_EXTERNAL_STORAGE",
        "com.samsung.android.providers.context.permission.WRITE_USE_APP_FEATURE_SURVEY"
      ]
    }
  ],
  "meta": {
    "generated": "2020-08-27T15:15:47.477092",
    "generatedBy": [
      "/home/hc/code/trackingthetrackers/scripts/make-trackers-apk-set.py"
    ],
    "ver": "0.3.0"
  }
}