{
  "apks": [
    {
      "applicationId": "com.achep.acdisplay",
      "broadcastReceiverIntentFilterActionNames": [
        "android.app.action.DEVICE_ADMIN_ENABLED",
        "android.appwidget.action.APPWIDGET_DELETED",
        "android.appwidget.action.APPWIDGET_DISABLED",
        "android.appwidget.action.APPWIDGET_ENABLED",
        "android.appwidget.action.APPWIDGET_UPDATE",
        "android.intent.action.ACTION_POWER_CONNECTED",
        "android.intent.action.ACTION_POWER_DISCONNECTED",
        "android.intent.action.BOOT_COMPLETED"
      ],
      "dependencies": [],
      "domainNamesFilteredByExodus": [
        ".google.com"
      ],
      "metaDataNames": [
        "android.app.device_admin",
        "android.appwidget.provider",
        "com.achep.acdisplay.FRAGMENT_CLASS",
        "com.achep.acdisplay.TOP_LEVEL_HEADER_ID",
        "xposeddescription",
        "xposedminversion",
        "xposedmodule"
      ],
      "sha256": "2ce6b1e164ff40b56779361223b98390a20d1f0e1dfff44a4d7f4f8e1483d0ca",
      "usesPermissions": [
        "android.permission.DISABLE_KEYGUARD",
        "android.permission.GET_TASKS",
        "android.permission.INTERNET",
        "android.permission.RECEIVE_BOOT_COMPLETED",
        "android.permission.WAKE_LOCK",
        "com.android.vending.BILLING"
      ]
    }
  ],
  "meta": {
    "generated": "2020-08-27T17:13:51.262487",
    "generatedBy": [
      "/home/hc/code/trackingthetrackers/scripts/make-clean-apk-set.py"
    ],
    "generatedByCommitId": "40519285d6f404593fa655fa89b433743c25289e",
    "sourceDataCommitId": "888bb8f8c77ff55105fcab2ad84c263561eb1169",
    "ver": "0.3.0"
  }
}