{
  "apks": [
    {
      "applicationId": "tu.caur.wcijsd",
      "broadcastReceiverIntentFilterActionNames": [],
      "dependencies": [],
      "domainNamesFilteredByExodus": [],
      "metaDataNames": [],
      "sha256": "1c809722a6cc0c6645f5cdaa2b97de7529676eac125dca26c9e6672675292ed7",
      "usesPermissions": []
    }
  ],
  "meta": {
    "generated": "2020-08-27T15:07:04.572536",
    "generatedBy": [
      "/home/hc/code/trackingthetrackers/scripts/make-trackers-apk-set.py"
    ],
    "ver": "0.3.0"
  }
}