{
  "apks": [
    {
      "applicationId": "com.elementarytoday.theia",
      "broadcastReceiverIntentFilterActionNames": [],
      "dependencies": [],
      "domainNamesFilteredByExodus": [],
      "metaDataNames": [],
      "sha256": "04f9a0964d4a0abfecf2ce3b8a98574e483ff91ce67c199a3a7f263e6b179fe3",
      "usesPermissions": []
    }
  ],
  "meta": {
    "generated": "2020-08-27T17:20:58.713664",
    "generatedBy": [
      "/home/hc/code/trackingthetrackers/scripts/make-clean-apk-set.py"
    ],
    "generatedByCommitId": "40519285d6f404593fa655fa89b433743c25289e",
    "sourceDataCommitId": "888bb8f8c77ff55105fcab2ad84c263561eb1169",
    "ver": "0.3.0"
  }
}