{
  "apks": [
    {
      "applicationId": "com.shootbubble.bubbledexlue",
      "broadcastReceiverIntentFilterActionNames": [
        "android.intent.action.DOWNLOAD_COMPLETE",
        "android.intent.action.PACKAGE_ADDED"
      ],
      "dependencies": [
        "com.flurry.",
        "net.youmi"
      ],
      "domainNamesFilteredByExodus": [
        ".facebook.com",
        ".google.com",
        "au.youmi.net",
        "doubleclick.net",
        "flurry.com",
        "youmi.net"
      ],
      "metaDataNames": [
        "AdView_CHANNEL",
        "Mobisage_channel",
        "YJF_APP_CHANNEL",
        "YOUMI_CHANNEL",
        "doodle_mobile_appid"
      ],
      "sha256": "de4d10f6daabaae73394fb974b9a601c179a169c3a809bd4aad42159941f15b2",
      "usesPermissions": [
        "android.permission.ACCESS_NETWORK_STATE",
        "android.permission.ACCESS_WIFI_STATE",
        "android.permission.INTERNET",
        "android.permission.READ_EXTERNAL_STORAGE",
        "android.permission.READ_PHONE_STATE",
        "android.permission.WRITE_EXTERNAL_STORAGE"
      ]
    }
  ],
  "meta": {
    "generated": "2020-08-27T15:10:11.028407",
    "generatedBy": [
      "/home/hc/code/trackingthetrackers/scripts/make-trackers-apk-set.py"
    ],
    "ver": "0.3.0"
  }
}