{
  "apks": [
    {
      "applicationId": "com.margoeggs.VirginiaJigsawPuzzles",
      "broadcastReceiverIntentFilterActionNames": [
        "android.intent.action.PACKAGE_ADDED",
        "com.android.vending.INSTALL_REFERRER",
        "com.inmobi.share.id"
      ],
      "dependencies": [
        "com$amazon$device$ads",
        "com$facebook$ads",
        "com$mopub$mobileads$",
        "com$startapp$android$publish",
        "com.amazon.device.ads",
        "com.applovin",
        "com.appodeal.ads.",
        "com.chartboost.sdk.",
        "com.facebook.ads",
        "com.flurry.",
        "com.google.ads.",
        "com.google.android.gms.ads.",
        "com.inmobi",
        "com.mopub.mobileads.",
        "com.revmob.ads.",
        "com.startapp.android.publish",
        "com.unity3d.ads",
        "com.yandex.metrica.",
        "com.yandex.mobile.ads",
        "org.nexage."
      ],
      "domainNamesFilteredByExodus": [
        ".avocarrot.com",
        ".chartboost.com",
        ".facebook.com",
        ".google.com",
        "adcolony.com",
        "ads.rubiconproject.com",
        "androidads23.adcolony.com",
        "api.vungle.com",
        "applovin.com",
        "appodeal.com",
        "appodealx.com",
        "config.inmobi.com",
        "doubleclick.net",
        "flurry.com",
        "i.l.inmobicdn.net",
        "i.w.inmobi.com",
        "ingest.vungle.com",
        "inmobi.com",
        "inmobicdn.net",
        "mopub.com",
        "pubnative.net",
        "sdkm.w.inmobi.com",
        "startup.mobile.yandex.net",
        "w.inmobi.com"
      ],
      "metaDataNames": [
        "com.appodeal.framework",
        "com.google.android.gms.version",
        "metrica:api:level"
      ],
      "sha256": "fddcffb51fbbd49644a811604300198e5603cfc20c5bfb55cb8679f721b84699",
      "usesPermissions": [
        "android.permission.ACCESS_COARSE_LOCATION",
        "android.permission.ACCESS_NETWORK_STATE",
        "android.permission.ACCESS_WIFI_STATE",
        "android.permission.INTERNET",
        "android.permission.SET_WALLPAPER",
        "android.permission.SYSTEM_ALERT_WINDOW",
        "android.permission.WRITE_EXTERNAL_STORAGE"
      ]
    }
  ],
  "meta": {
    "generated": "2020-08-27T15:30:15.059333",
    "generatedBy": [
      "/home/hc/code/trackingthetrackers/scripts/make-trackers-apk-set.py"
    ],
    "ver": "0.3.0"
  }
}