{
  "apks": [
    {
      "applicationId": "hr.kravarscan.enchantedfortress",
      "broadcastReceiverIntentFilterActionNames": [],
      "dependencies": [],
      "domainNamesFilteredByExodus": [],
      "metaDataNames": [
        "android.support.VERSION"
      ],
      "sha256": "43ca29dc382f3be7c08453c7744fc0c23c04d2c95db4817ee4f7e56176c860d6",
      "usesPermissions": []
    }
  ],
  "meta": {
    "generated": "2020-08-27T18:12:03.128407",
    "generatedBy": [
      "/home/hc/code/trackingthetrackers/scripts/make-clean-apk-set.py"
    ],
    "generatedByCommitId": "3839559c80042252d3b947fb61c86a18e8b31114",
    "sourceDataCommitId": "888bb8f8c77ff55105fcab2ad84c263561eb1169",
    "ver": "0.3.0"
  }
}