{
  "apks": [
    {
      "applicationId": "net.nullsum.audinaut",
      "broadcastReceiverIntentFilterActionNames": [
        "android.appwidget.action.APPWIDGET_UPDATE",
        "android.intent.action.BOOT_COMPLETED",
        "android.intent.action.MEDIA_BUTTON",
        "android.music.playstatusrequest",
        "com.twofortyfouram.locale.intent.action.FIRE_SETTING"
      ],
      "dependencies": [],
      "domainNamesFilteredByExodus": [],
      "metaDataNames": [
        "android.accounts.AccountAuthenticator",
        "android.app.default_searchable",
        "android.app.searchable",
        "android.appwidget.provider"
      ],
      "sha256": "40b0303e860492bb2f3925e989a51dc718bbc2fccb1da7ca7a54fa8478a717e8",
      "usesPermissions": [
        "22",
        "android.permission.ACCESS_NETWORK_STATE",
        "android.permission.ACCESS_WIFI_STATE",
        "android.permission.AUTHENTICATE_ACCOUNTS",
        "android.permission.BLUETOOTH",
        "android.permission.CHANGE_WIFI_MULTICAST_STATE",
        "android.permission.FOREGROUND_SERVICE",
        "android.permission.INTERNET",
        "android.permission.MODIFY_AUDIO_SETTINGS",
        "android.permission.READ_EXTERNAL_STORAGE",
        "android.permission.READ_PHONE_STATE",
        "android.permission.READ_SYNC_SETTINGS",
        "android.permission.RECEIVE_BOOT_COMPLETED",
        "android.permission.WAKE_LOCK",
        "android.permission.WRITE_EXTERNAL_STORAGE",
        "android.permission.WRITE_SYNC_SETTINGS"
      ]
    }
  ],
  "meta": {
    "generated": "2020-08-27T17:04:33.065341",
    "generatedBy": [
      "/home/hc/code/trackingthetrackers/scripts/make-clean-apk-set.py"
    ],
    "generatedByCommitId": "40519285d6f404593fa655fa89b433743c25289e",
    "sourceDataCommitId": "888bb8f8c77ff55105fcab2ad84c263561eb1169",
    "ver": "0.3.0"
  }
}