{
  "apks": [
    {
      "applicationId": "com.dz.game.Sudoku",
      "broadcastReceiverIntentFilterActionNames": [
        "CUSTOM_ACTION_UPDATE_COUNTERS",
        "android.provider.Telephony.SMS_RECEIVED",
        "com.android.vending.INSTALL_REFERRER"
      ],
      "dependencies": [
        "com$google$ads$",
        "com$inmobi",
        "com.google.ads.",
        "com.google.android.apps.analytics.",
        "com.inmobi",
        "com.mdotm.android",
        "com.millennialmedia.",
        "com.umeng.analytics"
      ],
      "domainNamesFilteredByExodus": [
        ".facebook.com",
        ".google.com",
        "alog.umeng.com",
        "doubleclick.net",
        "google-analytics.com",
        "i.w.inmobi.com",
        "inmobi.com",
        "millennialmedia.com",
        "oc.umeng.com",
        "umeng.com",
        "w.inmobi.com"
      ],
      "metaDataNames": [
        "UMENG_APPKEY",
        "UMENG_CHANNEL"
      ],
      "sha256": "24ab614282409693201ee3712ce03abe6620eb609a4aadf0fb9d4b5d0d95fadd",
      "usesPermissions": [
        "android.permission.ACCESS_FINE_LOCATION",
        "android.permission.ACCESS_NETWORK_STATE",
        "android.permission.INTERNET",
        "android.permission.READ_PHONE_STATE",
        "android.permission.RECEIVE_SMS",
        "android.permission.SEND_SMS",
        "android.permission.VIBRATE"
      ]
    }
  ],
  "meta": {
    "generated": "2020-08-27T15:13:25.237998",
    "generatedBy": [
      "/home/hc/code/trackingthetrackers/scripts/make-trackers-apk-set.py"
    ],
    "ver": "0.3.0"
  }
}