{
  "apks": [
    {
      "applicationId": "org.epstudios.epmobile",
      "broadcastReceiverIntentFilterActionNames": [],
      "dependencies": [],
      "domainNamesFilteredByExodus": [],
      "metaDataNames": [],
      "sha256": "5863200ed29019f284a2b262a7fa43d40d5fd12930cddf3598420ef9f5437117",
      "usesPermissions": []
    }
  ],
  "meta": {
    "generated": "2020-08-27T18:24:56.211380",
    "generatedBy": [
      "/home/hc/code/trackingthetrackers/scripts/make-clean-apk-set.py"
    ],
    "generatedByCommitId": "3839559c80042252d3b947fb61c86a18e8b31114",
    "sourceDataCommitId": "888bb8f8c77ff55105fcab2ad84c263561eb1169",
    "ver": "0.3.0"
  }
}