{
  "apks": [
    {
      "applicationId": "de.blau.android",
      "broadcastReceiverIntentFilterActionNames": [],
      "dependencies": [],
      "domainNamesFilteredByExodus": [
        ".google.com"
      ],
      "metaDataNames": [
        "com.sec.android.support.multiwindow"
      ],
      "sha256": "d91c79e29d708483658ff3d4d53480a15fac6ce96c33c8e9839d35c4cbe83b5d",
      "usesPermissions": [
        "android.permission.ACCESS_COARSE_LOCATION",
        "android.permission.ACCESS_FINE_LOCATION",
        "android.permission.ACCESS_NETWORK_STATE",
        "android.permission.INTERNET",
        "android.permission.WRITE_EXTERNAL_STORAGE"
      ]
    }
  ],
  "meta": {
    "generated": "2020-08-27T17:58:16.793615",
    "generatedBy": [
      "/home/hc/code/trackingthetrackers/scripts/make-clean-apk-set.py"
    ],
    "generatedByCommitId": "3839559c80042252d3b947fb61c86a18e8b31114",
    "sourceDataCommitId": "888bb8f8c77ff55105fcab2ad84c263561eb1169",
    "ver": "0.3.0"
  }
}