{
  "apks": [
    {
      "applicationId": "com.sumit.sleeping",
      "broadcastReceiverIntentFilterActionNames": [],
      "dependencies": [
        "com.flurry.",
        "com.google.ads.",
        "com.google.android.apps.analytics.",
        "com.inmobi",
        "com.millennialmedia.",
        "com.mobclix.android.sdk"
      ],
      "domainNamesFilteredByExodus": [
        ".google.com",
        "doubleclick.net",
        "flurry.com",
        "google-analytics.com"
      ],
      "metaDataNames": [],
      "sha256": "f021d4702b8711a8754f362b64a51cb4daf82c83ec428a787cae5f6426e09152",
      "usesPermissions": [
        "android.permission.ACCESS_COARSE_LOCATION",
        "android.permission.ACCESS_FINE_LOCATION",
        "android.permission.ACCESS_NETWORK_STATE",
        "android.permission.INTERNET",
        "android.permission.READ_CALENDAR",
        "android.permission.READ_PHONE_STATE",
        "android.permission.WRITE_CALENDAR"
      ]
    }
  ],
  "meta": {
    "generated": "2020-08-27T15:02:16.109973",
    "generatedBy": [
      "/home/hc/code/trackingthetrackers/scripts/make-trackers-apk-set.py"
    ],
    "ver": "0.3.0"
  }
}