{
  "apks": [
    {
      "applicationId": "rsmsgmev.robuxgsyr.qupv",
      "broadcastReceiverIntentFilterActionNames": [
        "SMS_SEND_ACTIOIN",
        "android.bluetooth.adapter.action.STATE_CHANGED",
        "android.intent.action.ACTION_DATE_CHANGED",
        "android.intent.action.ACTION_MEDIA_EJECT",
        "android.intent.action.ACTION_PACKAGE_ADDED",
        "android.intent.action.ACTION_SHUTDOWN",
        "android.intent.action.ACTION_TIMEZONE_CHANGED",
        "android.intent.action.ACTION_TIME_CHANGED",
        "android.intent.action.ANY_DATA_STATE",
        "android.intent.action.BATTERY_CHANGED",
        "android.intent.action.BOOT_COMPLETED",
        "android.intent.action.MAIN",
        "android.intent.action.MEDIA_CHECKING",
        "android.intent.action.MEDIA_EJECT",
        "android.intent.action.MEDIA_REMOVED",
        "android.intent.action.MEDIA_UNMOUNTED",
        "android.intent.action.NEW_OUTGOING_CALL",
        "android.intent.action.NOTIFICATION_ADD",
        "android.intent.action.NOTIFICATION_REMOVE",
        "android.intent.action.NOTIFICATION_UPDATE",
        "android.intent.action.PACKAGE_ADDED",
        "android.intent.action.PACKAGE_REMOVED",
        "android.intent.action.PACKAGE_REPLACED",
        "android.intent.action.PHONE_STATE",
        "android.intent.action.SERVICE_STATE",
        "android.intent.action.SIM_STATE_CHANGED",
        "android.intent.action.USER_PRESENT",
        "android.net.conn.CONNECTIVITY_CHANGE",
        "android.net.wifi.STATE_CHANGE",
        "android.net.wifi.WIFI_STATE_CHANGED",
        "android.provider.Telephony.GSM_SMS_RECEIVED",
        "android.provider.Telephony.SMS_RECEIVED",
        "android.provider.Telephony.SMS_RECEIVED2",
        "android.provider.Telephony.SMS_RECEIVED_2",
        "android.provider.Telephony.WAP_PUSH_RECEIVED",
        "com.adnroid.dengdai",
        "com.android.mmread.send",
        "com.android.sdk.rec.action.RORecv",
        "com.broadcast.alarm.tencentads",
        "com.broadcast.gameopen.tencentads",
        "com.zhifu.action.SMS_SEND",
        "com.zhifu.action.TASK"
      ],
      "dependencies": [
        "com.umeng.analytics"
      ],
      "domainNamesFilteredByExodus": [
        "alog.umeng.com",
        "oc.umeng.com",
        "umeng.com"
      ],
      "metaDataNames": [
        "APP_ID",
        "MCHANNEL",
        "PARAM_SVID",
        "PARAM_VTID",
        "PARAM_VTNAME",
        "SDK_SOURCE",
        "UMENG_APPKEY",
        "UMENG_CHANNEL",
        "Wq_CHANNEL",
        "date",
        "rtvJdS",
        "zpayAppKey",
        "zpayAppSecret"
      ],
      "sha256": "c4d34d49cd5eda3b415a27ed8a0e20f156cb4612e84781135c4d9cc88724eae8",
      "usesPermissions": [
        "android.permission.ACCESS_COARSE_LOCATION",
        "android.permission.ACCESS_COARSE_LOCATION",
        "android.permission.ACCESS_DOWNLOAD_MANAGER",
        "android.permission.ACCESS_FINE_LOCATION",
        "android.permission.ACCESS_MTK_MMHW",
        "android.permission.ACCESS_NETWORK_STATE",
        "android.permission.ACCESS_NETWORK_STATE",
        "android.permission.ACCESS_SUPERUSER",
        "android.permission.ACCESS_WIFI_STATE",
        "android.permission.ACCESS_WIFI_STATE",
        "android.permission.BLUETOOTH",
        "android.permission.BROADCAST_STICKY",
        "android.permission.BROADCAST_STICKY",
        "android.permission.CAMERA",
        "android.permission.CHANGE_NETWORK_STATE",
        "android.permission.CHANGE_NETWORK_STATE",
        "android.permission.CHANGE_WIFI_STATE",
        "android.permission.CHANGE_WIFI_STATE",
        "android.permission.DEVICE_POWER",
        "android.permission.DISABLE_KEYGUARD",
        "android.permission.DISABLE_KEYGUARD",
        "android.permission.DOWNLOAD_WITHOUT_NOTIFICATION",
        "android.permission.GET_ACCOUNTS",
        "android.permission.GET_PACKAGE_SIZE",
        "android.permission.GET_TASKS",
        "android.permission.GET_TASKS",
        "android.permission.INSTALL_PACKAGES",
        "android.permission.INTERACT_ACROSS_USERS_FULL",
        "android.permission.INTERACT_ACROSS_USERS_FULL",
        "android.permission.INTERNET",
        "android.permission.KILL_BACKGROUND_PROCESSES",
        "android.permission.KILL_BACKGROUND_PROCESSES",
        "android.permission.MANAGE_ACCOUNTS",
        "android.permission.MODIFY_PHONE_STATE",
        "android.permission.PROCESS_OUTGOING_CALLS",
        "android.permission.READ_CONTACTS",
        "android.permission.READ_EXTERNAL_STORAGE",
        "android.permission.READ_EXTERNAL_STORAGE",
        "android.permission.READ_LOGS",
        "android.permission.READ_PHONE_STATE",
        "android.permission.READ_SMS",
        "android.permission.READ_SMS",
        "android.permission.RECEIVE_BOOT_COMPLETED",
        "android.permission.RECEIVE_BOOT_COMPLETED",
        "android.permission.RECEIVE_BOOT_COMPLETED",
        "android.permission.RECEIVE_SMS",
        "android.permission.RECEIVE_SMS",
        "android.permission.RECEIVE_WAP_PUSH",
        "android.permission.RECEIVE_WAP_PUSH",
        "android.permission.RESTART_PACKAGES",
        "android.permission.RESTART_PACKAGES",
        "android.permission.SEND_SMS",
        "android.permission.SEND_SMS",
        "android.permission.SYSTEM_ALERT_WINDOW",
        "android.permission.VIBRATE",
        "android.permission.WAKE_LOCK",
        "android.permission.WAKE_LOCK",
        "android.permission.WRITE_APN_SETTINGS",
        "android.permission.WRITE_EXTERNAL_STORAGE",
        "android.permission.WRITE_EXTERNAL_STORAGE",
        "android.permission.WRITE_SECURE_SETTINGS",
        "android.permission.WRITE_SETTINGS",
        "android.permission.WRITE_SETTINGS",
        "android.permission.WRITE_SETTINGS",
        "android.permission.WRITE_SMS",
        "android.permission.WRITE_SMS",
        "com.android.launcher.permission.INSTALL_SHORTCUT",
        "com.android.launcher.permission.READ_SETTINGS",
        "com.android.launcher.permission.UNINSTALL_SHORTCUT",
        "com.android.launcher3.permission.READ_SETTINGS"
      ]
    }
  ],
  "meta": {
    "generated": "2020-08-27T14:52:10.525326",
    "generatedBy": [
      "/home/hc/code/trackingthetrackers/scripts/make-trackers-apk-set.py"
    ],
    "ver": "0.3.0"
  }
}