{
  "apks": [
    {
      "applicationId": "org.epstudios.epmobile",
      "broadcastReceiverIntentFilterActionNames": [],
      "dependencies": [],
      "domainNamesFilteredByExodus": [],
      "metaDataNames": [],
      "sha256": "21543868981c74c6fcf4bb7ede95a1f21062c2f707e8f841712492cc582b6144",
      "usesPermissions": []
    }
  ],
  "meta": {
    "generated": "2020-08-27T18:24:56.429028",
    "generatedBy": [
      "/home/hc/code/trackingthetrackers/scripts/make-clean-apk-set.py"
    ],
    "generatedByCommitId": "3839559c80042252d3b947fb61c86a18e8b31114",
    "sourceDataCommitId": "888bb8f8c77ff55105fcab2ad84c263561eb1169",
    "ver": "0.3.0"
  }
}