{
  "apks": [
    {
      "applicationId": "org.bottiger.podcast",
      "broadcastReceiverIntentFilterActionNames": [
        "android.appwidget.action.ACTION_APPWIDGET_OPTIONS_CHANGED",
        "android.appwidget.action.APPWIDGET_UPDATE",
        "android.appwidget.action.APPWIDGET_UPDATE_OPTIONS",
        "android.intent.action.BOOT_COMPLETED",
        "android.intent.action.DOWNLOAD_COMPLETE",
        "android.intent.action.MEDIA_BUTTON",
        "org.bottiger.soundwaves.NOTIFICATION_DELETED"
      ],
      "dependencies": [],
      "domainNamesFilteredByExodus": [
        ".google.com"
      ],
      "metaDataNames": [
        "android.accounts.AccountAuthenticator",
        "android.appwidget.provider",
        "android.content.SyncAdapter",
        "android.support.PARENT_ACTIVITY",
        "com.bugsnag.android.API_KEY",
        "com.google.android.apps.drive.APP_ID",
        "org.bottiger.podcast.images.SoundWavesGlideModule"
      ],
      "sha256": "414b7c412b36e4b50e8863eea42148eb3d78be1596ca2e95f24be36398ec6716",
      "usesPermissions": [
        "android.permission.ACCESS_NETWORK_STATE",
        "android.permission.ACCESS_WIFI_STATE",
        "android.permission.CAMERA",
        "android.permission.DOWNLOAD_WITHOUT_NOTIFICATION",
        "android.permission.GET_ACCOUNTS",
        "android.permission.INTERNET",
        "android.permission.MEDIA_CONTENT_CONTROL",
        "android.permission.READ_EXTERNAL_STORAGE",
        "android.permission.READ_PHONE_STATE",
        "android.permission.READ_SYNC_SETTINGS",
        "android.permission.READ_SYNC_STATS",
        "android.permission.RECEIVE_BOOT_COMPLETED",
        "android.permission.USE_CREDENTIALS",
        "android.permission.VIBRATE",
        "android.permission.WAKE_LOCK",
        "android.permission.WRITE_EXTERNAL_STORAGE",
        "android.permission.WRITE_SYNC_SETTINGS"
      ]
    }
  ],
  "meta": {
    "generated": "2020-08-27T18:23:52.488209",
    "generatedBy": [
      "/home/hc/code/trackingthetrackers/scripts/make-clean-apk-set.py"
    ],
    "generatedByCommitId": "3839559c80042252d3b947fb61c86a18e8b31114",
    "sourceDataCommitId": "888bb8f8c77ff55105fcab2ad84c263561eb1169",
    "ver": "0.3.0"
  }
}