{
  "apks": [
    {
      "applicationId": "com.motomex.motofire",
      "broadcastReceiverIntentFilterActionNames": [
        "android.intent.action.BOOT_COMPLETED",
        "android.intent.action.PACKAGE_ADDED",
        "com.android.vending.INSTALL_REFERRER"
      ],
      "dependencies": [
        "com.chartboost.sdk.",
        "com.flurry.",
        "com.google.ads.",
        "com.google.android.gms.ads.",
        "com.google.android.gms.analytics.",
        "com.google.android.gms.tagmanager",
        "com.heyzap.sdk.ads.",
        "com.millennialmedia.",
        "com.mopub.mobileads.",
        "com.unity3d.ads"
      ],
      "domainNamesFilteredByExodus": [
        ".chartboost.com",
        ".google.com",
        "ads.heyzap.com",
        "doubleclick.net",
        "flurry.com",
        "google-analytics.com",
        "www.googletagmanager.com"
      ],
      "metaDataNames": [
        "com.google.android.gms.appstate.APP_ID",
        "com.google.android.gms.games.APP_ID",
        "com.google.android.gms.version"
      ],
      "sha256": "194fd55eafa04621301d4873f95977c8f64467f4180a2f2976d6e600bf3182ba",
      "usesPermissions": [
        "android.permission.ACCESS_COARSE_LOCATION",
        "android.permission.ACCESS_LOCATION_EXTRA_COMMANDS",
        "android.permission.ACCESS_NETWORK_STATE",
        "android.permission.ACCESS_WIFI_STATE",
        "android.permission.GET_ACCOUNTS",
        "android.permission.INTERNET",
        "android.permission.READ_PHONE_STATE",
        "android.permission.RECEIVE_BOOT_COMPLETED",
        "android.permission.SET_ORIENTATION",
        "android.permission.WAKE_LOCK",
        "com.android.launcher.permission.READ_SETTINGS"
      ]
    }
  ],
  "meta": {
    "generated": "2020-08-27T15:19:31.474427",
    "generatedBy": [
      "/home/hc/code/trackingthetrackers/scripts/make-trackers-apk-set.py"
    ],
    "ver": "0.3.0"
  }
}