{
  "apks": [
    {
      "applicationId": "com.owncloud.android",
      "broadcastReceiverIntentFilterActionNames": [
        "android.intent.action.BOOT_COMPLETED",
        "android.net.conn.CONNECTIVITY_CHANGE",
        "com.android.camera.NEW_PICTURE"
      ],
      "dependencies": [],
      "domainNamesFilteredByExodus": [
        ".google.com"
      ],
      "metaDataNames": [
        "android.accounts.AccountAuthenticator",
        "android.content.SyncAdapter"
      ],
      "sha256": "f18d681ca73ffe19d82f4fbe7f8e579d6e47390b60a42ba07c16d813e0925d2d",
      "usesPermissions": [
        "android.permission.ACCESS_NETWORK_STATE",
        "android.permission.AUTHENTICATE_ACCOUNTS",
        "android.permission.BROADCAST_STICKY",
        "android.permission.GET_ACCOUNTS",
        "android.permission.INTERNET",
        "android.permission.MANAGE_ACCOUNTS",
        "android.permission.READ_PHONE_STATE",
        "android.permission.READ_SYNC_SETTINGS",
        "android.permission.READ_SYNC_STATS",
        "android.permission.RECEIVE_BOOT_COMPLETED",
        "android.permission.USE_CREDENTIALS",
        "android.permission.WAKE_LOCK",
        "android.permission.WRITE_EXTERNAL_STORAGE",
        "android.permission.WRITE_SETTINGS",
        "android.permission.WRITE_SYNC_SETTINGS"
      ]
    }
  ],
  "meta": {
    "generated": "2020-08-27T17:45:59.711256",
    "generatedBy": [
      "/home/hc/code/trackingthetrackers/scripts/make-clean-apk-set.py"
    ],
    "generatedByCommitId": "40519285d6f404593fa655fa89b433743c25289e",
    "sourceDataCommitId": "888bb8f8c77ff55105fcab2ad84c263561eb1169",
    "ver": "0.3.0"
  }
}