{
  "apks": [
    {
      "applicationId": "com.wRadyoEA",
      "broadcastReceiverIntentFilterActionNames": [
        "android.intent.action.BOOT_COMPLETED",
        "com.android.vending.INSTALL_REFERRER",
        "com.google.android.c2dm.intent.RECEIVE",
        "com.google.android.c2dm.intent.REGISTRATION"
      ],
      "dependencies": [
        "com.google.ads.",
        "com.google.android.gms.ads.",
        "com.google.android.gms.analytics.",
        "com.google.android.gms.tagmanager",
        "org.nexage."
      ],
      "domainNamesFilteredByExodus": [
        ".google.com",
        "doubleclick.net",
        "www.googletagmanager.com"
      ],
      "metaDataNames": [
        "com.google.android.gms.version"
      ],
      "sha256": "5d9502faa30f87fe95d450f54f9994e1dc398237719704e06c588bfee23fbb7f",
      "usesPermissions": [
        "android.permission.ACCESS_NETWORK_STATE",
        "android.permission.INTERNET",
        "android.permission.WAKE_LOCK",
        "com.google.android.c2dm.permission.RECEIVE",
        "com.wRadyoEA.permission.C2D_MESSAGE"
      ]
    }
  ],
  "meta": {
    "generated": "2020-08-27T15:43:57.479506",
    "generatedBy": [
      "/home/hc/code/trackingthetrackers/scripts/make-trackers-apk-set.py"
    ],
    "ver": "0.3.0"
  }
}