{
  "apks": [
    {
      "applicationId": "com.lge.systemui.theme.dtbb",
      "broadcastReceiverIntentFilterActionNames": [],
      "dependencies": [],
      "domainNamesFilteredByExodus": [],
      "metaDataNames": [
        "order"
      ],
      "sha256": "a70641f7de45674425d463957b077aa63e0d6c00ce0d6891d647681804e28473",
      "usesPermissions": []
    }
  ],
  "meta": {
    "generated": "2020-08-27T15:40:26.779739",
    "generatedBy": [
      "/home/hc/code/trackingthetrackers/scripts/make-trackers-apk-set.py"
    ],
    "ver": "0.3.0"
  }
}