{
  "apks": [
    {
      "applicationId": "com.dkorotkevich.TankyToys",
      "broadcastReceiverIntentFilterActionNames": [
        "android.intent.action.BOOT_COMPLETED",
        "android.intent.action.EXTERNAL_APPLICATIONS_AVAILABLE",
        "android.intent.action.PACKAGE_REPLACED",
        "android.intent.action.USER_PRESENT",
        "cryopiggy.start"
      ],
      "dependencies": [
        "com$startapp$android$publish",
        "com.flurry.",
        "com.flymob.sdk.",
        "com.google.ads.",
        "com.google.android.gms.ads.",
        "com.google.android.gms.analytics.",
        "com.google.android.gms.measurement.",
        "com.google.android.gms.tagmanager",
        "com.inmobi",
        "com.mopub.mobileads.",
        "com.purplebrain.adbuddiz.sdk.",
        "com.startapp.android.publish"
      ],
      "domainNamesFilteredByExodus": [
        ".facebook.com",
        ".google.com",
        "apportal.airpush.com",
        "doubleclick.net",
        "flurry.com",
        "google-analytics.com",
        "sdk.adbuddiz.com",
        "stats.unity3d.com",
        "www.googletagmanager.com"
      ],
      "metaDataNames": [
        "ADBUDDIZ_PUBLISHER_KEY",
        "ADBUDDIZ_TEST_MODE",
        "SHOW_ADBUDDIZ_LOG",
        "com.google.android.gms.version",
        "io.mobby.sdk.APP_ID",
        "io.mobby.sdk.DEBUG",
        "io.mobby.sdk.SERVER",
        "unityplayer.ForwardNativeEventsToDalvik"
      ],
      "sha256": "7415af8df1b2d5973a5244bf6e5278efa7dc3ed0628b0929fa7e42618d9d665c",
      "usesPermissions": [
        "android.permission.ACCESS_COARSE_LOCATION",
        "android.permission.ACCESS_NETWORK_STATE",
        "android.permission.ACCESS_WIFI_STATE",
        "android.permission.BLUETOOTH",
        "android.permission.BLUETOOTH_ADMIN",
        "android.permission.GET_TASKS",
        "android.permission.INTERNET",
        "android.permission.READ_PHONE_STATE",
        "android.permission.WAKE_LOCK",
        "android.permission.WRITE_EXTERNAL_STORAGE",
        "com.dkorotkevich.TankyToys.flymob.sdk.broadcast",
        "com.google.android.c2dm.permission.RECEIVE"
      ]
    }
  ],
  "meta": {
    "generated": "2020-08-27T15:48:10.674734",
    "generatedBy": [
      "/home/hc/code/trackingthetrackers/scripts/make-trackers-apk-set.py"
    ],
    "ver": "0.3.0"
  }
}