{
  "apks": [
    {
      "applicationId": "org.videolan.vlc",
      "broadcastReceiverIntentFilterActionNames": [
        "android.appwidget.action.APPWIDGET_UPDATE",
        "android.intent.action.BOOT_COMPLETED",
        "android.intent.action.MEDIA_BUTTON",
        "org.videolan.vlc.remote.PlayPause",
        "org.videolan.vlc.widget.INIT",
        "org.videolan.vlc.widget.UPDATE",
        "org.videolan.vlc.widget.UPDATE_COVER",
        "org.videolan.vlc.widget.UPDATE_POSITION"
      ],
      "dependencies": [],
      "domainNamesFilteredByExodus": [
        ".google.com"
      ],
      "metaDataNames": [
        "android.app.searchable",
        "android.appwidget.provider",
        "android.max_aspect",
        "com.lge.support.SPLIT_WINDOW",
        "com.samsung.android.sdk.multiwindow.enable"
      ],
      "sha256": "4e08350bbcb375cdd8436b3c2c9cccbb9e88f4f4e4aee2b0e6fa788d0bf3ff68",
      "usesPermissions": [
        "android.permission.ACCESS_NETWORK_STATE",
        "android.permission.BLUETOOTH",
        "android.permission.INTERNET",
        "android.permission.MODIFY_AUDIO_SETTINGS",
        "android.permission.RECEIVE_BOOT_COMPLETED",
        "android.permission.SYSTEM_ALERT_WINDOW",
        "android.permission.VIBRATE",
        "android.permission.WAKE_LOCK",
        "android.permission.WRITE_EXTERNAL_STORAGE",
        "android.permission.WRITE_SETTINGS",
        "org.videolan.vlc.permission.BIND_DATA_CONSUMER",
        "org.videolan.vlc.permission.READ_EXTENSION_DATA"
      ]
    }
  ],
  "meta": {
    "generated": "2020-08-27T18:40:10.434589",
    "generatedBy": [
      "/home/hc/code/trackingthetrackers/scripts/make-clean-apk-set.py"
    ],
    "generatedByCommitId": "3839559c80042252d3b947fb61c86a18e8b31114",
    "sourceDataCommitId": "888bb8f8c77ff55105fcab2ad84c263561eb1169",
    "ver": "0.3.0"
  }
}