{
  "apks": [
    {
      "applicationId": "com.ucnon.ngontinh",
      "broadcastReceiverIntentFilterActionNames": [],
      "dependencies": [
        "com.google.ads.",
        "com.google.android.gms.ads."
      ],
      "domainNamesFilteredByExodus": [
        ".facebook.com",
        ".google.com",
        "doubleclick.net"
      ],
      "metaDataNames": [
        "com.google.android.gms.version"
      ],
      "sha256": "127b712fd8db676b9355e556a15d664337f6b2c7d857d2ce05c710e2c6a4d0ae",
      "usesPermissions": [
        "android.permission.ACCESS_NETWORK_STATE",
        "android.permission.INTERNET"
      ]
    }
  ],
  "meta": {
    "generated": "2020-08-27T14:53:54.426021",
    "generatedBy": [
      "/home/hc/code/trackingthetrackers/scripts/make-trackers-apk-set.py"
    ],
    "ver": "0.3.0"
  }
}