{
  "apks": [
    {
      "applicationId": "com.nevosoft.poputchikhd2",
      "broadcastReceiverIntentFilterActionNames": [
        "android.intent.action.BOOT_COMPLETED",
        "android.intent.action.QUICKBOOT_POWERON",
        "android.intent.action.VIEW",
        "com.android.vending.INSTALL_REFERRER",
        "mobi.dash.extras.FORCE_START"
      ],
      "dependencies": [
        "com$mopub$mobileads$",
        "com.chartboost.sdk.",
        "com.flurry.",
        "com.google.ads.",
        "com.google.android.gms.ads.",
        "com.google.android.gms.analytics.",
        "com.mobileapptracker",
        "com.mopub.mobileads."
      ],
      "domainNamesFilteredByExodus": [
        ".chartboost.com",
        ".google.com",
        "doubleclick.net",
        "flurry.com",
        "google-analytics.com",
        "mobileapptracking.com",
        "mopub.com"
      ],
      "metaDataNames": [
        "com.google.android.gms.games.APP_ID",
        "com.google.android.gms.version"
      ],
      "sha256": "a88749d4f7dbe8f261c0f4a11c90ed6dac6cc25e98513952b88846fe9af4f511",
      "usesPermissions": [
        "android.permission.ACCESS_COARSE_LOCATION",
        "android.permission.ACCESS_NETWORK_STATE",
        "android.permission.ACCESS_WIFI_STATE",
        "android.permission.GET_ACCOUNTS",
        "android.permission.GET_TASKS",
        "android.permission.INTERNET",
        "android.permission.READ_CONTACTS",
        "android.permission.READ_LOGS",
        "android.permission.READ_PHONE_STATE",
        "android.permission.RECEIVE_BOOT_COMPLETED",
        "android.permission.SYSTEM_ALERT_WINDOW",
        "android.permission.WAKE_LOCK",
        "android.permission.WRITE_EXTERNAL_STORAGE",
        "com.android.vending.CHECK_LICENSE"
      ]
    }
  ],
  "meta": {
    "generated": "2020-08-27T15:34:19.231561",
    "generatedBy": [
      "/home/hc/code/trackingthetrackers/scripts/make-trackers-apk-set.py"
    ],
    "ver": "0.3.0"
  }
}