{
  "apks": [
    {
      "applicationId": "de.drhoffmannsoft.pizza",
      "broadcastReceiverIntentFilterActionNames": [],
      "dependencies": [],
      "domainNamesFilteredByExodus": [],
      "metaDataNames": [],
      "sha256": "4a7cda1ef3a24c39a46cd2af6c2acbc5fc4712b969890d12c895636be9bf4930",
      "usesPermissions": []
    }
  ],
  "meta": {
    "generated": "2020-08-27T17:01:52.811047",
    "generatedBy": [
      "/home/hc/code/trackingthetrackers/scripts/make-clean-apk-set.py"
    ],
    "generatedByCommitId": "40519285d6f404593fa655fa89b433743c25289e",
    "sourceDataCommitId": "888bb8f8c77ff55105fcab2ad84c263561eb1169",
    "ver": "0.3.0"
  }
}