{
  "apks": [
    {
      "applicationId": "com.simplemobiletools.camera",
      "broadcastReceiverIntentFilterActionNames": [
        "android.intent.action.CAMERA_BUTTON"
      ],
      "dependencies": [],
      "domainNamesFilteredByExodus": [
        ".facebook.com",
        ".google.com"
      ],
      "metaDataNames": [],
      "sha256": "536398eca5f1d16a4b9e013d4807278f0bf16b08100ae31b1c7d892a116ca3c4",
      "usesPermissions": [
        "android.permission.CAMERA",
        "android.permission.RECORD_AUDIO",
        "android.permission.WRITE_EXTERNAL_STORAGE"
      ]
    }
  ],
  "meta": {
    "generated": "2020-08-27T17:47:59.345215",
    "generatedBy": [
      "/home/hc/code/trackingthetrackers/scripts/make-clean-apk-set.py"
    ],
    "generatedByCommitId": "40519285d6f404593fa655fa89b433743c25289e",
    "sourceDataCommitId": "888bb8f8c77ff55105fcab2ad84c263561eb1169",
    "ver": "0.3.0"
  }
}