{
  "apks": [
    {
      "applicationId": "de.k3b.android.lossless_jpg_crop",
      "broadcastReceiverIntentFilterActionNames": [],
      "dependencies": [],
      "domainNamesFilteredByExodus": [],
      "metaDataNames": [
        "android.support.FILE_PROVIDER_PATHS"
      ],
      "sha256": "6bfa11de04e26e2134053a618d7ea25434dd8334e5a54a3fabdf4ef73a9cb478",
      "usesPermissions": [
        "android.permission.READ_EXTERNAL_STORAGE",
        "android.permission.WRITE_EXTERNAL_STORAGE"
      ]
    }
  ],
  "meta": {
    "generated": "2020-08-27T18:01:02.448320",
    "generatedBy": [
      "/home/hc/code/trackingthetrackers/scripts/make-clean-apk-set.py"
    ],
    "generatedByCommitId": "3839559c80042252d3b947fb61c86a18e8b31114",
    "sourceDataCommitId": "888bb8f8c77ff55105fcab2ad84c263561eb1169",
    "ver": "0.3.0"
  }
}