{
  "apks": [
    {
      "applicationId": "com.bluemoon.chosinsungFandom",
      "broadcastReceiverIntentFilterActionNames": [
        "RestartReceiver.restart",
        "android.intent.action.BOOT_COMPLETED",
        "android.intent.action.PACKAGE_ADDED",
        "android.intent.action.PACKAGE_REMOVED",
        "android.intent.action.PACKAGE_REPLACED",
        "com.android.vending.INSTALL_REFERRER",
        "com.bluemoon.alarm.ACTION",
        "com.google.android.c2dm.intent.RECEIVE",
        "com.google.android.c2dm.intent.REGISTRATION"
      ],
      "dependencies": [
        "com$google$ads$",
        "com$google$tagmanager",
        "com$inmobi",
        "com$tapjoy$",
        "com$tnkfactory$ad",
        "com.admixer",
        "com.fsn.cauly",
        "com.google.ads.",
        "com.google.android.gms.analytics.",
        "com.google.tagmanager",
        "com.igaworks.adbrix",
        "com.igaworks.adpopcorn",
        "com.inmobi",
        "com.jm.co.shallwead.sdk.",
        "com.millennialmedia.",
        "com.mobclix.android.sdk",
        "com.skplanet.tad",
        "com.tapjoy.",
        "com.tnkfactory.ad",
        "com_facebook_login",
        "mediba.ad.sdk.android.openx",
        "net$nend$android",
        "net.nend.android"
      ],
      "domainNamesFilteredByExodus": [
        ".facebook.com",
        ".google.com",
        "ad-brix.com",
        "admixer.co.kr",
        "adotsolution.com",
        "doubleclick.net",
        "google-analytics.com",
        "i.w.inmobi.com",
        "inmobi.com",
        "inmobisdk-a.akamaihd.net",
        "tapjoy.com",
        "tapjoyads.com",
        "www.googletagmanager.com"
      ],
      "metaDataNames": [
        "adPOPcorn_enable_adbrix_tracking",
        "adPOPcorn_enable_detail_log",
        "adPOPcorn_hash_key",
        "adPOPcorn_market_info",
        "adPOPcorn_media_key",
        "adPOPcorn_reward_server_type",
        "adPOPcorn_use_app_marketing",
        "com.facebook.sdk.ApplicationId",
        "i-mobile_Publisher_ID",
        "partner_id",
        "title_bar_color",
        "tnkad_app_id",
        "tnkad_tracking"
      ],
      "sha256": "cdf1ea8ad33506c3af5d3272966b8630c7253028f2852958e1aeb08c9e580f3a",
      "usesPermissions": [
        "android.permission.ACCESS_NETWORK_STATE",
        "android.permission.ACCESS_WIFI_STATE",
        "android.permission.DISABLE_KEYGUARD",
        "android.permission.GET_ACCOUNTS",
        "android.permission.GET_TASKS",
        "android.permission.INTERNET",
        "android.permission.READ_EXTERNAL_STORAGE",
        "android.permission.READ_PHONE_STATE",
        "android.permission.RECEIVE_BOOT_COMPLETED",
        "android.permission.SET_WALLPAPER",
        "android.permission.VIBRATE",
        "android.permission.WAKE_LOCK",
        "android.permission.WRITE_EXTERNAL_STORAGE",
        "com.bluemoon.chosinsungFandom.permission.C2D_MESSAGE",
        "com.google.android.c2dm.permission.RECEIVE"
      ]
    }
  ],
  "meta": {
    "generated": "2020-08-27T15:18:02.725070",
    "generatedBy": [
      "/home/hc/code/trackingthetrackers/scripts/make-trackers-apk-set.py"
    ],
    "ver": "0.3.0"
  }
}