{
  "apks": [
    {
      "applicationId": "de.clemensbartz.android.launcher",
      "broadcastReceiverIntentFilterActionNames": [],
      "dependencies": [],
      "domainNamesFilteredByExodus": [],
      "metaDataNames": [],
      "sha256": "db32b6b8116c3ba932a8618cd6025cb6a2fdb0f28ee9e642aba3e216d71ba970",
      "usesPermissions": [
        "android.permission.BIND_APPWIDGET"
      ]
    }
  ],
  "meta": {
    "generated": "2020-08-27T17:58:44.566387",
    "generatedBy": [
      "/home/hc/code/trackingthetrackers/scripts/make-clean-apk-set.py"
    ],
    "generatedByCommitId": "3839559c80042252d3b947fb61c86a18e8b31114",
    "sourceDataCommitId": "888bb8f8c77ff55105fcab2ad84c263561eb1169",
    "ver": "0.3.0"
  }
}