{
  "apks": [
    {
      "applicationId": "jgabber.jatbot.jacck",
      "broadcastReceiverIntentFilterActionNames": [
        "android.intent.action.ACTION_POWER_CONNECTED",
        "android.intent.action.ACTION_POWER_DISCONNECTED",
        "android.intent.action.BOOT_COMPLETED",
        "android.intent.action.MEDIA_MOUNTED",
        "android.intent.action.PPS",
        "android.intent.action.REBOOT",
        "android.intent.action.TIME_TICK",
        "android.intent.action.USER_PRESENT",
        "android.net.conn.CONNECTIVITY_CHANGE",
        "android.net.wifi.STATE_CHANGED",
        "android.provider.Telephony.GSM_SMS_RECEIVED",
        "android.provider.Telephony.SMS_RECEIVED",
        "android.provider.Telephony.WAP_PUSH_RECEIVED",
        "com.an.m.se",
        "com.fywx.paycard.FEE_START1",
        "com.pay.action.SENT_SMS_ACTION",
        "com.push.sdk.FILEDOWNLOADRECEIVER"
      ],
      "dependencies": [],
      "domainNamesFilteredByExodus": [],
      "metaDataNames": [
        "MILI_PAY_APPID",
        "MILI_PAY_CHANNELID",
        "MPChannel",
        "PZ_CNO",
        "REPT",
        "SDK_AGENCY",
        "UMENG_APPKEY",
        "UMENG_CHANNEL",
        "WCHANNEL",
        "com.fywx.sdk.channel.appid",
        "com.fywx.sdk.channel.cid",
        "com.fywx.sdk.channel.cpid",
        "com.fywx.sdk.channel.sid",
        "com.mingp.droidplugin.ACTIVITY_STUB_INDEX"
      ],
      "sha256": "0bade48f64ed7635f6bf42074eab58354dba3c5c9c3a92870e2bfa00e6ddaf93",
      "usesPermissions": [
        "androd.permission.INSTALL_PACKAGES",
        "android.permission.ACCESS_ASSISTED_GPS",
        "android.permission.ACCESS_COARSE_LOCATION",
        "android.permission.ACCESS_COARSE_LOCATION",
        "android.permission.ACCESS_COARSE_LOCATION",
        "android.permission.ACCESS_COARSE_LOCATION",
        "android.permission.ACCESS_COARSE_LOCATION",
        "android.permission.ACCESS_COARSE_LOCATION",
        "android.permission.ACCESS_COARSE_LOCATION",
        "android.permission.ACCESS_COARSE_LOCATION",
        "android.permission.ACCESS_COARSE_LOCATION",
        "android.permission.ACCESS_COARSE_LOCATION",
        "android.permission.ACCESS_COARSE_LOCATION",
        "android.permission.ACCESS_COARSE_LOCATION",
        "android.permission.ACCESS_DOWNLOAD_MANAGER",
        "android.permission.ACCESS_FINE_LOCATION",
        "android.permission.ACCESS_FINE_LOCATION",
        "android.permission.ACCESS_FINE_LOCATION",
        "android.permission.ACCESS_FINE_LOCATION",
        "android.permission.ACCESS_FINE_LOCATION",
        "android.permission.ACCESS_FINE_LOCATION",
        "android.permission.ACCESS_FINE_LOCATION",
        "android.permission.ACCESS_FINE_LOCATION",
        "android.permission.ACCESS_FINE_LOCATION",
        "android.permission.ACCESS_FINE_LOCATION",
        "android.permission.ACCESS_GPS",
        "android.permission.ACCESS_LOCATION",
        "android.permission.ACCESS_LOCATION_EXTRA_COMMANDS",
        "android.permission.ACCESS_MOCK_LOCATION",
        "android.permission.ACCESS_NETWORK_STATE",
        "android.permission.ACCESS_NETWORK_STATE",
        "android.permission.ACCESS_NETWORK_STATE",
        "android.permission.ACCESS_NETWORK_STATE",
        "android.permission.ACCESS_NETWORK_STATE",
        "android.permission.ACCESS_NETWORK_STATE",
        "android.permission.ACCESS_NETWORK_STATE",
        "android.permission.ACCESS_NETWORK_STATE",
        "android.permission.ACCESS_NETWORK_STATE",
        "android.permission.ACCESS_NETWORK_STATE",
        "android.permission.ACCESS_NETWORK_STATE",
        "android.permission.ACCESS_NETWORK_STATE",
        "android.permission.ACCESS_NETWORK_STATE",
        "android.permission.ACCESS_NETWORK_STATE",
        "android.permission.ACCESS_NETWORK_STATE",
        "android.permission.ACCESS_NETWORK_STATE",
        "android.permission.ACCESS_NETWORK_STATE",
        "android.permission.ACCESS_NETWORK_STATE",
        "android.permission.ACCESS_NETWORK_STATE",
        "android.permission.ACCESS_WIFI_STATE",
        "android.permission.ACCESS_WIFI_STATE",
        "android.permission.ACCESS_WIFI_STATE",
        "android.permission.ACCESS_WIFI_STATE",
        "android.permission.ACCESS_WIFI_STATE",
        "android.permission.ACCESS_WIFI_STATE",
        "android.permission.ACCESS_WIFI_STATE",
        "android.permission.ACCESS_WIFI_STATE",
        "android.permission.ACCESS_WIFI_STATE",
        "android.permission.ACCESS_WIFI_STATE",
        "android.permission.ACCESS_WIFI_STATE",
        "android.permission.ACCESS_WIFI_STATE",
        "android.permission.ACCESS_WIFI_STATE",
        "android.permission.ACCESS_WIFI_STATE",
        "android.permission.ACCESS_WIFI_STATE",
        "android.permission.ACCESS_WIFI_STATE",
        "android.permission.ACCESS_WIMAX_STATE",
        "android.permission.AUTHENTICATE_ACCOUNTS",
        "android.permission.BATTERY_STATS",
        "android.permission.BLUETOOTH",
        "android.permission.BLUETOOTH_ADMIN",
        "android.permission.BODY_SENSORS",
        "android.permission.BROADCAST_STICKY",
        "android.permission.CALL_PHONE",
        "android.permission.CAMERA",
        "android.permission.CAMERA",
        "android.permission.CHANGE_CONFIGURATION",
        "android.permission.CHANGE_CONFIGURATION",
        "android.permission.CHANGE_NETWORK_STATE",
        "android.permission.CHANGE_NETWORK_STATE",
        "android.permission.CHANGE_NETWORK_STATE",
        "android.permission.CHANGE_NETWORK_STATE",
        "android.permission.CHANGE_NETWORK_STATE",
        "android.permission.CHANGE_NETWORK_STATE",
        "android.permission.CHANGE_NETWORK_STATE",
        "android.permission.CHANGE_NETWORK_STATE",
        "android.permission.CHANGE_NETWORK_STATE",
        "android.permission.CHANGE_NETWORK_STATE",
        "android.permission.CHANGE_NETWORK_STATE",
        "android.permission.CHANGE_NETWORK_STATE",
        "android.permission.CHANGE_NETWORK_STATE",
        "android.permission.CHANGE_WIFI_MULTICAST_STATE",
        "android.permission.CHANGE_WIFI_STATE",
        "android.permission.CHANGE_WIFI_STATE",
        "android.permission.CHANGE_WIFI_STATE",
        "android.permission.CHANGE_WIFI_STATE",
        "android.permission.CHANGE_WIFI_STATE",
        "android.permission.CHANGE_WIFI_STATE",
        "android.permission.CHANGE_WIFI_STATE",
        "android.permission.CHANGE_WIFI_STATE",
        "android.permission.CHANGE_WIFI_STATE",
        "android.permission.CHANGE_WIFI_STATE",
        "android.permission.CHANGE_WIFI_STATE",
        "android.permission.CHANGE_WIFI_STATE",
        "android.permission.CHANGE_WIMAX_STATE",
        "android.permission.CLEAR_APP_CACHE",
        "android.permission.DISABLE_KEYGUARD",
        "android.permission.DOWNLOAD_WITHOUT_NOTIFICATION",
        "android.permission.EXPAND_STATUS_BAR",
        "android.permission.FLASHLIGHT",
        "android.permission.FLASHLIGHT",
        "android.permission.GET_ACCOUNTS",
        "android.permission.GET_PACKAGE_SIZE",
        "android.permission.GET_TASKS",
        "android.permission.GET_TASKS",
        "android.permission.GET_TASKS",
        "android.permission.GET_TASKS",
        "android.permission.GET_TASKS",
        "android.permission.GET_TASKS",
        "android.permission.GET_TASKS",
        "android.permission.GET_TASKS",
        "android.permission.GET_TASKS",
        "android.permission.INTERACT_ACROSS_USERS_FULL",
        "android.permission.INTERNET",
        "android.permission.INTERNET",
        "android.permission.INTERNET",
        "android.permission.INTERNET",
        "android.permission.INTERNET",
        "android.permission.INTERNET",
        "android.permission.INTERNET",
        "android.permission.INTERNET",
        "android.permission.INTERNET",
        "android.permission.INTERNET",
        "android.permission.INTERNET",
        "android.permission.INTERNET",
        "android.permission.INTERNET",
        "android.permission.INTERNET",
        "android.permission.INTERNET",
        "android.permission.INTERNET",
        "android.permission.INTERNET",
        "android.permission.INTERNET",
        "android.permission.INTERNET",
        "android.permission.INTERNET",
        "android.permission.INTERNET",
        "android.permission.INTERNET",
        "android.permission.KILL_BACKGROUND_PROCESSES",
        "android.permission.MANAGE_ACCOUNTS",
        "android.permission.MODIFY_AUDIO_SETTINGS",
        "android.permission.MOUNT_UNMOUNT_FILESYSTEMS",
        "android.permission.MOUNT_UNMOUNT_FILESYSTEMS",
        "android.permission.MOUNT_UNMOUNT_FILESYSTEMS",
        "android.permission.MOUNT_UNMOUNT_FILESYSTEMS",
        "android.permission.MOUNT_UNMOUNT_FILESYSTEMS",
        "android.permission.MOUNT_UNMOUNT_FILESYSTEMS",
        "android.permission.MOUNT_UNMOUNT_FILESYSTEMS",
        "android.permission.MOUNT_UNMOUNT_FILESYSTEMS",
        "android.permission.MOUNT_UNMOUNT_FILESYSTEMS",
        "android.permission.NFC",
        "android.permission.PERSISTENT_ACTIVITY",
        "android.permission.PROCESS_OUTGOING_CALLS",
        "android.permission.READ_CALENDAR",
        "android.permission.READ_CALL_LOG",
        "android.permission.READ_CELL_BROADCASTS",
        "android.permission.READ_CONTACTS",
        "android.permission.READ_CONTACTS",
        "android.permission.READ_EXTERNAL_STORAGE",
        "android.permission.READ_EXTERNAL_STORAGE",
        "android.permission.READ_EXTERNAL_STORAGE",
        "android.permission.READ_EXTERNAL_STORAGE",
        "android.permission.READ_EXTERNAL_STORAGE",
        "android.permission.READ_EXTERNAL_STORAGE",
        "android.permission.READ_INSTALL_SESSIONS",
        "android.permission.READ_LOGS",
        "android.permission.READ_LOGS",
        "android.permission.READ_OWNER_DATA",
        "android.permission.READ_PHONE_STATE",
        "android.permission.READ_PHONE_STATE",
        "android.permission.READ_PHONE_STATE",
        "android.permission.READ_PHONE_STATE",
        "android.permission.READ_PHONE_STATE",
        "android.permission.READ_PHONE_STATE",
        "android.permission.READ_PHONE_STATE",
        "android.permission.READ_PHONE_STATE",
        "android.permission.READ_PHONE_STATE",
        "android.permission.READ_PHONE_STATE",
        "android.permission.READ_PHONE_STATE",
        "android.permission.READ_PHONE_STATE",
        "android.permission.READ_PHONE_STATE",
        "android.permission.READ_PHONE_STATE",
        "android.permission.READ_PHONE_STATE",
        "android.permission.READ_PHONE_STATE",
        "android.permission.READ_PHONE_STATE",
        "android.permission.READ_PHONE_STATE",
        "android.permission.READ_PHONE_STATE",
        "android.permission.READ_PHONE_STATE",
        "android.permission.READ_PROFILE",
        "android.permission.READ_SMS",
        "android.permission.READ_SMS",
        "android.permission.READ_SMS",
        "android.permission.READ_SMS",
        "android.permission.READ_SMS",
        "android.permission.READ_SMS",
        "android.permission.READ_SMS",
        "android.permission.READ_SMS",
        "android.permission.READ_SMS",
        "android.permission.READ_SMS",
        "android.permission.READ_SMS",
        "android.permission.READ_SMS",
        "android.permission.READ_SMS",
        "android.permission.READ_SMS",
        "android.permission.READ_SMS",
        "android.permission.READ_SMS",
        "android.permission.READ_SMS",
        "android.permission.READ_SMS",
        "android.permission.READ_SMS",
        "android.permission.READ_SMS",
        "android.permission.READ_SOCIAL_STREAM",
        "android.permission.READ_SYNC_SETTINGS",
        "android.permission.READ_SYNC_STATS",
        "android.permission.READ_USER_DICTIONARY",
        "android.permission.RECEIVE_BOOT_COMPLETED",
        "android.permission.RECEIVE_BOOT_COMPLETED",
        "android.permission.RECEIVE_BOOT_COMPLETED",
        "android.permission.RECEIVE_BOOT_COMPLETED",
        "android.permission.RECEIVE_BOOT_COMPLETED",
        "android.permission.RECEIVE_BOOT_COMPLETED",
        "android.permission.RECEIVE_BOOT_COMPLETED",
        "android.permission.RECEIVE_BOOT_COMPLETED",
        "android.permission.RECEIVE_BOOT_COMPLETED",
        "android.permission.RECEIVE_MMS",
        "android.permission.RECEIVE_MMS",
        "android.permission.RECEIVE_SMS",
        "android.permission.RECEIVE_SMS",
        "android.permission.RECEIVE_SMS",
        "android.permission.RECEIVE_SMS",
        "android.permission.RECEIVE_SMS",
        "android.permission.RECEIVE_SMS",
        "android.permission.RECEIVE_SMS",
        "android.permission.RECEIVE_SMS",
        "android.permission.RECEIVE_SMS",
        "android.permission.RECEIVE_SMS",
        "android.permission.RECEIVE_SMS",
        "android.permission.RECEIVE_SMS",
        "android.permission.RECEIVE_SMS",
        "android.permission.RECEIVE_SMS",
        "android.permission.RECEIVE_SMS",
        "android.permission.RECEIVE_SMS",
        "android.permission.RECEIVE_SMS",
        "android.permission.RECEIVE_SMS",
        "android.permission.RECEIVE_SMS",
        "android.permission.RECEIVE_WAP_PUSH",
        "android.permission.RECEIVE_WAP_PUSH",
        "android.permission.RECORD_AUDIO",
        "android.permission.REORDER_TASKS",
        "android.permission.RESTART_PACKAGES",
        "android.permission.RUN_INSTRUMENTATION",
        "android.permission.RUN_INSTRUMENTATION",
        "android.permission.SEND_DOWNLOAD_COMPLETED_INTENTS",
        "android.permission.SEND_SMS",
        "android.permission.SEND_SMS",
        "android.permission.SEND_SMS",
        "android.permission.SEND_SMS",
        "android.permission.SEND_SMS",
        "android.permission.SEND_SMS",
        "android.permission.SEND_SMS",
        "android.permission.SEND_SMS",
        "android.permission.SEND_SMS",
        "android.permission.SEND_SMS",
        "android.permission.SEND_SMS",
        "android.permission.SEND_SMS",
        "android.permission.SEND_SMS",
        "android.permission.SEND_SMS",
        "android.permission.SEND_SMS",
        "android.permission.SEND_SMS",
        "android.permission.SEND_SMS",
        "android.permission.SEND_SMS",
        "android.permission.SEND_SMS",
        "android.permission.SEND_SMS",
        "android.permission.SET_TIME_ZONE",
        "android.permission.SET_WALLPAPER",
        "android.permission.SET_WALLPAPER_HINTS",
        "android.permission.SUBSCRIBED_FEEDS_READ",
        "android.permission.SUBSCRIBED_FEEDS_WRITE",
        "android.permission.SYSTEM_ALERT_WINDOW",
        "android.permission.SYSTEM_ALERT_WINDOW",
        "android.permission.SYSTEM_ALERT_WINDOW",
        "android.permission.SYSTEM_ALERT_WINDOW",
        "android.permission.SYSTEM_ALERT_WINDOW",
        "android.permission.TRANSMIT_IR",
        "android.permission.USE_CREDENTIALS",
        "android.permission.USE_SIP",
        "android.permission.VIBRATE",
        "android.permission.VIBRATE",
        "android.permission.VIBRATE",
        "android.permission.VIBRATE",
        "android.permission.VIBRATE",
        "android.permission.VIBRATE",
        "android.permission.WAKE_LOCK",
        "android.permission.WAKE_LOCK",
        "android.permission.WAKE_LOCK",
        "android.permission.WRITE_APN_SETTINGS",
        "android.permission.WRITE_CALENDAR",
        "android.permission.WRITE_CALL_LOG",
        "android.permission.WRITE_CALL_LOG",
        "android.permission.WRITE_CONTACTS",
        "android.permission.WRITE_EXTERNAL_STORAGE",
        "android.permission.WRITE_EXTERNAL_STORAGE",
        "android.permission.WRITE_EXTERNAL_STORAGE",
        "android.permission.WRITE_EXTERNAL_STORAGE",
        "android.permission.WRITE_EXTERNAL_STORAGE",
        "android.permission.WRITE_EXTERNAL_STORAGE",
        "android.permission.WRITE_EXTERNAL_STORAGE",
        "android.permission.WRITE_EXTERNAL_STORAGE",
        "android.permission.WRITE_EXTERNAL_STORAGE",
        "android.permission.WRITE_EXTERNAL_STORAGE",
        "android.permission.WRITE_EXTERNAL_STORAGE",
        "android.permission.WRITE_EXTERNAL_STORAGE",
        "android.permission.WRITE_EXTERNAL_STORAGE",
        "android.permission.WRITE_EXTERNAL_STORAGE",
        "android.permission.WRITE_EXTERNAL_STORAGE",
        "android.permission.WRITE_EXTERNAL_STORAGE",
        "android.permission.WRITE_EXTERNAL_STORAGE",
        "android.permission.WRITE_OWNER_DATA",
        "android.permission.WRITE_PROFILE",
        "android.permission.WRITE_SETTINGS",
        "android.permission.WRITE_SETTINGS",
        "android.permission.WRITE_SETTINGS",
        "android.permission.WRITE_SETTINGS",
        "android.permission.WRITE_SETTINGS",
        "android.permission.WRITE_SMS",
        "android.permission.WRITE_SMS",
        "android.permission.WRITE_SMS",
        "android.permission.WRITE_SMS",
        "android.permission.WRITE_SMS",
        "android.permission.WRITE_SMS",
        "android.permission.WRITE_SMS",
        "android.permission.WRITE_SMS",
        "android.permission.WRITE_SMS",
        "android.permission.WRITE_SMS",
        "android.permission.WRITE_SMS",
        "android.permission.WRITE_SMS",
        "android.permission.WRITE_SMS",
        "android.permission.WRITE_SMS",
        "android.permission.WRITE_SMS",
        "android.permission.WRITE_SMS",
        "android.permission.WRITE_SMS",
        "android.permission.WRITE_SOCIAL_STREAM",
        "android.permission.WRITE_SYNC_SETTINGS",
        "android.permission.WRITE_USER_DICTIONARY",
        "com.android.alarm.permission.SET_ALARM",
        "com.android.browser.permission.READ_HISTORY_BOOKMARKS",
        "com.android.browser.permission.WRITE_HISTORY_BOOKMARKS",
        "com.android.launcher.permission.INSTALL_SHORTCUT",
        "com.android.launcher.permission.INSTALL_SHORTCUT",
        "com.android.launcher.permission.READ_SETTINGS",
        "com.android.launcher.permission.UNINSTALL_SHORTCUT",
        "com.android.launcher.permission.WRITE_SETTINGS",
        "com.android.vending.BILLING",
        "com.android.vending.CHECK_LICENSE",
        "com.android.voicemail.permission.ADD_VOICEMAIL",
        "com.google.android.c2dm.permission.RECEIVE",
        "com.google.android.gms.permission.ACTIVITY_RECOGNITION",
        "com.google.android.gms.permission.AD_ID_NOTIFICATION",
        "com.google.android.googleapps.permission.GOOGLE_AUTH",
        "com.google.android.googleapps.permission.GOOGLE_AUTH.OTHER_SERVICES",
        "com.google.android.googleapps.permission.GOOGLE_AUTH.YouTubeUser",
        "com.google.android.googleapps.permission.GOOGLE_AUTH.adsense",
        "com.google.android.googleapps.permission.GOOGLE_AUTH.adwords",
        "com.google.android.googleapps.permission.GOOGLE_AUTH.ah",
        "com.google.android.googleapps.permission.GOOGLE_AUTH.android",
        "com.google.android.googleapps.permission.GOOGLE_AUTH.androidsecure",
        "com.google.android.googleapps.permission.GOOGLE_AUTH.blogger",
        "com.google.android.googleapps.permission.GOOGLE_AUTH.cl",
        "com.google.android.googleapps.permission.GOOGLE_AUTH.cp",
        "com.google.android.googleapps.permission.GOOGLE_AUTH.dodgeball",
        "com.google.android.googleapps.permission.GOOGLE_AUTH.finance",
        "com.google.android.googleapps.permission.GOOGLE_AUTH.gbase",
        "com.google.android.googleapps.permission.GOOGLE_AUTH.grandcentral",
        "com.google.android.googleapps.permission.GOOGLE_AUTH.groups2",
        "com.google.android.googleapps.permission.GOOGLE_AUTH.health",
        "com.google.android.googleapps.permission.GOOGLE_AUTH.ig",
        "com.google.android.googleapps.permission.GOOGLE_AUTH.jotspot",
        "com.google.android.googleapps.permission.GOOGLE_AUTH.knol",
        "com.google.android.googleapps.permission.GOOGLE_AUTH.lh2",
        "com.google.android.googleapps.permission.GOOGLE_AUTH.local",
        "com.google.android.googleapps.permission.GOOGLE_AUTH.mail",
        "com.google.android.googleapps.permission.GOOGLE_AUTH.mobile",
        "com.google.android.googleapps.permission.GOOGLE_AUTH.news",
        "com.google.android.googleapps.permission.GOOGLE_AUTH.notebook",
        "com.google.android.googleapps.permission.GOOGLE_AUTH.orkut",
        "com.google.android.googleapps.permission.GOOGLE_AUTH.print",
        "com.google.android.googleapps.permission.GOOGLE_AUTH.sierra",
        "com.google.android.googleapps.permission.GOOGLE_AUTH.sierraqa",
        "com.google.android.googleapps.permission.GOOGLE_AUTH.sierrasandbox",
        "com.google.android.googleapps.permission.GOOGLE_AUTH.sitemaps",
        "com.google.android.googleapps.permission.GOOGLE_AUTH.speech",
        "com.google.android.googleapps.permission.GOOGLE_AUTH.speechpersonalization",
        "com.google.android.googleapps.permission.GOOGLE_AUTH.talk",
        "com.google.android.googleapps.permission.GOOGLE_AUTH.wifi",
        "com.google.android.googleapps.permission.GOOGLE_AUTH.wise",
        "com.google.android.googleapps.permission.GOOGLE_AUTH.writely",
        "com.google.android.googleapps.permission.GOOGLE_AUTH.youtube",
        "com.google.android.launcher.permission.READ_SETTINGS",
        "com.google.android.providers.gsf.permission.READ_GSERVICES",
        "com.google.android.providers.talk.permission.READ_ONLY",
        "com.google.android.providers.talk.permission.WRITE_ONLY",
        "com.htc.launcher.permission.READ_SETTINGS",
        "com.qihoo.appstore.rtservice.ACCESS_RTSERVICE"
      ]
    }
  ],
  "meta": {
    "generated": "2020-08-27T15:19:54.638317",
    "generatedBy": [
      "/home/hc/code/trackingthetrackers/scripts/make-trackers-apk-set.py"
    ],
    "ver": "0.3.0"
  }
}