{
  "apks": [
    {
      "applicationId": "air.com.shirogames.evoland12.az",
      "broadcastReceiverIntentFilterActionNames": [
        "android.intent.action.DOWNLOAD_COMPLETE",
        "android.intent.action.PACKAGE_ADDED",
        "android.intent.action.PACKAGE_REMOVED",
        "android.net.conn.CONNECTIVITY_CHANGE"
      ],
      "dependencies": [
        "com.google.android.gms.analytics."
      ],
      "domainNamesFilteredByExodus": [
        ".google.com"
      ],
      "metaDataNames": [
        "ADBID_SDK_KEY",
        "BAN_H",
        "BAN_W",
        "INST_H",
        "INST_W",
        "aspectRatio",
        "autoOrients",
        "containsVideo",
        "fullScreen",
        "initialcontent",
        "lenovo.open.appid",
        "namespaceVersion",
        "pujiasdkver",
        "uniqueappversionid"
      ],
      "sha256": "8d16a72489444a3705f764c47f324827309452e5572442aa01ca3583b0f670f8",
      "usesPermissions": [
        "android.permission.ACCESS_COARSE_LOCATION",
        "android.permission.ACCESS_FINE_LOCATION",
        "android.permission.ACCESS_MTK_MMHW",
        "android.permission.ACCESS_NETWORK_STATE",
        "android.permission.ACCESS_WIFI_STATE",
        "android.permission.CAMERA",
        "android.permission.CAMERA",
        "android.permission.DOWNLOAD_WITHOUT_NOTIFICATION",
        "android.permission.GET_ACCOUNTS",
        "android.permission.GET_TASKS",
        "android.permission.INTERNET",
        "android.permission.MOUNT_UNMOUNT_FILESYSTEMS",
        "android.permission.READ_EXTERNAL_STORAGE",
        "android.permission.READ_LOGS",
        "android.permission.READ_PHONE_STATE",
        "android.permission.RECEIVE_SMS",
        "android.permission.SEND_SMS",
        "android.permission.SYSTEM_ALERT_WINDOW",
        "android.permission.USE_CREDENTIALS",
        "android.permission.WAKE_LOCK",
        "android.permission.WAKE_LOCK",
        "android.permission.WRITE_EXTERNAL_STORAGE"
      ]
    }
  ],
  "meta": {
    "generated": "2020-08-27T15:49:52.011458",
    "generatedBy": [
      "/home/hc/code/trackingthetrackers/scripts/make-trackers-apk-set.py"
    ],
    "ver": "0.3.0"
  }
}