{
  "apks": [
    {
      "applicationId": "com.lifelessons.expert.quotes.williamsburroughsquotes",
      "broadcastReceiverIntentFilterActionNames": [],
      "dependencies": [
        "com$startapp$android$publish",
        "com.google.android.gms.analytics.",
        "com.startapp.android.publish"
      ],
      "domainNamesFilteredByExodus": [
        ".google.com",
        "api.airpush.com",
        "google-analytics.com"
      ],
      "metaDataNames": [
        "com.tzsrmfn.ghldrkn165710.APIKEY",
        "com.tzsrmfn.ghldrkn165710.APPID"
      ],
      "sha256": "262dc3f51cefb270be139f455ecde821e9f2c284075c1547cdc3a93ff17b1d5a",
      "usesPermissions": [
        "android.permission.ACCESS_COARSE_LOCATION",
        "android.permission.ACCESS_NETWORK_STATE",
        "android.permission.ACCESS_WIFI_STATE",
        "android.permission.GET_TASKS",
        "android.permission.INTERNET",
        "android.permission.READ_PHONE_STATE",
        "android.permission.RECEIVE_BOOT_COMPLETED",
        "android.permission.SYSTEM_ALERT_WINDOW",
        "android.permission.WRITE_EXTERNAL_STORAGE"
      ]
    }
  ],
  "meta": {
    "generated": "2020-08-27T14:55:34.973280",
    "generatedBy": [
      "/home/hc/code/trackingthetrackers/scripts/make-trackers-apk-set.py"
    ],
    "ver": "0.3.0"
  }
}