{
  "apks": [
    {
      "applicationId": "dk.kjeldsen.carwingsflutter",
      "broadcastReceiverIntentFilterActionNames": [
        "android.appwidget.action.APPWIDGET_UPDATE"
      ],
      "dependencies": [],
      "domainNamesFilteredByExodus": [
        ".google.com"
      ],
      "metaDataNames": [
        "android.appwidget.provider",
        "io.flutter.app.android.SplashScreenUntilFirstFrame"
      ],
      "sha256": "061d7254e9e29a7b060f67441d576a32d457c022c572a41e2e1e507a6aca2f1b",
      "usesPermissions": [
        "android.permission.INTERNET",
        "com.android.vending.BILLING"
      ]
    }
  ],
  "meta": {
    "generated": "2020-08-27T14:46:05.988018",
    "generatedBy": [
      "/home/hc/code/trackingthetrackers/scripts/make-trackers-apk-set.py"
    ],
    "ver": "0.3.0"
  }
}