{
  "apks": [
    {
      "applicationId": "com.jokewu",
      "broadcastReceiverIntentFilterActionNames": [
        "android.intent.action.PACKAGE_ADDED"
      ],
      "dependencies": [
        "com$tencent$stat",
        "com.tencent.stat",
        "com.tencent.weiyun",
        "com.umeng.analytics",
        "net.youmi"
      ],
      "domainNamesFilteredByExodus": [
        "alog.umeng.com",
        "au.youmi.net",
        "map.qq.com",
        "oc.umeng.com",
        "umeng.com",
        "youmi.net"
      ],
      "metaDataNames": [
        "UMENG_APPKEY",
        "UMENG_CHANNEL",
        "YOUMI_CHANNEL"
      ],
      "sha256": "dd804ba83cec8e22be095610cf788b8c50c5ca867f28bfc1078dcbdc9e18b566",
      "usesPermissions": [
        "android.permission.ACCESS_NETWORK_STATE",
        "android.permission.ACCESS_WIFI_STATE",
        "android.permission.GET_TASKS",
        "android.permission.INTERNET",
        "android.permission.READ_PHONE_STATE",
        "android.permission.SYSTEM_ALERT_WINDOW",
        "android.permission.WRITE_EXTERNAL_STORAGE",
        "com.android.launcher.permission.INSTALL_SHORTCUT"
      ]
    }
  ],
  "meta": {
    "generated": "2020-08-27T15:12:10.183847",
    "generatedBy": [
      "/home/hc/code/trackingthetrackers/scripts/make-trackers-apk-set.py"
    ],
    "ver": "0.3.0"
  }
}