{
  "apks": [
    {
      "applicationId": "com.nuttyapps.celebrity.doctor",
      "broadcastReceiverIntentFilterActionNames": [
        "android.intent.action.BOOT_COMPLETED",
        "android.intent.action.PACKAGE_ADDED"
      ],
      "dependencies": [
        "com$heyzap$sdk$ads$",
        "com.chartboost.sdk.",
        "com.flurry.",
        "com.google.ads.",
        "com.heyzap.sdk.ads.",
        "com.inmobi",
        "com.millennialmedia.",
        "com.mobclix.android.sdk",
        "com.tapjoy.",
        "org.cocos2dx"
      ],
      "domainNamesFilteredByExodus": [
        ".chartboost.com",
        ".facebook.com",
        ".google.com",
        "ads.heyzap.com",
        "api.airpush.com",
        "api.vungle.com",
        "beta.airpush.com",
        "doubleclick.net",
        "et.w.inmobi.com",
        "flurry.com",
        "i.w.inmobi.com",
        "inmobi.com",
        "inmobisdk-a.akamaihd.net",
        "m.airpush.com",
        "tapjoyads.com",
        "w.inmobi.com"
      ],
      "metaDataNames": [
        "com.RMjDRvkz.xGRcIwJl108606.APIKEY",
        "com.RMjDRvkz.xGRcIwJl108606.APPID"
      ],
      "sha256": "97e9c137431d356230bdc01ca20cabd5a70d9dccbf2a12cfb401cfbf79a9a45a",
      "usesPermissions": [
        "android.permission.ACCESS_NETWORK_STATE",
        "android.permission.ACCESS_WIFI_STATE",
        "android.permission.INTERNET",
        "android.permission.READ_PHONE_STATE",
        "android.permission.RECEIVE_BOOT_COMPLETED",
        "android.permission.VIBRATE",
        "android.permission.WAKE_LOCK",
        "android.permission.WRITE_EXTERNAL_STORAGE",
        "com.android.launcher.permission.INSTALL_SHORTCUT",
        "com.android.vending.BILLING",
        "com.android.vending.BILLING"
      ]
    }
  ],
  "meta": {
    "generated": "2020-08-27T15:01:55.992735",
    "generatedBy": [
      "/home/hc/code/trackingthetrackers/scripts/make-trackers-apk-set.py"
    ],
    "ver": "0.3.0"
  }
}