{
  "apks": [
    {
      "applicationId": "com.anbgames.ch2_cn.mi",
      "broadcastReceiverIntentFilterActionNames": [],
      "dependencies": [
        "com.igaworks.adbrix",
        "com.igaworks.adpopcorn"
      ],
      "domainNamesFilteredByExodus": [
        ".facebook.com",
        ".google.com",
        "ad-brix.com"
      ],
      "metaDataNames": [
        "com.snowfish.appid",
        "com.snowfish.channel",
        "com.snowfish.channelid",
        "com.snowfish.customer",
        "com.snowfish.sdk.version"
      ],
      "sha256": "c657d89d2cac0715d460239fa861dfa8edf6ce225cab9b579c4a406eef2334bf",
      "usesPermissions": [
        "android.permission.ACCESS_COARSE_LOCATION",
        "android.permission.ACCESS_FINE_LOCATION",
        "android.permission.ACCESS_MOCK_LOCATION",
        "android.permission.ACCESS_NETWORK_STATE",
        "android.permission.ACCESS_WIFI_STATE",
        "android.permission.BLUETOOTH",
        "android.permission.BLUETOOTH_ADMIN",
        "android.permission.GET_TASKS",
        "android.permission.INTERNET",
        "android.permission.MOUNT_UNMOUNT_FILESYSTEMS",
        "android.permission.READ_EXTERNAL_STORAGE",
        "android.permission.READ_PHONE_STATE",
        "android.permission.SEND_SMS",
        "android.permission.SYSTEM_ALERT_WINDOW",
        "android.permission.VIBRATE",
        "android.permission.WAKE_LOCK",
        "android.permission.WRITE_EXTERNAL_STORAGE",
        "android.permission.WRITE_SMS",
        "com.xiaomi.sdk.permission.PAYMENT"
      ]
    }
  ],
  "meta": {
    "generated": "2020-08-27T15:19:04.918551",
    "generatedBy": [
      "/home/hc/code/trackingthetrackers/scripts/make-trackers-apk-set.py"
    ],
    "ver": "0.3.0"
  }
}