{
  "apks": [
    {
      "applicationId": "com.tanke.Interstellarmnbv3D",
      "broadcastReceiverIntentFilterActionNames": [
        "android.bluetooth.adapter.action.STATE_CHANGED",
        "android.intent.action.ANY_DATA_STATE",
        "android.intent.action.BATTERY_CHANGED",
        "android.intent.action.BOOT_COMPLETED",
        "android.intent.action.NOTIFICATION_ADD",
        "android.intent.action.NOTIFICATION_REMOVE",
        "android.intent.action.NOTIFICATION_UPDATE",
        "android.intent.action.SCREEN_ON",
        "android.intent.action.SERVICE_STATE",
        "android.intent.action.SIM_STATE_CHANGED",
        "android.intent.action.USER_PRESENT",
        "android.net.conn.CONNECTIVITY_CHANGE",
        "android.net.wifi.STATE_CHANGE",
        "android.net.wifi.WIFI_STATE_CHANGED",
        "android.provider.Telephony.SMS_RECEIVED",
        "aspire.iap.SMS_DELIVERED_ACTION",
        "aspire.iap.SMS_SEND_ACTIOIN"
      ],
      "dependencies": [],
      "domainNamesFilteredByExodus": [],
      "metaDataNames": [
        "AppId",
        "MOBILE_APPKEY",
        "MOBILE_CHANNEL",
        "android.app.lib_name",
        "cpId",
        "fidsms",
        "unityplayer.ForwardNativeEventsToDalvik"
      ],
      "sha256": "009b9845cd5d10727676295fca11b8b0ec6ebe93c4da49d8344ddabed811ca16",
      "usesPermissions": [
        "android.permission.ACCESS_COARSE_LOCATION",
        "android.permission.ACCESS_COARSE_LOCATION",
        "android.permission.ACCESS_NETWORK_STATE",
        "android.permission.ACCESS_NETWORK_STATE",
        "android.permission.ACCESS_NETWORK_STATE",
        "android.permission.ACCESS_NETWORK_STATE",
        "android.permission.ACCESS_NETWORK_STATE",
        "android.permission.ACCESS_NETWORK_STATE",
        "android.permission.ACCESS_WIFI_STATE",
        "android.permission.ACCESS_WIFI_STATE",
        "android.permission.ACCESS_WIFI_STATE",
        "android.permission.ACCESS_WIFI_STATE",
        "android.permission.CHANGE_CONFIGURATION",
        "android.permission.CHANGE_NETWORK_STATE",
        "android.permission.CHANGE_WIFI_STATE",
        "android.permission.GET_TASKS",
        "android.permission.GET_TASKS",
        "android.permission.INTERNET",
        "android.permission.INTERNET",
        "android.permission.INTERNET",
        "android.permission.INTERNET",
        "android.permission.INTERNET",
        "android.permission.INTERNET",
        "android.permission.MODIFY_PHONE_STATE",
        "android.permission.MOUNT_UNMOUNT_FILESYSTEMS",
        "android.permission.MOUNT_UNMOUNT_FILESYSTEMS",
        "android.permission.READ_PHONE_STATE",
        "android.permission.READ_PHONE_STATE",
        "android.permission.READ_PHONE_STATE",
        "android.permission.READ_PHONE_STATE",
        "android.permission.READ_PHONE_STATE",
        "android.permission.READ_SMS",
        "android.permission.RECEIVE_BOOT_COMPLETED",
        "android.permission.RECEIVE_SMS",
        "android.permission.RECEIVE_SMS",
        "android.permission.RUN_INSTRUMENTATION",
        "android.permission.SEND_SMS",
        "android.permission.SEND_SMS",
        "android.permission.SYSTEM_ALERT_WINDOW",
        "android.permission.SYSTEM_ALERT_WINDOW",
        "android.permission.SYSTEM_ALERT_WINDOW",
        "android.permission.UPDATE_DEVICE_STATS",
        "android.permission.VIBRATE",
        "android.permission.VIBRATE",
        "android.permission.WAKE_LOCK",
        "android.permission.WRITE_APN_SETTINGS",
        "android.permission.WRITE_EXTERNAL_STORAGE",
        "android.permission.WRITE_EXTERNAL_STORAGE",
        "android.permission.WRITE_EXTERNAL_STORAGE",
        "android.permission.WRITE_EXTERNAL_STORAGE",
        "android.permission.WRITE_EXTERNAL_STORAGE",
        "android.permission.WRITE_EXTERNAL_STORAGE",
        "android.permission.WRITE_SECURE_SETTINGS",
        "android.permission.WRITE_SETTINGS",
        "android.permission.WRITE_SMS"
      ]
    }
  ],
  "meta": {
    "generated": "2020-08-27T15:25:01.583099",
    "generatedBy": [
      "/home/hc/code/trackingthetrackers/scripts/make-trackers-apk-set.py"
    ],
    "ver": "0.3.0"
  }
}