{
  "apks": [
    {
      "applicationId": "com.weqia.wq1",
      "broadcastReceiverIntentFilterActionNames": [
        "android.intent.action.BOOT_COMPLETED",
        "android.intent.action.USER_PRESENT",
        "android.net.conn.CONNECTIVITY_CHANGE",
        "com.igexin.sdk.action.VFVlslvrWD6019AbU4qVe1",
        "com.igexin.sdk.action.refreshls"
      ],
      "dependencies": [
        "com.umeng.analytics",
        "com.umeng.fb"
      ],
      "domainNamesFilteredByExodus": [
        "alog.umeng.com",
        "oc.umeng.com",
        "umeng.com"
      ],
      "metaDataNames": [
        "UMENG_APPKEY",
        "UMENG_CHANNEL",
        "appid",
        "appkey",
        "appsecret"
      ],
      "sha256": "663bf5d0cfd1fd74aca52cbe701ec414322f0ceacce10b86b8d81fb4af2013f9",
      "usesPermissions": [
        "android.permission.ACCESS_COARSE_LOCATION",
        "android.permission.ACCESS_FINE_LOCATION",
        "android.permission.ACCESS_LOCATION_EXTRA_COMMANDS",
        "android.permission.ACCESS_NETWORK_STATE",
        "android.permission.ACCESS_WIFI_STATE",
        "android.permission.CAMERA",
        "android.permission.CHANGE_NETWORK_STATE",
        "android.permission.CHANGE_WIFI_STATE",
        "android.permission.INTERNET",
        "android.permission.MOUNT_UNMOUNT_FILESYSTEMS",
        "android.permission.READ_CONTACTS",
        "android.permission.READ_EXTERNAL_STORAGE",
        "android.permission.READ_LOGS",
        "android.permission.READ_PHONE_STATE",
        "android.permission.RECEIVE_BOOT_COMPLETED",
        "android.permission.RECEIVE_USER_PRESENT",
        "android.permission.VIBRATE",
        "android.permission.WAKE_LOCK",
        "android.permission.WRITE_EXTERNAL_STORAGE"
      ]
    }
  ],
  "meta": {
    "generated": "2020-08-27T15:01:49.422970",
    "generatedBy": [
      "/home/hc/code/trackingthetrackers/scripts/make-trackers-apk-set.py"
    ],
    "ver": "0.3.0"
  }
}