{
  "apks": [
    {
      "applicationId": "cn.dictcn.android.digitize.sw_xxyhcd_10008",
      "broadcastReceiverIntentFilterActionNames": [
        "android.net.conn.CONNECTIVITY_CHANGE",
        "cn.dictcn.android.digitize.sw_xxyhcd.receiver.DownLoadBroadcastReceiver",
        "cn.dictcn.android.digitize.sw_xxyhcd.receiver.RemindReceiver.lesson",
        "cn.dictcn.android.digitize.sw_xxyhcd.receiver.RemindReceiver.review"
      ],
      "dependencies": [],
      "domainNamesFilteredByExodus": [],
      "metaDataNames": [
        "APK_ID",
        "SOFT_ID",
        "SUPPORT_FONT_SET",
        "SUPPORT_INDEX_CATEGORY",
        "SUPPORT_LESSON_NOTIFY",
        "SUPPORT_MAGNIFIER",
        "SUPPORT_OTHER_LOGIN",
        "SUPPORT_REVIEW_NOTIFY",
        "UMENG_APPKEY",
        "UMENG_CHANNEL"
      ],
      "sha256": "cd0d6c5f93839e6829f69ee355c1e07308da20216177d80852e9525d3fa191c4",
      "usesPermissions": [
        "android.permission.ACCESS_COARSE_LOCATION",
        "android.permission.ACCESS_FINE_LOCATION",
        "android.permission.ACCESS_NETWORK_STATE",
        "android.permission.ACCESS_WIFI_STATE",
        "android.permission.CAMERA",
        "android.permission.CAMERA",
        "android.permission.CHANGE_NETWORK_STATE",
        "android.permission.INTERNET",
        "android.permission.MOUNT_UNMOUNT_FILESYSTEMS",
        "android.permission.READ_EXTERNAL_STORAGE",
        "android.permission.READ_PHONE_STATE",
        "android.permission.READ_SMS",
        "android.permission.RECORD_AUDIO",
        "android.permission.SEND_SMS",
        "android.permission.SYSTEM_ALERT_WINDOW",
        "android.permission.SYSTEM_OVERLAY_WINDOW",
        "android.permission.VIBRATE",
        "android.permission.WAKE_LOCK",
        "android.permission.WRITE_EXTERNAL_STORAGE",
        "android.permission.WRITE_SETTINGS",
        "android.webkit.permission.PLUGIN",
        "com.android.vending.BILLING"
      ]
    }
  ],
  "meta": {
    "generated": "2020-08-27T15:23:42.257396",
    "generatedBy": [
      "/home/hc/code/trackingthetrackers/scripts/make-trackers-apk-set.py"
    ],
    "ver": "0.3.0"
  }
}