{
  "apks": [
    {
      "applicationId": "com.kanedias.vanilla.lyrics",
      "broadcastReceiverIntentFilterActionNames": [
        "ch.blinkenlights.android.vanilla.action.REQUEST_PLUGIN_PARAMS"
      ],
      "dependencies": [],
      "domainNamesFilteredByExodus": [],
      "metaDataNames": [],
      "sha256": "6ccd81364ece7e504b20804f67d7b2e4515b63fc335df02dd82ad0068f91accf",
      "usesPermissions": [
        "android.permission.INTERNET"
      ]
    }
  ],
  "meta": {
    "generated": "2020-08-27T17:35:31.594371",
    "generatedBy": [
      "/home/hc/code/trackingthetrackers/scripts/make-clean-apk-set.py"
    ],
    "generatedByCommitId": "40519285d6f404593fa655fa89b433743c25289e",
    "sourceDataCommitId": "888bb8f8c77ff55105fcab2ad84c263561eb1169",
    "ver": "0.3.0"
  }
}