{
  "apks": [
    {
      "applicationId": "com.wmstein.tourcount",
      "broadcastReceiverIntentFilterActionNames": [],
      "dependencies": [],
      "domainNamesFilteredByExodus": [],
      "metaDataNames": [
        "android.support.PARENT_ACTIVITY",
        "com.sec.android.multiwindow.DEFAULT_SIZE_H",
        "com.sec.android.multiwindow.DEFAULT_SIZE_W",
        "com.sec.android.multiwindow.MINIMUM_SIZE_H",
        "com.sec.android.multiwindow.MINIMUM_SIZE_W",
        "com.sec.android.support.multiwindow"
      ],
      "sha256": "474bfd0b02456d5d8fb74c29671e2de14688c449876bcb1c6c0fb1f0b038567f",
      "usesPermissions": [
        "android.permission.ACCESS_COARSE_LOCATION",
        "android.permission.ACCESS_FINE_LOCATION",
        "android.permission.READ_EXTERNAL_STORAGE",
        "android.permission.WAKE_LOCK",
        "android.permission.WRITE_EXTERNAL_STORAGE",
        "android.permission.WRITE_SETTINGS"
      ]
    }
  ],
  "meta": {
    "generated": "2020-08-27T17:53:02.779836",
    "generatedBy": [
      "/home/hc/code/trackingthetrackers/scripts/make-clean-apk-set.py"
    ],
    "generatedByCommitId": "3839559c80042252d3b947fb61c86a18e8b31114",
    "sourceDataCommitId": "888bb8f8c77ff55105fcab2ad84c263561eb1169",
    "ver": "0.3.0"
  }
}