{
  "apks": [
    {
      "applicationId": "com.samsandberg.mtafarebuster",
      "broadcastReceiverIntentFilterActionNames": [],
      "dependencies": [],
      "domainNamesFilteredByExodus": [],
      "metaDataNames": [],
      "sha256": "c3a153740b111e69e73a4f71975a5bc977f301f531acab6cab568ff896b59b10",
      "usesPermissions": []
    }
  ],
  "meta": {
    "generated": "2020-08-27T17:00:37.993387",
    "generatedBy": [
      "/home/hc/code/trackingthetrackers/scripts/make-clean-apk-set.py"
    ],
    "generatedByCommitId": "40519285d6f404593fa655fa89b433743c25289e",
    "sourceDataCommitId": "888bb8f8c77ff55105fcab2ad84c263561eb1169",
    "ver": "0.3.0"
  }
}