{
  "apks": [
    {
      "applicationId": "cn.opda.a.phonoalbumshoushou",
      "broadcastReceiverIntentFilterActionNames": [
        "AIRPLANE_STATE_CHANGED",
        "APN_CHANGED",
        "BLUETOOTH_STATE_CHANGED",
        "BRIGHTNESS_CHANGED",
        "CCLEANER",
        "FILE_MANAGER",
        "GPS_CHANGED",
        "INSTALL_UNINSTALL",
        "LOCKSCREEN_CHANGE",
        "ONEKEY_STOP_CHANGED",
        "PEWER_CHANGED",
        "PROCESS_MANAGER",
        "QUICK_SET",
        "ROTATE_STATE_CHANGED",
        "SOUND_STATE_CHANGED",
        "SYNC_STATE_CHANGED",
        "WIFI_STATE_CHANGED",
        "android.app.action.DEVICE_ADMIN_ENABLED",
        "android.appwidget.action.APPWIDGET_UPDATE",
        "android.bluetooth.adapter.action.STATE_CHANGED",
        "android.bluetooth.intent.action.BLUETOOTH_STATE_CHANGED",
        "android.intent.action.ACTION_POWER_CONNECTED",
        "android.intent.action.AIRPLANE_MODE",
        "android.intent.action.BATTERY_CHANGED",
        "android.intent.action.BOOT_COMPLETED",
        "android.intent.action.DATA_STATE",
        "android.intent.action.NEW_OUTGOING_CALL",
        "android.intent.action.PACKAGE_ADDED",
        "android.intent.action.PACKAGE_CHANGED",
        "android.intent.action.PACKAGE_REMOVED",
        "android.intent.action.PACKAGE_REPLACED",
        "android.intent.action.PHONE_STATE",
        "android.intent.action.TIME_SET",
        "android.location.PROVIDERS_CHANGED",
        "android.media.RINGER_MODE_CHANGED",
        "android.media.VIBRATE_SETTING_CHANGED",
        "android.net.conn.BACKGROUND_DATA_SETTING_CHANGED",
        "android.net.conn.CONNECTIVITY_CHANGE",
        "android.net.wifi.WIFI_STATE_CHANGED",
        "com.android.settings.GPS_STATUS_CHANGED",
        "com.android.sync.SYNC_CONN_STATUS_CHANGED"
      ],
      "dependencies": [],
      "domainNamesFilteredByExodus": [
        "umeng.com"
      ],
      "metaDataNames": [
        "UMENG_APPKEY",
        "UMENG_CHANNEL",
        "android.app.device_admin",
        "android.appwidget.provider",
        "com.dianxinos.appupdate.DOWNLOAD_PROGRESS_LISTENER"
      ],
      "sha256": "ff61943acab9fedc63979d030e40b6fe15081b73b254a19678a270a56f1eefbf",
      "usesPermissions": [
        "android.permission.ACCESS_NETWORK_STATE",
        "android.permission.ACCESS_NETWORK_STATE",
        "android.permission.ACCESS_WIFI_STATE",
        "android.permission.BATTERY_STATS",
        "android.permission.BLUETOOTH",
        "android.permission.BLUETOOTH_ADMIN",
        "android.permission.BROADCAST_STICKY",
        "android.permission.CAMERA",
        "android.permission.CHANGE_NETWORK_STATE",
        "android.permission.CHANGE_WIFI_MULTICAST_STATE",
        "android.permission.CHANGE_WIFI_STATE",
        "android.permission.CLEAR_APP_CACHE",
        "android.permission.FLASHLIGHT",
        "android.permission.FLASHLIGHT",
        "android.permission.GET_ACCOUNTS",
        "android.permission.GET_PACKAGE_SIZE",
        "android.permission.GET_TASKS",
        "android.permission.INTERNET",
        "android.permission.INTERNET",
        "android.permission.KILL_BACKGROUND_PROCESSES",
        "android.permission.MODIFY_PHONE_STATE",
        "android.permission.MOUNT_UNMOUNT_FILESYSTEMS",
        "android.permission.PROCESS_OUTGOING_CALLS",
        "android.permission.READ_CONTACTS",
        "android.permission.READ_LOGS",
        "android.permission.READ_PHONE_STATE",
        "android.permission.READ_PHONE_STATE",
        "android.permission.READ_PHONE_STATE",
        "android.permission.READ_SECURE_SETTINGS",
        "android.permission.READ_SMS",
        "android.permission.READ_SYNC_SETTINGS",
        "android.permission.READ_SYNC_STATS",
        "android.permission.RECEIVE_BOOT_COMPLETED",
        "android.permission.RESTART_PACKAGES",
        "android.permission.SET_WALLPAPER",
        "android.permission.SET_WALLPAPER_HINTS",
        "android.permission.SYSTEM_ALERT_WINDOW",
        "android.permission.VIBRATE",
        "android.permission.VIBRATE",
        "android.permission.WAKE_LOCK",
        "android.permission.WAKE_LOCK",
        "android.permission.WRITE_APN_SETTINGS",
        "android.permission.WRITE_CONTACTS",
        "android.permission.WRITE_EXTERNAL_STORAGE",
        "android.permission.WRITE_EXTERNAL_STORAGE",
        "android.permission.WRITE_EXTERNAL_STORAGE",
        "android.permission.WRITE_SETTINGS",
        "android.permission.WRITE_SMS",
        "android.permission.WRITE_SYNC_SETTINGS",
        "com.android.browser.permission.READ_HISTORY_BOOKMARKS",
        "com.android.browser.permission.WRITE_HISTORY_BOOKMARKS",
        "com.android.launcher.permission.INSTALL_SHORTCUT",
        "com.android.launcher.permission.UNINSTALL_SHORTCUT"
      ]
    }
  ],
  "meta": {
    "generated": "2020-08-27T15:43:01.286835",
    "generatedBy": [
      "/home/hc/code/trackingthetrackers/scripts/make-trackers-apk-set.py"
    ],
    "ver": "0.3.0"
  }
}