{
  "apks": [
    {
      "applicationId": "app.reading.stoic.stoicreading",
      "broadcastReceiverIntentFilterActionNames": [],
      "dependencies": [],
      "domainNamesFilteredByExodus": [],
      "metaDataNames": [],
      "sha256": "6cdc189d46495bdc49fe070c97cd5121c37438b9684da4e52a1b8021f7fd2987",
      "usesPermissions": []
    }
  ],
  "meta": {
    "generated": "2020-08-27T17:09:49.574987",
    "generatedBy": [
      "/home/hc/code/trackingthetrackers/scripts/make-clean-apk-set.py"
    ],
    "generatedByCommitId": "40519285d6f404593fa655fa89b433743c25289e",
    "sourceDataCommitId": "888bb8f8c77ff55105fcab2ad84c263561eb1169",
    "ver": "0.3.0"
  }
}