{
  "apks": [
    {
      "applicationId": "org.secuso.privacyfriendlyfinancemanager",
      "broadcastReceiverIntentFilterActionNames": [],
      "dependencies": [],
      "domainNamesFilteredByExodus": [],
      "metaDataNames": [
        "android.support.PARENT_ACTIVITY"
      ],
      "sha256": "2f68db5581c1c295f4e96cd0cf80b6e8545ab0bc192b2629b7f7f32e7a561b33",
      "usesPermissions": []
    }
  ],
  "meta": {
    "generated": "2020-08-27T17:06:44.627650",
    "generatedBy": [
      "/home/hc/code/trackingthetrackers/scripts/make-clean-apk-set.py"
    ],
    "generatedByCommitId": "40519285d6f404593fa655fa89b433743c25289e",
    "sourceDataCommitId": "888bb8f8c77ff55105fcab2ad84c263561eb1169",
    "ver": "0.3.0"
  }
}