{
  "apks": [
    {
      "applicationId": "com.app.INcalendarEvent",
      "broadcastReceiverIntentFilterActionNames": [
        "android.appwidget.action.APPWIDGET_UPDATE",
        "android.intent.action.BOOT_COMPLETED"
      ],
      "dependencies": [],
      "domainNamesFilteredByExodus": [
        "api.airpush.com"
      ],
      "metaDataNames": [
        "android.appwidget.provider",
        "com.aoksgnwy.sxeuqqsr102628.APIKEY",
        "com.aoksgnwy.sxeuqqsr102628.APPID"
      ],
      "sha256": "8b5793d4dcd2677314f272ec417e78563a9706bcb4447d0330f9857788622dcd",
      "usesPermissions": [
        "android.permission.ACCESS_COARSE_LOCATION",
        "android.permission.ACCESS_FINE_LOCATION",
        "android.permission.ACCESS_NETWORK_STATE",
        "android.permission.INTERNET",
        "android.permission.READ_PHONE_STATE",
        "android.permission.RECEIVE_BOOT_COMPLETED",
        "android.permission.VIBRATE",
        "android.permission.WRITE_EXTERNAL_STORAGE"
      ]
    }
  ],
  "meta": {
    "generated": "2020-08-27T15:07:11.792164",
    "generatedBy": [
      "/home/hc/code/trackingthetrackers/scripts/make-trackers-apk-set.py"
    ],
    "ver": "0.3.0"
  }
}