{
  "apks": [
    {
      "applicationId": "com.wondershare.filmoragoedu.nbllxlxc.filmoragofreevideoeditorv",
      "broadcastReceiverIntentFilterActionNames": [
        "android.intent.action.ACTION_POWER_CONNECTED",
        "android.intent.action.ACTION_POWER_DISCONNECTED",
        "android.intent.action.BOOT_COMPLETED",
        "android.intent.action.MEDIA_MOUNTED",
        "android.intent.action.PACKAGE_REMOVED",
        "android.intent.action.USER_PRESENT",
        "android.net.conn.CONNECTIVITY_CHANGE",
        "com.android.vending.INSTALL_REFERRER",
        "com.baidu.android.pushservice.action.BIND_SYNC",
        "com.baidu.android.pushservice.action.MESSAGE",
        "com.baidu.android.pushservice.action.METHOD",
        "com.baidu.android.pushservice.action.RECEIVE",
        "com.baidu.android.pushservice.action.media.CLICK",
        "com.baidu.android.pushservice.action.notification.CLICK",
        "com.baidu.android.pushservice.action.notification.SHOW",
        "com.google.android.gms.measurement.UPLOAD"
      ],
      "dependencies": [
        "com.crashlytics.",
        "com.facebook.login",
        "com.facebook.share",
        "com.flurry.",
        "com.google.android.gms.ads.",
        "com.google.android.gms.analytics.",
        "com.google.android.gms.measurement.",
        "com.google.android.gms.tagmanager",
        "com.umeng.fb",
        "com_crashlytics_",
        "com_facebook_login",
        "com_facebook_share",
        "io.fabric."
      ],
      "domainNamesFilteredByExodus": [
        ".facebook.com",
        ".google.com",
        "crashlytics.com",
        "flurry.com",
        "google-analytics.com",
        "umeng.com",
        "www.googletagmanager.com"
      ],
      "metaDataNames": [
        "UMENG_APPKEY",
        "UMENG_CHANNEL",
        "UMENG_MESSAGE_SECRET",
        "api_key",
        "com.google.android.gms.version",
        "io.fabric.ApiKey"
      ],
      "sha256": "fd3486f3fbcf6d761d0ed708be9f5da4b7186308fe850fa808bc2f7b6bb6f67d",
      "usesPermissions": [
        "android.permission.ACCESS_COARSE_LOCATION",
        "android.permission.ACCESS_FINE_LOCATION",
        "android.permission.ACCESS_LOCATION_EXTRA_COMMANDS",
        "android.permission.ACCESS_NETWORK_STATE",
        "android.permission.ACCESS_WIFI_STATE",
        "android.permission.CHANGE_WIFI_STATE",
        "android.permission.DISABLE_KEYGUARD",
        "android.permission.GET_ACCOUNTS",
        "android.permission.GET_TASKS",
        "android.permission.INTERNET",
        "android.permission.MOUNT_UNMOUNT_FILESYSTEMS",
        "android.permission.READ_EXTERNAL_STORAGE",
        "android.permission.RECEIVE_BOOT_COMPLETED",
        "android.permission.USE_CREDENTIALS",
        "android.permission.VIBRATE",
        "android.permission.WAKE_LOCK",
        "android.permission.WRITE_EXTERNAL_STORAGE",
        "android.permission.WRITE_SETTINGS",
        "com.android.launcher.permission.INSTALL_SHORTCUT",
        "com.android.launcher.permission.READ_SETTINGS",
        "com.android.launcher.permission.UNINSTALL_SHORTCUT",
        "com.google.android.gms.permisstion.ACTIVITY_RECOGNITION",
        "com.sony.mobile.permission.SYSTEM_UI_VISIBILITY_EXTENSION"
      ]
    }
  ],
  "meta": {
    "generated": "2020-08-27T15:03:45.570628",
    "generatedBy": [
      "/home/hc/code/trackingthetrackers/scripts/make-trackers-apk-set.py"
    ],
    "ver": "0.3.0"
  }
}