{
  "apks": [
    {
      "applicationId": "com.gs_o2osq.sj.activity",
      "broadcastReceiverIntentFilterActionNames": [
        "android.intent.action.ACTION_POWER_CONNECTED",
        "android.intent.action.ACTION_POWER_DISCONNECTED",
        "android.intent.action.BOOT_COMPLETED",
        "android.intent.action.MEDIA_CHECKING",
        "android.intent.action.MEDIA_EJECT",
        "android.intent.action.MEDIA_REMOVED",
        "android.intent.action.MEDIA_UNMOUNTED",
        "android.intent.action.PACKAGE_ADDED",
        "android.intent.action.PACKAGE_REMOVED",
        "android.intent.action.USER_PRESENT",
        "android.net.conn.CONNECTIVITY_CHANGE",
        "cn.jpush.android.intent.ACTION_RICHPUSH_CALLBACK",
        "cn.jpush.android.intent.CONNECTION",
        "cn.jpush.android.intent.MESSAGE_RECEIVED",
        "cn.jpush.android.intent.NOTIFICATION_OPENED",
        "cn.jpush.android.intent.NOTIFICATION_RECEIVED",
        "cn.jpush.android.intent.NOTIFICATION_RECEIVED_PROXY",
        "cn.jpush.android.intent.REGISTRATION",
        "cn.jpush.android.intent.UNREGISTRATION",
        "com.igexin.sdk.action.7fjUl2Z3LH6xYy7NQK4ni4",
        "com.igexin.sdk.action.ON05rWPxPN9PtlERMZvZa3",
        "com.igexin.sdk.action.pushmanager",
        "com.igexin.sdk.action.refreshls",
        "com.tencent.android.tpush.action.FEEDBACK",
        "com.tencent.android.tpush.action.INTERNAL_PUSH_MESSAGE",
        "com.tencent.android.tpush.action.PUSH_MESSAGE",
        "com.tencent.android.tpush.action.SDK"
      ],
      "dependencies": [
        "com.baidu.location",
        "com.baidu.mapapi",
        "com.umeng.analytics",
        "com.umeng.fb"
      ],
      "domainNamesFilteredByExodus": [
        ".google.com",
        "alog.umeng.com",
        "map.baidu.com",
        "oc.umeng.com",
        "umeng.com"
      ],
      "metaDataNames": [
        "JPUSH_APPKEY",
        "JPUSH_CHANNEL",
        "PUSH_APPID",
        "PUSH_APPKEY",
        "PUSH_APPSECRET",
        "PUSH_GROUPID",
        "UMENG_APPKEY",
        "XG_V2_ACCESS_ID",
        "XG_V2_ACCESS_KEY",
        "com.baidu.lbsapi.API_KEY",
        "com.google.android.maps.v2.API_KEY"
      ],
      "sha256": "5130427170c73484f47f3b647bcf1ad3d732a5c5dfd1ce0c616f640fc6d2361e",
      "usesPermissions": [
        "android.hardware.usb.accessory",
        "android.permission.ACCESS_COARSE_LOCATION",
        "android.permission.ACCESS_FINE_LOCATION",
        "android.permission.ACCESS_LOCATION_EXTRA_COMMANDS",
        "android.permission.ACCESS_NETWORK_STATE",
        "android.permission.ACCESS_WIFI_STATE",
        "android.permission.ACCES_MOCK_LOCATION",
        "android.permission.BLUETOOTH",
        "android.permission.BLUETOOTH_ADMIN",
        "android.permission.BROADCAST_STICKY",
        "android.permission.CALL_PHONE",
        "android.permission.CAMERA",
        "android.permission.CHANGE_NETWORK_STATE",
        "android.permission.CHANGE_WIFI_STATE",
        "android.permission.CLEAR_APP_CACHE",
        "android.permission.CLEAR_APP_USER_DATA",
        "android.permission.DELETE_PACKAGES",
        "android.permission.DEVICE_POWER",
        "android.permission.GET_TASKS",
        "android.permission.INSTALL_PACKAGES",
        "android.permission.INTERNET",
        "android.permission.KILL_BACKGROUND_PROCESSES",
        "android.permission.MODIFY_AUDIO_SETTINGS",
        "android.permission.MOUNT_UNMOUNT_FILESYSTEMS",
        "android.permission.READ_EXTERNAL_STORAGE",
        "android.permission.READ_LOGS",
        "android.permission.READ_PHONE_STATE",
        "android.permission.READ_PHONE_STATE",
        "android.permission.RECEIVE_BOOT_COMPLETED",
        "android.permission.RECEIVE_SMS",
        "android.permission.RECEIVE_USER_PRESENT",
        "android.permission.RECORD_AUDIO",
        "android.permission.RESTART_PACKAGE",
        "android.permission.RESTART_PACKAGES",
        "android.permission.SEND_SMS",
        "android.permission.SYSTEM_ALERT_WINDOW",
        "android.permission.VIBRATE",
        "android.permission.WAKE_LOCK",
        "android.permission.WRITE_EXTERNAL_STORAGE",
        "android.permission.WRITE_EXTERNAL_STORAGE",
        "android.permission.WRITE_EXTERNAL_STORAGE",
        "android.permission.WRITE_SETTINGS",
        "com.google.android.providers.gsf.permission.READ_GSERVICES",
        "com.gs_o2osq.sj.activity.permission.JPUSH_MESSAGE",
        "com.gs_o2osq.sj.activity.permission.MAPS_RECEIVE",
        "getui.permission.GetuiService.com.gs_o2osq.sj.activity",
        "org.simalliance.openmobileapi.SMARTCARD"
      ]
    }
  ],
  "meta": {
    "generated": "2020-08-27T15:40:09.504107",
    "generatedBy": [
      "/home/hc/code/trackingthetrackers/scripts/make-trackers-apk-set.py"
    ],
    "ver": "0.3.0"
  }
}