{
  "apks": [
    {
      "applicationId": "com.qihoo.appstore",
      "broadcastReceiverIntentFilterActionNames": [
        "action.qihoo360.daemon.pcdaemon.DaemonStatus",
        "android.intent.action.BOOT_COMPLETED",
        "android.intent.action.NEW_OUTGOING_CALL",
        "android.intent.action.PACKAGE_ADDED",
        "android.intent.action.PACKAGE_REMOVED",
        "android.intent.action.PACKAGE_REPLACED",
        "android.intent.action.PHONE_STATE",
        "android.intent.action.USER_PRESENT",
        "android.net.conn.CONNECTIVITY_CHANGE",
        "android.provider.Telephony.SMS_DELIVER",
        "android.provider.Telephony.WAP_PUSH_DELIVER",
        "com.coolcloud.xmpp.NOTIFICATION.1010048",
        "com.qihoo.appstore.ACTION_CLEAN_START_SERVICE",
        "com.qihoo.appstore.ACTION_CLEAN_STOP_SERVICE",
        "com.qihoo.appstore.ACTION_DAEMON_CORE_SERVICE",
        "com.qihoo.appstore.NOTIFY_DELETE",
        "com.qihoo.appstore.notification",
        "com.qihoo.appstore.notification.click",
        "com.qihoo.appstore.stable_notification_broadcast",
        "com.qihoo360.daemon.pcdaemon.ACTION_SEND_SMS_SEND_STATUS_FORWARD2",
        "com.qihoo360.daemon.pcdaemon.ACTION_START_RECEIVER",
        "com.qihoo360.daemon.pcdaemon.NotifyServiceStart2",
        "com.qihoo360.daemon.pcdaemon.NotifyServiceStop2"
      ],
      "dependencies": [],
      "domainNamesFilteredByExodus": [],
      "metaDataNames": [
        "ACCOUNT_SERVICE_VERSION_CODE",
        "DC_APPKEY",
        "DC_CHANNEL",
        "JD_ACCESSKEY",
        "JD_APPKEY",
        "JD_PUSH_APPID",
        "TD_APP_ID",
        "TD_CHANNEL_ID",
        "U17_CID",
        "UMENG_APPKEY",
        "YOUMAY_UMENG_APPKEY",
        "YOUMAY_UMENG_CHANNEL",
        "android.accessibilityservice",
        "android.accounts.AccountAuthenticator",
        "android.content.SyncAdapter",
        "channelid",
        "com.morgoo.droidplugin.ACTIVITY_STUB_INDEX",
        "ire_channel",
        "woa_key_appid"
      ],
      "sha256": "0b8752540e168ff53a56f80946889fef1edb2e785a1f99f67f665d7250dd21e4",
      "usesPermissions": [
        "android.permission.ACCESS_CACHE_FILESYSTEM",
        "android.permission.ACCESS_COARSE_LOCATION",
        "android.permission.ACCESS_FINE_LOCATION",
        "android.permission.ACCESS_NETWORK_STATE",
        "android.permission.ACCESS_WIFI_STATE",
        "android.permission.AUTHENTICATE_ACCOUNTS",
        "android.permission.BATTERY_STATS",
        "android.permission.BLUETOOTH",
        "android.permission.BLUETOOTH_ADMIN",
        "android.permission.BROADCAST_STICKY",
        "android.permission.CALL_PHONE",
        "android.permission.CAMERA",
        "android.permission.CHANGE_CONFIGURATION",
        "android.permission.CHANGE_NETWORK_STATE",
        "android.permission.CHANGE_WIFI_STATE",
        "android.permission.CLEAR_APP_CACHE",
        "android.permission.CLEAR_APP_USER_DATA",
        "android.permission.DELETE_PACKAGES",
        "android.permission.DEVICE_POWER",
        "android.permission.DISABLE_KEYGUARD",
        "android.permission.EXPAND_STATUS_BAR",
        "android.permission.FLASHLIGHT",
        "android.permission.GET_ACCOUNTS",
        "android.permission.GET_PACKAGE_SIZE",
        "android.permission.GET_TASKS",
        "android.permission.INSTALL_PACKAGES",
        "android.permission.INTERACT_ACROSS_USERS",
        "android.permission.INTERACT_ACROSS_USERS_FULL",
        "android.permission.INTERNET",
        "android.permission.KILL_BACKGROUND_PROCESSES",
        "android.permission.MANAGE_ACCOUNTS",
        "android.permission.MANAGE_USERS",
        "android.permission.MODIFY_AUDIO_SETTINGS",
        "android.permission.MOUNT_UNMOUNT_FILESYSTEMS",
        "android.permission.NFC",
        "android.permission.PACKAGE_USAGE_STATS",
        "android.permission.PROCESS_OUTGOING_CALLS",
        "android.permission.READ_CALENDAR",
        "android.permission.READ_CALL_LOG",
        "android.permission.READ_CONTACTS",
        "android.permission.READ_EXTERNAL_STORAGE",
        "android.permission.READ_EXTERNAL_STORAGE",
        "android.permission.READ_LOGS",
        "android.permission.READ_PHONE_STATE",
        "android.permission.READ_SETTINGS",
        "android.permission.READ_SMS",
        "android.permission.READ_SYNC_SETTINGS",
        "android.permission.RECEIVE_BOOT_COMPLETED",
        "android.permission.RECEIVE_SMS",
        "android.permission.RECEIVE_USER_PRESENT",
        "android.permission.RECORD_AUDIO",
        "android.permission.RECORD_VIDEO",
        "android.permission.REORDER_TASKS",
        "android.permission.RESTART_PACKAGES",
        "android.permission.SEND_SMS",
        "android.permission.SET_WALLPAPER",
        "android.permission.SYSTEM_ALERT_WINDOW",
        "android.permission.USE_CREDENTIALS",
        "android.permission.VIBRATE",
        "android.permission.WAKE_LOCK",
        "android.permission.WRITE_APN_SETTINGS",
        "android.permission.WRITE_CALENDAR",
        "android.permission.WRITE_CALL_LOG",
        "android.permission.WRITE_CONTACTS",
        "android.permission.WRITE_EXTERNAL_STORAGE",
        "android.permission.WRITE_MEDIA_STORAGE",
        "android.permission.WRITE_SETTINGS",
        "android.permission.WRITE_SMS",
        "android.permission.WRITE_SYNC_SETTINGS",
        "android.webkit.permission.PLUGIN",
        "com.android.launcher.permission.INSTALL_SHORTCUT",
        "com.android.launcher.permission.READ_SETTINGS",
        "com.android.launcher.permission.UNINSTALL_SHORTCUT",
        "com.android.launcher.permission.WRITE_SETTINGS",
        "com.android.launcher3.permission.READ_SETTINGS",
        "com.android.launcher3.permission.WRITE_SETTINGS",
        "com.google.android.launcher.permission.READ_SETTINGS",
        "com.htc.launcher.permission.READ_SETTINGS",
        "com.htc.launcher.permission.WRITE_SETTINGS",
        "com.huawei.android.launcher.permission.READ_SETTINGS",
        "com.huawei.android.launcher.permission.WRITE_SETTINGS",
        "com.nd.android.launcher.permission.WRITE_SETTINGS",
        "com.oppo.launcher.permission.READ_SETTINGS",
        "com.oppo.launcher.permission.WRITE_SETTINGS",
        "com.qihoo.appstore.update.permission.clear_sdk",
        "com.qiku.launcher.permission.READ_SETTINGS",
        "com.qiku.launcher.permission.WRITE_SETTINGS",
        "com.sonyericsson.home.permission.BROADCAST_BADGE",
        "qiku.permission.READ_WRITE_SAFE_SPACE",
        "xmpp.permission.ACCESS_API",
        "xmpp.permission.RECEIVE_NOTIFICATION"
      ]
    }
  ],
  "meta": {
    "generated": "2020-08-27T15:07:30.150196",
    "generatedBy": [
      "/home/hc/code/trackingthetrackers/scripts/make-trackers-apk-set.py"
    ],
    "ver": "0.3.0"
  }
}