{
  "apks": [
    {
      "applicationId": "vn.apk.store.bbit",
      "broadcastReceiverIntentFilterActionNames": [
        "android.app.action.ACTION_DEVICE_ADMIN_DISABLED",
        "android.app.action.ACTION_DEVICE_ADMIN_ENABLED",
        "android.app.action.DEVICE_ADMIN_DISABLED",
        "android.app.action.DEVICE_ADMIN_ENABLED",
        "android.intent.action.BOOT_COMPLETED",
        "android.intent.action.PACKAGE_ADDED",
        "android.intent.action.PACKAGE_CHANGED",
        "android.intent.action.PACKAGE_INSTALL",
        "android.intent.action.PACKAGE_REMOVED",
        "android.intent.action.PACKAGE_REPLACED",
        "android.intent.action.PACKAGE_RESTARTED",
        "android.intent.action.SCREEN_OFF",
        "android.intent.action.SCREEN_ON",
        "com.google.android.c2dm.intent.RECEIVE",
        "vn.apk.store.receivers.action.NOTIFICATION_CLICKED"
      ],
      "dependencies": [
        "com.google.ads.",
        "com.google.android.gms.ads.",
        "com.google.android.gms.analytics.",
        "com.google.android.gms.tagmanager"
      ],
      "domainNamesFilteredByExodus": [
        ".google.com",
        "doubleclick.net",
        "google-analytics.com",
        "www.googletagmanager.com"
      ],
      "metaDataNames": [
        "android.app.device_admin",
        "com.facebook.sdk.ApplicationId",
        "com.google.android.gms.version"
      ],
      "sha256": "74ea880346dc77ee2a3e40853955120dbb82749876869d8f262bd1eaaec47ee8",
      "usesPermissions": [
        "android.permission.ACCESS_NETWORK_STATE",
        "android.permission.GET_ACCOUNTS",
        "android.permission.GET_TASKS",
        "android.permission.INTERACT_ACROSS_USERS_FULL",
        "android.permission.INTERNET",
        "android.permission.MANAGE_ACCOUNTS",
        "android.permission.READ_EXTERNAL_STORAGE",
        "android.permission.READ_PHONE_STATE",
        "android.permission.RECEIVE_BOOT_COMPLETED",
        "android.permission.SYSTEM_ALERT_WINDOW",
        "android.permission.USE_CREDENTIALS",
        "android.permission.VIBRATE",
        "android.permission.WAKE_LOCK",
        "android.permission.WRITE_EXTERNAL_STORAGE",
        "com.android.launcher.permission.INSTALL_SHORTCUT",
        "com.google.android.c2dm.permission.RECEIVE"
      ]
    }
  ],
  "meta": {
    "generated": "2020-08-27T15:32:32.041602",
    "generatedBy": [
      "/home/hc/code/trackingthetrackers/scripts/make-trackers-apk-set.py"
    ],
    "ver": "0.3.0"
  }
}