{
  "apks": [
    {
      "applicationId": "com.ringsetting",
      "broadcastReceiverIntentFilterActionNames": [
        "android.intent.action.SERVICE_STATE",
        "android.intent.action.UnzipSystemIcon",
        "android.intent.action.messageCenter",
        "android.intent.action.updateapk",
        "android.net.conn.CONNECTIVITY_CHANGE",
        "com.android.vending.INSTALL_REFERRER"
      ],
      "dependencies": [
        "com.google.android.apps.analytics."
      ],
      "domainNamesFilteredByExodus": [
        "google-analytics.com"
      ],
      "metaDataNames": [],
      "sha256": "8a0c039fc7846d7383351480466193c1c61bd2e0617d22a13654c14c2b9f3e96",
      "usesPermissions": [
        "android.permission.ACCESS_NETWORK_STATE",
        "android.permission.ACCESS_WIFI_STATE",
        "android.permission.CALL_PHONE",
        "android.permission.GET_TASKS",
        "android.permission.INSTALL_PACKAGES",
        "android.permission.INTERNET",
        "android.permission.MOUNT_UNMOUNT_FILESYSTEMS",
        "android.permission.READ_CONTACTS",
        "android.permission.READ_PHONE_STATE",
        "android.permission.RECEIVE_SMS",
        "android.permission.RECORD_AUDIO",
        "android.permission.RESTART_PACKAGES",
        "android.permission.SEND_SMS",
        "android.permission.SYSTEM_ALERT_WINDOW",
        "android.permission.WAKE_LOCK",
        "android.permission.WRITE_CONTACTS",
        "android.permission.WRITE_EXTERNAL_STORAGE",
        "android.permission.WRITE_SETTINGS",
        "com.android.launcher.permission.INSTALL_SHORTCUT"
      ]
    }
  ],
  "meta": {
    "generated": "2020-08-27T15:19:53.660577",
    "generatedBy": [
      "/home/hc/code/trackingthetrackers/scripts/make-trackers-apk-set.py"
    ],
    "ver": "0.3.0"
  }
}