{
  "apks": [
    {
      "applicationId": "es.usc.citius.servando.calendula",
      "broadcastReceiverIntentFilterActionNames": [
        "android.intent.action.BOOT_COMPLETED",
        "android.intent.action.DOWNLOAD_COMPLETE",
        "android.intent.action.MY_PACKAGE_REPLACED",
        "android.intent.action.QUICKBOOT_POWERON",
        "com.evernote.android.job.v14.RUN_JOB",
        "com.htc.intent.action.QUICKBOOT_POWERON",
        "net.vrallev.android.job.v14.RUN_JOB"
      ],
      "dependencies": [],
      "domainNamesFilteredByExodus": [
        ".facebook.com",
        ".google.com"
      ],
      "metaDataNames": [
        "AEMPS_DB_VERSION",
        "android.support.PARENT_ACTIVITY",
        "android.support.VERSION"
      ],
      "sha256": "a81e0dc8f937ac336d137cdbe61ee00c7332f1582b8e761bb83e14aed47d2479",
      "usesPermissions": [
        "android.permission.ACCESS_NETWORK_STATE",
        "android.permission.CAMERA",
        "android.permission.INTERNET",
        "android.permission.READ_EXTERNAL_STORAGE",
        "android.permission.RECEIVE_BOOT_COMPLETED",
        "android.permission.USE_FINGERPRINT",
        "android.permission.VIBRATE",
        "android.permission.WAKE_LOCK"
      ]
    }
  ],
  "meta": {
    "generated": "2020-08-27T18:06:06.116703",
    "generatedBy": [
      "/home/hc/code/trackingthetrackers/scripts/make-clean-apk-set.py"
    ],
    "generatedByCommitId": "3839559c80042252d3b947fb61c86a18e8b31114",
    "sourceDataCommitId": "888bb8f8c77ff55105fcab2ad84c263561eb1169",
    "ver": "0.3.0"
  }
}