{
  "apks": [
    {
      "applicationId": "com.appsministry.litres.book6188124",
      "broadcastReceiverIntentFilterActionNames": [
        "android.intent.action.ACTION_SHUTDOWN",
        "com.android.vending.INSTALL_REFERRER"
      ],
      "dependencies": [
        "com$google$tagmanager",
        "com.google.ads.",
        "com.google.android.gms.ads.",
        "com.google.android.gms.analytics.",
        "com.google.tagmanager",
        "com.mobclix.android.sdk"
      ],
      "domainNamesFilteredByExodus": [
        ".google.com",
        "ads.mobclix.com",
        "appsflyer.com",
        "data.mobclix.com",
        "doubleclick.net",
        "google-analytics.com",
        "mobclix.com",
        "www.googletagmanager.com"
      ],
      "metaDataNames": [
        "android.app.default_searchable",
        "android.app.searchable",
        "com.google.android.gms.version",
        "com.klpcjg.wyxjvs102320.APIKEY",
        "com.klpcjg.wyxjvs102320.APPID",
        "com.mobclix.APPLICATION_ID"
      ],
      "sha256": "1e0230cc676bde6d2024c776eb44c2c5d55d1c67233200d4e30835aaf0920ee5",
      "usesPermissions": [
        "android.permission.ACCESS_COARSE_LOCATION",
        "android.permission.ACCESS_FINE_LOCATION",
        "android.permission.ACCESS_NETWORK_STATE",
        "android.permission.ACCESS_NETWORK_STATE",
        "android.permission.ACCESS_WIFI_STATE",
        "android.permission.CHANGE_CONFIGURATION",
        "android.permission.INTERNET",
        "android.permission.INTERNET",
        "android.permission.READ_PHONE_STATE",
        "android.permission.READ_PHONE_STATE",
        "android.permission.READ_PHONE_STATE",
        "android.permission.WAKE_LOCK",
        "android.permission.WRITE_EXTERNAL_STORAGE",
        "android.permission.WRITE_SETTINGS",
        "com.android.vending.BILLING"
      ]
    }
  ],
  "meta": {
    "generated": "2020-08-27T14:57:30.448212",
    "generatedBy": [
      "/home/hc/code/trackingthetrackers/scripts/make-trackers-apk-set.py"
    ],
    "ver": "0.3.0"
  }
}