{
  "apks": [
    {
      "applicationId": "org.mozilla.fennec_fdroid",
      "broadcastReceiverIntentFilterActionNames": [
        "android.intent.action.BOOT_COMPLETED",
        "android.intent.action.GET_RESTRICTION_ENTRIES",
        "android.intent.action.MY_PACKAGE_REPLACED",
        "com.android.vending.INSTALL_REFERRER",
        "org.mozilla.fennec_fdroid.APPLY_UPDATE",
        "org.mozilla.fennec_fdroid.CHECK_FOR_UPDATE",
        "org.mozilla.fennec_fdroid.CHECK_UPDATE_RESULT",
        "org.mozilla.fennec_fdroid.DOWNLOAD_UPDATE",
        "org.mozilla.fennec_fdroid.NOTIFICATION_CLICK",
        "org.mozilla.fennec_fdroid.NOTIFICATION_CLOSE",
        "org.mozilla.fennec_fdroid.helperBroadcastAction",
        "org.mozilla.gecko.STUMBLER_REGISTER_LOCAL_LISTENER"
      ],
      "dependencies": [
        "org.mozilla.gecko.telemetry"
      ],
      "domainNamesFilteredByExodus": [
        ".facebook.com",
        ".google.com",
        "2mdn.net",
        "doubleclick.net",
        "google-analytics.com",
        "outbrain.com",
        "qualtrics.com"
      ],
      "metaDataNames": [
        "android.accounts.AccountAuthenticator",
        "android.arch.lifecycle.VERSION",
        "android.content.SyncAdapter",
        "android.max_aspect",
        "android.support.FILE_PROVIDER_PATHS",
        "android.support.VERSION",
        "com.android.systemui.action_assist_icon",
        "com.sec.android.support.multiwindow",
        "com.sec.minimode.icon.landscape.normal",
        "com.sec.minimode.icon.portrait.normal"
      ],
      "sha256": "f4e5d5acdc2a321ba95140337509e191a3e8ef9f6c83d50a8eb2822dc3321786",
      "usesPermissions": [
        "android.permission.ACCESS_COARSE_LOCATION",
        "android.permission.ACCESS_FINE_LOCATION",
        "android.permission.ACCESS_NETWORK_STATE",
        "android.permission.ACCESS_NETWORK_STATE",
        "android.permission.ACCESS_WIFI_STATE",
        "android.permission.AUTHENTICATE_ACCOUNTS",
        "android.permission.CAMERA",
        "android.permission.CHANGE_WIFI_STATE",
        "android.permission.DOWNLOAD_WITHOUT_NOTIFICATION",
        "android.permission.GET_ACCOUNTS",
        "android.permission.INTERNET",
        "android.permission.MANAGE_ACCOUNTS",
        "android.permission.NFC",
        "android.permission.READ_EXTERNAL_STORAGE",
        "android.permission.READ_SYNC_SETTINGS",
        "android.permission.READ_SYNC_STATS",
        "android.permission.RECEIVE_BOOT_COMPLETED",
        "android.permission.RECORD_AUDIO",
        "android.permission.SYSTEM_ALERT_WINDOW",
        "android.permission.USE_CREDENTIALS",
        "android.permission.VIBRATE",
        "android.permission.WAKE_LOCK",
        "android.permission.WRITE_EXTERNAL_STORAGE",
        "android.permission.WRITE_SETTINGS",
        "android.permission.WRITE_SYNC_SETTINGS",
        "com.android.browser.permission.READ_HISTORY_BOOKMARKS",
        "com.android.launcher.permission.INSTALL_SHORTCUT",
        "com.android.launcher.permission.UNINSTALL_SHORTCUT",
        "com.google.android.c2dm.permission.RECEIVE",
        "com.samsung.android.providers.context.permission.WRITE_USE_APP_FEATURE_SURVEY",
        "org.mozilla.fennec_fdroid.permission.C2D_MESSAGE",
        "org.mozilla.fennec_fdroid_fxaccount.permission.PER_ACCOUNT_TYPE"
      ]
    }
  ],
  "meta": {
    "generated": "2020-08-27T14:47:00.026408",
    "generatedBy": [
      "/home/hc/code/trackingthetrackers/scripts/make-trackers-apk-set.py"
    ],
    "ver": "0.3.0"
  }
}