{
  "apks": [
    {
      "applicationId": "com.dosse.airpods",
      "broadcastReceiverIntentFilterActionNames": [
        "android.intent.action.BOOT_COMPLETED",
        "android.intent.action.MY_PACKAGE_REPLACED",
        "android.intent.action.PACKAGE_INSTALL"
      ],
      "dependencies": [],
      "domainNamesFilteredByExodus": [],
      "metaDataNames": [],
      "sha256": "2fcdc30262e390ab74abea8f44fb36de499edf50604f0ef2322e2e75fec8a25f",
      "usesPermissions": [
        "android.permission.ACCESS_COARSE_LOCATION",
        "android.permission.BLUETOOTH",
        "android.permission.BLUETOOTH_ADMIN",
        "android.permission.RECEIVE_BOOT_COMPLETED",
        "android.permission.REQUEST_IGNORE_BATTERY_OPTIMIZATIONS"
      ]
    }
  ],
  "meta": {
    "generated": "2020-08-27T17:17:04.927534",
    "generatedBy": [
      "/home/hc/code/trackingthetrackers/scripts/make-clean-apk-set.py"
    ],
    "generatedByCommitId": "40519285d6f404593fa655fa89b433743c25289e",
    "sourceDataCommitId": "888bb8f8c77ff55105fcab2ad84c263561eb1169",
    "ver": "0.3.0"
  }
}