{
  "apks": [
    {
      "applicationId": "de.reimardoeffinger.quickdic",
      "broadcastReceiverIntentFilterActionNames": [],
      "dependencies": [],
      "domainNamesFilteredByExodus": [
        ".google.com"
      ],
      "metaDataNames": [
        "android.support.PARENT_ACTIVITY",
        "com.google.android.backup.api_key"
      ],
      "sha256": "4e97f8bd5ccc1d19bbbde0e46fc18d82c3d7f9dad3aa31832373201d7214e353",
      "usesPermissions": [
        "android.permission.INTERNET",
        "android.permission.READ_EXTERNAL_STORAGE",
        "android.permission.WRITE_EXTERNAL_STORAGE"
      ]
    }
  ],
  "meta": {
    "generated": "2020-08-27T18:02:17.875105",
    "generatedBy": [
      "/home/hc/code/trackingthetrackers/scripts/make-clean-apk-set.py"
    ],
    "generatedByCommitId": "3839559c80042252d3b947fb61c86a18e8b31114",
    "sourceDataCommitId": "888bb8f8c77ff55105fcab2ad84c263561eb1169",
    "ver": "0.3.0"
  }
}