{
  "apks": [
    {
      "applicationId": "com.yubico.yubioath",
      "broadcastReceiverIntentFilterActionNames": [],
      "dependencies": [],
      "domainNamesFilteredByExodus": [],
      "metaDataNames": [
        "android.hardware.usb.action.USB_DEVICE_ATTACHED",
        "android.support.VERSION"
      ],
      "sha256": "13b6fba34e17c53bf87c45a17fa2318899fcc1046f024c67fcad9b619e16807e",
      "usesPermissions": [
        "android.permission.CAMERA",
        "android.permission.NFC"
      ]
    }
  ],
  "meta": {
    "generated": "2020-08-27T17:01:23.036448",
    "generatedBy": [
      "/home/hc/code/trackingthetrackers/scripts/make-clean-apk-set.py"
    ],
    "generatedByCommitId": "40519285d6f404593fa655fa89b433743c25289e",
    "sourceDataCommitId": "888bb8f8c77ff55105fcab2ad84c263561eb1169",
    "ver": "0.3.0"
  }
}