{
  "apks": [
    {
      "applicationId": "com.beautyspa",
      "broadcastReceiverIntentFilterActionNames": [
        "android.intent.action.NEW_OUTGOING_CALL",
        "android.intent.action.PACKAGE_REMOVED",
        "android.intent.action.PHONE_STATE",
        "net.mz.callflakessdk.EULA_RECEIVER",
        "net.mz.callflakessdk.EULA_RESPONSE_RECEIVER"
      ],
      "dependencies": [
        "com$startapp$android$publish",
        "com.flurry.",
        "com.google.ads.",
        "com.inmobi",
        "com.millennialmedia.",
        "com.mobclix.android.sdk",
        "com.startapp.android.publish",
        "com.umeng.analytics"
      ],
      "domainNamesFilteredByExodus": [
        ".google.com",
        "alog.umeng.com",
        "api.airpush.com",
        "doubleclick.net",
        "flurry.com",
        "oc.umeng.com",
        "umeng.com"
      ],
      "metaDataNames": [
        "UMENG_APPKEY",
        "com.vtmsltys.vjeprmqh135663.APIKEY",
        "com.vtmsltys.vjeprmqh135663.APPID"
      ],
      "sha256": "a631ca15e8cb91bef4c03820559718aea88e3f078ce00765d75efd8674c6e6dd",
      "usesPermissions": [
        "android.permission.ACCESS_NETWORK_STATE",
        "android.permission.ACCESS_WIFI_STATE",
        "android.permission.DISABLE_KEYGUARD",
        "android.permission.GET_TASKS",
        "android.permission.INTERNET",
        "android.permission.PROCESS_OUTGOING_CALLS",
        "android.permission.READ_CONTACTS",
        "android.permission.READ_PHONE_STATE",
        "android.permission.SYSTEM_ALERT_WINDOW",
        "android.permission.WAKE_LOCK",
        "android.permission.WRITE_EXTERNAL_STORAGE"
      ]
    }
  ],
  "meta": {
    "generated": "2020-08-27T15:02:37.230295",
    "generatedBy": [
      "/home/hc/code/trackingthetrackers/scripts/make-trackers-apk-set.py"
    ],
    "ver": "0.3.0"
  }
}