{
  "apks": [
    {
      "applicationId": "com.jarsilio.android.waveup",
      "broadcastReceiverIntentFilterActionNames": [
        "android.app.action.DEVICE_ADMIN_ENABLED",
        "android.intent.action.BOOT_COMPLETED",
        "android.intent.action.PHONE_STATE"
      ],
      "dependencies": [],
      "domainNamesFilteredByExodus": [],
      "metaDataNames": [
        "android.app.device_admin"
      ],
      "sha256": "15a9197bcc29e8d3add2ad654459c5fde72e4dff356fa25ab9215ec4f6e9422d",
      "usesPermissions": [
        "android.permission.READ_PHONE_STATE",
        "android.permission.RECEIVE_BOOT_COMPLETED",
        "android.permission.USES_POLICY_FORCE_LOCK",
        "android.permission.WAKE_LOCK",
        "android.permission.WRITE_EXTERNAL_STORAGE"
      ]
    }
  ],
  "meta": {
    "generated": "2020-08-27T17:33:52.703522",
    "generatedBy": [
      "/home/hc/code/trackingthetrackers/scripts/make-clean-apk-set.py"
    ],
    "generatedByCommitId": "40519285d6f404593fa655fa89b433743c25289e",
    "sourceDataCommitId": "888bb8f8c77ff55105fcab2ad84c263561eb1169",
    "ver": "0.3.0"
  }
}