{
  "apks": [
    {
      "applicationId": "de.onyxbits.listmyapps",
      "broadcastReceiverIntentFilterActionNames": [],
      "dependencies": [],
      "domainNamesFilteredByExodus": [
        ".google.com"
      ],
      "metaDataNames": [
        "android.support.PARENT_ACTIVITY"
      ],
      "sha256": "ea72aa3f8b2b9297cf3cd8cbd02d600c860583c004bd1327cc72f0b473cb6a0a",
      "usesPermissions": []
    }
  ],
  "meta": {
    "generated": "2020-08-27T18:01:50.038314",
    "generatedBy": [
      "/home/hc/code/trackingthetrackers/scripts/make-clean-apk-set.py"
    ],
    "generatedByCommitId": "3839559c80042252d3b947fb61c86a18e8b31114",
    "sourceDataCommitId": "888bb8f8c77ff55105fcab2ad84c263561eb1169",
    "ver": "0.3.0"
  }
}