{
  "apks": [
    {
      "applicationId": "org.shadowice.flocke.andotp",
      "broadcastReceiverIntentFilterActionNames": [
        "org.shadowice.flocke.andotp.broadcast.ENCRYPTED_BACKUP",
        "org.shadowice.flocke.andotp.broadcast.PLAIN_TEXT_BACKUP"
      ],
      "dependencies": [],
      "domainNamesFilteredByExodus": [
        ".facebook.com",
        ".google.com",
        "hockeyapp.net",
        "mixpanel.com"
      ],
      "metaDataNames": [],
      "sha256": "9ca274b2abd3ea3b6133bce9656d8bfeca36d99bb3f86a9a0da3b0a8f2a9d7ac",
      "usesPermissions": [
        "android.permission.CAMERA",
        "android.permission.READ_EXTERNAL_STORAGE",
        "android.permission.WRITE_EXTERNAL_STORAGE"
      ]
    }
  ],
  "meta": {
    "generated": "2020-08-27T18:36:02.094361",
    "generatedBy": [
      "/home/hc/code/trackingthetrackers/scripts/make-clean-apk-set.py"
    ],
    "generatedByCommitId": "3839559c80042252d3b947fb61c86a18e8b31114",
    "sourceDataCommitId": "888bb8f8c77ff55105fcab2ad84c263561eb1169",
    "ver": "0.3.0"
  }
}