{
  "apks": [
    {
      "applicationId": "com.quipack.a.b4e60d37a97abcc0004001f41",
      "broadcastReceiverIntentFilterActionNames": [
        "com.android.vending.INSTALL_REFERRER",
        "com.android.vending.billing.IN_APP_NOTIFY",
        "com.android.vending.billing.PURCHASE_STATE_CHANGED",
        "com.android.vending.billing.RESPONSE_CODE",
        "com.quipper.a.query"
      ],
      "dependencies": [
        "com$inmobi",
        "com.flurry.",
        "com.inmobi"
      ],
      "domainNamesFilteredByExodus": [
        ".facebook.com",
        "flurry.com",
        "i.w.inmobi.com",
        "inmobi.com"
      ],
      "metaDataNames": [
        "FLURRY"
      ],
      "sha256": "c0f4bd0cc8ab3c76381e1073ac5f6d74e1018c161b4a6d248fccc34b2fa2510d",
      "usesPermissions": [
        "android.permission.ACCESS_COARSE_LOCATION",
        "android.permission.ACCESS_NETWORK_STATE",
        "android.permission.INTERNET",
        "android.permission.WRITE_EXTERNAL_STORAGE",
        "com.android.vending.BILLING"
      ]
    }
  ],
  "meta": {
    "generated": "2020-08-27T15:07:10.876744",
    "generatedBy": [
      "/home/hc/code/trackingthetrackers/scripts/make-trackers-apk-set.py"
    ],
    "ver": "0.3.0"
  }
}