{
  "apks": [
    {
      "applicationId": "com.greenaddress.greenbits_android_wallet",
      "broadcastReceiverIntentFilterActionNames": [],
      "dependencies": [],
      "domainNamesFilteredByExodus": [],
      "metaDataNames": [
        "android.hardware.usb.action.USB_DEVICE_ATTACHED",
        "android.hardware.usb.action.USB_DEVICE_DETACHED",
        "useNoActionBar"
      ],
      "sha256": "3ccf2426ed4f787808a537aded3af995120ff536075ca366230a039284d36411",
      "usesPermissions": [
        "android.permission.ACCESS_NETWORK_STATE",
        "android.permission.CAMERA",
        "android.permission.INTERNET",
        "android.permission.NFC"
      ]
    }
  ],
  "meta": {
    "generated": "2020-08-27T17:31:57.860774",
    "generatedBy": [
      "/home/hc/code/trackingthetrackers/scripts/make-clean-apk-set.py"
    ],
    "generatedByCommitId": "40519285d6f404593fa655fa89b433743c25289e",
    "sourceDataCommitId": "888bb8f8c77ff55105fcab2ad84c263561eb1169",
    "ver": "0.3.0"
  }
}