{
  "apks": [
    {
      "applicationId": "com.simplemobiletools.flashlight",
      "broadcastReceiverIntentFilterActionNames": [
        "android.appwidget.action.APPWIDGET_UPDATE"
      ],
      "dependencies": [],
      "domainNamesFilteredByExodus": [
        ".facebook.com",
        ".google.com"
      ],
      "metaDataNames": [
        "android.appwidget.provider"
      ],
      "sha256": "d7a810ca8f5337d4b0263f4959d01a755db0626ec76c909145e098ffef2b7363",
      "usesPermissions": [
        "android.permission.CAMERA",
        "android.permission.FLASHLIGHT"
      ]
    }
  ],
  "meta": {
    "generated": "2020-08-27T17:48:21.227654",
    "generatedBy": [
      "/home/hc/code/trackingthetrackers/scripts/make-clean-apk-set.py"
    ],
    "generatedByCommitId": "40519285d6f404593fa655fa89b433743c25289e",
    "sourceDataCommitId": "888bb8f8c77ff55105fcab2ad84c263561eb1169",
    "ver": "0.3.0"
  }
}