{
  "apks": [
    {
      "applicationId": "org.bottiger.podcast",
      "broadcastReceiverIntentFilterActionNames": [
        "android.intent.action.BOOT_COMPLETED",
        "android.intent.action.DOWNLOAD_COMPLETE",
        "android.intent.action.MEDIA_BUTTON",
        "org.bottiger.soundwaves.CLEAR",
        "org.bottiger.soundwaves.NEXT",
        "org.bottiger.soundwaves.PAUSE",
        "org.bottiger.soundwaves.PLAY",
        "org.bottiger.soundwaves.TOGGLE"
      ],
      "dependencies": [],
      "domainNamesFilteredByExodus": [
        ".google.com"
      ],
      "metaDataNames": [
        "android.accounts.AccountAuthenticator",
        "android.content.SyncAdapter",
        "android.support.PARENT_ACTIVITY",
        "com.bugsnag.android.API_KEY",
        "com.google.android.apps.drive.APP_ID",
        "org.bottiger.podcast.images.SoundWavesGlideModule"
      ],
      "sha256": "077d10cc93c19d4117930bf4f2af3ebab910b287a23a5b7b0c862fc105440da8",
      "usesPermissions": [
        "android.permission.ACCESS_NETWORK_STATE",
        "android.permission.ACCESS_WIFI_STATE",
        "android.permission.DOWNLOAD_WITHOUT_NOTIFICATION",
        "android.permission.GET_ACCOUNTS",
        "android.permission.INTERNET",
        "android.permission.MEDIA_CONTENT_CONTROL",
        "android.permission.READ_EXTERNAL_STORAGE",
        "android.permission.READ_PHONE_STATE",
        "android.permission.READ_SYNC_SETTINGS",
        "android.permission.READ_SYNC_STATS",
        "android.permission.RECEIVE_BOOT_COMPLETED",
        "android.permission.USE_CREDENTIALS",
        "android.permission.VIBRATE",
        "android.permission.WAKE_LOCK",
        "android.permission.WRITE_EXTERNAL_STORAGE",
        "android.permission.WRITE_SYNC_SETTINGS"
      ]
    }
  ],
  "meta": {
    "generated": "2020-08-27T18:24:03.652828",
    "generatedBy": [
      "/home/hc/code/trackingthetrackers/scripts/make-clean-apk-set.py"
    ],
    "generatedByCommitId": "3839559c80042252d3b947fb61c86a18e8b31114",
    "sourceDataCommitId": "888bb8f8c77ff55105fcab2ad84c263561eb1169",
    "ver": "0.3.0"
  }
}