{
  "apks": [
    {
      "applicationId": "com.tendougames.supercrossy",
      "broadcastReceiverIntentFilterActionNames": [
        "android.intent.action.PACKAGE_ADDED",
        "android.intent.action.PACKAGE_INSTALL",
        "com.amazon.inapp.purchasing.NOTIFY"
      ],
      "dependencies": [
        "com$amazon$insights",
        "com$chartboost$sdk$",
        "com.amazon.insights",
        "com.chartboost.sdk.",
        "com.flurry.",
        "com.google.ads.",
        "com.google.android.apps.analytics.",
        "com.google.android.gms.ads.",
        "com.google.android.gms.analytics.",
        "com.google.android.gms.tagmanager",
        "com.localytics.android.",
        "com.revmob.ads."
      ],
      "domainNamesFilteredByExodus": [
        ".chartboost.com",
        ".facebook.com",
        ".google.com",
        "doubleclick.net",
        "flurry.com",
        "google-analytics.com",
        "www.googletagmanager.com"
      ],
      "metaDataNames": [
        "APP_ID",
        "APP_INTERVAL",
        "APP_TESTMODE",
        "com.google.android.gms.version",
        "com.mobclix.APPLICATION_ID",
        "com.revmob.app.id"
      ],
      "sha256": "147833503a71ec82f359c6ef2a81a2d5c64e8f2dedd2b41cf358345b6decf150",
      "usesPermissions": [
        "android.permission.ACCESS_NETWORK_STATE",
        "android.permission.ACCESS_WIFI_STATE",
        "android.permission.INTERNET",
        "android.permission.READ_PHONE_STATE",
        "android.permission.WRITE_EXTERNAL_STORAGE",
        "com.android.vending.BILLING"
      ]
    }
  ],
  "meta": {
    "generated": "2020-08-27T15:38:34.294885",
    "generatedBy": [
      "/home/hc/code/trackingthetrackers/scripts/make-trackers-apk-set.py"
    ],
    "ver": "0.3.0"
  }
}