{
  "apks": [
    {
      "applicationId": "com.pnj.newpagnewpagmetalknightfree_gl_en",
      "broadcastReceiverIntentFilterActionNames": [
        "android.net.conn.CONNECTIVITY_CHANGE",
        "android.net.wifi.WIFI_STATE_CHANGED",
        "com.android.vending.billing.IN_APP_NOTIFY",
        "com.android.vending.billing.PURCHASE_STATE_CHANGED",
        "com.android.vending.billing.RESPONSE_CODE"
      ],
      "dependencies": [
        "com.google.ads.",
        "com.tapjoy.",
        "com_google_ads_"
      ],
      "domainNamesFilteredByExodus": [
        ".google.com",
        "ad.cauly.co.kr",
        "tapjoyads.com"
      ],
      "metaDataNames": [
        "net.pushad.ad",
        "tapjoy.disable_video_offers"
      ],
      "sha256": "90079f190583aae515f96b5ed96b51fc9c0043c6bdd417ffccafb18386200f8e",
      "usesPermissions": [
        "android.permission.ACCESS_COARSE_LOCATION",
        "android.permission.ACCESS_FINE_LOCATION",
        "android.permission.ACCESS_LOCATION_EXTRA_COMMANDS",
        "android.permission.ACCESS_NETWORK_STATE",
        "android.permission.ACCESS_NETWORK_STATE",
        "android.permission.ACCESS_NETWORK_STATE",
        "android.permission.ACCESS_WIFI_STATE",
        "android.permission.ACCESS_WIFI_STATE",
        "android.permission.CALL_PHONE",
        "android.permission.GET_ACCOUNTS",
        "android.permission.GET_TASKS",
        "android.permission.INTERNET",
        "android.permission.INTERNET",
        "android.permission.INTERNET",
        "android.permission.READ_PHONE_STATE",
        "android.permission.READ_PHONE_STATE",
        "android.permission.RECEIVE_SMS",
        "android.permission.WAKE_LOCK",
        "android.permission.WRITE_EXTERNAL_STORAGE",
        "android.permission.WRITE_EXTERNAL_STORAGE",
        "android.permission.WRITE_EXTERNAL_STORAGE",
        "com.android.vending.BILLING",
        "com.android.vending.CHECK_LICENSE"
      ]
    }
  ],
  "meta": {
    "generated": "2020-08-27T15:05:24.486666",
    "generatedBy": [
      "/home/hc/code/trackingthetrackers/scripts/make-trackers-apk-set.py"
    ],
    "ver": "0.3.0"
  }
}