{
  "apks": [
    {
      "applicationId": "click.dummer.imagesms",
      "broadcastReceiverIntentFilterActionNames": [],
      "dependencies": [],
      "domainNamesFilteredByExodus": [],
      "metaDataNames": [],
      "sha256": "5f41fe9ef30051cbb19a1798784d10ada97e219c9f2d22f1575d6ef31949a0c6",
      "usesPermissions": [
        "android.permission.CAMERA",
        "android.permission.READ_SMS",
        "android.permission.RECEIVE_SMS",
        "android.permission.SEND_SMS"
      ]
    }
  ],
  "meta": {
    "generated": "2020-08-27T16:52:09.053607",
    "generatedBy": [
      "/home/hc/code/trackingthetrackers/scripts/make-clean-apk-set.py"
    ],
    "generatedByCommitId": "40519285d6f404593fa655fa89b433743c25289e",
    "sourceDataCommitId": "888bb8f8c77ff55105fcab2ad84c263561eb1169",
    "ver": "0.3.0"
  }
}