{
  "apks": [
    {
      "applicationId": "in.blogspot.anselmbros.torchie",
      "broadcastReceiverIntentFilterActionNames": [
        "android.intent.action.BOOT_COMPLETED",
        "android.intent.action.MEDIA_BUTTON"
      ],
      "dependencies": [],
      "domainNamesFilteredByExodus": [
        ".google.com"
      ],
      "metaDataNames": [
        "android.accessibilityservice",
        "android.support.PARENT_ACTIVITY"
      ],
      "sha256": "31c30fe95915cd5775972d3ce42ab789c576d9b62fada5172f6babeb15bf90e6",
      "usesPermissions": [
        "android.permission.CAMERA",
        "android.permission.FLASHLIGHT",
        "android.permission.RECEIVE_BOOT_COMPLETED",
        "android.permission.VIBRATE",
        "android.permission.WAKE_LOCK",
        "com.android.vending.BILLING"
      ]
    }
  ],
  "meta": {
    "generated": "2020-08-27T17:03:17.926475",
    "generatedBy": [
      "/home/hc/code/trackingthetrackers/scripts/make-clean-apk-set.py"
    ],
    "generatedByCommitId": "40519285d6f404593fa655fa89b433743c25289e",
    "sourceDataCommitId": "888bb8f8c77ff55105fcab2ad84c263561eb1169",
    "ver": "0.3.0"
  }
}