{
  "apks": [
    {
      "applicationId": "com.maxaebli.fungame.shootingtherunningdeer",
      "broadcastReceiverIntentFilterActionNames": [
        "android.intent.action.BOOT_COMPLETED"
      ],
      "dependencies": [
        "com.google.ads."
      ],
      "domainNamesFilteredByExodus": [
        ".google.com"
      ],
      "metaDataNames": [
        "com.twhasfhk.ayyejsh.APIKEY",
        "com.twhasfhk.ayyejsh.APPID"
      ],
      "sha256": "737c88508fa3097624cde3c2e2d3ccf81c2e3294aa129d89d771dc752c613ceb",
      "usesPermissions": [
        "android.permission.ACCESS_NETWORK_STATE",
        "android.permission.INTERNET",
        "android.permission.READ_PHONE_STATE"
      ]
    }
  ],
  "meta": {
    "generated": "2020-08-27T15:11:47.305177",
    "generatedBy": [
      "/home/hc/code/trackingthetrackers/scripts/make-trackers-apk-set.py"
    ],
    "ver": "0.3.0"
  }
}