{
  "apks": [
    {
      "applicationId": "com.snda.wifilocating",
      "broadcastReceiverIntentFilterActionNames": [
        "android.appwidget.action.APPWIDGET_UPDATE",
        "android.intent.action.BOOT_COMPLETED",
        "android.intent.action.LOCALE_CHANGED",
        "android.intent.action.PACKAGE_REPLACED",
        "android.intent.action.USER_PRESENT",
        "android.net.conn.CONNECTIVITY_CHANGE",
        "android.net.wifi.WIFI_STATE_CHANGED",
        "com.snda.wifilocating.appwidget.GPRSSWITCH",
        "com.snda.wifilocating.appwidget.HITWORD",
        "com.snda.wifilocating.appwidget.REFRESH",
        "com.snda.wifilocating.appwidget.WIFISWITCH"
      ],
      "dependencies": [
        "com.baidu.location",
        "com.baidu.mapapi"
      ],
      "domainNamesFilteredByExodus": [
        ".facebook.com",
        ".google.com",
        "map.baidu.com"
      ],
      "metaDataNames": [
        "APPLICATION_CHANNEL",
        "APPLICATION_KEY",
        "APP_KEY",
        "COM_KEY",
        "LT_FLAG_BBX",
        "LT_FLAG_CHECK_DEL_PWD",
        "LT_FLAG_GUIDE_REGISTER",
        "LT_FLAG_ISH",
        "LT_FLAG_N_CHECK",
        "LT_FLAG_N_YJCX",
        "LT_FLAG_REPORT_RESPONSE_ERROR",
        "LT_FLAG_RZ_FXAP",
        "LT_FLAG_SP",
        "LT_FLAG_SSMS",
        "LT_FLAG_TPXW",
        "LT_FLAG_TRAFFICA_MONITOR",
        "LT_FLAG_UPGRADE_TYPE_CHECK",
        "LT_FLAG_WJX",
        "LT_FLAG_XLB",
        "LT_FLAG_YJCX_TIP",
        "android.appwidget.provider",
        "com.baidu.lbsapi.API_KEY",
        "com.google.android.maps.v2.API_KEY",
        "woa_key_appid",
        "woa_key_channelid"
      ],
      "sha256": "6b6bc611d382eb6b7b00985d6b3c940f4018ff07015fbdd0dfbaaff303c6d866",
      "usesPermissions": [
        "android.permission.ACCESS_COARSE_LOCATION",
        "android.permission.ACCESS_COARSE_UPDATES",
        "android.permission.ACCESS_FINE_LOCATION",
        "android.permission.ACCESS_GPS",
        "android.permission.ACCESS_LOCATION_EXTRA_COMMANDS",
        "android.permission.ACCESS_MOCK_LOCATION",
        "android.permission.ACCESS_NETWORK_STATE",
        "android.permission.ACCESS_WIFI_STATE",
        "android.permission.BAIDU_LOCATION_SERVICE",
        "android.permission.BROADCAST_STICKY",
        "android.permission.CHANGE_NETWORK_STATE",
        "android.permission.CHANGE_WIFI_STATE",
        "android.permission.EXPAND_STATUS_BAR",
        "android.permission.GET_TASKS",
        "android.permission.INTERNET",
        "android.permission.READ_EXTERNAL_STORAGE",
        "android.permission.READ_PHONE_STATE",
        "android.permission.READ_PHONE_STATE",
        "android.permission.READ_SETTINGS",
        "android.permission.RECEIVE_BOOT_COMPLETED",
        "android.permission.SEND_DOWNLOAD_COMPLETED_INTENTS",
        "android.permission.SEND_SMS",
        "android.permission.SET_WALLPAPER",
        "android.permission.SYSTEM_ALERT_WINDOW",
        "android.permission.USE_CREDENTIALS",
        "android.permission.WAKE_LOCK",
        "android.permission.WRITE_EXTERNAL_STORAGE",
        "android.permission.WRITE_SECURE_SETTINGS",
        "android.permission.WRITE_SETTINGS",
        "com.android.launcher.permission.INSTALL_SHORTCUT",
        "com.android.launcher.permission.READ_SETTINGS",
        "com.google.android.providers.gsf.permission.READ_GSERVICES",
        "com.snda.wifilocating.permission.MAPS_RECEIVE"
      ]
    }
  ],
  "meta": {
    "generated": "2020-08-27T15:13:56.298445",
    "generatedBy": [
      "/home/hc/code/trackingthetrackers/scripts/make-trackers-apk-set.py"
    ],
    "ver": "0.3.0"
  }
}