{
  "apks": [
    {
      "applicationId": "saschpe.contactevents",
      "broadcastReceiverIntentFilterActionNames": [],
      "dependencies": [],
      "domainNamesFilteredByExodus": [
        ".google.com"
      ],
      "metaDataNames": [
        "android.accounts.AccountAuthenticator",
        "android.content.SyncAdapter",
        "android.support.VERSION"
      ],
      "sha256": "2746de3edcefd004be03e7b9f3f4a781ba5e2b376ee266639743d980117015a2",
      "usesPermissions": [
        "22",
        "android.permission.ACCESS_NETWORK_STATE",
        "android.permission.AUTHENTICATE_ACCOUNTS",
        "android.permission.GET_ACCOUNTS",
        "android.permission.INTERNET",
        "android.permission.MANAGE_ACCOUNTS",
        "android.permission.READ_CALENDAR",
        "android.permission.READ_CONTACTS",
        "android.permission.READ_SYNC_SETTINGS",
        "android.permission.WRITE_CALENDAR",
        "android.permission.WRITE_SYNC_SETTINGS",
        "com.samsung.android.providers.context.permission.WRITE_USE_APP_FEATURE_SURVEY"
      ]
    }
  ],
  "meta": {
    "generated": "2020-08-27T18:43:53.846065",
    "generatedBy": [
      "/home/hc/code/trackingthetrackers/scripts/make-clean-apk-set.py"
    ],
    "generatedByCommitId": "3839559c80042252d3b947fb61c86a18e8b31114",
    "sourceDataCommitId": "888bb8f8c77ff55105fcab2ad84c263561eb1169",
    "ver": "0.3.0"
  }
}