{
  "apks": [
    {
      "applicationId": "com.vrem.wifianalyzer",
      "broadcastReceiverIntentFilterActionNames": [],
      "dependencies": [],
      "domainNamesFilteredByExodus": [
        ".google.com"
      ],
      "metaDataNames": [
        "android.max_aspect",
        "android.support.PARENT_ACTIVITY"
      ],
      "sha256": "f435b009b8b2836fb4bb37a4f2b486f85fe7ac300ab476b0fc3676bdc92d2f63",
      "usesPermissions": [
        "android.permission.ACCESS_WIFI_STATE",
        "android.permission.CHANGE_WIFI_STATE"
      ]
    }
  ],
  "meta": {
    "generated": "2020-08-27T17:52:28.125180",
    "generatedBy": [
      "/home/hc/code/trackingthetrackers/scripts/make-clean-apk-set.py"
    ],
    "generatedByCommitId": "3839559c80042252d3b947fb61c86a18e8b31114",
    "sourceDataCommitId": "888bb8f8c77ff55105fcab2ad84c263561eb1169",
    "ver": "0.3.0"
  }
}