{
  "apks": [
    {
      "applicationId": "com.nd.android.smarthome.p_xingqisong20140527L",
      "broadcastReceiverIntentFilterActionNames": [
        "android.intent.action.PACKAGE_ADDED"
      ],
      "dependencies": [],
      "domainNamesFilteredByExodus": [],
      "metaDataNames": [],
      "sha256": "3029f4ecc1d314cba80c97e51141107700f2ae509646fd443665ee99d0af2357",
      "usesPermissions": [
        "android.permission.ACCESS_NETWORK_STATE",
        "android.permission.INTERNET",
        "android.permission.READ_PHONE_STATE",
        "android.permission.WRITE_EXTERNAL_STORAGE"
      ]
    }
  ],
  "meta": {
    "generated": "2020-08-27T15:13:26.186406",
    "generatedBy": [
      "/home/hc/code/trackingthetrackers/scripts/make-trackers-apk-set.py"
    ],
    "ver": "0.3.0"
  }
}