{
  "apks": [
    {
      "applicationId": "de.geeksfactory.opacclient",
      "broadcastReceiverIntentFilterActionNames": [
        "android.intent.action.BOOT_COMPLETED"
      ],
      "dependencies": [],
      "domainNamesFilteredByExodus": [
        ".facebook.com"
      ],
      "metaDataNames": [
        "android.app.searchable",
        "android.support.PARENT_ACTIVITY",
        "android.support.UI_OPTIONS"
      ],
      "sha256": "d800a9a6f5e9cb41d9584d2b33acfc4f528183240e5cfc918339f941aecd3c90",
      "usesPermissions": [
        "android.permission.ACCESS_COARSE_LOCATION",
        "android.permission.ACCESS_NETWORK_STATE",
        "android.permission.INTERNET",
        "android.permission.NFC",
        "android.permission.RECEIVE_BOOT_COMPLETED"
      ]
    }
  ],
  "meta": {
    "generated": "2020-08-27T18:00:08.267923",
    "generatedBy": [
      "/home/hc/code/trackingthetrackers/scripts/make-clean-apk-set.py"
    ],
    "generatedByCommitId": "3839559c80042252d3b947fb61c86a18e8b31114",
    "sourceDataCommitId": "888bb8f8c77ff55105fcab2ad84c263561eb1169",
    "ver": "0.3.0"
  }
}