{
  "apks": [
    {
      "applicationId": "org.projectmaxs.module.fileread",
      "broadcastReceiverIntentFilterActionNames": [
        "org.projectmaxs.EXPORT_SETTINGS",
        "org.projectmaxs.IMPORT_SETTINGS",
        "org.projectmaxs.REGISTER"
      ],
      "dependencies": [],
      "domainNamesFilteredByExodus": [],
      "metaDataNames": [],
      "sha256": "92f98126b8a590856d7105ed00bb07aced2eac0facdf5a16b661b9dd17eeaa40",
      "usesPermissions": [
        "android.permission.READ_EXTERNAL_STORAGE",
        "org.projectmaxs.permission.USE_MAIN",
        "org.projectmaxs.permission.USE_MAIN_AS_MODULE",
        "org.projectmaxs.permission.USE_OUTGOING_FILETRANSFER_SERVICE"
      ]
    }
  ],
  "meta": {
    "generated": "2020-08-27T18:34:29.071318",
    "generatedBy": [
      "/home/hc/code/trackingthetrackers/scripts/make-clean-apk-set.py"
    ],
    "generatedByCommitId": "3839559c80042252d3b947fb61c86a18e8b31114",
    "sourceDataCommitId": "888bb8f8c77ff55105fcab2ad84c263561eb1169",
    "ver": "0.3.0"
  }
}