{
  "apks": [
    {
      "applicationId": "de.rampro.activitydiary",
      "broadcastReceiverIntentFilterActionNames": [],
      "dependencies": [],
      "domainNamesFilteredByExodus": [],
      "metaDataNames": [
        "android.app.searchable",
        "android.support.FILE_PROVIDER_PATHS"
      ],
      "sha256": "cc96aa0035d6bfcbef2240aa446b42a1d52d78f49b9e3d5de0d313b32240e308",
      "usesPermissions": [
        "25",
        "android.permission.WAKE_LOCK",
        "android.permission.WRITE_EXTERNAL_STORAGE",
        "false"
      ]
    }
  ],
  "meta": {
    "generated": "2020-08-27T18:02:13.996482",
    "generatedBy": [
      "/home/hc/code/trackingthetrackers/scripts/make-clean-apk-set.py"
    ],
    "generatedByCommitId": "3839559c80042252d3b947fb61c86a18e8b31114",
    "sourceDataCommitId": "888bb8f8c77ff55105fcab2ad84c263561eb1169",
    "ver": "0.3.0"
  }
}