{
  "apks": [
    {
      "applicationId": "com.vmmba.uttmxir.gxtbbwtedv",
      "broadcastReceiverIntentFilterActionNames": [
        "android.intent.action.BOOT_COMPLETED"
      ],
      "dependencies": [
        "com$startapp$android$publish",
        "com.flurry.",
        "com.google.ads.",
        "com.google.android.gms.analytics.",
        "com.startapp.android.publish"
      ],
      "domainNamesFilteredByExodus": [
        ".google.com",
        "doubleclick.net",
        "flurry.com",
        "google-analytics.com"
      ],
      "metaDataNames": [],
      "sha256": "0d575e191e30598eb3afc99e9cefebeb0685f5381d4b8439b2d11a79f804991d",
      "usesPermissions": [
        "android.permission.ACCESS_COARSE_LOCATION",
        "android.permission.ACCESS_FINE_LOCATION",
        "android.permission.ACCESS_LOCATION_EXTRA_COMMANDS",
        "android.permission.ACCESS_NETWORK_STATE",
        "android.permission.ACCESS_WIFI_STATE",
        "android.permission.GET_TASKS",
        "android.permission.INTERNET",
        "android.permission.READ_EXTERNAL_STORAGE",
        "android.permission.READ_PHONE_STATE",
        "android.permission.RECEIVE_BOOT_COMPLETED",
        "android.permission.SYSTEM_ALERT_WINDOW",
        "android.permission.WAKE_LOCK",
        "android.permission.WRITE_EXTERNAL_STORAGE",
        "com.sec.android.app.browser.permission.HOMEPAGE"
      ]
    }
  ],
  "meta": {
    "generated": "2020-08-27T15:15:12.806914",
    "generatedBy": [
      "/home/hc/code/trackingthetrackers/scripts/make-trackers-apk-set.py"
    ],
    "ver": "0.3.0"
  }
}