{
  "apks": [
    {
      "applicationId": "org.secuso.privacyfriendlypasswordgenerator",
      "broadcastReceiverIntentFilterActionNames": [],
      "dependencies": [],
      "domainNamesFilteredByExodus": [],
      "metaDataNames": [
        "android.support.PARENT_ACTIVITY"
      ],
      "sha256": "29c568a50ea15c7d545283d073471f4539e430731d4e8f6d146c9f582669bb13",
      "usesPermissions": []
    }
  ],
  "meta": {
    "generated": "2020-08-27T18:35:58.769211",
    "generatedBy": [
      "/home/hc/code/trackingthetrackers/scripts/make-clean-apk-set.py"
    ],
    "generatedByCommitId": "3839559c80042252d3b947fb61c86a18e8b31114",
    "sourceDataCommitId": "888bb8f8c77ff55105fcab2ad84c263561eb1169",
    "ver": "0.3.0"
  }
}