{
  "apks": [
    {
      "applicationId": "ch.deletescape.lawnchair.plah",
      "broadcastReceiverIntentFilterActionNames": [
        "android.app.action.DEVICE_ADMIN_ENABLED",
        "android.appwidget.action.APPWIDGET_HOST_RESTORED",
        "com.android.launcher.action.INSTALL_SHORTCUT"
      ],
      "dependencies": [],
      "domainNamesFilteredByExodus": [
        ".google.com"
      ],
      "metaDataNames": [
        "android.app.device_admin",
        "android.app.shortcuts",
        "android.max_aspect",
        "android.nfc.disable_beam_default",
        "android.support.FILE_PROVIDER_PATHS",
        "com.google.android.awareness.API_KEY",
        "com.google.android.geo.API_KEY",
        "com.samsung.android.non_immersive"
      ],
      "sha256": "587d12f31d65b405c9b7110910c2267291a2ddace28bf61732cc4bf28ee920d3",
      "usesPermissions": [
        "android.permission.ACCESS_FINE_LOCATION",
        "android.permission.BIND_APPWIDGET",
        "android.permission.CALL_PHONE",
        "android.permission.EXPAND_STATUS_BAR",
        "android.permission.INTERNET",
        "android.permission.RECEIVE_BOOT_COMPLETED",
        "android.permission.SET_WALLPAPER",
        "android.permission.SET_WALLPAPER_HINTS",
        "android.permission.WRITE_EXTERNAL_STORAGE",
        "android.permission.WRITE_SETTINGS",
        "ch.deletescape.lawnchair.plah.permission.QSB",
        "ch.deletescape.lawnchair.plah.permission.READ_SETTINGS",
        "ch.deletescape.lawnchair.plah.permission.WRITE_SETTINGS"
      ]
    }
  ],
  "meta": {
    "generated": "2020-08-27T16:52:00.541871",
    "generatedBy": [
      "/home/hc/code/trackingthetrackers/scripts/make-clean-apk-set.py"
    ],
    "generatedByCommitId": "40519285d6f404593fa655fa89b433743c25289e",
    "sourceDataCommitId": "888bb8f8c77ff55105fcab2ad84c263561eb1169",
    "ver": "0.3.0"
  }
}