{
  "apks": [
    {
      "applicationId": "com.iven.musicplayergo",
      "broadcastReceiverIntentFilterActionNames": [],
      "dependencies": [],
      "domainNamesFilteredByExodus": [],
      "metaDataNames": [],
      "sha256": "3ee57adb284419959dde99704da22fc74a87712e323f3356b33b180ed1d35484",
      "usesPermissions": [
        "android.permission.FOREGROUND_SERVICE",
        "android.permission.READ_EXTERNAL_STORAGE",
        "android.permission.WAKE_LOCK"
      ]
    }
  ],
  "meta": {
    "generated": "2020-08-27T17:33:25.771176",
    "generatedBy": [
      "/home/hc/code/trackingthetrackers/scripts/make-clean-apk-set.py"
    ],
    "generatedByCommitId": "40519285d6f404593fa655fa89b433743c25289e",
    "sourceDataCommitId": "888bb8f8c77ff55105fcab2ad84c263561eb1169",
    "ver": "0.3.0"
  }
}