{
  "apks": [
    {
      "applicationId": "org.projectmaxs.module.alarmset",
      "broadcastReceiverIntentFilterActionNames": [
        "org.projectmaxs.EXPORT_SETTINGS",
        "org.projectmaxs.IMPORT_SETTINGS",
        "org.projectmaxs.REGISTER"
      ],
      "dependencies": [],
      "domainNamesFilteredByExodus": [],
      "metaDataNames": [],
      "sha256": "98a5a24ded5473fd7c0b41d432142d7f4ff4506aa8cce171939734aadd08e46e",
      "usesPermissions": [
        "com.android.alarm.permission.SET_ALARM",
        "org.projectmaxs.permission.USE_MAIN",
        "org.projectmaxs.permission.USE_MAIN_AS_MODULE"
      ]
    }
  ],
  "meta": {
    "generated": "2020-08-27T18:34:14.800347",
    "generatedBy": [
      "/home/hc/code/trackingthetrackers/scripts/make-clean-apk-set.py"
    ],
    "generatedByCommitId": "3839559c80042252d3b947fb61c86a18e8b31114",
    "sourceDataCommitId": "888bb8f8c77ff55105fcab2ad84c263561eb1169",
    "ver": "0.3.0"
  }
}