{
  "apks": [
    {
      "applicationId": "com.talentwalker.shydn.xm",
      "broadcastReceiverIntentFilterActionNames": [],
      "dependencies": [
        "com.tendcloud.tenddata.",
        "org.cocos2dx"
      ],
      "domainNamesFilteredByExodus": [],
      "metaDataNames": [],
      "sha256": "63a865fd6be02b4fe4c740456db215a3262b2ede2a2d6a43100b7a03b35c8634",
      "usesPermissions": [
        "android.permission.ACCESS_NETWORK_STATE",
        "android.permission.ACCESS_WIFI_STATE",
        "android.permission.GET_TASKS",
        "android.permission.GET_TASKS",
        "android.permission.INTERNET",
        "android.permission.MOUNT_UNMOUNT_FILESYSTEMS",
        "android.permission.READ_PHONE_STATE",
        "android.permission.WAKE_LOCK",
        "android.permission.WRITE_EXTERNAL_STORAGE",
        "com.xiaomi.sdk.permission.PAYMENT"
      ]
    }
  ],
  "meta": {
    "generated": "2020-08-27T15:19:09.855680",
    "generatedBy": [
      "/home/hc/code/trackingthetrackers/scripts/make-trackers-apk-set.py"
    ],
    "ver": "0.3.0"
  }
}