{
  "apks": [
    {
      "applicationId": "com.fwb.screensaver.dxj",
      "broadcastReceiverIntentFilterActionNames": [
        "action_application_launch",
        "action_settings_refresh",
        "action_systerm_alarm",
        "android.intent.action.BOOT_COMPLETED",
        "android.intent.action.USER_PRESENT",
        "android.net.conn.CONNECTIVITY_CHANGE",
        "define_weather_updatetime_action_on"
      ],
      "dependencies": [],
      "domainNamesFilteredByExodus": [],
      "metaDataNames": [
        "BOBO_ID",
        "BOBO_PID",
        "FIRST_DA_TYPE",
        "TD_APP_ID",
        "TD_CHANNEL_ID",
        "accountname",
        "core",
        "keyword",
        "market",
        "template",
        "update",
        "versiontype"
      ],
      "sha256": "d23050880268a747db3bfdb7709ffef02990ecc92c7ae28ffc89998819a4a301",
      "usesPermissions": [
        "android.permission.ACCESS_COARSE_LOCATION",
        "android.permission.ACCESS_FINE_LOCATION",
        "android.permission.ACCESS_NETWORK_STATE",
        "android.permission.ACCESS_WIFI_STATE",
        "android.permission.ACCESS_WIFI_STATE",
        "android.permission.CHANGE_WIFI_STATE",
        "android.permission.DISABLE_KEYGUARD",
        "android.permission.EXPAND_STATUS_BAR",
        "android.permission.GET_TASKS",
        "android.permission.INTERNET",
        "android.permission.MOUNT_UNMOUNT_FILESYSTEMS",
        "android.permission.READ_CONTACTS",
        "android.permission.READ_LOGS",
        "android.permission.READ_PHONE_STATE",
        "android.permission.READ_PHONE_STATE",
        "android.permission.READ_SMS",
        "android.permission.RECEIVE_SMS",
        "android.permission.SYSTEM_ALERT_WINDOW",
        "android.permission.VIBRATE",
        "android.permission.WRITE_EXTERNAL_STORAGE"
      ]
    }
  ],
  "meta": {
    "generated": "2020-08-27T14:53:21.923280",
    "generatedBy": [
      "/home/hc/code/trackingthetrackers/scripts/make-trackers-apk-set.py"
    ],
    "ver": "0.3.0"
  }
}