{
  "apks": [
    {
      "applicationId": "org.sw24softwares.starkeverben",
      "broadcastReceiverIntentFilterActionNames": [],
      "dependencies": [],
      "domainNamesFilteredByExodus": [],
      "metaDataNames": [
        "android.app.searchable",
        "android.support.VERSION"
      ],
      "sha256": "eb35f9a0134f0dfdf5cb396aa92b5f5142448ed8ccf910365beffb9254a19615",
      "usesPermissions": []
    }
  ],
  "meta": {
    "generated": "2020-08-27T18:37:39.672281",
    "generatedBy": [
      "/home/hc/code/trackingthetrackers/scripts/make-clean-apk-set.py"
    ],
    "generatedByCommitId": "3839559c80042252d3b947fb61c86a18e8b31114",
    "sourceDataCommitId": "888bb8f8c77ff55105fcab2ad84c263561eb1169",
    "ver": "0.3.0"
  }
}