{
  "apks": [
    {
      "applicationId": "com.nhellfire.kerneladiutor",
      "broadcastReceiverIntentFilterActionNames": [
        "android.appwidget.action.APPWIDGET_UPDATE",
        "android.intent.action.BOOT_COMPLETED",
        "com.grarak.kerneladiutor.action.ACTION_TOGGLE_STATE",
        "com.twofortyfouram.locale.intent.action.FIRE_SETTING"
      ],
      "dependencies": [],
      "domainNamesFilteredByExodus": [
        ".google.com"
      ],
      "metaDataNames": [
        "android.app.shortcuts",
        "android.appwidget.provider",
        "android.support.VERSION",
        "io.fabric.ApiKey",
        "protocolVersion"
      ],
      "sha256": "ddaa0ba0cfcf477c128245ffee7b6211fe72b9065c69ee94ce5565a3ee46367e",
      "usesPermissions": [
        "android.permission.ACCESS_NETWORK_STATE",
        "android.permission.ACCESS_SUPERUSER",
        "android.permission.INTERNET",
        "android.permission.RECEIVE_BOOT_COMPLETED",
        "android.permission.USE_FINGERPRINT",
        "android.permission.VIBRATE",
        "android.permission.WAKE_LOCK",
        "android.permission.WRITE_EXTERNAL_STORAGE",
        "cyanogenmod.permission.PUBLISH_CUSTOM_TILE"
      ]
    }
  ],
  "meta": {
    "generated": "2020-08-27T17:43:08.260906",
    "generatedBy": [
      "/home/hc/code/trackingthetrackers/scripts/make-clean-apk-set.py"
    ],
    "generatedByCommitId": "40519285d6f404593fa655fa89b433743c25289e",
    "sourceDataCommitId": "888bb8f8c77ff55105fcab2ad84c263561eb1169",
    "ver": "0.3.0"
  }
}