{
  "apks": [
    {
      "applicationId": "eu.lavarde.pmtd",
      "broadcastReceiverIntentFilterActionNames": [],
      "dependencies": [],
      "domainNamesFilteredByExodus": [],
      "metaDataNames": [],
      "sha256": "0209e82c1e1fc6c6250808a8786190e287904ddb7adcafaebda9012a7cbaf94a",
      "usesPermissions": []
    }
  ],
  "meta": {
    "generated": "2020-08-27T18:07:31.477978",
    "generatedBy": [
      "/home/hc/code/trackingthetrackers/scripts/make-clean-apk-set.py"
    ],
    "generatedByCommitId": "3839559c80042252d3b947fb61c86a18e8b31114",
    "sourceDataCommitId": "888bb8f8c77ff55105fcab2ad84c263561eb1169",
    "ver": "0.3.0"
  }
}