{
  "apks": [
    {
      "applicationId": "it.collideorscopeapps.codename_hippopotamos",
      "broadcastReceiverIntentFilterActionNames": [],
      "dependencies": [],
      "domainNamesFilteredByExodus": [
        ".google.com"
      ],
      "metaDataNames": [],
      "sha256": "303fa53360b9342ddf8c116ff884c14ba83a7e90e0edf8451a4ce3aa0061acb8",
      "usesPermissions": []
    }
  ],
  "meta": {
    "generated": "2020-08-27T17:03:47.677411",
    "generatedBy": [
      "/home/hc/code/trackingthetrackers/scripts/make-clean-apk-set.py"
    ],
    "generatedByCommitId": "40519285d6f404593fa655fa89b433743c25289e",
    "sourceDataCommitId": "888bb8f8c77ff55105fcab2ad84c263561eb1169",
    "ver": "0.3.0"
  }
}