{
  "apks": [
    {
      "applicationId": "com.duckduckgo.mobile.android",
      "dependencies": [],
      "domainNamesFilteredByExodus": [
        ".google.com"
      ],
      "sha256": "1c8854d23f09bc54f99ab14e8a25605a9c266ddf2b2c5e918d0ddf435cfd04f4",
      "usesPermissions": [
        "android.permission.ACCESS_NETWORK_STATE",
        "android.permission.INTERNET",
        "android.permission.WRITE_EXTERNAL_STORAGE"
      ]
    }
  ],
  "meta": {
    "ver": "0.2.0"
  }
}