{
  "apks": [
    {
      "applicationId": "com.serwylo.lexica",
      "broadcastReceiverIntentFilterActionNames": [],
      "dependencies": [],
      "domainNamesFilteredByExodus": [],
      "metaDataNames": [],
      "sha256": "87f2bef66ffbf7d03dbcd8b855ef8ed45a1662134199745b1043c8bf8eb2ad3c",
      "usesPermissions": []
    }
  ],
  "meta": {
    "generated": "2020-08-27T17:47:17.666918",
    "generatedBy": [
      "/home/hc/code/trackingthetrackers/scripts/make-clean-apk-set.py"
    ],
    "generatedByCommitId": "40519285d6f404593fa655fa89b433743c25289e",
    "sourceDataCommitId": "888bb8f8c77ff55105fcab2ad84c263561eb1169",
    "ver": "0.3.0"
  }
}