{
  "apks": [
    {
      "applicationId": "com.nenks.monsterridehd",
      "broadcastReceiverIntentFilterActionNames": [
        "android.intent.action.PACKAGE_ADDED",
        "android.intent.action.USER_PRESENT",
        "android.net.conn.CONNECTIVITY_CHANGE",
        "com.google.android.c2dm.intent.RECEIVE",
        "com.google.android.c2dm.intent.REGISTRATION"
      ],
      "dependencies": [
        "com$chartboost$sdk$",
        "com.chartboost.sdk.",
        "com.google.ads.",
        "com.pushwoosh"
      ],
      "domainNamesFilteredByExodus": [
        ".chartboost.com",
        ".google.com",
        "doubleclick.net",
        "pushwoosh.com"
      ],
      "metaDataNames": [
        "PW_APPID",
        "PW_BROADCAST_PUSH",
        "PW_PROJECT_ID",
        "aspectRatio",
        "autoOrients",
        "containsVideo",
        "fullScreen",
        "initialcontent",
        "namespaceVersion",
        "uniqueappversionid"
      ],
      "sha256": "f11a32af53b0e278976fbf77207d528e8d8347ba61db6d31a409e038a3727777",
      "usesPermissions": [
        "air.timuzsolutions.monsterridehd.permission.C2D_MESSAGE",
        "android.permission.ACCESS_NETWORK_STATE",
        "android.permission.ACCESS_WIFI_STATE",
        "android.permission.GET_ACCOUNTS",
        "android.permission.GET_TASKS",
        "android.permission.INTERNET",
        "android.permission.READ_PHONE_STATE",
        "android.permission.RESTART_PACKAGES",
        "android.permission.SYSTEM_ALERT_WINDOW",
        "android.permission.VIBRATE",
        "android.permission.WAKE_LOCK",
        "android.permission.WRITE_EXTERNAL_STORAGE",
        "com.android.launcher.permission.INSTALL_SHORTCUT",
        "com.google.android.c2dm.permission.RECEIVE"
      ]
    }
  ],
  "meta": {
    "generated": "2020-08-27T15:42:10.656994",
    "generatedBy": [
      "/home/hc/code/trackingthetrackers/scripts/make-trackers-apk-set.py"
    ],
    "ver": "0.3.0"
  }
}