{
  "apks": [
    {
      "applicationId": "com.aceviral.agrr",
      "broadcastReceiverIntentFilterActionNames": [
        "android.intent.action.BOOT_COMPLETED",
        "android.intent.action.PACKAGE_ADDED",
        "android.net.conn.CONNECTIVITY_CHANGE",
        "com.android.vending.INSTALL_REFERRER",
        "com.android.vending.billing.IN_APP_NOTIFY",
        "com.android.vending.billing.PURCHASE_STATE_CHANGED",
        "com.android.vending.billing.RESPONSE_CODE"
      ],
      "dependencies": [
        "com$sponsorpay",
        "com.google.ads.",
        "com.inmobi",
        "com.mdotm.android",
        "com.millennialmedia.",
        "com.nexage.android.",
        "com.sponsorpay",
        "com.umeng.analytics"
      ],
      "domainNamesFilteredByExodus": [
        ".facebook.com",
        ".google.com",
        "alog.umeng.com",
        "i.w.inmobi.com",
        "inmobi.com",
        "millennialmedia.com",
        "oc.umeng.com",
        "umeng.com"
      ],
      "metaDataNames": [
        "INIT_KEY",
        "SPONSORPAY_APP_ID",
        "UMENG_APPKEY",
        "UMENG_CHANNEL"
      ],
      "sha256": "07f544f39b62f8f309dff0b9c0054f22d825d6c84c50ad29807c0b4e36efb9df",
      "usesPermissions": [
        "android.permission.ACCESS_COARSE_LOCATION",
        "android.permission.ACCESS_FINE_LOCATION",
        "android.permission.ACCESS_NETWORK_STATE",
        "android.permission.ACCESS_WIFI_STATE",
        "android.permission.ACCESS_WIFI_STATE",
        "android.permission.GET_TASKS",
        "android.permission.INTERNET",
        "android.permission.READ_PHONE_STATE",
        "android.permission.RECEIVE_BOOT_COMPLETED",
        "android.permission.RESTART_PACKAGES",
        "android.permission.SYSTEM_ALERT_WINDOW",
        "android.permission.VIBRATE",
        "android.permission.WAKE_LOCK",
        "android.permission.WRITE_EXTERNAL_STORAGE",
        "com.android.vending.BILLING"
      ]
    }
  ],
  "meta": {
    "generated": "2020-08-27T15:02:25.121042",
    "generatedBy": [
      "/home/hc/code/trackingthetrackers/scripts/make-trackers-apk-set.py"
    ],
    "ver": "0.3.0"
  }
}