{
  "apks": [
    {
      "applicationId": "me.echeung.moemoekyun.fdroid",
      "broadcastReceiverIntentFilterActionNames": [],
      "dependencies": [],
      "domainNamesFilteredByExodus": [
        ".google.com"
      ],
      "metaDataNames": [
        "android.max_aspect",
        "asset_statements",
        "com.google.android.gms.car.application",
        "com.google.android.gms.car.notification.SmallIcon",
        "com.lge.support.SPLIT_WINDOW"
      ],
      "sha256": "023b9409e1f7d1e5fff5a39d5465cb700f73d10b4e7ffee2c5196935bb1ed426",
      "usesPermissions": [
        "android.permission.ACCESS_NETWORK_STATE",
        "android.permission.FOREGROUND_SERVICE",
        "android.permission.INTERNET",
        "android.permission.WAKE_LOCK"
      ]
    }
  ],
  "meta": {
    "generated": "2020-08-27T18:16:01.182476",
    "generatedBy": [
      "/home/hc/code/trackingthetrackers/scripts/make-clean-apk-set.py"
    ],
    "generatedByCommitId": "3839559c80042252d3b947fb61c86a18e8b31114",
    "sourceDataCommitId": "888bb8f8c77ff55105fcab2ad84c263561eb1169",
    "ver": "0.3.0"
  }
}