{
  "apks": [
    {
      "applicationId": "de.westnordost.streetcomplete",
      "broadcastReceiverIntentFilterActionNames": [
        "android.intent.action.BOOT_COMPLETED",
        "android.intent.action.MY_PACKAGE_REPLACED",
        "android.intent.action.QUICKBOOT_POWERON",
        "com.evernote.android.job.v14.RUN_JOB",
        "com.htc.intent.action.QUICKBOOT_POWERON",
        "net.vrallev.android.job.v14.RUN_JOB"
      ],
      "dependencies": [],
      "domainNamesFilteredByExodus": [],
      "metaDataNames": [
        "android.arch.lifecycle.VERSION",
        "android.support.FILE_PROVIDER_PATHS",
        "android.support.VERSION"
      ],
      "sha256": "bbbcd4d30507fe9585109ea8b52549a3bfefe94bb04087df2839ead6e268b0c7",
      "usesPermissions": [
        "18",
        "20",
        "android.permission.ACCESS_FINE_LOCATION",
        "android.permission.ACCESS_NETWORK_STATE",
        "android.permission.INTERNET",
        "android.permission.WAKE_LOCK",
        "android.permission.WRITE_EXTERNAL_STORAGE"
      ]
    }
  ],
  "meta": {
    "generated": "2020-08-27T18:05:18.710290",
    "generatedBy": [
      "/home/hc/code/trackingthetrackers/scripts/make-clean-apk-set.py"
    ],
    "generatedByCommitId": "3839559c80042252d3b947fb61c86a18e8b31114",
    "sourceDataCommitId": "888bb8f8c77ff55105fcab2ad84c263561eb1169",
    "ver": "0.3.0"
  }
}