{
  "apks": [
    {
      "applicationId": "com.duckduckgo.mobile.android",
      "dependencies": [],
      "domainNamesFilteredByExodus": [
        ".google.com"
      ],
      "sha256": "4ab1b94be0f9c8462340846c79e3798df975a0c0154a3a84c6c6e0d7b7f099e7",
      "usesPermissions": [
        "android.permission.ACCESS_NETWORK_STATE",
        "android.permission.INTERNET",
        "android.permission.WRITE_EXTERNAL_STORAGE",
        "com.android.launcher.permission.INSTALL_SHORTCUT"
      ]
    }
  ],
  "meta": {
    "ver": "0.2.0"
  }
}