{
  "apks": [
    {
      "applicationId": "com.mediatek.smsreg",
      "broadcastReceiverIntentFilterActionNames": [
        "android.intent.action.BOOT_COMPLETED",
        "com.mediatek.smsreg.SEND_MESSAGE_CONFIRM_DIALOG_END"
      ],
      "dependencies": [],
      "domainNamesFilteredByExodus": [],
      "metaDataNames": [],
      "sha256": "236cd91eda6308eead5bba46aa9a916cf89aeeac61ecd47a1c514abe57cf27e7",
      "usesPermissions": [
        "android.permission.READ_PHONE_STATE",
        "android.permission.RECEIVE_BOOT_COMPLETED",
        "android.permission.SEND_SMS"
      ]
    }
  ],
  "meta": {
    "generated": "2020-08-27T14:56:20.110685",
    "generatedBy": [
      "/home/hc/code/trackingthetrackers/scripts/make-trackers-apk-set.py"
    ],
    "ver": "0.3.0"
  }
}