{
  "apks": [
    {
      "applicationId": "com.mediatek.smsreg",
      "broadcastReceiverIntentFilterActionNames": [
        "android.intent.action.BOOT_COMPLETED",
        "com.mediatek.smsreg.SEND_MESSAGE_CONFIRM_DIALOG_END"
      ],
      "dependencies": [],
      "domainNamesFilteredByExodus": [],
      "metaDataNames": [],
      "sha256": "5a9013ba38014fa2c1ce7daf442e4844b48fc85071fbcb77e346fb9e242ef0ff",
      "usesPermissions": [
        "android.permission.READ_PHONE_STATE",
        "android.permission.RECEIVE_BOOT_COMPLETED",
        "android.permission.SEND_SMS"
      ]
    }
  ],
  "meta": {
    "generated": "2020-08-27T14:56:20.268267",
    "generatedBy": [
      "/home/hc/code/trackingthetrackers/scripts/make-trackers-apk-set.py"
    ],
    "ver": "0.3.0"
  }
}