{
  "apks": [
    {
      "applicationId": "com.ning.china2048",
      "broadcastReceiverIntentFilterActionNames": [
        "android.intent.action.PACKAGE_ADDED",
        "com.android.vending.INSTALL_REFERRER"
      ],
      "dependencies": [
        "com.google.ads.",
        "com.umeng.analytics"
      ],
      "domainNamesFilteredByExodus": [
        ".google.com",
        "alog.umeng.com",
        "doubleclick.net",
        "oc.umeng.com",
        "umeng.com"
      ],
      "metaDataNames": [
        "ADMOB_PUBLISHER_ID",
        "UMENG_APPKEY",
        "UMENG_CHANNEL"
      ],
      "sha256": "7d0ea530989a2976700e84757680940feb63d5b9c5a545b0957fd5b1512f960b",
      "usesPermissions": [
        "android.permission.ACCESS_NETWORK_STATE",
        "android.permission.ACCESS_WIFI_STATE",
        "android.permission.INSTALL_PACKAGES",
        "android.permission.INTERNET",
        "android.permission.MODIFY_AUDIO_SETTINGS",
        "android.permission.MOUNT_UNMOUNT_FILESYSTEMS",
        "android.permission.READ_PHONE_STATE",
        "android.permission.WRITE_EXTERNAL_STORAGE"
      ]
    }
  ],
  "meta": {
    "generated": "2020-08-27T15:12:18.663110",
    "generatedBy": [
      "/home/hc/code/trackingthetrackers/scripts/make-trackers-apk-set.py"
    ],
    "ver": "0.3.0"
  }
}