{
  "apks": [
    {
      "applicationId": "com.android.keepass",
      "broadcastReceiverIntentFilterActionNames": [],
      "dependencies": [],
      "domainNamesFilteredByExodus": [],
      "metaDataNames": [
        "android.app.default_searchable",
        "android.app.searchable",
        "com.a0soft.gphone.aTrackDog.webURL",
        "com.google.android.backup.api_key"
      ],
      "sha256": "cbe3d6d90bc9961f2523e390e6e4ebb3b0dffff056cc1d10a112fee5ec8ea190",
      "usesPermissions": [
        "android.permission.VIBRATE",
        "android.permission.WRITE_EXTERNAL_STORAGE"
      ]
    }
  ],
  "meta": {
    "generated": "2020-08-27T17:14:48.832250",
    "generatedBy": [
      "/home/hc/code/trackingthetrackers/scripts/make-clean-apk-set.py"
    ],
    "generatedByCommitId": "40519285d6f404593fa655fa89b433743c25289e",
    "sourceDataCommitId": "888bb8f8c77ff55105fcab2ad84c263561eb1169",
    "ver": "0.3.0"
  }
}