{
  "apks": [
    {
      "applicationId": "de.thecode.android.tazreader",
      "broadcastReceiverIntentFilterActionNames": [
        "android.intent.action.ACTION_POWER_CONNECTED",
        "android.intent.action.ACTION_POWER_DISCONNECTED",
        "android.intent.action.BATTERY_LOW",
        "android.intent.action.BATTERY_OKAY",
        "android.intent.action.BOOT_COMPLETED",
        "android.intent.action.DEVICE_STORAGE_LOW",
        "android.intent.action.DEVICE_STORAGE_OK",
        "android.intent.action.DOWNLOAD_COMPLETE",
        "android.intent.action.DOWNLOAD_NOTIFICATION_CLICKED",
        "android.intent.action.TIMEZONE_CHANGED",
        "android.intent.action.TIME_SET",
        "android.net.conn.CONNECTIVITY_CHANGE",
        "androidx.work.impl.background.systemalarm.UpdateProxies"
      ],
      "dependencies": [],
      "domainNamesFilteredByExodus": [
        ".google.com",
        "crashlytics.com"
      ],
      "metaDataNames": [
        "android.support.PARENT_ACTIVITY",
        "com.commonsware.cwac.provider.STREAM_PROVIDER_PATHS",
        "com.google.firebase.messaging.default_notification_color",
        "com.google.firebase.messaging.default_notification_icon",
        "com.samsung.android.sdk.multiwindow.enable",
        "com.samsung.android.sdk.multiwindow.multiinstance.enable",
        "com.sec.android.support.multiwindow",
        "firebase_analytics_collection_deactivated"
      ],
      "sha256": "0bdf1dc56fa3059f5e02bb085aa56e12dd6634bf5c3dce8a373b12b066c21eaf",
      "usesPermissions": [
        "android.permission.ACCESS_NETWORK_STATE",
        "android.permission.INTERNET",
        "android.permission.RECEIVE_BOOT_COMPLETED",
        "android.permission.VIBRATE",
        "android.permission.WAKE_LOCK",
        "android.permission.WRITE_EXTERNAL_STORAGE"
      ]
    }
  ],
  "meta": {
    "generated": "2020-08-27T17:02:29.561278",
    "generatedBy": [
      "/home/hc/code/trackingthetrackers/scripts/make-clean-apk-set.py"
    ],
    "generatedByCommitId": "40519285d6f404593fa655fa89b433743c25289e",
    "sourceDataCommitId": "888bb8f8c77ff55105fcab2ad84c263561eb1169",
    "ver": "0.3.0"
  }
}