{
  "apks": [
    {
      "applicationId": "com.jefftharris.passwdsafe",
      "broadcastReceiverIntentFilterActionNames": [
        "android.intent.action.BOOT_COMPLETED",
        "com.jefftharris.passwdsafe.action.EXPIRATION_TIMEOUT",
        "com.jefftharris.passwdsafe.action.FILE_TIMEOUT"
      ],
      "dependencies": [],
      "domainNamesFilteredByExodus": [],
      "metaDataNames": [
        "android.app.searchable",
        "android.view.im"
      ],
      "sha256": "74f7083f5f74f68ddd318091142dd6320b43254104f1f17d43eb72dc8b736e63",
      "usesPermissions": [
        "android.permission.RECEIVE_BOOT_COMPLETED",
        "android.permission.WRITE_EXTERNAL_STORAGE",
        "com.jefftharris.passwdsafe.client.provider.permission.ACCESS",
        "com.jefftharris.passwdsafe.sync.provider.permission.ACCESS"
      ]
    }
  ],
  "meta": {
    "generated": "2020-08-27T17:33:58.029732",
    "generatedBy": [
      "/home/hc/code/trackingthetrackers/scripts/make-clean-apk-set.py"
    ],
    "generatedByCommitId": "40519285d6f404593fa655fa89b433743c25289e",
    "sourceDataCommitId": "888bb8f8c77ff55105fcab2ad84c263561eb1169",
    "ver": "0.3.0"
  }
}