{
  "apks": [
    {
      "applicationId": "com.YaseenTra.EasyCookingRecipes",
      "broadcastReceiverIntentFilterActionNames": [],
      "dependencies": [
        "com$startapp$android$publish",
        "com.google.ads.",
        "com.google.android.gms.ads.",
        "com.google.android.gms.analytics.",
        "com.google.android.gms.tagmanager",
        "com.startapp.android.publish"
      ],
      "domainNamesFilteredByExodus": [
        ".google.com",
        "doubleclick.net",
        "google-analytics.com",
        "www.googletagmanager.com"
      ],
      "metaDataNames": [
        "com.cguvuuqvlp.zaliiliwdx185920.APIKEY",
        "com.cguvuuqvlp.zaliiliwdx185920.APPID",
        "com.google.android.gms.version"
      ],
      "sha256": "1ceeec1c3dd6f4ad662581e487ac05ef662a1eaeba418a1c082e1cf36d1a1298",
      "usesPermissions": [
        "android.permission.ACCESS_COARSE_LOCATION",
        "android.permission.ACCESS_FINE_LOCATION",
        "android.permission.ACCESS_NETWORK_STATE",
        "android.permission.ACCESS_WIFI_STATE",
        "android.permission.INTERNET",
        "android.permission.READ_EXTERNAL_STORAGE",
        "android.permission.READ_PHONE_STATE",
        "android.permission.WRITE_EXTERNAL_STORAGE"
      ]
    }
  ],
  "meta": {
    "generated": "2020-08-27T14:49:41.924648",
    "generatedBy": [
      "/home/hc/code/trackingthetrackers/scripts/make-trackers-apk-set.py"
    ],
    "ver": "0.3.0"
  }
}