{
  "apks": [
    {
      "applicationId": "wsdfhjxc.taponium",
      "broadcastReceiverIntentFilterActionNames": [],
      "dependencies": [],
      "domainNamesFilteredByExodus": [],
      "metaDataNames": [],
      "sha256": "69c4fc940c4c52dfdef1fe5d22f373ed508ab508f3598520ff3a8242f02742c0",
      "usesPermissions": []
    }
  ],
  "meta": {
    "generated": "2020-08-27T17:08:25.589296",
    "generatedBy": [
      "/home/hc/code/trackingthetrackers/scripts/make-clean-apk-set.py"
    ],
    "generatedByCommitId": "40519285d6f404593fa655fa89b433743c25289e",
    "sourceDataCommitId": "888bb8f8c77ff55105fcab2ad84c263561eb1169",
    "ver": "0.3.0"
  }
}