{
  "apks": [
    {
      "applicationId": "intwork.umCall",
      "broadcastReceiverIntentFilterActionNames": [
        "android.intent.action.BOOT_COMPLETED"
      ],
      "dependencies": [
        "com.google.ads.",
        "com.millennialmedia.",
        "net.youmi"
      ],
      "domainNamesFilteredByExodus": [
        ".google.com"
      ],
      "metaDataNames": [
        "Market_ID"
      ],
      "sha256": "9129414a882933e6a321a0ba7dd35dbb27b635fe8f14462a1f246e66e7dd4973",
      "usesPermissions": [
        "android.permission.ACCESS_COARSE_LOCATION",
        "android.permission.ACCESS_FINE_LOCATION",
        "android.permission.ACCESS_NETWORK_STATE",
        "android.permission.ACCESS_WIFI_STATE",
        "android.permission.CALL_PHONE",
        "android.permission.CALL_PRIVILEGED",
        "android.permission.CHANGE_CONFIGURATION",
        "android.permission.INTERNET",
        "android.permission.KILL_BACKGROUND_PROCESSES",
        "android.permission.MODIFY_AUDIO_SETTINGS",
        "android.permission.MOUNT_UNMOUNT_FILESYSTEMS",
        "android.permission.READ_CONTACTS",
        "android.permission.READ_CONTACTS",
        "android.permission.READ_PHONE_STATE",
        "android.permission.RECEIVE_BOOT_COMPLETED",
        "android.permission.RECEIVE_SMS",
        "android.permission.RECORD_AUDIO",
        "android.permission.RESTART_PACKAGES",
        "android.permission.SEND_SMS",
        "android.permission.WRITE_CONTACTS",
        "android.permission.WRITE_EXTERNAL_STORAGE"
      ]
    }
  ],
  "meta": {
    "generated": "2020-08-27T14:59:24.807426",
    "generatedBy": [
      "/home/hc/code/trackingthetrackers/scripts/make-trackers-apk-set.py"
    ],
    "ver": "0.3.0"
  }
}