{
  "apks": [
    {
      "applicationId": "com.ali.spark",
      "broadcastReceiverIntentFilterActionNames": [
        "android.intent.action.BOOT_COMPLETED",
        "android.intent.action.PACKAGE_REMOVED",
        "android.net.conn.CONNECTIVITY_CHANGE",
        "com.ali.spark.intent.action.COMMAND",
        "com.xiaomi.mipush.ERROR",
        "com.xiaomi.mipush.RECEIVE_MESSAGE",
        "com.xiaomi.push.PING_TIMER",
        "org.agoo.android.intent.action.ELECTION_RESULT_V4",
        "org.agoo.android.intent.action.RECEIVE"
      ],
      "dependencies": [
        "com.tencent.stat"
      ],
      "domainNamesFilteredByExodus": [
        ".google.com",
        "map.qq.com",
        "umeng.com"
      ],
      "metaDataNames": [
        "AUDIO:com.alibaba.doraemon.impl.audio.AudioMagicianFetcher",
        "AUDIOCACHE:com.alibaba.doraemon.impl.cache.CacheFetcher",
        "CACHE:com.alibaba.doraemon.impl.cache.CacheFetcher",
        "CRASHMONITOR:com.alibaba.doraemon.impl.crash.CrashMonitorFetcher",
        "EVENTBUTLER:com.alibaba.doraemon.impl.eventbus.EventButlerFetcher",
        "IMAGE:com.alibaba.doraemon.impl.image.ImageMagicianFetcher",
        "IMAGECACHE:com.alibaba.doraemon.impl.cache.CacheFetcher",
        "LIFECYCLE:com.alibaba.doraemon.impl.lifecycle.LifecycleMonitorFetcher",
        "MONITOR:com.alibaba.doraemon.impl.monitor.MonitorFetcher",
        "NAVIGATOR:com.alibaba.doraemon.impl.navigator.NavigatorFetcher",
        "REQDEFCACHE:com.alibaba.doraemon.impl.cache.CacheFetcher",
        "REQTTMPCACHE:com.alibaba.doraemon.impl.cache.CacheFetcher",
        "REQUEST:com.alibaba.doraemon.impl.request.VollyRequestFetcher",
        "STATISTICS:com.alibaba.doraemon.impl.statistics.StatisticsFetcher",
        "THREAD:com.alibaba.doraemon.impl.threadpool.ThreadFetcher",
        "TRACE:com.alibaba.doraemon.impl.trace.TraceFetcher",
        "UMENG_APPKEY",
        "UMENG_CHANNEL",
        "com.amap.api.v2.apikey",
        "lwp.extension",
        "wk.appKey"
      ],
      "sha256": "5d55432b9b3f6b6fe14aaf9a61439dabae4c89b67b50664fbdec86569af800ef",
      "usesPermissions": [
        "android.permission.ACCESS_COARSE_LOCATION",
        "android.permission.ACCESS_FIND_LOCATION",
        "android.permission.ACCESS_FINE_LOCATION",
        "android.permission.ACCESS_NETWORK_STATE",
        "android.permission.ACCESS_WIFI_STATE",
        "android.permission.BROADCAST_PACKAGE_ADDED",
        "android.permission.BROADCAST_PACKAGE_CHANGED",
        "android.permission.BROADCAST_PACKAGE_INSTALL",
        "android.permission.BROADCAST_PACKAGE_REPLACED",
        "android.permission.CAMERA",
        "android.permission.CHANGE_CONFIGURATION",
        "android.permission.CHANGE_NETWORK_STATE",
        "android.permission.CHANGE_WIFI_STATE",
        "android.permission.GET_ACCOUNTS",
        "android.permission.GET_TASKS",
        "android.permission.INTERNET",
        "android.permission.LOCATION_HARDWARE",
        "android.permission.MODIFY_AUDIO_SETTINGS",
        "android.permission.READ_EXTERNAL_STORAGE",
        "android.permission.READ_PHONE_STATE",
        "android.permission.READ_SMS",
        "android.permission.RECEIVE_BOOT_COMPLETED",
        "android.permission.RECEIVE_SMS",
        "android.permission.RECORD_AUDIO",
        "android.permission.RESTART_PACKAGES",
        "android.permission.SEND_SMS",
        "android.permission.SYSTEM_ALERT_WINDOW",
        "android.permission.VIBRATE",
        "android.permission.WAKE_LOCK",
        "android.permission.WRITE_EXTERNAL_STORAGE",
        "android.permission.WRITE_SETTINGS",
        "com.sec.android.provider.badge.permission.READ",
        "com.sec.android.provider.badge.permission.WRITE"
      ]
    }
  ],
  "meta": {
    "generated": "2020-08-27T15:39:25.433189",
    "generatedBy": [
      "/home/hc/code/trackingthetrackers/scripts/make-trackers-apk-set.py"
    ],
    "ver": "0.3.0"
  }
}