{
  "apks": [
    {
      "applicationId": "com.stoutner.privacybrowser.standard",
      "broadcastReceiverIntentFilterActionNames": [],
      "dependencies": [],
      "domainNamesFilteredByExodus": [
        ".chartbeat.com",
        ".facebook.com",
        ".google.com",
        "247realmedia.com",
        "2mdn.net",
        "abtasty.com",
        "ad.crwdcntrl.net",
        "ad4game.com",
        "adnxs.com",
        "ads.rubiconproject.com",
        "adsafeprotected.com",
        "adsrvr.org",
        "adswizz.com",
        "adtech.de",
        "adzerk.net",
        "amobee.com",
        "analytics.localytics.com",
        "appsflyer.com",
        "auditude.com",
        "batch.com",
        "cedexis.com",
        "comscore.com",
        "contextual.media.net",
        "criteo.com",
        "ct.pinterest.com",
        "demdex.net",
        "dmtry.com",
        "doubleclick.com",
        "doubleclick.net",
        "engine.adzerk.net",
        "flurry.com",
        "foresee.com",
        "foreseeresults.com",
        "fwmrm.net",
        "gemius.pl",
        "google-analytics.com",
        "heapanalytics.com",
        "hockeyapp.net",
        "inmobi.com",
        "instreamatic.com",
        "integralads.com",
        "krxd.net",
        "leanplum.com",
        "ligatus.com",
        "loadus.exelator.com",
        "loggly.com",
        "marketo.com",
        "marketo.net",
        "matomo.org",
        "mc.yandex.ru",
        "media.net",
        "metrics.brightcove.com",
        "millennialmedia.com",
        "mixpanel.com",
        "mparticle.com",
        "newrelic.com",
        "nr-data.net",
        "omtrdc.net",
        "onesignal.com",
        "ooyala.com",
        "openx.com",
        "openx.net",
        "openx.org",
        "optimized-by.rubiconproject.com",
        "optimizely.com",
        "outbrain.com",
        "p.jwpcdn.com",
        "px.dynamicyield.com",
        "qualtrics.com",
        "quantcast.com",
        "schibsted.com",
        "scorecardresearch.com",
        "segment.com",
        "serving-sys.com",
        "simage2.pubmatic.com",
        "smaato.net",
        "smartadserver.com",
        "smartlook.com",
        "static.adzerk.net",
        "taboola.com",
        "tags.bluekai.com",
        "tapjoy.com",
        "teads.tv",
        "tealiumiq.com",
        "tiqcdn.com",
        "track.adform.net",
        "ultimedia.com",
        "urbanairship.com",
        "weborama.fr",
        "webtrends.com",
        "wzrkt.com",
        "z.moatads.com",
        "|chartbeat.com"
      ],
      "metaDataNames": [
        "android.support.FILE_PROVIDER_PATHS",
        "android.webkit.WebView.EnableSafeBrowsing",
        "android.webkit.WebView.MetricsOptOut",
        "com.google.android.gms.ads.APPLICATION_ID"
      ],
      "sha256": "adf88e9909f2552c9ae2319407a59fcb49d02ce8c904d2aa747eecf67fabbccd",
      "usesPermissions": [
        "android.permission.INTERNET",
        "android.permission.READ_EXTERNAL_STORAGE",
        "android.permission.WRITE_EXTERNAL_STORAGE",
        "com.android.launcher.permission.INSTALL_SHORTCUT"
      ]
    }
  ],
  "meta": {
    "generated": "2020-08-27T17:49:26.772809",
    "generatedBy": [
      "/home/hc/code/trackingthetrackers/scripts/make-clean-apk-set.py"
    ],
    "generatedByCommitId": "40519285d6f404593fa655fa89b433743c25289e",
    "sourceDataCommitId": "888bb8f8c77ff55105fcab2ad84c263561eb1169",
    "ver": "0.3.0"
  }
}