{
  "apks": [
    {
      "applicationId": "vn.apk.store.handucthang",
      "broadcastReceiverIntentFilterActionNames": [
        "android.intent.action.BOOT_COMPLETED",
        "android.intent.action.PACKAGE_ADDED",
        "android.intent.action.PACKAGE_CHANGED",
        "android.intent.action.PACKAGE_INSTALL",
        "android.intent.action.PACKAGE_REMOVED",
        "android.intent.action.PACKAGE_REPLACED",
        "android.intent.action.PACKAGE_RESTARTED",
        "android.intent.action.SCREEN_OFF",
        "android.intent.action.SCREEN_ON",
        "com.google.android.c2dm.intent.RECEIVE"
      ],
      "dependencies": [
        "com.google.ads.",
        "com.google.android.gms.ads.",
        "com.google.android.gms.analytics.",
        "com.google.android.gms.tagmanager"
      ],
      "domainNamesFilteredByExodus": [
        ".google.com",
        "doubleclick.net",
        "google-analytics.com",
        "www.googletagmanager.com"
      ],
      "metaDataNames": [
        "com.google.android.gms.version"
      ],
      "sha256": "82261302928c5a050fa66285f6173bf7087d239fbb435a27d993126e38176e6d",
      "usesPermissions": [
        "android.permission.ACCESS_NETWORK_STATE",
        "android.permission.GET_ACCOUNTS",
        "android.permission.GET_TASKS",
        "android.permission.INTERACT_ACROSS_USERS_FULL",
        "android.permission.INTERNET",
        "android.permission.MANAGE_ACCOUNTS",
        "android.permission.READ_EXTERNAL_STORAGE",
        "android.permission.READ_PHONE_STATE",
        "android.permission.SYSTEM_ALERT_WINDOW",
        "android.permission.USE_CREDENTIALS",
        "android.permission.WAKE_LOCK",
        "android.permission.WRITE_EXTERNAL_STORAGE",
        "com.android.launcher.permission.INSTALL_SHORTCUT",
        "com.google.android.c2dm.permission.RECEIVE",
        "vn.apk.store.permission.C2D_MESSAGE"
      ]
    }
  ],
  "meta": {
    "generated": "2020-08-27T15:17:15.075630",
    "generatedBy": [
      "/home/hc/code/trackingthetrackers/scripts/make-trackers-apk-set.py"
    ],
    "ver": "0.3.0"
  }
}