{
  "apks": [
    {
      "applicationId": "de.danoeh.antennapod",
      "broadcastReceiverIntentFilterActionNames": [
        "android.appwidget.action.APPWIDGET_UPDATE",
        "android.intent.action.ACTION_POWER_CONNECTED",
        "android.intent.action.ACTION_POWER_DISCONNECTED",
        "android.intent.action.BOOT_COMPLETED",
        "android.intent.action.MEDIA_BUTTON",
        "android.intent.action.PACKAGE_REPLACED",
        "android.net.conn.CONNECTIVITY_CHANGE",
        "de.danoeh.antennapdsp.intent.SP_APPS_QUERY_FEEDS_RESPONSE",
        "de.danoeh.antennapod.FORCE_WIDGET_UPDATE",
        "de.danoeh.antennapod.NOTIFY_BUTTON_RECEIVER",
        "de.danoeh.antennapod.STOP_WIDGET_UPDATE"
      ],
      "dependencies": [],
      "domainNamesFilteredByExodus": [],
      "metaDataNames": [
        "android.appwidget.provider",
        "android.support.PARENT_ACTIVITY",
        "com.google.android.backup.api_key"
      ],
      "sha256": "e42ac3db76522a3b3837a8fbab2cbf7482fe3605bacc3f2737c58f02003aff8a",
      "usesPermissions": [
        "android.permission.ACCESS_NETWORK_STATE",
        "android.permission.ACCESS_WIFI_STATE",
        "android.permission.INTERNET",
        "android.permission.RECEIVE_BOOT_COMPLETED",
        "android.permission.WAKE_LOCK",
        "android.permission.WRITE_EXTERNAL_STORAGE"
      ]
    }
  ],
  "meta": {
    "generated": "2020-08-27T17:58:52.942754",
    "generatedBy": [
      "/home/hc/code/trackingthetrackers/scripts/make-clean-apk-set.py"
    ],
    "generatedByCommitId": "3839559c80042252d3b947fb61c86a18e8b31114",
    "sourceDataCommitId": "888bb8f8c77ff55105fcab2ad84c263561eb1169",
    "ver": "0.3.0"
  }
}