{
  "apks": [
    {
      "applicationId": "com.googlecode.chartdroid",
      "broadcastReceiverIntentFilterActionNames": [],
      "dependencies": [],
      "domainNamesFilteredByExodus": [],
      "metaDataNames": [],
      "sha256": "e5838e1f325d9007679ff9051d95ac4f501a210d4ae4ebefe94e6b3da9158794",
      "usesPermissions": []
    }
  ],
  "meta": {
    "generated": "2020-08-27T16:56:03.793158",
    "generatedBy": [
      "/home/hc/code/trackingthetrackers/scripts/make-clean-apk-set.py"
    ],
    "generatedByCommitId": "40519285d6f404593fa655fa89b433743c25289e",
    "sourceDataCommitId": "888bb8f8c77ff55105fcab2ad84c263561eb1169",
    "ver": "0.3.0"
  }
}