{
  "apks": [
    {
      "applicationId": "de.shandschuh.sparserss",
      "broadcastReceiverIntentFilterActionNames": [
        "android.appwidget.action.APPWIDGET_UPDATE",
        "android.intent.action.BOOT_COMPLETED",
        "de.shandschuh.sparserss.FEEDUPDATED",
        "de.shandschuh.sparserss.REFRESH"
      ],
      "dependencies": [],
      "domainNamesFilteredByExodus": [
        ".google.com"
      ],
      "metaDataNames": [
        "android.appwidget.provider"
      ],
      "sha256": "f38ec1c227fa127a0b1c591540c9a7ed34cf07edaded1b1d6f123dd59cf81cbd",
      "usesPermissions": [
        "android.permission.ACCESS_NETWORK_STATE",
        "android.permission.INTERNET",
        "android.permission.RECEIVE_BOOT_COMPLETED",
        "android.permission.VIBRATE",
        "android.permission.WRITE_EXTERNAL_STORAGE",
        "de.shandschuh.sparserss.READFEEDS",
        "de.shandschuh.sparserss.WRITEFEEDS"
      ]
    }
  ],
  "meta": {
    "generated": "2020-08-27T18:03:56.914770",
    "generatedBy": [
      "/home/hc/code/trackingthetrackers/scripts/make-clean-apk-set.py"
    ],
    "generatedByCommitId": "3839559c80042252d3b947fb61c86a18e8b31114",
    "sourceDataCommitId": "888bb8f8c77ff55105fcab2ad84c263561eb1169",
    "ver": "0.3.0"
  }
}