{
  "apks": [
    {
      "applicationId": "de.danoeh.antennapod",
      "broadcastReceiverIntentFilterActionNames": [
        "android.appwidget.action.APPWIDGET_UPDATE",
        "android.intent.action.MEDIA_BUTTON",
        "de.danoeh.antennapod.FORCE_WIDGET_UPDATE",
        "de.danoeh.antennapod.NOTIFY_BUTTON_RECEIVER",
        "de.danoeh.antennapod.STOP_WIDGET_UPDATE",
        "de.danoeh.antennapod.feedupdatereceiver.refreshFeeds"
      ],
      "dependencies": [],
      "domainNamesFilteredByExodus": [],
      "metaDataNames": [
        "android.app.default_searchable",
        "android.app.searchable",
        "android.appwidget.provider"
      ],
      "sha256": "e306a0cd3a7c80be9db3926fe68035dcb00a70fc511d860bd92129ea2224a16c",
      "usesPermissions": [
        "android.permission.ACCESS_NETWORK_STATE",
        "android.permission.INTERNET",
        "android.permission.WRITE_EXTERNAL_STORAGE"
      ]
    }
  ],
  "meta": {
    "generated": "2020-08-27T17:58:54.818469",
    "generatedBy": [
      "/home/hc/code/trackingthetrackers/scripts/make-clean-apk-set.py"
    ],
    "generatedByCommitId": "3839559c80042252d3b947fb61c86a18e8b31114",
    "sourceDataCommitId": "888bb8f8c77ff55105fcab2ad84c263561eb1169",
    "ver": "0.3.0"
  }
}