{
  "apks": [
    {
      "applicationId": "name.seguri.android.getforegroundactivity",
      "broadcastReceiverIntentFilterActionNames": [],
      "dependencies": [],
      "domainNamesFilteredByExodus": [],
      "metaDataNames": [
        "android.accessibilityservice"
      ],
      "sha256": "b8ba472ea37a481e4919335cd38035d4fc76e707d57f6834d74c77db09fcb376",
      "usesPermissions": []
    }
  ],
  "meta": {
    "generated": "2020-08-27T17:04:15.036440",
    "generatedBy": [
      "/home/hc/code/trackingthetrackers/scripts/make-clean-apk-set.py"
    ],
    "generatedByCommitId": "40519285d6f404593fa655fa89b433743c25289e",
    "sourceDataCommitId": "888bb8f8c77ff55105fcab2ad84c263561eb1169",
    "ver": "0.3.0"
  }
}