{
  "apks": [
    {
      "applicationId": "com.elex.ram2",
      "broadcastReceiverIntentFilterActionNames": [
        "android.intent.action.BOOT_COMPLETED",
        "android.intent.action.QUICKBOOT_POWERON",
        "android.intent.action.USER_PRESENT",
        "com.android.vending.INSTALL_REFERRER",
        "mobi.dash.extras.FORCE_START"
      ],
      "dependencies": [
        "com$google$tagmanager",
        "com$mopub$mobileads$",
        "com$tapjoy$",
        "com.chartboost.sdk.",
        "com.flurry.",
        "com.google.ads.",
        "com.google.android.gms.ads.",
        "com.google.android.gms.analytics.",
        "com.google.tagmanager",
        "com.inmobi",
        "com.millennialmedia.",
        "com.mobclix.android.sdk",
        "com.mobileapptracker",
        "com.mopub.mobileads.",
        "com.tapjoy.",
        "com_facebook_login",
        "org.cocos2dx"
      ],
      "domainNamesFilteredByExodus": [
        ".chartboost.com",
        ".facebook.com",
        ".google.com",
        "doubleclick.net",
        "flurry.com",
        "google-analytics.com",
        "mobileapptracking.com",
        "mopub.com",
        "tapjoy.com",
        "tapjoyads.com",
        "www.googletagmanager.com"
      ],
      "metaDataNames": [
        "com.elex.ram.ELEX_PAY",
        "com.elex.ram.PARSE_ID",
        "com.elex.ram.PARSE_KEY",
        "com.elex.ram.RAM_CHANNEL",
        "com.elex.ram.SERVER_URL"
      ],
      "sha256": "a719976e85fac9038fb4bb89c8240ab66d16711e31ffe5dc4b0eb5dfe737e7bc",
      "usesPermissions": [
        "android.permission.ACCESS_COARSE_LOCATION",
        "android.permission.ACCESS_FINE_LOCATION",
        "android.permission.ACCESS_NETWORK_STATE",
        "android.permission.ACCESS_WIFI_STATE",
        "android.permission.GET_ACCOUNTS",
        "android.permission.GET_TASKS",
        "android.permission.INTERNET",
        "android.permission.KILL_BACKGROUND_PROCESSES",
        "android.permission.READ_CONTACTS",
        "android.permission.READ_LOGS",
        "android.permission.READ_PHONE_STATE",
        "android.permission.RECEIVE_BOOT_COMPLETED",
        "android.permission.SYSTEM_ALERT_WINDOW",
        "android.permission.VIBRATE",
        "android.permission.WAKE_LOCK",
        "android.permission.WRITE_EXTERNAL_STORAGE",
        "android.permission.WRITE_SETTINGS",
        "com.android.launcher.permission.INSTALL_SHORTCUT",
        "com.android.vending.BILLING"
      ]
    }
  ],
  "meta": {
    "generated": "2020-08-27T15:33:53.830751",
    "generatedBy": [
      "/home/hc/code/trackingthetrackers/scripts/make-trackers-apk-set.py"
    ],
    "ver": "0.3.0"
  }
}