{
  "apks": [
    {
      "applicationId": "org.smssecure.smssecure",
      "broadcastReceiverIntentFilterActionNames": [
        "android.intent.action.PACKAGE_REPLACED",
        "android.provider.Telephony.SMS_DELIVER",
        "android.provider.Telephony.SMS_RECEIVED",
        "android.provider.Telephony.WAP_PUSH_DELIVER",
        "android.provider.Telephony.WAP_PUSH_RECEIVED",
        "org.smssecure.smssecure.MessageNotifier.DELETE_REMINDER_ACTION",
        "org.smssecure.smssecure.MessageNotifier.REMINDER_ACTION",
        "org.smssecure.smssecure.REGISTRATION_EVENT",
        "org.smssecure.smssecure.notifications.CLEAR",
        "org.smssecure.smssecure.notifications.WEAR_REPLY",
        "org.smssecure.smssecure.services.MESSAGE_SENT"
      ],
      "dependencies": [],
      "domainNamesFilteredByExodus": [
        ".google.com"
      ],
      "metaDataNames": [
        "android.support.PARENT_ACTIVITY",
        "org.smssecure.smssecure.mms.SilenceGlideModule"
      ],
      "sha256": "434159c975783fbe7c892b4a4d2c75fe2432f0e64c46d58ecc516998e47dbe4b",
      "usesPermissions": [
        "android.permission.ACCESS_NETWORK_STATE",
        "android.permission.CHANGE_NETWORK_STATE",
        "android.permission.INTERNET",
        "android.permission.READ_CONTACTS",
        "android.permission.READ_PHONE_STATE",
        "android.permission.READ_PROFILE",
        "android.permission.READ_SMS",
        "android.permission.RECEIVE_MMS",
        "android.permission.RECEIVE_SMS",
        "android.permission.SEND_SMS",
        "android.permission.VIBRATE",
        "android.permission.WAKE_LOCK",
        "android.permission.WRITE_CONTACTS",
        "android.permission.WRITE_EXTERNAL_STORAGE",
        "android.permission.WRITE_PROFILE",
        "android.permission.WRITE_SMS",
        "org.smssecure.smssecure.ACCESS_SECRETS"
      ]
    }
  ],
  "meta": {
    "generated": "2020-08-27T18:36:22.638018",
    "generatedBy": [
      "/home/hc/code/trackingthetrackers/scripts/make-clean-apk-set.py"
    ],
    "generatedByCommitId": "3839559c80042252d3b947fb61c86a18e8b31114",
    "sourceDataCommitId": "888bb8f8c77ff55105fcab2ad84c263561eb1169",
    "ver": "0.3.0"
  }
}