{
  "apks": [
    {
      "applicationId": "io.pslab",
      "broadcastReceiverIntentFilterActionNames": [],
      "dependencies": [],
      "domainNamesFilteredByExodus": [
        ".facebook.com",
        ".google.com",
        "api.tiles.mapbox.com"
      ],
      "metaDataNames": [
        "android.hardware.usb.action.USB_DEVICE_ATTACHED",
        "com.google.android.gms.version"
      ],
      "sha256": "8291a4526688103d372d0df0460edec0fc6875f033a6d1ce697c090f4592c900",
      "usesPermissions": [
        "android.permission.ACCESS_FINE_LOCATION",
        "android.permission.INTERNET",
        "android.permission.READ_EXTERNAL_STORAGE",
        "android.permission.RECORD_AUDIO",
        "android.permission.WRITE_EXTERNAL_STORAGE"
      ]
    }
  ],
  "meta": {
    "generated": "2020-08-27T18:13:56.761011",
    "generatedBy": [
      "/home/hc/code/trackingthetrackers/scripts/make-clean-apk-set.py"
    ],
    "generatedByCommitId": "3839559c80042252d3b947fb61c86a18e8b31114",
    "sourceDataCommitId": "888bb8f8c77ff55105fcab2ad84c263561eb1169",
    "ver": "0.3.0"
  }
}