{
  "apks": [
    {
      "applicationId": "com.myo.game.LordJigsaw",
      "broadcastReceiverIntentFilterActionNames": [],
      "dependencies": [
        "com.google.ads."
      ],
      "domainNamesFilteredByExodus": [
        ".google.com"
      ],
      "metaDataNames": [
        "ADMOB_ALLOW_LOCATION_FOR_ADS",
        "vservAndriodNotify"
      ],
      "sha256": "4a9fef1ffddc3c1094b42a8cfef958b14342bbbc0bbe4de790ed3ba18f79a36f",
      "usesPermissions": [
        "android.permission.ACCESS_COARSE_LOCATION",
        "android.permission.ACCESS_NETWORK_STATE",
        "android.permission.INTERNET",
        "android.permission.WRITE_EXTERNAL_STORAGE",
        "android.permission.android.hardware.sensor.accelerometer"
      ]
    }
  ],
  "meta": {
    "generated": "2020-08-27T14:52:41.458089",
    "generatedBy": [
      "/home/hc/code/trackingthetrackers/scripts/make-trackers-apk-set.py"
    ],
    "ver": "0.3.0"
  }
}