{
  "apks": [
    {
      "applicationId": "com.ynxhs.dznews.wenshan.maguan",
      "broadcastReceiverIntentFilterActionNames": [
        "ED",
        "RT",
        "android.intent.action.BOOT_COMPLETED",
        "android.intent.action.DOWNLOAD_COMPLETE",
        "android.intent.action.USER_PRESENT",
        "android.net.conn.CONNECTIVITY_CHANGE",
        "com.igexin.sdk.action.7fjUl2Z3LH6xYy7NQK4ni4",
        "com.igexin.sdk.action.LwkXmTOA8TAAkzuI8LvLr7",
        "com.igexin.sdk.action.pushmanager",
        "com.igexin.sdk.action.refreshls"
      ],
      "dependencies": [
        "com.baidu.location"
      ],
      "domainNamesFilteredByExodus": [
        "map.baidu.com"
      ],
      "metaDataNames": [
        "ABOUTUS_URL_ID",
        "APP_CACHE_DIR",
        "DATA_API_ROOT",
        "LOGO_URL",
        "OPEN_CHANGE_CITY",
        "PUSH_APPID",
        "PUSH_APPKEY",
        "PUSH_APPSECRET",
        "PUSH_GROUPID",
        "SHARE_SDK_KEY",
        "SHARE_SINA_WEIBO_APPKEY",
        "SHARE_SINA_WEIBO_APPSECRET",
        "SHARE_TENCENT_APPID",
        "SHARE_TENCENT_APPKEY",
        "SHARE_TENCENT_WEIBO_APPKEY",
        "SHARE_TENCENT_WEIBO_APPSECRET",
        "SHARE_WEB_URL",
        "SHARE_WEIXIN_APPID",
        "SHARE_WEIXIN_APPSECRET",
        "appId",
        "clientKeys",
        "clientMarket",
        "com.baidu.lbsapi.API_KEY",
        "defaultAreaCode",
        "defaultAreaName",
        "projectId"
      ],
      "sha256": "847e0086aa76856681bc8afd65d7515b9086aeb8c7791bd52201a3e82e855243",
      "usesPermissions": [
        "android.permission.ACCESS_COARSE_LOCATION",
        "android.permission.ACCESS_DOWNLOAD_MANAGER",
        "android.permission.ACCESS_FINE_LOCATION",
        "android.permission.ACCESS_NETWORK_STATE",
        "android.permission.ACCESS_WIFI_STATE",
        "android.permission.BATTERY_STATS",
        "android.permission.BLUETOOTH",
        "android.permission.BROADCAST_STICKY",
        "android.permission.CAMERA",
        "android.permission.CHANGE_WIFI_STATE",
        "android.permission.DISABLE_KEYGUARD",
        "android.permission.DOWNLOAD_WITHOUT_NOTIFICATION",
        "android.permission.GET_ACCOUNTS",
        "android.permission.GET_TASKS",
        "android.permission.INTERNET",
        "android.permission.KILL_BACKGROUND_PROCESSES",
        "android.permission.MANAGE_ACCOUNTS",
        "android.permission.MOUNT_UNMOUNT_FILESYSTEMS",
        "android.permission.READ_LOGS",
        "android.permission.READ_PHONE_STATE",
        "android.permission.RECEIVE_BOOT_COMPLETED",
        "android.permission.RECEIVE_USER_PRESENT",
        "android.permission.RESTART_PACKAGES",
        "android.permission.SYSTEM_ALERT_WINDOW",
        "android.permission.VIBRATE",
        "android.permission.WAKE_LOCK",
        "android.permission.WRITE_EXTERNAL_STORAGE",
        "android.permission.WRITE_SETTINGS",
        "getui.permission.GetuiService.com.ynxhs.dznews.wenshan.maguan"
      ]
    }
  ],
  "meta": {
    "generated": "2020-08-27T14:55:43.860512",
    "generatedBy": [
      "/home/hc/code/trackingthetrackers/scripts/make-trackers-apk-set.py"
    ],
    "ver": "0.3.0"
  }
}