{
  "apks": [
    {
      "applicationId": "com.ghostsq.commander.samba",
      "broadcastReceiverIntentFilterActionNames": [],
      "dependencies": [],
      "domainNamesFilteredByExodus": [],
      "metaDataNames": [],
      "sha256": "1a3f274de10beb5abb518c18d8a6022e5a08f63fb806877221e986cced8b90d2",
      "usesPermissions": [
        "android.permission.ACCESS_WIFI_STATE"
      ]
    }
  ],
  "meta": {
    "generated": "2020-08-27T17:23:20.182492",
    "generatedBy": [
      "/home/hc/code/trackingthetrackers/scripts/make-clean-apk-set.py"
    ],
    "generatedByCommitId": "40519285d6f404593fa655fa89b433743c25289e",
    "sourceDataCommitId": "888bb8f8c77ff55105fcab2ad84c263561eb1169",
    "ver": "0.3.0"
  }
}