{
  "apks": [
    {
      "applicationId": "com.dragon.android.playboymagazinemay2002",
      "broadcastReceiverIntentFilterActionNames": [
        "android.intent.action.BOOT_COMPLETED",
        "android.intent.action.EXTERNAL_APPLICATIONS_AVAILABLE",
        "android.intent.action.PACKAGE_ADDED",
        "android.intent.action.PACKAGE_REMOVED",
        "android.intent.action.PACKAGE_REPLACED",
        "android.intent.action.USER_PRESENT",
        "android.net.conn.CONNECTIVITY_CHANGE",
        "com.das.CHECK_UPLOAD_ACTION_FILE",
        "com.du.appsadlib.ADS_ACTION",
        "com.du.appsadlib.CHECK_QUERY_ACTION",
        "com.du.appsadlib.CHECK_UPDATE_ACTION",
        "com.du.appsplatform.CORE_RECEIVER",
        "com.du.appsplatform.MSG_ACTION",
        "com.du.appsplatform.UPDATE_LOAD_FILE_SEQ",
        "com.zz.batcloud.action.METHOD"
      ],
      "dependencies": [
        "com.flurry.",
        "com.google.android.gms.ads."
      ],
      "domainNamesFilteredByExodus": [
        ".google.com",
        "flurry.com"
      ],
      "metaDataNames": [
        "APPKEY",
        "CHANNEL",
        "MbvLicense",
        "MbvProduction"
      ],
      "sha256": "f74ea92193e17e6584b0bc8e34b61bf9a5a4b901ece308036d6475d573b2d135",
      "usesPermissions": [
        "android.permission.ACCESS_COARSE_LOCATION",
        "android.permission.ACCESS_DOWNLOAD_MANAGER",
        "android.permission.ACCESS_FINE_LOCATION",
        "android.permission.ACCESS_NETWORK_STATE",
        "android.permission.ACCESS_WIFI_STATE",
        "android.permission.BATTERY_STATS",
        "android.permission.CHANGE_NETWORK_STATE",
        "android.permission.CHANGE_WIFI_STATE",
        "android.permission.DOWNLOAD_WITHOUT_NOTIFICATION",
        "android.permission.GET_ACCOUNTS",
        "android.permission.GET_TASKS",
        "android.permission.INTERNET",
        "android.permission.MOUNT_UNMOUNT_FILESYSTEMS",
        "android.permission.READ_EXTERNAL_STORAGE",
        "android.permission.READ_LOGS",
        "android.permission.READ_PHONE_STATE",
        "android.permission.RECEIVE_BOOT_COMPLETED",
        "android.permission.SET_WALLPAPER",
        "android.permission.SYSTEM_ALERT_WINDOW",
        "android.permission.SYSTEM_OVERLAY_WINDOW",
        "android.permission.VIBRATE",
        "android.permission.WAKE_LOCK",
        "android.permission.WRITE_EXTERNAL_STORAGE",
        "android.permission.WRITE_SETTINGS",
        "com.android.launcher.permission.INSTALL_SHORTCUT",
        "com.android.launcher.permission.UNINSTALL_SHORTCUT",
        "com.dragon.android.permission.SERVICE"
      ]
    }
  ],
  "meta": {
    "generated": "2020-08-27T15:21:33.680476",
    "generatedBy": [
      "/home/hc/code/trackingthetrackers/scripts/make-trackers-apk-set.py"
    ],
    "ver": "0.3.0"
  }
}