{
  "apks": [
    {
      "applicationId": "com.nutomic.ensichat",
      "broadcastReceiverIntentFilterActionNames": [],
      "dependencies": [],
      "domainNamesFilteredByExodus": [],
      "metaDataNames": [
        "android.support.PARENT_ACTIVITY"
      ],
      "sha256": "e3fee1156728df6407d7bea441bf305e5b9c71eca8bd67f629c8499210b784e0",
      "usesPermissions": [
        "android.permission.BLUETOOTH",
        "android.permission.BLUETOOTH_ADMIN"
      ]
    }
  ],
  "meta": {
    "generated": "2020-08-27T17:43:43.115299",
    "generatedBy": [
      "/home/hc/code/trackingthetrackers/scripts/make-clean-apk-set.py"
    ],
    "generatedByCommitId": "40519285d6f404593fa655fa89b433743c25289e",
    "sourceDataCommitId": "888bb8f8c77ff55105fcab2ad84c263561eb1169",
    "ver": "0.3.0"
  }
}