{
  "apks": [
    {
      "applicationId": "com.bigdnet.spotddot",
      "broadcastReceiverIntentFilterActionNames": [],
      "dependencies": [
        "com$mopub$mobileads$",
        "com.flurry.",
        "com.google.ads.",
        "com.google.android.gms.ads.",
        "com.google.android.gms.analytics.",
        "com.google.android.gms.tagmanager",
        "com.mopub.mobileads.",
        "com.revmob.ads.",
        "com.revmob.adsc",
        "org.altbeacon.beacon."
      ],
      "domainNamesFilteredByExodus": [
        ".avocarrot.com",
        ".facebook.com",
        ".google.com",
        "adcolony.com",
        "androidads21.adcolony.com",
        "doubleclick.net",
        "flurry.com",
        "google-analytics.com",
        "mopub.com",
        "www.googletagmanager.com"
      ],
      "metaDataNames": [
        "com.google.android.gms.version",
        "com.revmob.app.id"
      ],
      "sha256": "b1e234ab3e9f196e68a115aab8d1df74ece486549b1d5fa341dbcd4cd0ae7a38",
      "usesPermissions": [
        "android.permission.ACCESS_COARSE_LOCATION",
        "android.permission.ACCESS_FINE_LOCATION",
        "android.permission.ACCESS_NETWORK_STATE",
        "android.permission.ACCESS_WIFI_STATE",
        "android.permission.INTERNET",
        "android.permission.READ_PHONE_STATE",
        "android.permission.WRITE_EXTERNAL_STORAGE",
        "com.android.vending.BILLING"
      ]
    }
  ],
  "meta": {
    "generated": "2020-08-27T14:54:28.454590",
    "generatedBy": [
      "/home/hc/code/trackingthetrackers/scripts/make-trackers-apk-set.py"
    ],
    "ver": "0.3.0"
  }
}