{
  "apks": [
    {
      "applicationId": "aimoxiu.theme.mx93c8568d990a8b74c0a9d48e033747e6",
      "broadcastReceiverIntentFilterActionNames": [
        "android.intent.action.PACKAGE_ADDED"
      ],
      "dependencies": [],
      "domainNamesFilteredByExodus": [],
      "metaDataNames": [
        "GE-PID",
        "GE-UID"
      ],
      "sha256": "4f8bba6100f94c6fdbde9716c6a3e024dbaffc811450e25bcf53100d2da27d4d",
      "usesPermissions": [
        "android.permission.ACCESS_NETWORK_STATE",
        "android.permission.ACCESS_WIFI_STATE",
        "android.permission.INTERNET",
        "android.permission.READ_PHONE_STATE",
        "android.permission.RESTART_PACKAGES",
        "android.permission.WRITE_EXTERNAL_STORAGE"
      ]
    }
  ],
  "meta": {
    "generated": "2020-08-27T15:37:47.707368",
    "generatedBy": [
      "/home/hc/code/trackingthetrackers/scripts/make-trackers-apk-set.py"
    ],
    "ver": "0.3.0"
  }
}