{
  "apks": [
    {
      "applicationId": "at.bitfire.davdroid",
      "broadcastReceiverIntentFilterActionNames": [],
      "dependencies": [],
      "domainNamesFilteredByExodus": [
        ".facebook.com",
        ".google.com",
        "hockeyapp.net",
        "mixpanel.com"
      ],
      "metaDataNames": [
        "android.accounts.AccountAuthenticator",
        "android.content.SyncAdapter",
        "android.provider.CONTACTS_STRUCTURE",
        "android.support.FILE_PROVIDER_PATHS"
      ],
      "sha256": "5619bc52d3f39eb84ce7e8f030918f4cc33c37a1a49073f45f40093a0d5acbf6",
      "usesPermissions": [
        "22",
        "22",
        "22",
        "android.permission.ACCESS_NETWORK_STATE",
        "android.permission.ACCESS_WIFI_STATE",
        "android.permission.AUTHENTICATE_ACCOUNTS",
        "android.permission.GET_ACCOUNTS",
        "android.permission.INTERNET",
        "android.permission.MANAGE_ACCOUNTS",
        "android.permission.READ_CALENDAR",
        "android.permission.READ_CONTACTS",
        "android.permission.READ_SYNC_SETTINGS",
        "android.permission.READ_SYNC_STATS",
        "android.permission.REQUEST_IGNORE_BATTERY_OPTIMIZATIONS",
        "android.permission.WRITE_CALENDAR",
        "android.permission.WRITE_CONTACTS",
        "android.permission.WRITE_SYNC_SETTINGS",
        "org.dmfs.permission.READ_TASKS",
        "org.dmfs.permission.WRITE_TASKS"
      ]
    }
  ],
  "meta": {
    "generated": "2020-08-27T17:10:39.269770",
    "generatedBy": [
      "/home/hc/code/trackingthetrackers/scripts/make-clean-apk-set.py"
    ],
    "generatedByCommitId": "40519285d6f404593fa655fa89b433743c25289e",
    "sourceDataCommitId": "888bb8f8c77ff55105fcab2ad84c263561eb1169",
    "ver": "0.3.0"
  }
}