{
  "apks": [
    {
      "applicationId": "com.pindroid",
      "broadcastReceiverIntentFilterActionNames": [
        "android.accounts.LOGIN_ACCOUNTS_CHANGED",
        "android.appwidget.action.APPWIDGET_UPDATE"
      ],
      "dependencies": [],
      "domainNamesFilteredByExodus": [
        ".google.com"
      ],
      "metaDataNames": [
        "android.accounts.AccountAuthenticator",
        "android.app.searchable",
        "android.appwidget.provider",
        "android.content.SyncAdapter"
      ],
      "sha256": "1642e5a850c8eef14aabacefa98e935b3cb7f9c983b2f95f05cb5592e9524da1",
      "usesPermissions": [
        "android.permission.AUTHENTICATE_ACCOUNTS",
        "android.permission.GET_ACCOUNTS",
        "android.permission.INTERNET",
        "android.permission.MANAGE_ACCOUNTS",
        "android.permission.READ_SYNC_SETTINGS",
        "android.permission.READ_SYNC_STATS",
        "android.permission.USE_CREDENTIALS",
        "android.permission.WRITE_SETTINGS",
        "android.permission.WRITE_SYNC_SETTINGS"
      ]
    }
  ],
  "meta": {
    "generated": "2020-08-27T17:46:08.841502",
    "generatedBy": [
      "/home/hc/code/trackingthetrackers/scripts/make-clean-apk-set.py"
    ],
    "generatedByCommitId": "40519285d6f404593fa655fa89b433743c25289e",
    "sourceDataCommitId": "888bb8f8c77ff55105fcab2ad84c263561eb1169",
    "ver": "0.3.0"
  }
}