{
  "apks": [
    {
      "applicationId": "com.shoujiduoduo.ringtone",
      "broadcastReceiverIntentFilterActionNames": [
        "android.net.conn.CONNECTIVITY_CHANGE",
        "com.xiaomi.mipush.ERROR",
        "com.xiaomi.mipush.RECEIVE_MESSAGE",
        "com.xiaomi.push.PING_TIMER"
      ],
      "dependencies": [
        "com.baidu.mobads",
        "com.tencent.stat",
        "com.umeng.analytics",
        "com.umeng.fb"
      ],
      "domainNamesFilteredByExodus": [
        "alog.umeng.com",
        "map.qq.com",
        "oc.umeng.com",
        "umeng.com"
      ],
      "metaDataNames": [
        "BaiduMobAd_APP_ID",
        "UMENG_APPKEY",
        "UMENG_CHANNEL",
        "appid",
        "market"
      ],
      "sha256": "5b7c0b4850069d008f1b1befbc59c011d9a462f57739a096e9d0d10fa9759085",
      "usesPermissions": [
        "0x0",
        "android.permission.ACCESS_COARSE_LOCATION",
        "android.permission.ACCESS_DOWNLOAD_MANAGER",
        "android.permission.ACCESS_FINE_LOCATION",
        "android.permission.ACCESS_NETWORK_STATE",
        "android.permission.ACCESS_WIFI_STATE",
        "android.permission.CALL_PHONE",
        "android.permission.CAMERA",
        "android.permission.CHANGE_WIFI_STATE",
        "android.permission.GET_ACCOUNTS",
        "android.permission.GET_TASKS",
        "android.permission.INTERNET",
        "android.permission.MANAGE_ACCOUNTS",
        "android.permission.MODIFY_AUDIO_SETTINGS",
        "android.permission.MOUNT_UNMOUNT_FILESYSTEMS",
        "android.permission.RAISED_THREAD_PRIORITY",
        "android.permission.READ_CONTACTS",
        "android.permission.READ_EXTERNAL_STORAGE",
        "android.permission.READ_HISTORY_BOOKMARKS",
        "android.permission.READ_LOGS",
        "android.permission.READ_PHONE_STATE",
        "android.permission.READ_SMS",
        "android.permission.RECEIVE_BOOT_COMPLETED",
        "android.permission.RECORD_AUDIO",
        "android.permission.RESTART_PACKAGES",
        "android.permission.SEND_SMS",
        "android.permission.SET_DEBUG_APP",
        "android.permission.SET_WALLPAPER",
        "android.permission.SET_WALLPAPER_HINTS",
        "android.permission.SYSTEM_ALERT_WINDOW",
        "android.permission.USE_CREDENTIALS",
        "android.permission.VIBRATE",
        "android.permission.WAKE_LOCK",
        "android.permission.WRITE_CONTACTS",
        "android.permission.WRITE_EXTERNAL_STORAGE",
        "android.permission.WRITE_SETTINGS",
        "com.android.launcher.permission.INSTALL_SHORTCUT",
        "com.android.launcher.permission.READ_SETTINGS",
        "com.android.launcher.permission.UNINSTALL_SHORTCUT",
        "com.shoujiduoduo.ringtone.permission.MIPUSH_RECEIVE"
      ]
    }
  ],
  "meta": {
    "generated": "2020-08-27T15:43:35.693806",
    "generatedBy": [
      "/home/hc/code/trackingthetrackers/scripts/make-trackers-apk-set.py"
    ],
    "ver": "0.3.0"
  }
}