{
  "apks": [
    {
      "applicationId": "org.projectmaxs.module.phonestateread",
      "broadcastReceiverIntentFilterActionNames": [
        "org.projectmaxs.EXPORT_SETTINGS",
        "org.projectmaxs.IMPORT_SETTINGS",
        "org.projectmaxs.REGISTER",
        "org.projectmaxs.SERVICE_STARTED",
        "org.projectmaxs.SERVICE_STOPPED"
      ],
      "dependencies": [],
      "domainNamesFilteredByExodus": [],
      "metaDataNames": [],
      "sha256": "0278a97e24a735e64be6343f333ef755d6d23969314544100a7ec613710a2c7b",
      "usesPermissions": [
        "android.permission.READ_PHONE_STATE",
        "org.projectmaxs.permission.READ_CONTACTS",
        "org.projectmaxs.permission.USE_MAIN",
        "org.projectmaxs.permission.USE_MAIN_AS_MODULE"
      ]
    }
  ],
  "meta": {
    "generated": "2020-08-27T18:34:43.149808",
    "generatedBy": [
      "/home/hc/code/trackingthetrackers/scripts/make-clean-apk-set.py"
    ],
    "generatedByCommitId": "3839559c80042252d3b947fb61c86a18e8b31114",
    "sourceDataCommitId": "888bb8f8c77ff55105fcab2ad84c263561eb1169",
    "ver": "0.3.0"
  }
}