{
  "apks": [
    {
      "applicationId": "org.gateshipone.malp",
      "broadcastReceiverIntentFilterActionNames": [
        "android.appwidget.action.APPWIDGET_UPDATE",
        "android.intent.action.MEDIA_BUTTON",
        "org.gateshipone.malp.action_new_artwork_ready",
        "org.gateshipone.malp.widget.server_disconnected",
        "org.gateshipone.malp.widget.status_changed",
        "org.gateshipone.malp.widget.track_changed"
      ],
      "dependencies": [],
      "domainNamesFilteredByExodus": [],
      "metaDataNames": [
        "android.appwidget.provider",
        "android.support.VERSION"
      ],
      "sha256": "4d08376c57ce029ec0baf9a8e1cbb2da6f49039f6bcd6feee8b995c39ffcaa45",
      "usesPermissions": [
        "android.permission.ACCESS_NETWORK_STATE",
        "android.permission.INTERNET",
        "android.permission.WAKE_LOCK"
      ]
    }
  ],
  "meta": {
    "generated": "2020-08-27T18:26:55.353557",
    "generatedBy": [
      "/home/hc/code/trackingthetrackers/scripts/make-clean-apk-set.py"
    ],
    "generatedByCommitId": "3839559c80042252d3b947fb61c86a18e8b31114",
    "sourceDataCommitId": "888bb8f8c77ff55105fcab2ad84c263561eb1169",
    "ver": "0.3.0"
  }
}