{
  "apks": [
    {
      "applicationId": "com.mj.abc1",
      "broadcastReceiverIntentFilterActionNames": [
        "android.intent.action.BOOT_COMPLETED",
        "android.intent.action.MY_PACKAGE_REPLACED",
        "android.intent.action.NEW_OUTGOING_CALL",
        "android.intent.action.PACKAGE_ADDED",
        "android.intent.action.PACKAGE_REMOVED",
        "android.intent.action.PACKAGE_REPLACED",
        "android.intent.action.PHONE_STATE",
        "com.android.vending.INSTALL_REFERRER"
      ],
      "dependencies": [
        "com$appnext$",
        "com$startapp$android$publish",
        "com.appnext.",
        "com.localytics.android.",
        "com.startapp.android.publish"
      ],
      "domainNamesFilteredByExodus": [
        ".google.com",
        "analytics.localytics.com",
        "api.airpush.com",
        "beta.airpush.com",
        "m.airpush.com"
      ],
      "metaDataNames": [
        "com.startapp.android.APP_ID",
        "com.startapp.android.DEV_ID",
        "com.tapcontext.DEVELOPERKEY",
        "com.yjymlcwuz.hfenqhfys153677.APIKEY",
        "com.yjymlcwuz.hfenqhfys153677.APPID"
      ],
      "sha256": "94d791391d1b39c6453f83738c1283ea97936df32566c00694b2cd71841653b8",
      "usesPermissions": [
        "android.permission.ACCESS_COARSE_LOCATION",
        "android.permission.ACCESS_FINE_LOCATION",
        "android.permission.ACCESS_LOCATION_EXTRA_COMMANDS",
        "android.permission.ACCESS_NETWORK_STATE",
        "android.permission.ACCESS_NETWORK_STATE",
        "android.permission.ACCESS_WIFI_STATE",
        "android.permission.ACCESS_WIFI_STATE",
        "android.permission.DISABLE_KEYGUARD",
        "android.permission.GET_TASKS",
        "android.permission.GET_TASKS",
        "android.permission.INTERNET",
        "android.permission.INTERNET",
        "android.permission.PROCESS_OUTGOING_CALLS",
        "android.permission.READ_CONTACTS",
        "android.permission.READ_EXTERNAL_STORAGE",
        "android.permission.READ_PHONE_STATE",
        "android.permission.READ_PHONE_STATE",
        "android.permission.RECEIVE_BOOT_COMPLETED",
        "android.permission.SYSTEM_ALERT_WINDOW",
        "android.permission.SYSTEM_ALERT_WINDOW",
        "android.permission.WAKE_LOCK",
        "android.permission.WAKE_LOCK",
        "android.permission.WRITE_EXTERNAL_STORAGE",
        "android.permission.WRITE_EXTERNAL_STORAGE"
      ]
    }
  ],
  "meta": {
    "generated": "2020-08-27T15:02:10.603615",
    "generatedBy": [
      "/home/hc/code/trackingthetrackers/scripts/make-trackers-apk-set.py"
    ],
    "ver": "0.3.0"
  }
}