{
  "apks": [
    {
      "applicationId": "com.moez.QKSMS",
      "broadcastReceiverIntentFilterActionNames": [
        "android.appwidget.action.APPWIDGET_UPDATE",
        "android.provider.Telephony.SMS_DELIVER",
        "android.provider.Telephony.WAP_PUSH_DELIVER",
        "android.provider.action.DEFAULT_SMS_PACKAGE_CHANGED",
        "android.provider.action.EXTERNAL_PROVIDER_CHANGE",
        "com.moez.QKSMS.intent.action.ACTION_NOTIFY_DATASET_CHANGED"
      ],
      "dependencies": [
        "com$bugsnag$",
        "com.bugsnag."
      ],
      "domainNamesFilteredByExodus": [
        ".google.com"
      ],
      "metaDataNames": [
        "android.appwidget.provider",
        "preloaded_fonts"
      ],
      "sha256": "1f4fdf8cc5864a31602edd84bde091390d2069503abc1563619f5170404a77bb",
      "usesPermissions": [
        "android.permission.ACCESS_NETWORK_STATE",
        "android.permission.INTERNET",
        "android.permission.READ_APP_BADGE",
        "android.permission.READ_CONTACTS",
        "android.permission.READ_EXTERNAL_STORAGE",
        "android.permission.READ_PHONE_STATE",
        "android.permission.READ_SMS",
        "android.permission.RECEIVE_MMS",
        "android.permission.RECEIVE_SMS",
        "android.permission.SEND_SMS",
        "android.permission.WAKE_LOCK",
        "android.permission.WRITE_EXTERNAL_STORAGE",
        "android.permission.WRITE_SMS",
        "com.anddoes.launcher.permission.UPDATE_COUNT",
        "com.android.vending.BILLING",
        "com.htc.launcher.permission.READ_SETTINGS",
        "com.htc.launcher.permission.UPDATE_SHORTCUT",
        "com.huawei.android.launcher.permission.CHANGE_BADGE",
        "com.huawei.android.launcher.permission.READ_SETTINGS",
        "com.huawei.android.launcher.permission.WRITE_SETTINGS",
        "com.majeur.launcher.permission.UPDATE_BADGE",
        "com.oppo.launcher.permission.READ_SETTINGS",
        "com.oppo.launcher.permission.WRITE_SETTINGS",
        "com.sec.android.provider.badge.permission.READ",
        "com.sec.android.provider.badge.permission.WRITE",
        "com.sonyericsson.home.permission.BROADCAST_BADGE",
        "com.sonymobile.home.permission.PROVIDER_INSERT_BADGE",
        "me.everything.badger.permission.BADGE_COUNT_READ",
        "me.everything.badger.permission.BADGE_COUNT_WRITE"
      ]
    }
  ],
  "meta": {
    "generated": "2020-08-27T17:37:29.322679",
    "generatedBy": [
      "/home/hc/code/trackingthetrackers/scripts/make-clean-apk-set.py"
    ],
    "generatedByCommitId": "40519285d6f404593fa655fa89b433743c25289e",
    "sourceDataCommitId": "888bb8f8c77ff55105fcab2ad84c263561eb1169",
    "ver": "0.3.0"
  }
}