{
  "apks": [
    {
      "applicationId": "de.j4velin.wifiAutoOff",
      "broadcastReceiverIntentFilterActionNames": [
        "android.intent.action.ACTION_POWER_CONNECTED",
        "android.intent.action.BOOT_COMPLETED",
        "android.intent.action.MY_PACKAGE_REPLACED",
        "android.intent.action.PACKAGE_REPLACED",
        "android.intent.action.USER_PRESENT",
        "android.net.wifi.STATE_CHANGE",
        "android.net.wifi.WIFI_STATE_CHANGED",
        "android.net.wifi.p2p.CONNECTION_STATE_CHANGE"
      ],
      "dependencies": [],
      "domainNamesFilteredByExodus": [
        ".google.com"
      ],
      "metaDataNames": [],
      "sha256": "2d2eb2703de4e2df621f73834e583b78ea8080c6140add29caa00ae52d8e06ae",
      "usesPermissions": [
        "android.permission.ACCESS_NETWORK_STATE",
        "android.permission.ACCESS_WIFI_STATE",
        "android.permission.CHANGE_WIFI_STATE",
        "android.permission.RECEIVE_BOOT_COMPLETED"
      ]
    }
  ],
  "meta": {
    "generated": "2020-08-27T18:00:47.291819",
    "generatedBy": [
      "/home/hc/code/trackingthetrackers/scripts/make-clean-apk-set.py"
    ],
    "generatedByCommitId": "3839559c80042252d3b947fb61c86a18e8b31114",
    "sourceDataCommitId": "888bb8f8c77ff55105fcab2ad84c263561eb1169",
    "ver": "0.3.0"
  }
}