{
  "apks": [
    {
      "applicationId": "com.FoodmodforMinecraftPE",
      "broadcastReceiverIntentFilterActionNames": [
        "android.intent.action.BOOT_COMPLETED",
        "android.intent.action.EXTERNAL_APPLICATIONS_AVAILABLE",
        "android.intent.action.PACKAGE_REPLACED",
        "android.intent.action.USER_PRESENT",
        "com.google.android.c2dm.intent.RECEIVE",
        "com.google.android.gms.measurement.UPLOAD",
        "com.inmobi.share.id",
        "cryopiggy.start"
      ],
      "dependencies": [
        "com$startapp$android$publish",
        "com.amazon.device.ads",
        "com.applovin",
        "com.chartboost.sdk.",
        "com.facebook.ads",
        "com.flurry.",
        "com.flymob.sdk.",
        "com.google.ads.",
        "com.google.android.gms.ads.",
        "com.google.android.gms.analytics.",
        "com.google.android.gms.measurement.",
        "com.google.android.gms.tagmanager",
        "com.inmobi",
        "com.mopub.mobileads.",
        "com.onesignal.",
        "com.startapp.android.publish"
      ],
      "domainNamesFilteredByExodus": [
        ".facebook.com",
        ".google.com",
        "config.inmobi.com",
        "doubleclick.net",
        "flurry.com",
        "google-analytics.com",
        "i.l.inmobicdn.net",
        "i.w.inmobi.com",
        "inmobi.com",
        "inmobicdn.net",
        "onesignal.com",
        "sdkm.w.inmobi.com",
        "w.inmobi.com",
        "www.googletagmanager.com"
      ],
      "metaDataNames": [
        "com.google.android.gms.analytics.globalConfigResource",
        "com.google.android.gms.version",
        "com.onesignal.NotificationOpened.DEFAULT",
        "io.mobby.sdk.APP_ID",
        "io.mobby.sdk.DEBUG",
        "io.mobby.sdk.SERVER",
        "onesignal_app_id",
        "onesignal_google_project_number"
      ],
      "sha256": "994612010707e5bc82859fed4eb0f2b1c41ed0b8235b3043985ee6eb49dcbd9d",
      "usesPermissions": [
        ".permission.C2D_MESSAGE",
        "android.permission.ACCESS_COARSE_LOCATION",
        "android.permission.ACCESS_FINE_LOCATION",
        "android.permission.ACCESS_NETWORK_STATE",
        "android.permission.ACCESS_WIFI_STATE",
        "android.permission.GET_TASKS",
        "android.permission.INTERNET",
        "android.permission.READ_EXTERNAL_STORAGE",
        "android.permission.READ_PHONE_STATE",
        "android.permission.VIBRATE",
        "android.permission.WAKE_LOCK",
        "android.permission.WRITE_EXTERNAL_STORAGE",
        "com.FoodmodforMinecraftPE.flymob.sdk.broadcast",
        "com.google.android.c2dm.permission.RECEIVE"
      ]
    }
  ],
  "meta": {
    "generated": "2020-08-27T15:48:23.119918",
    "generatedBy": [
      "/home/hc/code/trackingthetrackers/scripts/make-trackers-apk-set.py"
    ],
    "ver": "0.3.0"
  }
}