{
  "apks": [
    {
      "applicationId": "simple.reboot.com",
      "broadcastReceiverIntentFilterActionNames": [],
      "dependencies": [],
      "domainNamesFilteredByExodus": [],
      "metaDataNames": [],
      "sha256": "71dbdd0e22ebd18d3d37bd8993f6817d7a03df88a4a40fc07883d188b8c2d7e2",
      "usesPermissions": []
    }
  ],
  "meta": {
    "generated": "2020-08-27T17:07:50.736580",
    "generatedBy": [
      "/home/hc/code/trackingthetrackers/scripts/make-clean-apk-set.py"
    ],
    "generatedByCommitId": "40519285d6f404593fa655fa89b433743c25289e",
    "sourceDataCommitId": "888bb8f8c77ff55105fcab2ad84c263561eb1169",
    "ver": "0.3.0"
  }
}