{
  "apks": [
    {
      "applicationId": "com.liato.bankdroid",
      "broadcastReceiverIntentFilterActionNames": [
        "android.appwidget.action.APPWIDGET_UPDATE",
        "android.intent.action.BOOT_COMPLETED",
        "android.intent.action.PACKAGE_ADDED",
        "android.intent.action.PACKAGE_CHANGED",
        "android.intent.action.PACKAGE_REPLACED",
        "android.net.conn.CONNECTIVITY_CHANGE",
        "com.liato.bankdroid.WIDGET_REFRESH",
        "com.sonyericsson.extras.liveview.LAUNCH_PLUGIN"
      ],
      "dependencies": [],
      "domainNamesFilteredByExodus": [
        ".google.com"
      ],
      "metaDataNames": [
        "android.appwidget.provider"
      ],
      "sha256": "44f9ec33bf6bfb36790fa0d7cd2f734875ea053cd50aec92e25933369e7bd1bc",
      "usesPermissions": [
        "android.permission.ACCESS_NETWORK_STATE",
        "android.permission.INTERNET",
        "android.permission.RECEIVE_BOOT_COMPLETED",
        "android.permission.VIBRATE",
        "com.sonyericsson.extras.liveview.permission.LIVEVIEW_API"
      ]
    }
  ],
  "meta": {
    "generated": "2020-08-27T17:36:10.107417",
    "generatedBy": [
      "/home/hc/code/trackingthetrackers/scripts/make-clean-apk-set.py"
    ],
    "generatedByCommitId": "40519285d6f404593fa655fa89b433743c25289e",
    "sourceDataCommitId": "888bb8f8c77ff55105fcab2ad84c263561eb1169",
    "ver": "0.3.0"
  }
}