{
  "apks": [
    {
      "applicationId": "superfreeze.tool.android",
      "broadcastReceiverIntentFilterActionNames": [],
      "dependencies": [],
      "domainNamesFilteredByExodus": [],
      "metaDataNames": [
        "android.accessibilityservice",
        "android.app.default_searchable",
        "android.app.searchable",
        "android.app.shortcuts",
        "android.support.PARENT_ACTIVITY"
      ],
      "sha256": "ac93c28bd93cdee03dc9dd70b6ca989729c0802c701bf6e7815df36d01532a2d",
      "usesPermissions": [
        "android.permission.DISABLE_KEYGUARD",
        "android.permission.PACKAGE_USAGE_STATS",
        "android.permission.WAKE_LOCK",
        "android.permission.WRITE_SETTINGS",
        "com.android.launcher.permission.INSTALL_SHORTCUT"
      ]
    }
  ],
  "meta": {
    "generated": "2020-08-27T18:44:21.302383",
    "generatedBy": [
      "/home/hc/code/trackingthetrackers/scripts/make-clean-apk-set.py"
    ],
    "generatedByCommitId": "3839559c80042252d3b947fb61c86a18e8b31114",
    "sourceDataCommitId": "888bb8f8c77ff55105fcab2ad84c263561eb1169",
    "ver": "0.3.0"
  }
}