{
  "apks": [
    {
      "applicationId": "com.wantu.activity",
      "broadcastReceiverIntentFilterActionNames": [
        "android.intent.action.BOOT_COMPLETED",
        "android.intent.action.DOWNLOAD_COMPLETE",
        "android.intent.action.PACKAGE_ADDED",
        "android.intent.action.PACKAGE_REMOVED",
        "android.net.conn.CONNECTIVITY_CHANGE",
        "com.android.vending.INSTALL_REFERRER",
        "com.google.android.c2dm.intent.RECEIVE",
        "com.google.android.c2dm.intent.REGISTRATION",
        "com.walkfree.downloadpush.sdk.enddownload",
        "com.walkfree.downloadpush.sdk.receiveonemessage",
        "com.walkfree.downloadpush.sdk.startdownload"
      ],
      "dependencies": [
        "com.appsflyer.",
        "com.baidu.location",
        "com.baidu.mapapi",
        "com.crashlytics.",
        "com.facebook.ads",
        "com.flurry.",
        "com.google.android.gms.ads.",
        "com_crashlytics_",
        "org.cocos2dx"
      ],
      "domainNamesFilteredByExodus": [
        ".facebook.com",
        ".google.com",
        "appsflyer.com",
        "crashlytics.com",
        "flurry.com",
        "map.baidu.com"
      ],
      "metaDataNames": [
        "android.app.lib_name",
        "com.crashlytics.ApiKey"
      ],
      "sha256": "24c5387300c0cb7366156733059798c947255f51ee13b7a6476cdac6c6129f83",
      "usesPermissions": [
        "android.permission.ACCESS_COARSE_LOCATION",
        "android.permission.ACCESS_FINE_LOCATION",
        "android.permission.ACCESS_NETWORK_STATE",
        "android.permission.ACCESS_NETWORK_STATE",
        "android.permission.ACCESS_WIFI_STATE",
        "android.permission.ACCESS_WIFI_STATE",
        "android.permission.CAMERA",
        "android.permission.CHANGE_WIFI_STATE",
        "android.permission.GET_ACCOUNTS",
        "android.permission.GET_TASKS",
        "android.permission.INTERNET",
        "android.permission.INTERNET",
        "android.permission.MANAGE_ACCOUNTS",
        "android.permission.MOUNT_UNMOUNT_FILESYSTEMS",
        "android.permission.READ_EXTERNAL_STORAGE",
        "android.permission.READ_PHONE_STATE",
        "android.permission.RECEIVE_BOOT_COMPLETED",
        "android.permission.SYSTEM_ALERT_WINDOW",
        "android.permission.USE_CREDENTIALS",
        "android.permission.WAKE_LOCK",
        "android.permission.WRITE_EXTERNAL_STORAGE",
        "android.permission.WRITE_EXTERNAL_STORAGE",
        "android.permission.WRITE_SETTINGS",
        "com.android.launcher.permission.INSTALL_SHORTCUT",
        "com.android.launcher.permission.UNINSTALL_SHORTCUT",
        "com.fede.launcher.permission.READ_SETTINGS",
        "com.google.android.c2dm.permission.RECEIVE",
        "com.wantu.activity.permission.C2D_MESSAGE"
      ]
    }
  ],
  "meta": {
    "generated": "2020-08-27T14:53:43.217193",
    "generatedBy": [
      "/home/hc/code/trackingthetrackers/scripts/make-trackers-apk-set.py"
    ],
    "ver": "0.3.0"
  }
}