{
  "apks": [
    {
      "applicationId": "org.kde.kdeconnect_tp",
      "broadcastReceiverIntentFilterActionNames": [
        "RUN_COMMAND_ACTION",
        "android.appwidget.action.APPWIDGET_UPDATE",
        "android.intent.action.BOOT_COMPLETED",
        "android.intent.action.MEDIA_BUTTON",
        "android.intent.action.PACKAGE_REPLACED",
        "android.net.conn.CONNECTIVITY_CHANGE",
        "android.net.wifi.WIFI_STATE_CHANGED",
        "org.kde.kdeconnect.Plugins.SharePlugin.CancelShare"
      ],
      "dependencies": [],
      "domainNamesFilteredByExodus": [],
      "metaDataNames": [
        "android.appwidget.provider",
        "android.service.chooser.chooser_target_service",
        "android.support.FILE_PROVIDER_PATHS",
        "android.support.PARENT_ACTIVITY",
        "android.view.im"
      ],
      "sha256": "37a1edf790e28475b1388740723335fcf6dbe63069318cb6d9e77fe260f3cb87",
      "usesPermissions": [
        "android.permission.ACCESS_NETWORK_STATE",
        "android.permission.CHANGE_WIFI_MULTICAST_STATE",
        "android.permission.DOWNLOAD_WITHOUT_NOTIFICATION",
        "android.permission.FOREGROUND_SERVICE",
        "android.permission.INTERNET",
        "android.permission.READ_CALL_LOG",
        "android.permission.READ_CONTACTS",
        "android.permission.READ_EXTERNAL_STORAGE",
        "android.permission.READ_PHONE_STATE",
        "android.permission.READ_SMS",
        "android.permission.RECEIVE_BOOT_COMPLETED",
        "android.permission.RECEIVE_SMS",
        "android.permission.SEND_SMS",
        "android.permission.VIBRATE",
        "android.permission.WRITE_EXTERNAL_STORAGE"
      ]
    }
  ],
  "meta": {
    "generated": "2020-08-27T18:28:48.945762",
    "generatedBy": [
      "/home/hc/code/trackingthetrackers/scripts/make-clean-apk-set.py"
    ],
    "generatedByCommitId": "3839559c80042252d3b947fb61c86a18e8b31114",
    "sourceDataCommitId": "888bb8f8c77ff55105fcab2ad84c263561eb1169",
    "ver": "0.3.0"
  }
}