{
  "apks": [
    {
      "applicationId": "me.onemobile.android",
      "broadcastReceiverIntentFilterActionNames": [
        "android.appwidget.action.APPWIDGET_UPDATE",
        "android.intent.action.BOOT_COMPLETED",
        "android.intent.action.DETAILS",
        "android.intent.action.DOWNLOAD_COMPLETED",
        "android.intent.action.DOWNLOAD_ERROR",
        "android.intent.action.DOWNLOAD_HIDE",
        "android.intent.action.DOWNLOAD_LIST",
        "android.intent.action.DOWNLOAD_OPEN",
        "android.intent.action.MEDIA_MOUNTED",
        "android.intent.action.MEDIA_REMOVED",
        "android.intent.action.MEDIA_SHARED",
        "android.intent.action.MEDIA_UNMOUNTED",
        "android.intent.action.PACKAGE_ADDED",
        "android.intent.action.PACKAGE_REMOVED",
        "android.intent.action.PACKAGE_REPLACED",
        "android.net.conn.CONNECTIVITY_CHANGE",
        "me.onemobile.android.BSDIFF_PATCH",
        "me.onemobile.android.DOWNLOAD_NETWORK_TYPE_LIMIT_SETTING",
        "me.onemobile.android.INSTALLED_NOTIFICATION",
        "me.onemobile.android.INSTALLED_NOTIFICATION_LAUNCH",
        "me.onemobile.android.INSTALLED_NOTIFICATION_SHARE",
        "me.onemobile.android.NOT_INSTALL_NOTIFICATION_OPEN",
        "me.onemobile.android.ONEMOBILE_LAUNCHED_NOTIFICATION",
        "me.onemobile.android.PUSH_NOTIFICATION_ACTION_CLICK",
        "me.onemobile.android.SELF_UPDATE_NOTIFICATION_OPEN",
        "me.onemobile.android.UPDATES_NOTIFICATION_CLICK",
        "me.onemobile.android.UPDATES_NOTIFICATION_DELETE",
        "me.onemobile.android.UPDATES_NOTIFICATION_OPEN"
      ],
      "dependencies": [
        "com.flurry.",
        "com.google.ads.",
        "com.google.android.gms.analytics.",
        "com.inmobi"
      ],
      "domainNamesFilteredByExodus": [
        ".facebook.com",
        ".google.com",
        "flurry.com",
        "google-analytics.com",
        "i.w.inmobi.com",
        "inmobi.com"
      ],
      "metaDataNames": [
        "android.appwidget.provider",
        "com.sec.android.multiwindow.DEFAULT_SIZE_H",
        "com.sec.android.multiwindow.DEFAULT_SIZE_W",
        "com.sec.android.multiwindow.MINIMUM_SIZE_H",
        "com.sec.android.multiwindow.MINIMUM_SIZE_W",
        "com.sec.android.support.multiwindow",
        "me.onemobile.sdk.CLIENT_ID",
        "me.onemobile.sdk.CLIENT_SECRET"
      ],
      "sha256": "52fdef925900cae80c027d86fe1b3af84314dadb51c4986b0d3d8655a72ffbed",
      "usesPermissions": [
        "android.permission.ACCESS_NETWORK_STATE",
        "android.permission.ACCESS_WIFI_STATE",
        "android.permission.EXPAND_STATUS_BAR",
        "android.permission.GET_ACCOUNTS",
        "android.permission.GET_TASKS",
        "android.permission.INTERNET",
        "android.permission.READ_CONTACTS",
        "android.permission.READ_PHONE_STATE",
        "android.permission.RECEIVE_BOOT_COMPLETED",
        "android.permission.SYSTEM_ALERT_WINDOW",
        "android.permission.VIBRATE",
        "android.permission.WAKE_LOCK",
        "android.permission.WRITE_EXTERNAL_STORAGE",
        "com.android.launcher.permission.INSTALL_SHORTCUT"
      ]
    }
  ],
  "meta": {
    "generated": "2020-08-27T15:10:43.741955",
    "generatedBy": [
      "/home/hc/code/trackingthetrackers/scripts/make-trackers-apk-set.py"
    ],
    "ver": "0.3.0"
  }
}