{
  "apks": [
    {
      "applicationId": "com.nakoda.humpty",
      "broadcastReceiverIntentFilterActionNames": [],
      "dependencies": [
        "com.flurry.",
        "com.google.ads.",
        "com.google.android.apps.analytics.",
        "com.inmobi",
        "com.millennialmedia.",
        "com.mobclix.android.sdk"
      ],
      "domainNamesFilteredByExodus": [
        ".google.com",
        "doubleclick.net",
        "flurry.com",
        "google-analytics.com"
      ],
      "metaDataNames": [],
      "sha256": "fd1b9a03833450a97e56713712779384be5a09bc36b890dcadb76c9452a95139",
      "usesPermissions": [
        "android.permission.ACCESS_COARSE_LOCATION",
        "android.permission.ACCESS_FINE_LOCATION",
        "android.permission.ACCESS_NETWORK_STATE",
        "android.permission.INTERNET",
        "android.permission.READ_CALENDAR",
        "android.permission.READ_PHONE_STATE",
        "android.permission.WRITE_CALENDAR"
      ]
    }
  ],
  "meta": {
    "generated": "2020-08-27T15:35:13.834335",
    "generatedBy": [
      "/home/hc/code/trackingthetrackers/scripts/make-trackers-apk-set.py"
    ],
    "ver": "0.3.0"
  }
}