{
  "apks": [
    {
      "applicationId": "org.chjjun.ContactsShuffle",
      "broadcastReceiverIntentFilterActionNames": [],
      "dependencies": [
        "net.youmi"
      ],
      "domainNamesFilteredByExodus": [
        ".google.com",
        "youmi.net"
      ],
      "metaDataNames": [
        "ADMOB_PUBLISHER_ID",
        "EOE_APP_KEY",
        "EOE_APP_SECRET",
        "Market_ID",
        "Wooboo_PID"
      ],
      "sha256": "66b1dc4743a5688cc0c0201cc6d9c95ae65bb4a2c9fe3f2409cc543c56540803",
      "usesPermissions": [
        "android.permission.ACCESS_COARSE_LOCATION",
        "android.permission.ACCESS_FINE_LOCATION",
        "android.permission.ACCESS_NETWORK_STATE",
        "android.permission.ACCESS_WIFI_STATE",
        "android.permission.CALL_PHONE",
        "android.permission.INTERNET",
        "android.permission.INTERNET",
        "android.permission.READ_CONTACTS",
        "android.permission.READ_PHONE_STATE",
        "android.permission.READ_PHONE_STATE",
        "android.permission.SEND_SMS",
        "android.permission.WRITE_EXTERNAL_STORAGE"
      ]
    }
  ],
  "meta": {
    "generated": "2020-08-27T14:59:06.075952",
    "generatedBy": [
      "/home/hc/code/trackingthetrackers/scripts/make-trackers-apk-set.py"
    ],
    "ver": "0.3.0"
  }
}