{
  "apks": [
    {
      "applicationId": "mono.hg",
      "broadcastReceiverIntentFilterActionNames": [],
      "dependencies": [],
      "domainNamesFilteredByExodus": [
        ".google.com"
      ],
      "metaDataNames": [],
      "sha256": "b9a96ccf4028c5279ad6e5cd6ff5bfa2cea421c05ad91131b1303d697c3c1b21",
      "usesPermissions": [
        "android.permission.EXPAND_STATUS_BAR",
        "android.permission.REQUEST_DELETE_PACKAGES",
        "android.permission.SET_WALLPAPER",
        "android.permission.WRITE_EXTERNAL_STORAGE"
      ]
    }
  ],
  "meta": {
    "generated": "2020-08-27T18:16:31.575512",
    "generatedBy": [
      "/home/hc/code/trackingthetrackers/scripts/make-clean-apk-set.py"
    ],
    "generatedByCommitId": "3839559c80042252d3b947fb61c86a18e8b31114",
    "sourceDataCommitId": "888bb8f8c77ff55105fcab2ad84c263561eb1169",
    "ver": "0.3.0"
  }
}