{
  "apks": [
    {
      "applicationId": "org.secuso.privacyfriendlyyahtzeedicer",
      "broadcastReceiverIntentFilterActionNames": [],
      "dependencies": [],
      "domainNamesFilteredByExodus": [],
      "metaDataNames": [],
      "sha256": "c45a06618cb3f5eaf840127a36364e4eed353ab3a97f091add0e31ae56428a45",
      "usesPermissions": []
    }
  ],
  "meta": {
    "generated": "2020-08-27T17:06:53.044423",
    "generatedBy": [
      "/home/hc/code/trackingthetrackers/scripts/make-clean-apk-set.py"
    ],
    "generatedByCommitId": "40519285d6f404593fa655fa89b433743c25289e",
    "sourceDataCommitId": "888bb8f8c77ff55105fcab2ad84c263561eb1169",
    "ver": "0.3.0"
  }
}