{
  "apks": [
    {
      "applicationId": "com.cmge.catpirate",
      "broadcastReceiverIntentFilterActionNames": [
        "safiap.GET_SHARED_DATA",
        "safiap.framework.ACTION_CANCEL_NOTIFICATION",
        "safiap.framework.ACTION_SET_TIMER"
      ],
      "dependencies": [
        "com.tendcloud.tenddata.",
        "org.cocos2dx"
      ],
      "domainNamesFilteredByExodus": [],
      "metaDataNames": [],
      "sha256": "355755a994a2f91c37e2e5566f3c1284407e6098c513b8dafb3c7df4a08fe670",
      "usesPermissions": [
        "android.permission.ACCESS_NETWORK_STATE",
        "android.permission.ACCESS_WIFI_STATE",
        "android.permission.CHANGE_WIFI_STATE",
        "android.permission.GET_ACCOUNTS",
        "android.permission.GET_ACCOUNTS",
        "android.permission.GET_TASKS",
        "android.permission.INTERNET",
        "android.permission.MOUNT_UNMOUNT_FILESYSTEMS",
        "android.permission.READ_EXTERNAL_STORAGE",
        "android.permission.READ_PHONE_STATE",
        "android.permission.VIBRATE",
        "android.permission.WAKE_LOCK",
        "android.permission.WRITE_EXTERNAL_STORAGE",
        "com.android.vending.BILLING"
      ]
    }
  ],
  "meta": {
    "generated": "2020-08-27T14:52:12.191884",
    "generatedBy": [
      "/home/hc/code/trackingthetrackers/scripts/make-trackers-apk-set.py"
    ],
    "ver": "0.3.0"
  }
}