{
  "apks": [
    {
      "applicationId": "com.nightelf.plugin",
      "broadcastReceiverIntentFilterActionNames": [],
      "dependencies": [],
      "domainNamesFilteredByExodus": [
        "api.airpush.com"
      ],
      "metaDataNames": [
        "elf_activity",
        "elf_service",
        "elf_version"
      ],
      "sha256": "8c2b33487a077b6b25453bc3df26b5b38a57a107d0c4638d7b2cde7fddbcc5bb",
      "usesPermissions": []
    }
  ],
  "meta": {
    "generated": "2020-08-27T15:32:43.680766",
    "generatedBy": [
      "/home/hc/code/trackingthetrackers/scripts/make-trackers-apk-set.py"
    ],
    "ver": "0.3.0"
  }
}