{
  "apks": [
    {
      "applicationId": "com.standardnotes",
      "broadcastReceiverIntentFilterActionNames": [],
      "dependencies": [
        "com$bugsnag$",
        "com.bugsnag."
      ],
      "domainNamesFilteredByExodus": [],
      "metaDataNames": [
        "android.support.FILE_PROVIDER_PATHS",
        "com.bugsnag.android.API_KEY"
      ],
      "sha256": "3898280d68d7de73a5d8ac78b51429b46d78165f62cbfe08f0011b18503b1c9b",
      "usesPermissions": [
        "0x2",
        "android.permission.ACCESS_NETWORK_STATE",
        "android.permission.INTERNET",
        "android.permission.SYSTEM_ALERT_WINDOW",
        "android.permission.USE_FINGERPRINT",
        "com.fingerprints.service.ACCESS_FINGERPRINT_MANAGER",
        "com.google.android.launcher.permission.RECEIVE_LAUNCH_BROADCASTS",
        "com.samsung.android.providers.context.permission.WRITE_USE_APP_FEATURE_SURVEY"
      ]
    }
  ],
  "meta": {
    "generated": "2020-08-27T17:00:46.998890",
    "generatedBy": [
      "/home/hc/code/trackingthetrackers/scripts/make-clean-apk-set.py"
    ],
    "generatedByCommitId": "40519285d6f404593fa655fa89b433743c25289e",
    "sourceDataCommitId": "888bb8f8c77ff55105fcab2ad84c263561eb1169",
    "ver": "0.3.0"
  }
}