{
  "apks": [
    {
      "applicationId": "fr.jnda.android.flashalert",
      "broadcastReceiverIntentFilterActionNames": [
        "android.intent.action.PHONE_STATE",
        "android.provider.Telephony.SMS_RECEIVED",
        "android.provider.Telephony.WAP_PUSH_RECEIVED"
      ],
      "dependencies": [],
      "domainNamesFilteredByExodus": [],
      "metaDataNames": [],
      "sha256": "201830caf6dd0f7fc19191a6772d6e905bd4bb97cf36fd80cb55d0996647b338",
      "usesPermissions": [
        "android.permission.CAMERA",
        "android.permission.FLASHLIGHT",
        "android.permission.READ_CALL_LOG",
        "android.permission.READ_CONTACTS",
        "android.permission.READ_PHONE_STATE",
        "android.permission.RECEIVE_MMS",
        "android.permission.RECEIVE_SMS",
        "android.permission.RECORD_AUDIO"
      ]
    }
  ],
  "meta": {
    "generated": "2020-08-27T17:03:01.643742",
    "generatedBy": [
      "/home/hc/code/trackingthetrackers/scripts/make-clean-apk-set.py"
    ],
    "generatedByCommitId": "40519285d6f404593fa655fa89b433743c25289e",
    "sourceDataCommitId": "888bb8f8c77ff55105fcab2ad84c263561eb1169",
    "ver": "0.3.0"
  }
}