{
  "apks": [
    {
      "applicationId": "com.mobincube.android.sc_JEM59",
      "broadcastReceiverIntentFilterActionNames": [
        "com.google.android.c2dm.intent.RECEIVE",
        "com.google.android.c2dm.intent.REGISTRATION"
      ],
      "dependencies": [
        "com$inneractive$api$ads",
        "com$millennialmedia$",
        "com$smaato$soma$",
        "com.google.ads.",
        "com.google.android.gms.ads.",
        "com.google.android.gms.analytics.",
        "com.google.android.gms.tagmanager",
        "com.inmobi",
        "com.inneractive.api.ads",
        "com.millennialmedia.",
        "com.revmob.ads.",
        "com.smaato.soma.",
        "com_smaato_soma_"
      ],
      "domainNamesFilteredByExodus": [
        ".facebook.com",
        ".google.com",
        "doubleclick.net",
        "et.w.inmobi.com",
        "google-analytics.com",
        "i.w.inmobi.com",
        "inmobi.com",
        "inmobisdk-a.akamaihd.net",
        "millennialmedia.com",
        "openx.com",
        "smaato.net",
        "soma.smaato.net",
        "w.inmobi.com",
        "www.googletagmanager.com"
      ],
      "metaDataNames": [
        "com.google.android.gms.version"
      ],
      "sha256": "0c5e18c92aa92dda54db40fc55c02bd2f485025d057d3becb577f5f0e7f96bf4",
      "usesPermissions": [
        "android.permission.ACCESS_CORSE_LOCATION",
        "android.permission.ACCESS_FINE_LOCATION",
        "android.permission.ACCESS_NETWORK_STATE",
        "android.permission.ACCESS_WIFI_STATE",
        "android.permission.GET_ACCOUNTS",
        "android.permission.INTERNET",
        "android.permission.READ_PHONE_STATE",
        "android.permission.WAKE_LOCK",
        "android.permission.WRITE_EXTERNAL_STORAGE",
        "com.google.android.c2dm.permission.RECEIVE",
        "com.mobincube.android.sc_JEM59.permission.C2D_MESSAGE"
      ]
    }
  ],
  "meta": {
    "generated": "2020-08-27T14:54:57.519065",
    "generatedBy": [
      "/home/hc/code/trackingthetrackers/scripts/make-trackers-apk-set.py"
    ],
    "ver": "0.3.0"
  }
}