{
  "apks": [
    {
      "applicationId": "com.amaze.filemanager",
      "broadcastReceiverIntentFilterActionNames": [
        "com.amaze.filemanager.services.ftpservice.FTPReceiver.ACTION_START_FTPSERVER",
        "com.amaze.filemanager.services.ftpservice.FTPReceiver.ACTION_STOP_FTPSERVER",
        "com.amaze.filemanager.services.ftpservice.FTPReceiver.FTPSERVER_STARTED",
        "com.amaze.filemanager.services.ftpservice.FTPReceiver.FTPSERVER_STOPPED"
      ],
      "dependencies": [],
      "domainNamesFilteredByExodus": [
        ".google.com"
      ],
      "metaDataNames": [],
      "sha256": "8f371d81ecf76ee09e292ee202ddcffafd3a7fc9f55903731d7ca6c33a86567e",
      "usesPermissions": [
        "android.permission.ACCESS_NETWORK_STATE",
        "android.permission.ACCESS_SUPERUSER",
        "android.permission.ACCESS_WIFI_STATE",
        "android.permission.INTERNET",
        "android.permission.WRITE_EXTERNAL_STORAGE",
        "com.android.launcher.permission.INSTALL_SHORTCUT"
      ]
    }
  ],
  "meta": {
    "generated": "2020-08-27T16:52:49.482789",
    "generatedBy": [
      "/home/hc/code/trackingthetrackers/scripts/make-clean-apk-set.py"
    ],
    "generatedByCommitId": "40519285d6f404593fa655fa89b433743c25289e",
    "sourceDataCommitId": "888bb8f8c77ff55105fcab2ad84c263561eb1169",
    "ver": "0.3.0"
  }
}