{
  "apks": [
    {
      "applicationId": "com.gunshippenguin.openflood",
      "broadcastReceiverIntentFilterActionNames": [],
      "dependencies": [],
      "domainNamesFilteredByExodus": [],
      "metaDataNames": [],
      "sha256": "57157f145277c44a996d1d3b0d503b3438c9f7690d077ea70e106ab5d982f165",
      "usesPermissions": []
    }
  ],
  "meta": {
    "generated": "2020-08-27T16:56:08.145102",
    "generatedBy": [
      "/home/hc/code/trackingthetrackers/scripts/make-clean-apk-set.py"
    ],
    "generatedByCommitId": "40519285d6f404593fa655fa89b433743c25289e",
    "sourceDataCommitId": "888bb8f8c77ff55105fcab2ad84c263561eb1169",
    "ver": "0.3.0"
  }
}