{
  "apks": [
    {
      "applicationId": "com.magmamobile.game.funzybloc",
      "broadcastReceiverIntentFilterActionNames": [
        "com.android.vending.INSTALL_REFERRER"
      ],
      "dependencies": [
        "com$inmobi",
        "com.google.ads.",
        "com.google.android.apps.analytics.",
        "com.inmobi",
        "com.mdotm.android",
        "com.millennialmedia."
      ],
      "domainNamesFilteredByExodus": [
        ".facebook.com",
        ".google.com",
        "doubleclick.net",
        "google-analytics.com",
        "i.w.inmobi.com",
        "inmobi.com",
        "millennialmedia.com"
      ],
      "metaDataNames": [],
      "sha256": "7c7be3b897748a0e3e3b8fdff2916b268dc74a49a499672d6b9d0ba8de1f92e1",
      "usesPermissions": [
        "android.permission.ACCESS_NETWORK_STATE",
        "android.permission.INTERNET",
        "android.permission.READ_PHONE_STATE",
        "android.permission.VIBRATE"
      ]
    }
  ],
  "meta": {
    "generated": "2020-08-27T15:17:09.726760",
    "generatedBy": [
      "/home/hc/code/trackingthetrackers/scripts/make-trackers-apk-set.py"
    ],
    "ver": "0.3.0"
  }
}