{
  "apks": [
    {
      "applicationId": "org.videolan.vlc",
      "broadcastReceiverIntentFilterActionNames": [
        "android.appwidget.action.APPWIDGET_UPDATE",
        "android.intent.action.BOOT_COMPLETED",
        "android.intent.action.MEDIA_BUTTON",
        "android.intent.action.MEDIA_MOUNTED",
        "android.intent.action.MEDIA_REMOVED",
        "android.media.tv.ACTION_WATCH_NEXT_PROGRAM_BROWSABLE_DISABLED",
        "android.media.tv.action.INITIALIZE_PROGRAMS",
        "android.media.tv.action.PREVIEW_PROGRAM_ADDED_TO_WATCH_NEXT",
        "android.media.tv.action.PREVIEW_PROGRAM_BROWSABLE_DISABLED",
        "org.videolan.vlc.widget.INIT",
        "org.videolan.vlc.widget.UPDATE",
        "org.videolan.vlc.widget.UPDATE_COVER",
        "org.videolan.vlc.widget.UPDATE_POSITION"
      ],
      "dependencies": [],
      "domainNamesFilteredByExodus": [
        ".google.com"
      ],
      "metaDataNames": [
        "android.app.searchable",
        "android.app.shortcuts",
        "android.appwidget.provider",
        "android.max_aspect",
        "android.media.tv.input",
        "com.google.android.gms.car.application",
        "com.google.android.gms.car.notification.SmallIcon",
        "com.lge.support.SPLIT_WINDOW",
        "com.samsung.android.sdk.multiwindow.enable"
      ],
      "sha256": "a3aca948341b96ed19de7ca30dcd34c0c142c2a97f67a204ec583366a01a5ac5",
      "usesPermissions": [
        "android.permission.ACCESS_NETWORK_STATE",
        "android.permission.BLUETOOTH",
        "android.permission.FOREGROUND_SERVICE",
        "android.permission.INTERNET",
        "android.permission.MODIFY_AUDIO_SETTINGS",
        "android.permission.RECEIVE_BOOT_COMPLETED",
        "android.permission.RECORD_AUDIO",
        "android.permission.SYSTEM_ALERT_WINDOW",
        "android.permission.VIBRATE",
        "android.permission.WAKE_LOCK",
        "android.permission.WRITE_EXTERNAL_STORAGE",
        "android.permission.WRITE_SETTINGS",
        "com.android.providers.tv.permission.READ_EPG_DATA",
        "com.android.providers.tv.permission.WRITE_EPG_DATA",
        "org.videolan.vlc.permission.BIND_DATA_CONSUMER",
        "org.videolan.vlc.permission.READ_EXTENSION_DATA"
      ]
    }
  ],
  "meta": {
    "generated": "2020-08-27T18:40:08.632200",
    "generatedBy": [
      "/home/hc/code/trackingthetrackers/scripts/make-clean-apk-set.py"
    ],
    "generatedByCommitId": "3839559c80042252d3b947fb61c86a18e8b31114",
    "sourceDataCommitId": "888bb8f8c77ff55105fcab2ad84c263561eb1169",
    "ver": "0.3.0"
  }
}