{
  "apks": [
    {
      "applicationId": "xyz.deepdaikon.zoysii",
      "dependencies": [],
      "domainNamesFilteredByExodus": [
        ".google.com"
      ],
      "sha256": "f32d5ba7047e633f7b6426985c33bc45ac159221b221bf1585afd5c791189f82",
      "usesPermissions": []
    }
  ],
  "meta": {
    "ver": "0.2.0"
  }
}