{
  "apks": [
    {
      "applicationId": "com.simplemobiletools.contacts",
      "broadcastReceiverIntentFilterActionNames": [
        "com.simplemobiletools.commons.SHARED_THEME_ACTIVATED",
        "com.simplemobiletools.commons.SHARED_THEME_UPDATED"
      ],
      "dependencies": [],
      "domainNamesFilteredByExodus": [
        ".facebook.com",
        ".google.com"
      ],
      "metaDataNames": [
        "android.app.default_searchable",
        "android.support.FILE_PROVIDER_PATHS"
      ],
      "sha256": "88ab8fec61f5bfe38f3a6d1985c3ca090fbaa7aaad313cb4913daa3042561cd8",
      "usesPermissions": [
        "android.permission.CALL_PHONE",
        "android.permission.GET_ACCOUNTS",
        "android.permission.READ_CONTACTS",
        "android.permission.READ_SYNC_SETTINGS",
        "android.permission.WRITE_CONTACTS",
        "android.permission.WRITE_EXTERNAL_STORAGE"
      ]
    }
  ],
  "meta": {
    "generated": "2020-08-27T17:48:02.497070",
    "generatedBy": [
      "/home/hc/code/trackingthetrackers/scripts/make-clean-apk-set.py"
    ],
    "generatedByCommitId": "40519285d6f404593fa655fa89b433743c25289e",
    "sourceDataCommitId": "888bb8f8c77ff55105fcab2ad84c263561eb1169",
    "ver": "0.3.0"
  }
}