{
  "apks": [
    {
      "applicationId": "com.fivenine.fitteen",
      "broadcastReceiverIntentFilterActionNames": [],
      "dependencies": [],
      "domainNamesFilteredByExodus": [
        "alog.umeng.com",
        "umeng.com"
      ],
      "metaDataNames": [
        "UMENG_APPKEY",
        "UMENG_CHANNEL"
      ],
      "sha256": "730a9bf19401751a6370b0af471245eda8386713c3342f67d42532150d0d4395",
      "usesPermissions": [
        "android.permission.ACCESS_NETWORK_STATE",
        "android.permission.ACCESS_NETWORK_STATE",
        "android.permission.ACCESS_WIFI_STATE",
        "android.permission.ACCESS_WIFI_STATE",
        "android.permission.BLUETOOTH",
        "android.permission.BLUETOOTH_ADMIN",
        "android.permission.CAMERA",
        "android.permission.CHANGE_NETWORK_STATE",
        "android.permission.CHANGE_NETWORK_STATE",
        "android.permission.CHANGE_WIFI_STATE",
        "android.permission.INTERNET",
        "android.permission.INTERNET",
        "android.permission.MOUNT_UNMOUNT_FILESYSTEMS",
        "android.permission.READ_EXTERNAL_STORAGE",
        "android.permission.READ_EXTERNAL_STORAGE",
        "android.permission.READ_PHONE_STATE",
        "android.permission.READ_PHONE_STATE",
        "android.permission.RECEIVE_BOOT_COMPLETED",
        "android.permission.RECORD_AUDIO",
        "android.permission.RECORD_VIDEO",
        "android.permission.WRITE_EXTERNAL_STORAGE",
        "android.permission.WRITE_EXTERNAL_STORAGE"
      ]
    }
  ],
  "meta": {
    "generated": "2020-08-27T15:47:36.722931",
    "generatedBy": [
      "/home/hc/code/trackingthetrackers/scripts/make-trackers-apk-set.py"
    ],
    "ver": "0.3.0"
  }
}