{
  "apks": [
    {
      "applicationId": "info.guardianproject.gilga",
      "broadcastReceiverIntentFilterActionNames": [],
      "dependencies": [],
      "domainNamesFilteredByExodus": [],
      "metaDataNames": [],
      "sha256": "1eac2e0043977dc8f31947f19852803207205887a5f01a1cbb8a5e477b3d82a9",
      "usesPermissions": [
        "android.permission.ACCESS_WIFI_STATE",
        "android.permission.BLUETOOTH",
        "android.permission.BLUETOOTH_ADMIN",
        "android.permission.CHANGE_WIFI_STATE",
        "android.permission.INTERNET",
        "true",
        "true",
        "true"
      ]
    }
  ],
  "meta": {
    "generated": "2020-08-27T18:12:36.471387",
    "generatedBy": [
      "/home/hc/code/trackingthetrackers/scripts/make-clean-apk-set.py"
    ],
    "generatedByCommitId": "3839559c80042252d3b947fb61c86a18e8b31114",
    "sourceDataCommitId": "888bb8f8c77ff55105fcab2ad84c263561eb1169",
    "ver": "0.3.0"
  }
}