{
  "apks": [
    {
      "applicationId": "sk.inlogic.bubblexslice",
      "broadcastReceiverIntentFilterActionNames": [
        "android.provider.Telephony.SMS_RECEIVED"
      ],
      "dependencies": [],
      "domainNamesFilteredByExodus": [
        ".facebook.com",
        "google-analytics.com"
      ],
      "metaDataNames": [],
      "sha256": "502d53cb0dcce4398af410c27de96a1141d5a6e549dae48965988e5ed9ed38ad",
      "usesPermissions": [
        "android.permission.ACCESS_NETWORK_STATE",
        "android.permission.BROADCAST_SMS",
        "android.permission.INTERNET",
        "android.permission.KILL_BACKGROUND_PROCESSES",
        "android.permission.READ_PHONE_STATE",
        "android.permission.READ_SMS",
        "android.permission.RECEIVE_SMS",
        "android.permission.SEND_SMS",
        "android.permission.SYSTEM_ALERT_WINDOW",
        "android.permission.VIBRATE",
        "android.permission.WAKE_LOCK",
        "android.permission.WRITE_SMS",
        "com.android.vending.BILLING"
      ]
    }
  ],
  "meta": {
    "generated": "2020-08-27T14:50:03.974102",
    "generatedBy": [
      "/home/hc/code/trackingthetrackers/scripts/make-trackers-apk-set.py"
    ],
    "ver": "0.3.0"
  }
}