{
  "apks": [
    {
      "applicationId": "com.games.kdjl554",
      "broadcastReceiverIntentFilterActionNames": [
        "safiap.GET_SHARED_DATA",
        "safiap.framework.ACTION_CANCEL_NOTIFICATION",
        "safiap.framework.ACTION_SET_TIMER"
      ],
      "dependencies": [
        "org.cocos2dx"
      ],
      "domainNamesFilteredByExodus": [],
      "metaDataNames": [],
      "sha256": "eddc0245ac03958afaa71af5bf78b50eb6520a673aaf4ab72c4d1e443c6374c8",
      "usesPermissions": [
        "android.permission.ACCESS_NETWORK_STATE",
        "android.permission.ACCESS_WIFI_STATE",
        "android.permission.INTERNET",
        "android.permission.MOUNT_UNMOUNT_FILESYSTEMS",
        "android.permission.READ_PHONE_STATE",
        "android.permission.SEND_SMS",
        "android.permission.WRITE_EXTERNAL_STORAGE"
      ]
    }
  ],
  "meta": {
    "generated": "2020-08-27T15:50:47.636775",
    "generatedBy": [
      "/home/hc/code/trackingthetrackers/scripts/make-trackers-apk-set.py"
    ],
    "ver": "0.3.0"
  }
}