{
  "apks": [
    {
      "applicationId": "com.qiyi.video",
      "broadcastReceiverIntentFilterActionNames": [
        "android.intent.action.BOOT_COMPLETED",
        "android.intent.action.PACKAGE_REMOVED",
        "android.intent.action.qiyivideo.mp4player",
        "android.intent.action.qiyivideo.startplayerfromThirdEntrance",
        "android.intent.action.qiyivideo.startplayerfromhtmlweixin",
        "android.intent.action.qiyivideo.welcomeactivity",
        "android.net.conn.CONNECTIVITY_CHANGE",
        "com.baidu.android.moplus.action.START",
        "com.baidu.android.pushservice.action.BIND_SYNC",
        "com.baidu.android.pushservice.action.MESSAGE",
        "com.baidu.android.pushservice.action.METHOD",
        "com.baidu.android.pushservice.action.RECEIVE",
        "com.baidu.android.pushservice.action.media.CLICK",
        "com.baidu.android.pushservice.action.notification.CLICK",
        "com.baidu.android.pushservice.action.notification.SHOW",
        "com.iqiyi.client.usb.transfer",
        "com.iqiyi.sdk.android.pushservice.action.MESSAGE",
        "com.iqiyi.sdk.android.pushservice.action.RECEIVE",
        "com.qiyi.heartbeat.alarm.action",
        "com.qiyi.heartbeat.getstrategy.action",
        "com.qiyi.startapp",
        "com.qiyi.video.plugin.download.service.PluginReceiver.ACTION_PLUGIN_RESTART",
        "com.xiaomi.mipush.ERROR",
        "com.xiaomi.mipush.RECEIVE_MESSAGE",
        "com.xiaomi.push.PING_TIMER",
        "notification_action",
        "org.qiyi.android.video.pushmessage.ACTION_AD_DOWNLOAD",
        "org.qiyi.android.video.pushmessage.ACTION_PUSH_CHANGE",
        "org.qiyi.android.video.pushmessage.PUSH_MSG"
      ],
      "dependencies": [
        "com.baidu.location",
        "com.baidu.mobstat"
      ],
      "domainNamesFilteredByExodus": [
        ".google.com",
        "map.baidu.com"
      ],
      "metaDataNames": [
        "91SMARTUPDATE_CHANNEL",
        "BaiduMobAd_CELL_LOCATION",
        "BaiduMobAd_EXCEPTION_LOG",
        "BaiduMobAd_GPS_LOCATION",
        "BaiduMobAd_ONLY_WIFI",
        "BaiduMobAd_SEND_STRATEGY",
        "BaiduMobAd_WIFI_LOCATION",
        "CHANNEL_ID",
        "android.accounts.AccountAuthenticator",
        "api_key",
        "pps_api_key"
      ],
      "sha256": "0f5359c5497f2ddf68357b2d4d738a569e8557d29e5b877cbd6d06732a7b04bf",
      "usesPermissions": [
        "android.permission.ACCESS_COARSE_LOCATION",
        "android.permission.ACCESS_DOWNLOAD_MANAGER",
        "android.permission.ACCESS_FINE_LOCATION",
        "android.permission.ACCESS_NETWORK_STATE",
        "android.permission.ACCESS_WIFI_STATE",
        "android.permission.AUTHENTICATE_ACCOUNTS",
        "android.permission.BLUETOOTH",
        "android.permission.BROADCAST_STICKY",
        "android.permission.CALL_PHONE",
        "android.permission.CAMERA",
        "android.permission.CHANGE_CONFIGURATION",
        "android.permission.CHANGE_WIFI_MULTICAST_STATE",
        "android.permission.CHANGE_WIFI_STATE",
        "android.permission.DISABLE_KEYGUARD",
        "android.permission.DOWNLOAD_WITHOUT_NOTIFICATION",
        "android.permission.GET_ACCOUNTS",
        "android.permission.GET_TASKS",
        "android.permission.INTERACT_ACROSS_USERS_FULL",
        "android.permission.INTERNET",
        "android.permission.KILL_BACKGROUND_PROCESSES",
        "android.permission.MANAGE_ACCOUNTS",
        "android.permission.MOUNT_UNMOUNT_FILESYSTEMS",
        "android.permission.PROCESS_OUTGOING_CALLS",
        "android.permission.READ_CONTACTS",
        "android.permission.READ_EXTERNAL_STORAGE",
        "android.permission.READ_LOGS",
        "android.permission.READ_PHONE_STATE",
        "android.permission.RECEIVE_BOOT_COMPLETED",
        "android.permission.RECEIVE_SMS",
        "android.permission.RECORD_AUDIO",
        "android.permission.SEND_SMS",
        "android.permission.SET_ACTIVITY_WATCHER",
        "android.permission.SYSTEM_ALERT_WINDOW",
        "android.permission.VIBRATE",
        "android.permission.WAKE_LOCK",
        "android.permission.WRITE_CONTACTS",
        "android.permission.WRITE_EXTERNAL_STORAGE",
        "android.permission.WRITE_MEDIA_STORAGE",
        "android.permission.WRITE_SETTINGS",
        "com.android.browser.permission.READ_HISTORY_BOOKMARKS",
        "com.android.launcher.permission.INSTALL_SHORTCUT",
        "com.android.launcher.permission.UNINSTALL_SHORTCUT",
        "com.qiyi.video.permission.MIPUSH_RECEIVE"
      ]
    }
  ],
  "meta": {
    "generated": "2020-08-27T15:29:46.936102",
    "generatedBy": [
      "/home/hc/code/trackingthetrackers/scripts/make-trackers-apk-set.py"
    ],
    "ver": "0.3.0"
  }
}