{
  "apks": [
    {
      "applicationId": "de.srlabs.snoopsnitch",
      "broadcastReceiverIntentFilterActionNames": [],
      "dependencies": [],
      "domainNamesFilteredByExodus": [],
      "metaDataNames": [],
      "sha256": "bf38a2d25cfc3aa6e164a57e4ad80cbde46464c66d640e22466395167869822a",
      "usesPermissions": [
        "android.permission.ACCESS_COARSE_LOCATION",
        "android.permission.ACCESS_FINE_LOCATION",
        "android.permission.ACCESS_NETWORK_STATE",
        "android.permission.ACCESS_SUPERUSER",
        "android.permission.CALL_PHONE",
        "android.permission.GET_TASKS",
        "android.permission.INTERNET",
        "android.permission.READ_PHONE_STATE",
        "android.permission.RECEIVE_SMS",
        "android.permission.SEND_SMS",
        "android.permission.WAKE_LOCK"
      ]
    }
  ],
  "meta": {
    "generated": "2020-08-27T18:04:04.693665",
    "generatedBy": [
      "/home/hc/code/trackingthetrackers/scripts/make-clean-apk-set.py"
    ],
    "generatedByCommitId": "3839559c80042252d3b947fb61c86a18e8b31114",
    "sourceDataCommitId": "888bb8f8c77ff55105fcab2ad84c263561eb1169",
    "ver": "0.3.0"
  }
}