{
  "apks": [
    {
      "applicationId": "com.youcash.ZYWallet",
      "broadcastReceiverIntentFilterActionNames": [
        "android.intent.action.PACKAGE_ADDED",
        "android.intent.action.PACKAGE_REMOVED",
        "android.intent.action.USER_PRESENT",
        "android.net.conn.CONNECTIVITY_CHANGE",
        "cn.jpush.android.intent.ACTION_RICHPUSH_CALLBACK",
        "cn.jpush.android.intent.CONNECTION",
        "cn.jpush.android.intent.MESSAGE_RECEIVED",
        "cn.jpush.android.intent.NOTIFICATION_OPENED",
        "cn.jpush.android.intent.NOTIFICATION_RECEIVED",
        "cn.jpush.android.intent.NOTIFICATION_RECEIVED_PROXY",
        "cn.jpush.android.intent.REGISTRATION",
        "cn.jpush.android.intent.UNREGISTRATION"
      ],
      "dependencies": [
        "com.baidu.location",
        "com.baidu.mapapi"
      ],
      "domainNamesFilteredByExodus": [
        ".facebook.com",
        "map.baidu.com"
      ],
      "metaDataNames": [
        "AuthorizeAdapter",
        "JPUSH_APPKEY",
        "JPUSH_CHANNEL",
        "PARTNER_CODE",
        "com.baidu.lbsapi.API_KEY"
      ],
      "sha256": "c48835d4e7c50c38d492fca7052fb36a73df0650206489046568abbc9edf7ba9",
      "usesPermissions": [
        "android.permission.ACCESS_COARES_UPDATES",
        "android.permission.ACCESS_COARSE_LOCATION",
        "android.permission.ACCESS_COARSE_LOCATION",
        "android.permission.ACCESS_COARSE_LOCATION",
        "android.permission.ACCESS_COARSE_LOCATION",
        "android.permission.ACCESS_FINE_LOCATION",
        "android.permission.ACCESS_FINE_LOCATION",
        "android.permission.ACCESS_FINE_LOCATION",
        "android.permission.ACCESS_FINE_LOCATION",
        "android.permission.ACCESS_LOCATION_EXTRA_COMMANDS",
        "android.permission.ACCESS_LOCATION_EXTRA_COMMANDS",
        "android.permission.ACCESS_MOCK_LOCATION",
        "android.permission.ACCESS_NETWORK_STATE",
        "android.permission.ACCESS_NETWORK_STATE",
        "android.permission.ACCESS_NETWORK_STATE",
        "android.permission.ACCESS_NETWORK_STATE",
        "android.permission.ACCESS_WIFI_STATE",
        "android.permission.ACCESS_WIFI_STATE",
        "android.permission.ACCESS_WIFI_STATE",
        "android.permission.ACCESS_WIFI_STATE",
        "android.permission.BATTERY_STATS",
        "android.permission.BLUETOOTH",
        "android.permission.BLUETOOTH",
        "android.permission.BLUETOOTH_ADMIN",
        "android.permission.CALL_PHONE",
        "android.permission.CAMERA",
        "android.permission.CHANGE_CONFIGURATION",
        "android.permission.CHANGE_NETWORK_STATE",
        "android.permission.CHANGE_NETWORK_STATE",
        "android.permission.CHANGE_WIFI_STATE",
        "android.permission.CHANGE_WIFI_STATE",
        "android.permission.CHANGE_WIFI_STATE",
        "android.permission.FLASHLIGHT",
        "android.permission.GET_ACCOUNTS",
        "android.permission.GET_TASKS",
        "android.permission.GET_TASKS",
        "android.permission.GET_TASKS",
        "android.permission.INTERNET",
        "android.permission.INTERNET",
        "android.permission.INTERNET",
        "android.permission.INTERNET",
        "android.permission.MANAGE_ACCOUNTS",
        "android.permission.MNT_FILESYSTEMS",
        "android.permission.MOUNT_UNMOUNT_FILESYSTEMS",
        "android.permission.MOUNT_UNMOUNT_FILESYSTEMS",
        "android.permission.READ_CONTACTS",
        "android.permission.READ_EXTERNAL_STORAGE",
        "android.permission.READ_LOGS",
        "android.permission.READ_PHONE_STATE",
        "android.permission.READ_PHONE_STATE",
        "android.permission.READ_PHONE_STATE",
        "android.permission.READ_PHONE_STATE",
        "android.permission.RECEIVE_USER_PRESENT",
        "android.permission.RESTART_PACKAGES",
        "android.permission.SYSTEM_ALERT_WINDOW",
        "android.permission.VIBRATE",
        "android.permission.VIBRATE",
        "android.permission.VIBRATE",
        "android.permission.VIBRATE",
        "android.permission.WAKE_LOCK",
        "android.permission.WAKE_LOCK",
        "android.permission.WRITE_EXTERNAL_STORAGE",
        "android.permission.WRITE_EXTERNAL_STORAGE",
        "android.permission.WRITE_EXTERNAL_STORAGE",
        "android.permission.WRITE_EXTERNAL_STORAGE",
        "android.permission.WRITE_SETTINGS",
        "android.permission.WRITE_SETTINGS",
        "android.permission.WRITE_SETTINGS",
        "android.permission.WRITE_SETTINGS",
        "com.youcash.ZYWallet.permission.JPUSH_MESSAGE"
      ]
    }
  ],
  "meta": {
    "generated": "2020-08-27T15:40:02.364116",
    "generatedBy": [
      "/home/hc/code/trackingthetrackers/scripts/make-trackers-apk-set.py"
    ],
    "ver": "0.3.0"
  }
}