{
  "apks": [
    {
      "applicationId": "com.ebaschiera.triplecamel",
      "dependencies": [
        "org.piwik"
      ],
      "domainNamesFilteredByExodus": [],
      "sha256": "d2f8e066c6444c6ee5eafe85a888612fdd8654348f3a524ea5230a22135c92c1",
      "usesPermissions": [
        "android.permission.ACCESS_NETWORK_STATE",
        "android.permission.INTERNET"
      ]
    }
  ],
  "meta": {
    "ver": "0.2.0"
  }
}