{
  "apks": [
    {
      "applicationId": "com.suibianwan.dxsdh",
      "broadcastReceiverIntentFilterActionNames": [
        "android.intent.action.BOOT_COMPLETED",
        "android.intent.action.PACKAGE_REMOVED",
        "android.net.conn.CONNECTIVITY_CHANGE",
        "com.suibianwan.dxsdh.intent.action.COMMAND",
        "org.agoo.android.intent.action.ELECTION_RESULT_V4",
        "org.agoo.android.intent.action.RECEIVE"
      ],
      "dependencies": [
        "com.umeng.analytics",
        "com.umeng.fb",
        "org.cocos2dx"
      ],
      "domainNamesFilteredByExodus": [
        "alog.umeng.com",
        "oc.umeng.com",
        "umeng.com"
      ],
      "metaDataNames": [
        "DT_CHANNEL_ID",
        "DT_CHANNEL_NAME",
        "DT_P_ID",
        "UMENG_APPKEY",
        "UMENG_CHANNEL",
        "UMENG_MESSAGE_SECRET"
      ],
      "sha256": "78e7855d48de2b36e76e679f9d2858f9b3cd2adf97b41680171b0726cbff3d0c",
      "usesPermissions": [
        "android.permission.ACCESS_DOWNLOAD_MANAGER",
        "android.permission.ACCESS_NETWORK_STATE",
        "android.permission.ACCESS_NETWORK_STATE",
        "android.permission.ACCESS_WIFI_STATE",
        "android.permission.ACCESS_WIFI_STATE",
        "android.permission.BROADCAST_PACKAGE_ADDED",
        "android.permission.BROADCAST_PACKAGE_CHANGED",
        "android.permission.BROADCAST_PACKAGE_INSTALL",
        "android.permission.BROADCAST_PACKAGE_REPLACED",
        "android.permission.CHANGE_CONFIGURATION",
        "android.permission.CHANGE_NETWORK_STATE",
        "android.permission.CHANGE_WIFI_STATE",
        "android.permission.DOWNLOAD_WITHOUT_NOTIFICATION",
        "android.permission.GET_ACCOUNTS",
        "android.permission.GET_TASKS",
        "android.permission.GET_TASKS",
        "android.permission.INTERNET",
        "android.permission.INTERNET",
        "android.permission.MOUNT_UNMOUNT_FILESYSTEMS",
        "android.permission.READ_EXTERNAL_STORAGE",
        "android.permission.READ_PHONE_STATE",
        "android.permission.READ_PHONE_STATE",
        "android.permission.READ_SMS",
        "android.permission.READ_SMS",
        "android.permission.RECEIVE_BOOT_COMPLETED",
        "android.permission.RECEIVE_SMS",
        "android.permission.RECEIVE_SMS",
        "android.permission.REORDER_TASKS",
        "android.permission.RESTART_PACKAGES",
        "android.permission.SEND_SMS",
        "android.permission.SEND_SMS",
        "android.permission.SYSTEM_ALERT_WINDOW",
        "android.permission.VIBRATE",
        "android.permission.VIBRATE",
        "android.permission.WAKE_LOCK",
        "android.permission.WRITE_EXTERNAL_STORAGE",
        "android.permission.WRITE_EXTERNAL_STORAGE",
        "android.permission.WRITE_SETTINGS",
        "android.permission.WRITE_SMS",
        "com.android.launcher.permission.INSTALL_SHORTCUT"
      ]
    }
  ],
  "meta": {
    "generated": "2020-08-27T15:45:14.165210",
    "generatedBy": [
      "/home/hc/code/trackingthetrackers/scripts/make-trackers-apk-set.py"
    ],
    "ver": "0.3.0"
  }
}