{
  "apks": [
    {
      "applicationId": "kynam.ime.gotiengviet",
      "broadcastReceiverIntentFilterActionNames": [],
      "dependencies": [],
      "domainNamesFilteredByExodus": [],
      "metaDataNames": [
        "android.view.im"
      ],
      "sha256": "110f388ea66b7055635df12176600727f3d0ca37058c2dae9762e66712d530bf",
      "usesPermissions": [
        "android.permission.READ_CONTACTS",
        "android.permission.READ_USER_DICTIONARY",
        "android.permission.RECORD_AUDIO",
        "android.permission.VIBRATE",
        "android.permission.WRITE_EXTERNAL_STORAGE",
        "android.permission.WRITE_USER_DICTIONARY"
      ]
    }
  ],
  "meta": {
    "generated": "2020-08-27T14:48:41.120413",
    "generatedBy": [
      "/home/hc/code/trackingthetrackers/scripts/make-trackers-apk-set.py"
    ],
    "ver": "0.3.0"
  }
}