{
  "apks": [
    {
      "applicationId": "com.handmobi.stick",
      "broadcastReceiverIntentFilterActionNames": [
        "android.bluetooth.adapter.action.STATE_CHANGED",
        "android.intent.action.ACTION_POWER_CONNECTED",
        "android.intent.action.ACTION_POWER_DISCONNECTED",
        "android.intent.action.ACTION_SHUTDOWN",
        "android.intent.action.BOOT_COMPLETED",
        "android.intent.action.USER_PRESENT",
        "android.net.conn.CONNECTIVITY_CHANGE",
        "android.provider.Telephony.SMS_RECEIVED",
        "com.handmobi.stick.sdk.alarmaction",
        "com.handmobi.stick.sdk.notify",
        "com.handmobi.stick.sdk.notifyup",
        "com.tencent.android.tpush.action.INTERNAL_PUSH_MESSAGE",
        "com.tencent.android.tpush.action.SDK",
        "safiap.GET_SHARED_DATA",
        "safiap.framework.ACTION_CANCEL_NOTIFICATION",
        "safiap.framework.ACTION_SET_TIMER"
      ],
      "dependencies": [
        "com_facebook_login",
        "org.cocos2dx"
      ],
      "domainNamesFilteredByExodus": [
        ".facebook.com",
        ".google.com",
        "umeng.com"
      ],
      "metaDataNames": [
        "DC_APPID",
        "DC_CHANNEL",
        "EGAME_CHANNEL",
        "FIRE_CHANNEL_ID",
        "FIRE_PAY_ID",
        "FIRE_PP",
        "OPEN_EGAME",
        "OPEN_MM",
        "OPEN_NOTIFY",
        "OPEN_UNIPAY",
        "UMENG_APPKEY",
        "XG_V2_ACCESS_ID",
        "XG_V2_ACCESS_KEY",
        "wostore_billing_chinaunicom",
        "wostore_billing_otherpay",
        "wostore_billing_sms"
      ],
      "sha256": "bf6fd26d384b4bc156daab4f2dc899babadd5df1b5251ed16395e8670c2e4b16",
      "usesPermissions": [
        "android.permission.ACCESS_COARSE_LOCATION",
        "android.permission.ACCESS_FINE_LOCATION",
        "android.permission.ACCESS_NETWORK_STATE",
        "android.permission.ACCESS_WIFI_STATE",
        "android.permission.BROADCAST_STICKY",
        "android.permission.CHANGE_NETWORK_STATE",
        "android.permission.CHANGE_WIFI_STATE",
        "android.permission.DEVICE_POWER",
        "android.permission.DISABLE_KEYGUARD",
        "android.permission.GET_TASKS",
        "android.permission.INTERNET",
        "android.permission.KILL_BACKGROUND_PROCESSES",
        "android.permission.MOUNT_UNMOUNT_FILESYSTEMS",
        "android.permission.READ_LOGS",
        "android.permission.READ_PHONE_STATE",
        "android.permission.READ_SMS",
        "android.permission.RECEIVE_BOOT_COMPLETED",
        "android.permission.RECEIVE_SMS",
        "android.permission.RECEIVE_USER_PRESENT",
        "android.permission.RESTART_PACKAGES",
        "android.permission.SEND_SMS",
        "android.permission.SIGNAL_PERSISTENT_PROCESSES",
        "android.permission.SYSTEM_ALERT_WINDOW",
        "android.permission.VIBRATE",
        "android.permission.WAKE_LOCK",
        "android.permission.WRITE_EXTERNAL_STORAGE",
        "android.permission.WRITE_SETTINGS",
        "android.permission.WRITE_SMS"
      ]
    }
  ],
  "meta": {
    "generated": "2020-08-27T15:32:26.919664",
    "generatedBy": [
      "/home/hc/code/trackingthetrackers/scripts/make-trackers-apk-set.py"
    ],
    "ver": "0.3.0"
  }
}