{
  "apks": [
    {
      "applicationId": "com.boyaa.kingslave",
      "broadcastReceiverIntentFilterActionNames": [
        "android.intent.action.DOWNLOAD_COMPLETE",
        "com.android.vending.INSTALL_REFERRER",
        "com.boyaa.godsdk.action.GodSDKPush.RECEIVE_RAW_DATA",
        "com.boyaa.godsdk.action.GodSDKPush.RECEIVE_REGISTRATION_ID",
        "com.google.android.c2dm.intent.RECEIVE",
        "com.google.android.c2dm.intent.REGISTER",
        "com.google.android.c2dm.intent.REGISTRATION",
        "com.google.android.gms.measurement.UPLOAD"
      ],
      "dependencies": [
        "com.appsflyer.",
        "com.google.android.gms.ads.",
        "com.google.android.gms.measurement.",
        "com.umeng.analytics",
        "com_facebook_login"
      ],
      "domainNamesFilteredByExodus": [
        ".facebook.com",
        ".google.com",
        "alog.umeng.com",
        "appsflyer.com",
        "oc.umeng.com",
        "umeng.com"
      ],
      "metaDataNames": [
        "BOYAA_GODSDK_VERSION_CODE",
        "BOYAA_GODSDK_VERSION_NAME",
        "UMENG_APPKEY",
        "com.facebook.sdk.ApplicationId",
        "com.google.android.gms.version"
      ],
      "sha256": "2e85a6fb6bcb6bed1bc6cedf91fc4db83003030db8e937d1ec49119103a86cbc",
      "usesPermissions": [
        "android.permission.ACCESS_COARSE_LOCATION",
        "android.permission.ACCESS_FINE_LOCATION",
        "android.permission.ACCESS_NETWORK_STATE",
        "android.permission.ACCESS_WIFI_STATE",
        "android.permission.BLUETOOTH",
        "android.permission.CHANGE_CONFIGURATION",
        "android.permission.CHANGE_NETWORK_STATE",
        "android.permission.CHANGE_WIFI_MULTICAST_STATE",
        "android.permission.CHANGE_WIFI_STATE",
        "android.permission.DISABLE_KEYGUARD",
        "android.permission.GET_ACCOUNTS",
        "android.permission.GET_TASKS",
        "android.permission.INTERNET",
        "android.permission.MODIFY_AUDIO_SETTINGS",
        "android.permission.MOUNT_UNMOUNT_FILESYSTEMS",
        "android.permission.READ_LOGS",
        "android.permission.READ_PHONE_STATE",
        "android.permission.READ_SMS",
        "android.permission.RECEIVE_BOOT_COMPLETED",
        "android.permission.RECEIVE_SMS",
        "android.permission.RECEIVE_USER_PRESENT",
        "android.permission.RECORD_AUDIO",
        "android.permission.RESTART_PACKAGES",
        "android.permission.RUN_INSTRUMENTATION",
        "android.permission.SEND_SMS",
        "android.permission.SYSTEM_ALERT_WINDOW",
        "android.permission.VIBRATE",
        "android.permission.WAKE_LOCK",
        "android.permission.WRITE_EXTERNAL_STORAGE",
        "android.permission.WRITE_SETTINGS",
        "com.android.launcher.permission.INSTALL_SHORTCUT",
        "com.android.launcher.permission.READ_SETTINGS",
        "com.android.launcher.permission.UNINSTALL_SHORTCUT",
        "com.android.vending.BILLING",
        "com.boyaa.kingslave.permission.C2D_MESSAGE",
        "com.google.android.c2dm.permission.RECEIVE",
        "com.google.android.c2dm.permission.REGISTER",
        "org.simalliance.openmobileapi.SMARTCARD"
      ]
    }
  ],
  "meta": {
    "generated": "2020-08-27T15:46:51.677649",
    "generatedBy": [
      "/home/hc/code/trackingthetrackers/scripts/make-trackers-apk-set.py"
    ],
    "ver": "0.3.0"
  }
}