{
  "apks": [
    {
      "applicationId": "edu.killerud.kitchentimer",
      "broadcastReceiverIntentFilterActionNames": [],
      "dependencies": [],
      "domainNamesFilteredByExodus": [],
      "metaDataNames": [],
      "sha256": "7afce081e281539ce6a964a13a37d5749f55020613636a54577779c0da2e506e",
      "usesPermissions": [
        "android.permission.VIBRATE",
        "android.permission.WAKE_LOCK"
      ]
    }
  ],
  "meta": {
    "generated": "2020-08-27T17:02:39.521346",
    "generatedBy": [
      "/home/hc/code/trackingthetrackers/scripts/make-clean-apk-set.py"
    ],
    "generatedByCommitId": "40519285d6f404593fa655fa89b433743c25289e",
    "sourceDataCommitId": "888bb8f8c77ff55105fcab2ad84c263561eb1169",
    "ver": "0.3.0"
  }
}