{
  "apks": [
    {
      "applicationId": "org.ligi.survivalmanual",
      "broadcastReceiverIntentFilterActionNames": [],
      "dependencies": [],
      "domainNamesFilteredByExodus": [
        ".google.com"
      ],
      "metaDataNames": [],
      "sha256": "23799c0a7c7204df52cf1c18c937825a7dfe11458b3a2f9f7bb5ea36ddaf5541",
      "usesPermissions": []
    }
  ],
  "meta": {
    "generated": "2020-08-27T18:30:27.778136",
    "generatedBy": [
      "/home/hc/code/trackingthetrackers/scripts/make-clean-apk-set.py"
    ],
    "generatedByCommitId": "3839559c80042252d3b947fb61c86a18e8b31114",
    "sourceDataCommitId": "888bb8f8c77ff55105fcab2ad84c263561eb1169",
    "ver": "0.3.0"
  }
}