{
  "apks": [
    {
      "applicationId": "com.zqsky.app.shejian",
      "broadcastReceiverIntentFilterActionNames": [
        "action.cust.point.process_main",
        "action.cust.point.process_vip",
        "android.intent.action.BOOT_COMPLETED"
      ],
      "dependencies": [
        "com.google.ads.",
        "com.umeng.fb"
      ],
      "domainNamesFilteredByExodus": [
        ".google.com",
        "umeng.com"
      ],
      "metaDataNames": [
        "MY_CHANNEL",
        "MY_FORWARD_LOCATION",
        "MY_FORWARD_LOGIN",
        "UMENG_APPKEY",
        "UMENG_CHANNEL",
        "com.dianle.cid"
      ],
      "sha256": "65ae9ec3ff90dcedb4554c58546e4af6b3eae4d14570d7ec395e841124a04d45",
      "usesPermissions": [
        "android.permission.ACCESS_COARSE_LOCATION",
        "android.permission.ACCESS_FINE_LOCATION",
        "android.permission.ACCESS_NETWORK_STATE",
        "android.permission.ACCESS_WIFI_STATE",
        "android.permission.GET_TASKS",
        "android.permission.INTERNET",
        "android.permission.READ_LOGS",
        "android.permission.READ_PHONE_STATE",
        "android.permission.RECEIVE_BOOT_COMPLETED",
        "android.permission.WRITE_EXTERNAL_STORAGE",
        "com.android.launcher.permission.INSTALL_SHORTCUT"
      ]
    }
  ],
  "meta": {
    "generated": "2020-08-27T15:09:13.554054",
    "generatedBy": [
      "/home/hc/code/trackingthetrackers/scripts/make-trackers-apk-set.py"
    ],
    "ver": "0.3.0"
  }
}