{
  "apks": [
    {
      "applicationId": "com.bokehlivewallpaper",
      "broadcastReceiverIntentFilterActionNames": [
        "android.intent.action.BOOT_COMPLETED",
        "android.intent.action.PACKAGE_ADDED",
        "android.intent.action.PACKAGE_REMOVED",
        "opaliNotifikaciju"
      ],
      "dependencies": [
        "com.flurry.",
        "com.google.ads.",
        "com.google.android.gms.analytics."
      ],
      "domainNamesFilteredByExodus": [
        ".facebook.com",
        ".google.com",
        "adcolony.com",
        "doubleclick.net",
        "flurry.com",
        "google-analytics.com"
      ],
      "metaDataNames": [
        "MINIMOB_APPHOST",
        "MINIMOB_APPID",
        "MINIMOB_APPKEY",
        "MINIMOB_OUTOFAPP",
        "android.service.wallpaper"
      ],
      "sha256": "69e2b3bbc217d52e36b2840fd98ed0e807c49210488a94e66e3f24f1e49f2cca",
      "usesPermissions": [
        "android.permission.ACCESS_COARSE_LOCATION",
        "android.permission.ACCESS_FINE_LOCATION",
        "android.permission.ACCESS_NETWORK_STATE",
        "android.permission.ACCESS_WIFI_STATE",
        "android.permission.GET_ACCOUNTS",
        "android.permission.GET_TASKS",
        "android.permission.INTERNET",
        "android.permission.READ_PHONE_STATE",
        "android.permission.RECEIVE_BOOT_COMPLETED",
        "android.permission.SET_WALLPAPER",
        "android.permission.USE_CREDENTIALS",
        "android.permission.VIBRATE",
        "android.permission.WAKE_LOCK",
        "android.permission.WRITE_EXTERNAL_STORAGE"
      ]
    }
  ],
  "meta": {
    "generated": "2020-08-27T15:06:04.543539",
    "generatedBy": [
      "/home/hc/code/trackingthetrackers/scripts/make-trackers-apk-set.py"
    ],
    "ver": "0.3.0"
  }
}