{
  "apks": [
    {
      "applicationId": "com.onion.lock",
      "broadcastReceiverIntentFilterActionNames": [
        "android.ad.ACTION_SHOW_TIP",
        "android.app.action.DEVICE_ADMIN_ENABLED",
        "android.appwidget.action.APPWIDGET_UPDATE",
        "android.intent.action.PACKAGE_ADDED",
        "android.intent.action.PACKAGE_REMOVED",
        "android.net.conn.CONNECTIVITY_CHANGE",
        "lock"
      ],
      "dependencies": [],
      "domainNamesFilteredByExodus": [
        "umeng.com"
      ],
      "metaDataNames": [
        "R_ID",
        "R_IDC",
        "R_IDP",
        "UMENG_APPKEY",
        "UMENG_CHANNEL",
        "android.app.device_admin",
        "android.appwidget.provider"
      ],
      "sha256": "49104cc2eba66050c2fd7f8272ed748490438bd15d3b3c6383e42ffe21ae2d00",
      "usesPermissions": [
        "android.permission.ACCESS_NETWORK_STATE",
        "android.permission.ACCESS_WIFI_STATE",
        "android.permission.GET_TASKS",
        "android.permission.INTERNET",
        "android.permission.READ_LOGS",
        "android.permission.READ_PHONE_STATE",
        "android.permission.RECEIVE_BOOT_COMPLETED",
        "android.permission.SYSTEM_ALERT_WINDOW",
        "android.permission.WRITE_EXTERNAL_STORAGE",
        "com.android.browser.permission.READ_HISTORY_BOOKMARKS",
        "com.android.browser.permission.WRITE_HISTORY_BOOKMARKS",
        "com.android.launcher.permission.INSTALL_SHORTCUT"
      ]
    }
  ],
  "meta": {
    "generated": "2020-08-27T15:02:36.580640",
    "generatedBy": [
      "/home/hc/code/trackingthetrackers/scripts/make-trackers-apk-set.py"
    ],
    "ver": "0.3.0"
  }
}