{
  "apks": [
    {
      "applicationId": "com.anysoftkeyboard.languagepack.neo",
      "broadcastReceiverIntentFilterActionNames": [
        "com.menny.android.anysoftkeyboard.DICTIONARY",
        "com.menny.android.anysoftkeyboard.KEYBOARD"
      ],
      "dependencies": [],
      "domainNamesFilteredByExodus": [],
      "metaDataNames": [
        "com.menny.android.anysoftkeyboard.dictionaries",
        "com.menny.android.anysoftkeyboard.keyboards"
      ],
      "sha256": "e7a5fc924ab0a3100f6613c7d7035a32a5dbd56adef1f2758bde214856c07d66",
      "usesPermissions": []
    }
  ],
  "meta": {
    "generated": "2020-08-27T16:52:56.788507",
    "generatedBy": [
      "/home/hc/code/trackingthetrackers/scripts/make-clean-apk-set.py"
    ],
    "generatedByCommitId": "40519285d6f404593fa655fa89b433743c25289e",
    "sourceDataCommitId": "888bb8f8c77ff55105fcab2ad84c263561eb1169",
    "ver": "0.3.0"
  }
}