{
  "apks": [
    {
      "applicationId": "com.sega.earthworm.jim.es",
      "broadcastReceiverIntentFilterActionNames": [
        "com.android.vending.INSTALL_REFERRER"
      ],
      "dependencies": [
        "com.flurry.",
        "com.google.ads.",
        "com.google.android.gms.ads.",
        "com.inmobi",
        "com.kochava.android.tracker.",
        "com.millennialmedia.",
        "com.mobclix.android.sdk",
        "org.nexage."
      ],
      "domainNamesFilteredByExodus": [
        ".google.com",
        "control.kochava.com",
        "flurry.com"
      ],
      "metaDataNames": [
        "com.adeco.analytics.FLURRY_KEY",
        "com.adeco.analytics.KOCHAVA_KEY",
        "com.google.android.gms.version",
        "com.startapp.android.APP_ID",
        "com.startapp.android.DEV_ID"
      ],
      "sha256": "4ab1c139d2b9a2ab7b1e8ee1c42644f18ffeecb0170dfba6b3f785683bca04ad",
      "usesPermissions": [
        "android.permission.ACCESS_COARSE_LOCATION",
        "android.permission.ACCESS_FINE_LOCATION",
        "android.permission.ACCESS_NETWORK_STATE",
        "android.permission.ACCESS_WIFI_STATE",
        "android.permission.GET_TASKS",
        "android.permission.INTERNET",
        "android.permission.READ_PHONE_STATE",
        "android.permission.SYSTEM_ALERT_WINDOW",
        "android.permission.WRITE_EXTERNAL_STORAGE"
      ]
    }
  ],
  "meta": {
    "generated": "2020-08-27T15:30:59.172024",
    "generatedBy": [
      "/home/hc/code/trackingthetrackers/scripts/make-trackers-apk-set.py"
    ],
    "ver": "0.3.0"
  }
}