{
  "apks": [
    {
      "applicationId": "com.v1_4.BDCC0D7D69197E8B.com",
      "broadcastReceiverIntentFilterActionNames": [],
      "dependencies": [],
      "domainNamesFilteredByExodus": [
        ".facebook.com",
        ".google.com"
      ],
      "metaDataNames": [],
      "sha256": "c26fd9610fc8dae377a887864a7d15dd8dd571c3f59c0da447617e6cab251b9b",
      "usesPermissions": [
        "android.permission.ACCESS_FINE_LOCATION",
        "android.permission.ACCESS_NETWORK_STATE",
        "android.permission.INTERNET",
        "android.permission.READ_PHONE_STATE"
      ]
    }
  ],
  "meta": {
    "generated": "2020-08-27T15:00:53.481765",
    "generatedBy": [
      "/home/hc/code/trackingthetrackers/scripts/make-trackers-apk-set.py"
    ],
    "ver": "0.3.0"
  }
}