{
  "apks": [
    {
      "applicationId": "douzifly.list",
      "broadcastReceiverIntentFilterActionNames": [
        "ClearAlarmPro",
        "android.intent.action.BOOT_COMPLETED"
      ],
      "dependencies": [],
      "domainNamesFilteredByExodus": [],
      "metaDataNames": [
        "AA_DB_NAME",
        "AA_DB_VERSION"
      ],
      "sha256": "79783f786d9f25db437d622be3c2ce26964898e7163e5ee133b113854e7b8e19",
      "usesPermissions": [
        "android.permission.FLASHLIGHT",
        "android.permission.RECEIVE_BOOT_COMPLETED",
        "android.permission.VIBRATE",
        "android.permission.WRITE_EXTERNAL_STORAGE"
      ]
    }
  ],
  "meta": {
    "generated": "2020-08-27T18:05:51.536767",
    "generatedBy": [
      "/home/hc/code/trackingthetrackers/scripts/make-clean-apk-set.py"
    ],
    "generatedByCommitId": "3839559c80042252d3b947fb61c86a18e8b31114",
    "sourceDataCommitId": "888bb8f8c77ff55105fcab2ad84c263561eb1169",
    "ver": "0.3.0"
  }
}