{
  "apks": [
    {
      "applicationId": "org.epstudios.morbidmeter",
      "broadcastReceiverIntentFilterActionNames": [
        "android.appwidget.action.APPWIDGET_UPDATE"
      ],
      "dependencies": [],
      "domainNamesFilteredByExodus": [],
      "metaDataNames": [
        "android.appwidget.provider"
      ],
      "sha256": "9a53021fff38ae28efd45a40c3ad4854901489be9a4fa3c1ff0f9e1033777cd9",
      "usesPermissions": []
    }
  ],
  "meta": {
    "generated": "2020-08-27T17:05:16.497659",
    "generatedBy": [
      "/home/hc/code/trackingthetrackers/scripts/make-clean-apk-set.py"
    ],
    "generatedByCommitId": "40519285d6f404593fa655fa89b433743c25289e",
    "sourceDataCommitId": "888bb8f8c77ff55105fcab2ad84c263561eb1169",
    "ver": "0.3.0"
  }
}