{
  "apks": [
    {
      "applicationId": "org.fdroid.fdroid.privileged",
      "broadcastReceiverIntentFilterActionNames": [],
      "dependencies": [],
      "domainNamesFilteredByExodus": [],
      "metaDataNames": [],
      "sha256": "429bde81414c8779283c2e552c4d27893ca8ed17dff6d7296cf2a06ff197672e",
      "usesPermissions": [
        "android.permission.DELETE_PACKAGES",
        "android.permission.INSTALL_PACKAGES"
      ]
    }
  ],
  "meta": {
    "generated": "2020-08-27T17:05:22.618112",
    "generatedBy": [
      "/home/hc/code/trackingthetrackers/scripts/make-clean-apk-set.py"
    ],
    "generatedByCommitId": "40519285d6f404593fa655fa89b433743c25289e",
    "sourceDataCommitId": "888bb8f8c77ff55105fcab2ad84c263561eb1169",
    "ver": "0.3.0"
  }
}