{
  "apks": [
    {
      "applicationId": "com.adgad.kboard",
      "broadcastReceiverIntentFilterActionNames": [],
      "dependencies": [],
      "domainNamesFilteredByExodus": [],
      "metaDataNames": [
        "android.view.im",
        "com.google.android.backup.api_key"
      ],
      "sha256": "e9ba0ae9c19b5d3a3bb4748ef0fb31402106927bdd940022a3fc06936e9ce284",
      "usesPermissions": [
        "android.permission.INTERNET",
        "android.permission.VIBRATE"
      ]
    }
  ],
  "meta": {
    "generated": "2020-08-27T16:52:17.011786",
    "generatedBy": [
      "/home/hc/code/trackingthetrackers/scripts/make-clean-apk-set.py"
    ],
    "generatedByCommitId": "40519285d6f404593fa655fa89b433743c25289e",
    "sourceDataCommitId": "888bb8f8c77ff55105fcab2ad84c263561eb1169",
    "ver": "0.3.0"
  }
}