{
  "apks": [
    {
      "applicationId": "com.passcard",
      "broadcastReceiverIntentFilterActionNames": [],
      "dependencies": [],
      "domainNamesFilteredByExodus": [],
      "metaDataNames": [],
      "sha256": "192b610952b105e94aae0f462450713c4ec71ab89feb90dfe78c0ef239639ff9",
      "usesPermissions": []
    }
  ],
  "meta": {
    "generated": "2020-08-27T17:00:15.518015",
    "generatedBy": [
      "/home/hc/code/trackingthetrackers/scripts/make-clean-apk-set.py"
    ],
    "generatedByCommitId": "40519285d6f404593fa655fa89b433743c25289e",
    "sourceDataCommitId": "888bb8f8c77ff55105fcab2ad84c263561eb1169",
    "ver": "0.3.0"
  }
}