{
  "apks": [
    {
      "applicationId": "org.vv.carExamB",
      "broadcastReceiverIntentFilterActionNames": [
        "android.intent.action.PACKAGE_ADDED"
      ],
      "dependencies": [
        "net.youmi"
      ],
      "domainNamesFilteredByExodus": [
        "aos.wall.youmi.net",
        "youmi.net"
      ],
      "metaDataNames": [
        "YOUMI_CHANNEL"
      ],
      "sha256": "588f33edd558b5533547ffd1292da3f9851f2788c700bd2a84ff242a6996e40c",
      "usesPermissions": [
        "android.permission.ACCESS_COARSE_LOCATION",
        "android.permission.ACCESS_NETWORK_STATE",
        "android.permission.ACCESS_WIFI_STATE",
        "android.permission.INTERNET",
        "android.permission.READ_EXTERNAL_STORAGE",
        "android.permission.READ_PHONE_STATE",
        "android.permission.WRITE_EXTERNAL_STORAGE",
        "com.android.launcher.permission.INSTALL_SHORTCUT"
      ]
    }
  ],
  "meta": {
    "generated": "2020-08-27T15:05:27.841824",
    "generatedBy": [
      "/home/hc/code/trackingthetrackers/scripts/make-trackers-apk-set.py"
    ],
    "ver": "0.3.0"
  }
}