{
  "apks": [
    {
      "applicationId": "com.quaap.dodatheexploda",
      "broadcastReceiverIntentFilterActionNames": [],
      "dependencies": [],
      "domainNamesFilteredByExodus": [],
      "metaDataNames": [],
      "sha256": "3a859ea5e7373e6a178826b7fb037c0a001c6f8bf3e5f3f9d141576e494c1446",
      "usesPermissions": []
    }
  ],
  "meta": {
    "generated": "2020-08-27T17:00:25.931549",
    "generatedBy": [
      "/home/hc/code/trackingthetrackers/scripts/make-clean-apk-set.py"
    ],
    "generatedByCommitId": "40519285d6f404593fa655fa89b433743c25289e",
    "sourceDataCommitId": "888bb8f8c77ff55105fcab2ad84c263561eb1169",
    "ver": "0.3.0"
  }
}