{
  "apks": [
    {
      "applicationId": "com.Angrybirdsriofruitbanana.xyfxh",
      "broadcastReceiverIntentFilterActionNames": [
        "android.intent.action.BOOT_COMPLETED",
        "android.intent.action.PACKAGE_ADDED"
      ],
      "dependencies": [
        "com.airpush."
      ],
      "domainNamesFilteredByExodus": [
        ".google.com",
        "api.airpush.com",
        "beta.airpush.com"
      ],
      "metaDataNames": [
        "DOMOB_PID",
        "DOMOB_TEST_MODE"
      ],
      "sha256": "3209fe5bc6f0c3841f5a39b1f40ab1c7b186ccc427a0c3d4869cbd4d7364fc71",
      "usesPermissions": [
        "android.permission.ACCESS_COARSE_LOCATION",
        "android.permission.ACCESS_FINE_LOCATION",
        "android.permission.ACCESS_NETWORK_STATE",
        "android.permission.ACCESS_WIFI_STATE",
        "android.permission.FLASHLIGHT",
        "android.permission.GET_TASKS",
        "android.permission.INTERNET",
        "android.permission.READ_PHONE_STATE",
        "android.permission.RECEIVE_BOOT_COMPLETED",
        "android.permission.VIBRATE",
        "android.permission.WRITE_EXTERNAL_STORAGE",
        "com.android.browser.permission.READ_HISTORY_BOOKMARKS",
        "com.android.browser.permission.WRITE_HISTORY_BOOKMARKS",
        "com.android.launcher.permission.INSTALL_SHORTCUT"
      ]
    }
  ],
  "meta": {
    "generated": "2020-08-27T15:04:12.416665",
    "generatedBy": [
      "/home/hc/code/trackingthetrackers/scripts/make-trackers-apk-set.py"
    ],
    "ver": "0.3.0"
  }
}