{
  "apks": [
    {
      "applicationId": "com.cgogolin.library",
      "broadcastReceiverIntentFilterActionNames": [],
      "dependencies": [],
      "domainNamesFilteredByExodus": [],
      "metaDataNames": [
        "android.app.searchable",
        "com.sec.android.support.multiwindow"
      ],
      "sha256": "510fc3894e10b4ff96daa765e51adbb1a77c87cd9f77f9cf4767e6db7766d7c4",
      "usesPermissions": [
        "android.permission.READ_EXTERNAL_STORAGE"
      ]
    }
  ],
  "meta": {
    "generated": "2020-08-27T17:16:28.146058",
    "generatedBy": [
      "/home/hc/code/trackingthetrackers/scripts/make-clean-apk-set.py"
    ],
    "generatedByCommitId": "40519285d6f404593fa655fa89b433743c25289e",
    "sourceDataCommitId": "888bb8f8c77ff55105fcab2ad84c263561eb1169",
    "ver": "0.3.0"
  }
}