{
  "apks": [
    {
      "applicationId": "nfrbk.httr.nvlqhlobm",
      "broadcastReceiverIntentFilterActionNames": [],
      "dependencies": [],
      "domainNamesFilteredByExodus": [],
      "metaDataNames": [],
      "sha256": "36ccb52063cbb9a3726f8a0ed48eec674c9d67260ba9b42fd73a2d88a2e813e6",
      "usesPermissions": []
    }
  ],
  "meta": {
    "generated": "2020-08-27T15:05:49.848931",
    "generatedBy": [
      "/home/hc/code/trackingthetrackers/scripts/make-trackers-apk-set.py"
    ],
    "ver": "0.3.0"
  }
}