{
  "apks": [
    {
      "applicationId": "de.perflyst.batterycalibration",
      "broadcastReceiverIntentFilterActionNames": [],
      "dependencies": [],
      "domainNamesFilteredByExodus": [],
      "metaDataNames": [],
      "sha256": "1921e6a0652282d6ed10011b830d53fddc90056c6a0611a5ace381feb73a15f2",
      "usesPermissions": []
    }
  ],
  "meta": {
    "generated": "2020-08-27T17:02:15.372508",
    "generatedBy": [
      "/home/hc/code/trackingthetrackers/scripts/make-clean-apk-set.py"
    ],
    "generatedByCommitId": "40519285d6f404593fa655fa89b433743c25289e",
    "sourceDataCommitId": "888bb8f8c77ff55105fcab2ad84c263561eb1169",
    "ver": "0.3.0"
  }
}