{
  "apks": [
    {
      "applicationId": "org.wikipedia",
      "broadcastReceiverIntentFilterActionNames": [
        "android.appwidget.action.APPWIDGET_UPDATE",
        "com.android.vending.INSTALL_REFERRER"
      ],
      "dependencies": [
        "com$mapbox$mapboxsdk$",
        "com.mapbox.mapboxsdk.",
        "net$hockeyapp$",
        "net.hockeyapp."
      ],
      "domainNamesFilteredByExodus": [
        ".google.com",
        "a.tiles.mapbox.com",
        "hockeyapp.net"
      ],
      "metaDataNames": [
        "android.appwidget.provider",
        "channel"
      ],
      "sha256": "8aeb912daba3c7d1e23cdd74f8fc3bdf0b388d61e11f5ff7a38aacea1d6fb626",
      "usesPermissions": [
        "android.permission.ACCESS_FINE_LOCATION",
        "android.permission.ACCESS_NETWORK_STATE",
        "android.permission.INTERNET",
        "android.permission.WRITE_EXTERNAL_STORAGE"
      ]
    }
  ],
  "meta": {
    "generated": "2020-08-27T14:48:28.097048",
    "generatedBy": [
      "/home/hc/code/trackingthetrackers/scripts/make-trackers-apk-set.py"
    ],
    "ver": "0.3.0"
  }
}