{
  "apks": [
    {
      "applicationId": "com.wabadaba.dziennik",
      "broadcastReceiverIntentFilterActionNames": [
        "com.google.android.c2dm.intent.RECEIVE"
      ],
      "dependencies": [
        "com$bugsnag$",
        "com.bugsnag."
      ],
      "domainNamesFilteredByExodus": [],
      "metaDataNames": [
        "android.support.VERSION",
        "com.bugsnag.android.API_KEY"
      ],
      "sha256": "31e0a75a972d98d452090ff9afe5ad628ae1411682be3fa549cb1790f8129f56",
      "usesPermissions": [
        "android.permission.ACCESS_NETWORK_STATE",
        "android.permission.INTERNET"
      ]
    }
  ],
  "meta": {
    "generated": "2020-08-27T17:52:35.463291",
    "generatedBy": [
      "/home/hc/code/trackingthetrackers/scripts/make-clean-apk-set.py"
    ],
    "generatedByCommitId": "3839559c80042252d3b947fb61c86a18e8b31114",
    "sourceDataCommitId": "888bb8f8c77ff55105fcab2ad84c263561eb1169",
    "ver": "0.3.0"
  }
}