{
  "apks": [
    {
      "applicationId": "com.seleuco.ytvru",
      "broadcastReceiverIntentFilterActionNames": [
        "android.intent.action.BOOT_COMPLETED",
        "android.intent.action.PACKAGE_ADDED",
        "android.intent.action.PACKAGE_REMOVED",
        "android.intent.action.USER_PRESENT",
        "android.net.conn.CONNECTIVITY_CHANGE",
        "broadcast.route.control",
        "com.snail.action.client",
        "droid.snail.action.st",
        "droid_snaillib_apkrun_intent.receiver.1",
        "droid_snaillib_apkrun_intent.receiver.2",
        "droid_snaillib_apkrun_intent.receiver.3",
        "droid_snaillib_apkrun_intent.receiver.4",
        "droid_snaillib_apkrun_intent.receiver.5"
      ],
      "dependencies": [
        "com.umeng.analytics"
      ],
      "domainNamesFilteredByExodus": [
        "alog.umeng.com",
        "oc.umeng.com",
        "umeng.com"
      ],
      "metaDataNames": [
        "SNAIL_CHANNEL_ID",
        "SNAIL_DEV_ID",
        "SNAIL_SDK_LOC",
        "UMENG_APPKEY",
        "UMENG_CHANNEL",
        "Y-ID",
        "YCHL-ID",
        "version"
      ],
      "sha256": "e0671034a890f9574198bee96c723d8ff65af06d432890d7d8e86b74c6492539",
      "usesPermissions": [
        "android.permission.ACCESS_COARSE_LOCATION",
        "android.permission.ACCESS_FINE_LOCATION",
        "android.permission.ACCESS_LOCATION_EXTRA_COMMANDS",
        "android.permission.ACCESS_MOCK_LOCATION",
        "android.permission.ACCESS_NETWORK_STATE",
        "android.permission.ACCESS_WIFI_STATE",
        "android.permission.CHANGE_WIFI_STATE",
        "android.permission.GET_TASKS",
        "android.permission.INTERNET",
        "android.permission.MOUNT_UNMOUNT_FILESYSTEMS",
        "android.permission.READ_PHONE_STATE",
        "android.permission.RECEIVE_BOOT_COMPLETED",
        "android.permission.SYSTEM_ALERT_WINDOW",
        "android.permission.VIBRATE",
        "android.permission.WRITE_EXTERNAL_STORAGE"
      ]
    }
  ],
  "meta": {
    "generated": "2020-08-27T15:11:19.874932",
    "generatedBy": [
      "/home/hc/code/trackingthetrackers/scripts/make-trackers-apk-set.py"
    ],
    "ver": "0.3.0"
  }
}