{
  "apks": [
    {
      "applicationId": "com.steve.game.rpgclicker",
      "broadcastReceiverIntentFilterActionNames": [
        "android.intent.action.PACKAGE_ADDED",
        "android.intent.action.PACKAGE_INSTALL",
        "android.intent.action.USER_PRESENT",
        "android.net.conn.CONNECTIVITY_CHANGE",
        "com.amazon.inapp.purchasing.NOTIFY"
      ],
      "dependencies": [
        "com$amazon$device$ads",
        "com$amazon$insights",
        "com.amazon.device.ads",
        "com.amazon.insights",
        "com.chartboost.sdk.",
        "com.google.ads.",
        "com.google.android.gms.ads.",
        "com.google.android.gms.analytics.",
        "com.google.android.gms.tagmanager",
        "com.vungle.publisher.",
        "com_facebook_login"
      ],
      "domainNamesFilteredByExodus": [
        ".chartboost.com",
        ".facebook.com",
        ".google.com",
        "api.vungle.com",
        "doubleclick.net",
        "google-analytics.com",
        "www.googletagmanager.com"
      ],
      "metaDataNames": [
        "APP_ID",
        "APP_PID",
        "com.facebook.sdk.ApplicationId",
        "com.google.android.gms.games.APP_ID",
        "com.google.android.gms.version",
        "j-id"
      ],
      "sha256": "997e7f976ab7692ed2b3790152177abf8539be10315f292a95a0168a788cefb0",
      "usesPermissions": [
        "android.permission.ACCESS_NETWORK_STATE",
        "android.permission.ACCESS_WIFI_STATE",
        "android.permission.GET_TASKS",
        "android.permission.INTERNET",
        "android.permission.READ_PHONE_STATE",
        "android.permission.SYSTEM_ALERT_WINDOW",
        "android.permission.WAKE_LOCK",
        "android.permission.WRITE_EXTERNAL_STORAGE",
        "com.android.launcher.permission.INSTALL_SHORTCUT",
        "com.android.vending.BILLING"
      ]
    }
  ],
  "meta": {
    "generated": "2020-08-27T14:58:44.855445",
    "generatedBy": [
      "/home/hc/code/trackingthetrackers/scripts/make-trackers-apk-set.py"
    ],
    "ver": "0.3.0"
  }
}