{
  "apks": [
    {
      "applicationId": "it.niedermann.owncloud.notes",
      "broadcastReceiverIntentFilterActionNames": [],
      "dependencies": [],
      "domainNamesFilteredByExodus": [],
      "metaDataNames": [
        "android.app.default_searchable",
        "android.app.searchable",
        "android.support.VERSION"
      ],
      "sha256": "5bf38f1ac8ad88481d2ec9c905f27d7c500bc7f1eb03f5d46027bd56cc3a45c1",
      "usesPermissions": [
        "android.permission.ACCESS_NETWORK_STATE",
        "android.permission.INTERNET",
        "android.permission.USE_CREDENTIALS"
      ]
    }
  ],
  "meta": {
    "generated": "2020-08-27T18:14:32.724992",
    "generatedBy": [
      "/home/hc/code/trackingthetrackers/scripts/make-clean-apk-set.py"
    ],
    "generatedByCommitId": "3839559c80042252d3b947fb61c86a18e8b31114",
    "sourceDataCommitId": "888bb8f8c77ff55105fcab2ad84c263561eb1169",
    "ver": "0.3.0"
  }
}