{
  "apks": [
    {
      "applicationId": "com.vacuumstudio.rescueorange",
      "broadcastReceiverIntentFilterActionNames": [
        "com.google.android.c2dm.intent.RECEIVE",
        "com.google.android.gms.measurement.UPLOAD",
        "com.inmobi.share.id"
      ],
      "dependencies": [
        "com.facebook.ads",
        "com.flurry.",
        "com.google.ads.",
        "com.google.android.gms.ads.",
        "com.google.android.gms.analytics.",
        "com.google.android.gms.measurement.",
        "com.google.android.gms.tagmanager",
        "com.inmobi",
        "org.cocos2dx"
      ],
      "domainNamesFilteredByExodus": [
        ".facebook.com",
        ".google.com",
        "config.inmobi.com",
        "doubleclick.net",
        "google-analytics.com",
        "i.l.inmobicdn.net",
        "i.w.inmobi.com",
        "inmobi.com",
        "inmobicdn.net",
        "sdkm.w.inmobi.com",
        "w.inmobi.com",
        "www.googletagmanager.com"
      ],
      "metaDataNames": [
        "android.app.lib_name",
        "com.google.android.gms.games.APP_ID",
        "com.google.android.gms.version"
      ],
      "sha256": "bfb7bd5990a3ad13cab427e3976f4cb69547d4c664709374e1c3f647314726d9",
      "usesPermissions": [
        "android.permission.ACCESS_NETWORK_STATE",
        "android.permission.ACCESS_WIFI_STATE",
        "android.permission.GET_ACCOUNTS",
        "android.permission.INTERNET",
        "android.permission.READ_PHONE_STATE",
        "android.permission.VIBRATE",
        "android.permission.WAKE_LOCK",
        "android.permission.WRITE_EXTERNAL_STORAGE",
        "com.google.android.c2dm.permission.RECEIVE",
        "com.google.android.gms.permission.ACTIVITY_RECOGNITION",
        "com.vacuumstudio.rescueorange.permission.C2D_MESSAGE"
      ]
    }
  ],
  "meta": {
    "generated": "2020-08-27T15:35:53.310803",
    "generatedBy": [
      "/home/hc/code/trackingthetrackers/scripts/make-trackers-apk-set.py"
    ],
    "ver": "0.3.0"
  }
}