{
  "apks": [
    {
      "applicationId": "com.icaw.candymaker",
      "broadcastReceiverIntentFilterActionNames": [
        "android.intent.action.BOOT_COMPLETED"
      ],
      "dependencies": [
        "com.apsalar.sdk.",
        "com.chartboost.sdk.",
        "com.flurry.",
        "com.google.ads.",
        "com.inmobi",
        "com.millennialmedia.",
        "com.mobclix.android.sdk",
        "com.tapjoy."
      ],
      "domainNamesFilteredByExodus": [
        ".chartboost.com",
        ".google.com",
        "api.airpush.com",
        "beta.airpush.com",
        "doubleclick.net",
        "e.apsalar.com",
        "flurry.com",
        "m.airpush.com",
        "tapjoyads.com"
      ],
      "metaDataNames": [
        "com.mzcgvzqonr.gphhztlkis145092.APIKEY",
        "com.mzcgvzqonr.gphhztlkis145092.APPID"
      ],
      "sha256": "254cd3fa3ad981b2a46e4eabd63d26d97e1b10fe96e1845545a1ca4057ea2600",
      "usesPermissions": [
        "android.permission.ACCESS_NETWORK_STATE",
        "android.permission.ACCESS_WIFI_STATE",
        "android.permission.INTERNET",
        "android.permission.READ_PHONE_STATE",
        "android.permission.RECEIVE_BOOT_COMPLETED",
        "android.permission.RECEIVE_BOOT_COMPLETED",
        "android.permission.VIBRATE",
        "android.permission.WAKE_LOCK",
        "android.permission.WRITE_EXTERNAL_STORAGE",
        "com.android.launcher.permission.INSTALL_SHORTCUT"
      ]
    }
  ],
  "meta": {
    "generated": "2020-08-27T15:40:12.274925",
    "generatedBy": [
      "/home/hc/code/trackingthetrackers/scripts/make-trackers-apk-set.py"
    ],
    "ver": "0.3.0"
  }
}