{
  "apks": [
    {
      "applicationId": "org.jessies.mathdroid",
      "broadcastReceiverIntentFilterActionNames": [],
      "dependencies": [],
      "domainNamesFilteredByExodus": [
        ".google.com"
      ],
      "metaDataNames": [],
      "sha256": "f550921486d9492ffb59cc32bfd652e8ebf7bfbd5bc08a03fa2bd965e0992777",
      "usesPermissions": []
    }
  ],
  "meta": {
    "generated": "2020-08-27T18:28:36.078628",
    "generatedBy": [
      "/home/hc/code/trackingthetrackers/scripts/make-clean-apk-set.py"
    ],
    "generatedByCommitId": "3839559c80042252d3b947fb61c86a18e8b31114",
    "sourceDataCommitId": "888bb8f8c77ff55105fcab2ad84c263561eb1169",
    "ver": "0.3.0"
  }
}