{
  "apks": [
    {
      "applicationId": "com.gal.fun.encyclopedia4",
      "broadcastReceiverIntentFilterActionNames": [
        "android.fbreader.action.network.SIGNIN"
      ],
      "dependencies": [],
      "domainNamesFilteredByExodus": [],
      "metaDataNames": [
        "ADVIEW_SDK_KEY",
        "AdView_CHANNEL",
        "Market_ID",
        "Wooboo_PID",
        "android.app.default_searchable",
        "android.app.searchable"
      ],
      "sha256": "dae9f71a7ae026f9e267c457c8c31030514bbe778604a902b9cc9500e5097d7c",
      "usesPermissions": [
        "android.permission.ACCESS_COARSE_LOCATION",
        "android.permission.ACCESS_NETWORK_STATE",
        "android.permission.ACCESS_WIFI_STATE",
        "android.permission.INTERNET",
        "android.permission.READ_PHONE_STATE",
        "android.permission.VIBRATE",
        "android.permission.WAKE_LOCK",
        "android.permission.WRITE_EXTERNAL_STORAGE"
      ]
    }
  ],
  "meta": {
    "generated": "2020-08-27T14:59:55.247955",
    "generatedBy": [
      "/home/hc/code/trackingthetrackers/scripts/make-trackers-apk-set.py"
    ],
    "ver": "0.3.0"
  }
}