{
  "apks": [
    {
      "applicationId": "de.fragdenstaat.app",
      "broadcastReceiverIntentFilterActionNames": [
        "de.fragdenstaat.app.event.BACKGROUND_FETCH"
      ],
      "dependencies": [],
      "domainNamesFilteredByExodus": [
        ".facebook.com"
      ],
      "metaDataNames": [
        "android.support.FILE_PROVIDER_PATHS",
        "android.support.VERSION"
      ],
      "sha256": "5f749ccac13383f95a4b716341ed03008ce594e8bc19cb74bda20281533483a8",
      "usesPermissions": [
        "android.permission.ACCESS_NETWORK_STATE",
        "android.permission.ACCESS_WIFI_STATE",
        "android.permission.INTERNET",
        "android.permission.USE_FINGERPRINT",
        "android.permission.WAKE_LOCK",
        "android.permission.WRITE_EXTERNAL_STORAGE",
        "com.android.vending.CHECK_LICENSE"
      ]
    }
  ],
  "meta": {
    "generated": "2020-08-27T17:01:55.919778",
    "generatedBy": [
      "/home/hc/code/trackingthetrackers/scripts/make-clean-apk-set.py"
    ],
    "generatedByCommitId": "40519285d6f404593fa655fa89b433743c25289e",
    "sourceDataCommitId": "888bb8f8c77ff55105fcab2ad84c263561eb1169",
    "ver": "0.3.0"
  }
}