{
  "apks": [
    {
      "applicationId": "com.feedov.frog",
      "broadcastReceiverIntentFilterActionNames": [
        "android.intent.action.BOOT_COMPLETED",
        "android.intent.action.PACKAGE_ADDED",
        "android.intent.action.PACKAGE_CHANGED",
        "android.intent.action.PACKAGE_INSTALL",
        "android.intent.action.PACKAGE_REMOVED",
        "android.intent.action.PACKAGE_REPLACED",
        "android.intent.action.PACKAGE_RESTARTED",
        "android.net.conn.CONNECTIVITY_CHANGE",
        "com.jzmob.jzadSDK.action.ELITOR_CLOCK",
        "com.jzmob.jzadSDK.action.PUSHAD_CONFIG_CLOCK",
        "com.jzmob.jzadSDK.action.PUSHAD_GETDATA_CLOCK",
        "com.jzmob.jzadSDK.action.PUSHAD_ONLY_CLOCK"
      ],
      "dependencies": [
        "com.baidu.mobstat"
      ],
      "domainNamesFilteredByExodus": [],
      "metaDataNames": [
        "ADUU_SDK_APP_CHANEL",
        "ADUU_SDK_APP_ID",
        "ADUU_SDK_APP_SEC",
        "ADUU_SDK_CHANGE_MODE",
        "ADUU_SDK_INTERVAL",
        "ADUU_SDK_SPOT_TM",
        "BaiduMobAd_STAT_ID",
        "CAMPAIGN_ID",
        "MEDIA_ID",
        "RETURN_IMMEDIATELY",
        "SITE_ID",
        "SITE_KEY",
        "TEST_MODE"
      ],
      "sha256": "92a37e31aed77e56bd2b3e5f9e4ac1adf82b9b3b427d757f4ecb8b2bde387b25",
      "usesPermissions": [
        "android.permission.ACCESS_COARSE_LOCATION",
        "android.permission.ACCESS_FINE_LOCATION",
        "android.permission.ACCESS_NETWORK_STATE",
        "android.permission.ACCESS_WIFI_STATE",
        "android.permission.BLUETOOTH",
        "android.permission.CALL_PHONE",
        "android.permission.CHANGE_CONFIGURATION",
        "android.permission.CHANGE_NETWORK_STATE",
        "android.permission.CHANGE_WIFI_STATE",
        "android.permission.CONTROL_LOCATION_UPDATES",
        "android.permission.INTERNET",
        "android.permission.MODIFY_AUDIO_SETTINGS",
        "android.permission.MODIFY_PHONE_STATE",
        "android.permission.MOUNT_UNMOUNT_FILESYSTEMS",
        "android.permission.PROCESS_OUTGOING_CALLS",
        "android.permission.READ_CONTACTS",
        "android.permission.READ_LOGS",
        "android.permission.READ_PHONE_STATE",
        "android.permission.READ_SMS",
        "android.permission.RECEIVE_BOOT_COMPLETED",
        "android.permission.RECEIVE_SMS",
        "android.permission.RESTART_PACKAGES",
        "android.permission.SEND_SMS",
        "android.permission.SET_TIME_ZONE",
        "android.permission.SIM_STATE_READY",
        "android.permission.VIBRATE",
        "android.permission.WAKE_LOCK",
        "android.permission.WRITE_APN_SETTINGS",
        "android.permission.WRITE_CONTACTS",
        "android.permission.WRITE_EXTERNAL_STORAGE",
        "android.permission.WRITE_SMS",
        "com.android.launcher.permission.INSTALL_SHORTCUT",
        "com.android.launcher.permission.UNINSTALL_SHORTCUT"
      ]
    }
  ],
  "meta": {
    "generated": "2020-08-27T15:05:25.931524",
    "generatedBy": [
      "/home/hc/code/trackingthetrackers/scripts/make-trackers-apk-set.py"
    ],
    "ver": "0.3.0"
  }
}