{
  "apks": [
    {
      "applicationId": "air.com.rekoo.mjws.bvbnyuyuuki28q",
      "broadcastReceiverIntentFilterActionNames": [],
      "dependencies": [],
      "domainNamesFilteredByExodus": [],
      "metaDataNames": [
        "Qid",
        "Qkey",
        "aspectRatio",
        "autoOrients",
        "comment",
        "fullScreen",
        "initialcontent",
        "namespaceVersion",
        "permission"
      ],
      "sha256": "f3e5c07455593bf258dec5d39f89d9d58620fc3eb95f2b15c933b89ae1182b07",
      "usesPermissions": [
        "android.permission.ACCESS_NETWORK_STATE",
        "android.permission.ACCESS_NETWORK_STATE",
        "android.permission.GET_TASKS",
        "android.permission.INTERNET",
        "android.permission.INTERNET",
        "android.permission.MOUNT_UNMOUNT_FILESYSTEMS",
        "android.permission.READ_PHONE_STATE",
        "android.permission.WRITE_EXTERNAL_STORAGE",
        "android.permission.WRITE_EXTERNAL_STORAGE"
      ]
    }
  ],
  "meta": {
    "generated": "2020-08-27T15:06:07.878696",
    "generatedBy": [
      "/home/hc/code/trackingthetrackers/scripts/make-trackers-apk-set.py"
    ],
    "ver": "0.3.0"
  }
}