{
  "apks": [
    {
      "applicationId": "com.simplemobiletools.camera",
      "broadcastReceiverIntentFilterActionNames": [
        "android.intent.action.CAMERA_BUTTON"
      ],
      "dependencies": [],
      "domainNamesFilteredByExodus": [
        ".facebook.com",
        ".google.com"
      ],
      "metaDataNames": [
        "android.support.VERSION"
      ],
      "sha256": "e66f40567a6ede9540dd077985cd4802b46c5dac3e1268ae3848cb877a5fa653",
      "usesPermissions": [
        "android.permission.CAMERA",
        "android.permission.RECORD_AUDIO",
        "android.permission.WRITE_EXTERNAL_STORAGE"
      ]
    }
  ],
  "meta": {
    "generated": "2020-08-27T17:47:56.811729",
    "generatedBy": [
      "/home/hc/code/trackingthetrackers/scripts/make-clean-apk-set.py"
    ],
    "generatedByCommitId": "40519285d6f404593fa655fa89b433743c25289e",
    "sourceDataCommitId": "888bb8f8c77ff55105fcab2ad84c263561eb1169",
    "ver": "0.3.0"
  }
}