{
  "apks": [
    {
      "applicationId": "panda.fat.people.thin.game",
      "broadcastReceiverIntentFilterActionNames": [
        "com.amazon.inapp.purchasing.NOTIFY"
      ],
      "dependencies": [
        "com$amazon$device$ads",
        "com.amazon.device.ads",
        "com.applovin",
        "com.chartboost.sdk.",
        "com.google.ads.",
        "com.google.android.gms.ads.",
        "com.talkingdata.sdk.",
        "com.tendcloud.tenddata.",
        "org.cocos2dx"
      ],
      "domainNamesFilteredByExodus": [
        ".chartboost.com",
        ".google.com",
        "applovin.com",
        "doubleclick.net"
      ],
      "metaDataNames": [
        "DataEye_App_Id",
        "DataEye_Channel_Id",
        "TalkingGame_App_Id",
        "TalkingGame_Channel_Id",
        "android.app.lib_name",
        "applovin.sdk.key",
        "com.google.android.gms.version"
      ],
      "sha256": "8b35d28a322b0b6c4c080fc778e63827dcc95900f36ce1f2bb865dfeb7b4894c",
      "usesPermissions": [
        "android.permission.ACCESS_COARSE_LOCATION",
        "android.permission.ACCESS_FINE_LOCATION",
        "android.permission.ACCESS_NETWORK_STATE",
        "android.permission.ACCESS_NETWORK_STATE",
        "android.permission.ACCESS_NETWORK_STATE",
        "android.permission.ACCESS_NETWORK_STATE",
        "android.permission.ACCESS_NETWORK_STATE",
        "android.permission.ACCESS_WIFI_STATE",
        "android.permission.ACCESS_WIFI_STATE",
        "android.permission.ACCESS_WIFI_STATE",
        "android.permission.ACCESS_WIFI_STATE",
        "android.permission.INTERNET",
        "android.permission.INTERNET",
        "android.permission.INTERNET",
        "android.permission.INTERNET",
        "android.permission.INTERNET",
        "android.permission.INTERNET",
        "android.permission.READ_PHONE_STATE",
        "android.permission.READ_PHONE_STATE",
        "android.permission.READ_PHONE_STATE",
        "android.permission.WRITE_EXTERNAL_STORAGE",
        "android.permission.WRITE_EXTERNAL_STORAGE",
        "android.permission.WRITE_EXTERNAL_STORAGE",
        "android.permission.WRITE_EXTERNAL_STORAGE"
      ]
    }
  ],
  "meta": {
    "generated": "2020-08-27T15:46:15.538511",
    "generatedBy": [
      "/home/hc/code/trackingthetrackers/scripts/make-trackers-apk-set.py"
    ],
    "ver": "0.3.0"
  }
}