{
  "apks": [
    {
      "applicationId": "org.dslul.openboard.inputmethod.latin",
      "broadcastReceiverIntentFilterActionNames": [
        "android.accounts.LOGIN_ACCOUNTS_CHANGED",
        "android.intent.action.BOOT_COMPLETED",
        "android.intent.action.DATE_CHANGED",
        "android.intent.action.DOWNLOAD_COMPLETE",
        "android.intent.action.LOCALE_CHANGED",
        "android.intent.action.MY_PACKAGE_REPLACED",
        "android.intent.action.USER_INITIALIZE",
        "org.dslul.openboard.inputmethod.dictionarypack.aosp.INIT_AND_UPDATE_NOW",
        "org.dslul.openboard.inputmethod.dictionarypack.aosp.UNKNOWN_CLIENT",
        "org.dslul.openboard.inputmethod.dictionarypack.aosp.UPDATE_NOW"
      ],
      "dependencies": [],
      "domainNamesFilteredByExodus": [
        ".google.com"
      ],
      "metaDataNames": [
        "android.view.im",
        "android.view.textservice.scs"
      ],
      "sha256": "77da3a934512d3623e85d6788031184e4ec8c7e9990842775fa23b122f47e6b1",
      "usesPermissions": [
        "android.permission.ACCESS_NETWORK_STATE",
        "android.permission.DOWNLOAD_WITHOUT_NOTIFICATION",
        "android.permission.GET_ACCOUNTS",
        "android.permission.READ_CONTACTS",
        "android.permission.READ_PROFILE",
        "android.permission.READ_SYNC_SETTINGS",
        "android.permission.READ_SYNC_STATS",
        "android.permission.READ_USER_DICTIONARY",
        "android.permission.RECEIVE_BOOT_COMPLETED",
        "android.permission.USE_CREDENTIALS",
        "android.permission.VIBRATE",
        "android.permission.WRITE_EXTERNAL_STORAGE",
        "android.permission.WRITE_SYNC_SETTINGS",
        "android.permission.WRITE_USER_DICTIONARY"
      ]
    }
  ],
  "meta": {
    "generated": "2020-08-27T17:05:14.260294",
    "generatedBy": [
      "/home/hc/code/trackingthetrackers/scripts/make-clean-apk-set.py"
    ],
    "generatedByCommitId": "40519285d6f404593fa655fa89b433743c25289e",
    "sourceDataCommitId": "888bb8f8c77ff55105fcab2ad84c263561eb1169",
    "ver": "0.3.0"
  }
}