{
  "apks": [
    {
      "applicationId": "ii.jhncjf.zzajllbgt",
      "broadcastReceiverIntentFilterActionNames": [],
      "dependencies": [],
      "domainNamesFilteredByExodus": [],
      "metaDataNames": [],
      "sha256": "276a403ec34aba27136f5138106a60dd91bbe79edf9c08e46270fbb92eef1955",
      "usesPermissions": []
    }
  ],
  "meta": {
    "generated": "2020-08-27T14:58:52.547419",
    "generatedBy": [
      "/home/hc/code/trackingthetrackers/scripts/make-trackers-apk-set.py"
    ],
    "ver": "0.3.0"
  }
}