{
  "apks": [
    {
      "applicationId": "dk.kjeldsen.carwingsflutter",
      "broadcastReceiverIntentFilterActionNames": [
        "android.appwidget.action.APPWIDGET_UPDATE"
      ],
      "dependencies": [],
      "domainNamesFilteredByExodus": [
        ".google.com"
      ],
      "metaDataNames": [
        "android.appwidget.provider",
        "io.flutter.app.android.SplashScreenUntilFirstFrame"
      ],
      "sha256": "274b51354fa602af2a6e48ebd41a9a70a0e6215e463fc6cb3d9846b329746c5f",
      "usesPermissions": [
        "android.permission.INTERNET",
        "com.android.vending.BILLING"
      ]
    }
  ],
  "meta": {
    "generated": "2020-08-27T14:46:06.778544",
    "generatedBy": [
      "/home/hc/code/trackingthetrackers/scripts/make-trackers-apk-set.py"
    ],
    "ver": "0.3.0"
  }
}