{
  "apks": [
    {
      "applicationId": "com.lukekorth.screennotifications",
      "broadcastReceiverIntentFilterActionNames": [],
      "dependencies": [],
      "domainNamesFilteredByExodus": [],
      "metaDataNames": [
        "android.accessibilityservice"
      ],
      "sha256": "f8ae837dcdeed656f7d091ed523d0bae7765bc9c7b06c289f9b398aeff3cbd23",
      "usesPermissions": [
        "android.permission.EXPAND_STATUS_BAR",
        "android.permission.WAKE_LOCK"
      ]
    }
  ],
  "meta": {
    "generated": "2020-08-27T17:36:38.449296",
    "generatedBy": [
      "/home/hc/code/trackingthetrackers/scripts/make-clean-apk-set.py"
    ],
    "generatedByCommitId": "40519285d6f404593fa655fa89b433743c25289e",
    "sourceDataCommitId": "888bb8f8c77ff55105fcab2ad84c263561eb1169",
    "ver": "0.3.0"
  }
}