{
  "apks": [
    {
      "applicationId": "org.xphnx.ameixa",
      "broadcastReceiverIntentFilterActionNames": [],
      "dependencies": [],
      "domainNamesFilteredByExodus": [],
      "metaDataNames": [],
      "sha256": "e5978847e29ff94c44213932fea72d38716fdab20fb3f10648d64542747384f9",
      "usesPermissions": []
    }
  ],
  "meta": {
    "generated": "2020-08-27T18:42:03.082169",
    "generatedBy": [
      "/home/hc/code/trackingthetrackers/scripts/make-clean-apk-set.py"
    ],
    "generatedByCommitId": "3839559c80042252d3b947fb61c86a18e8b31114",
    "sourceDataCommitId": "888bb8f8c77ff55105fcab2ad84c263561eb1169",
    "ver": "0.3.0"
  }
}