{
  "apks": [
    {
      "applicationId": "com.bytestemplar.tonedef",
      "broadcastReceiverIntentFilterActionNames": [],
      "dependencies": [],
      "domainNamesFilteredByExodus": [],
      "metaDataNames": [],
      "sha256": "be311fe6e5f1ca958dbd945c0c847ab44152b82425669f6349f492efc347466c",
      "usesPermissions": [
        "android.permission.MODIFY_AUDIO_SETTINGS",
        "android.permission.READ_CONTACTS"
      ]
    }
  ],
  "meta": {
    "generated": "2020-08-27T17:16:25.926954",
    "generatedBy": [
      "/home/hc/code/trackingthetrackers/scripts/make-clean-apk-set.py"
    ],
    "generatedByCommitId": "40519285d6f404593fa655fa89b433743c25289e",
    "sourceDataCommitId": "888bb8f8c77ff55105fcab2ad84c263561eb1169",
    "ver": "0.3.0"
  }
}