{
  "apks": [
    {
      "applicationId": "com.android.keepass",
      "broadcastReceiverIntentFilterActionNames": [],
      "dependencies": [],
      "domainNamesFilteredByExodus": [
        ".google.com"
      ],
      "metaDataNames": [
        "android.app.default_searchable",
        "android.app.searchable",
        "com.a0soft.gphone.aTrackDog.webURL",
        "com.google.android.backup.api_key",
        "com.sec.android.support.multiwindow"
      ],
      "sha256": "03b957a9d57ba4bc87d35e70cf7355ca90b47a377fd4840090aa990d0898a33d",
      "usesPermissions": [
        "android.permission.USE_FINGERPRINT",
        "android.permission.VIBRATE",
        "android.permission.WRITE_EXTERNAL_STORAGE"
      ]
    }
  ],
  "meta": {
    "generated": "2020-08-27T17:14:46.186840",
    "generatedBy": [
      "/home/hc/code/trackingthetrackers/scripts/make-clean-apk-set.py"
    ],
    "generatedByCommitId": "40519285d6f404593fa655fa89b433743c25289e",
    "sourceDataCommitId": "888bb8f8c77ff55105fcab2ad84c263561eb1169",
    "ver": "0.3.0"
  }
}