{
  "apks": [
    {
      "applicationId": "com.newwugapp.saiche",
      "broadcastReceiverIntentFilterActionNames": [
        "android.intent.action.BOOT_COMPLETED",
        "android.intent.action.PACKAGE_ADDED",
        "android.intent.action.PACKAGE_REMOVED",
        "android.intent.action.USER_PRESENT",
        "android.net.conn.CONNECTIVITY_CHANGE",
        "com.snail.action.client",
        "droid.snail.action.st",
        "droid_snaillib_apkrun_intent.receiver.1",
        "droid_snaillib_apkrun_intent.receiver.2",
        "droid_snaillib_apkrun_intent.receiver.3",
        "droid_snaillib_apkrun_intent.receiver.4",
        "droid_snaillib_apkrun_intent.receiver.5"
      ],
      "dependencies": [],
      "domainNamesFilteredByExodus": [
        "ultimedia.com"
      ],
      "metaDataNames": [
        "SNAIL_CHANNEL_ID",
        "SNAIL_DEV_ID",
        "SNAIL_SDK_LOC",
        "SNAIL_TEST_MODE",
        "android.app.lib_name",
        "unityplayer.ForwardNativeEventsToDalvik",
        "version"
      ],
      "sha256": "40e42aed52acc54f42467c6765024b46022d59702eb671d61faaee63cb428dd0",
      "usesPermissions": [
        "android.permission.ACCESS_COARSE_LOCATION",
        "android.permission.ACCESS_FINE_LOCATION",
        "android.permission.ACCESS_LOCATION_EXTRA_COMMANDS",
        "android.permission.ACCESS_MOCK_LOCATION",
        "android.permission.ACCESS_NETWORK_STATE",
        "android.permission.ACCESS_NETWORK_STATE",
        "android.permission.ACCESS_WIFI_STATE",
        "android.permission.CHANGE_WIFI_STATE",
        "android.permission.GET_TASKS",
        "android.permission.INTERNET",
        "android.permission.INTERNET",
        "android.permission.MOUNT_UNMOUNT_FILESYSTEMS",
        "android.permission.READ_PHONE_STATE",
        "android.permission.RECEIVE_BOOT_COMPLETED",
        "android.permission.SYSTEM_ALERT_WINDOW",
        "android.permission.WRITE_EXTERNAL_STORAGE",
        "android.permission.WRITE_EXTERNAL_STORAGE"
      ]
    }
  ],
  "meta": {
    "generated": "2020-08-27T15:19:20.955136",
    "generatedBy": [
      "/home/hc/code/trackingthetrackers/scripts/make-trackers-apk-set.py"
    ],
    "ver": "0.3.0"
  }
}