{
  "apks": [
    {
      "applicationId": "com.github.axet.tonegenerator",
      "broadcastReceiverIntentFilterActionNames": [],
      "dependencies": [],
      "domainNamesFilteredByExodus": [],
      "metaDataNames": [
        "android.support.VERSION"
      ],
      "sha256": "3a44cc07001c6fe294a45d480a19866c01155c662fdf2c6a94884ace01198919",
      "usesPermissions": []
    }
  ],
  "meta": {
    "generated": "2020-08-27T17:26:14.775973",
    "generatedBy": [
      "/home/hc/code/trackingthetrackers/scripts/make-clean-apk-set.py"
    ],
    "generatedByCommitId": "40519285d6f404593fa655fa89b433743c25289e",
    "sourceDataCommitId": "888bb8f8c77ff55105fcab2ad84c263561eb1169",
    "ver": "0.3.0"
  }
}