{
  "apks": [
    {
      "applicationId": "com.tomer.screenshotsharer",
      "broadcastReceiverIntentFilterActionNames": [],
      "dependencies": [],
      "domainNamesFilteredByExodus": [],
      "metaDataNames": [
        "android.voice_interaction"
      ],
      "sha256": "4ee263a245af2cd3a1898719d8b9ccb961bef8c9463a6bd3f6907047bf729483",
      "usesPermissions": [
        "android.permission.SYSTEM_ALERT_WINDOW",
        "android.permission.WRITE_EXTERNAL_STORAGE"
      ]
    }
  ],
  "meta": {
    "generated": "2020-08-27T17:51:49.849674",
    "generatedBy": [
      "/home/hc/code/trackingthetrackers/scripts/make-clean-apk-set.py"
    ],
    "generatedByCommitId": "40519285d6f404593fa655fa89b433743c25289e",
    "sourceDataCommitId": "888bb8f8c77ff55105fcab2ad84c263561eb1169",
    "ver": "0.3.0"
  }
}