{
  "apks": [
    {
      "applicationId": "com.etesync.syncadapter",
      "broadcastReceiverIntentFilterActionNames": [
        "android.accounts.LOGIN_ACCOUNTS_CHANGED",
        "android.intent.action.PACKAGE_ADDED",
        "android.intent.action.PACKAGE_FULLY_REMOVED",
        "android.intent.action.PACKAGE_REPLACED",
        "at.bitfire.davdroid.REINIT_SETTINGS"
      ],
      "dependencies": [],
      "domainNamesFilteredByExodus": [],
      "metaDataNames": [
        "android.accounts.AccountAuthenticator",
        "android.arch.lifecycle.VERSION",
        "android.content.SyncAdapter",
        "android.provider.CONTACTS_STRUCTURE",
        "android.support.FILE_PROVIDER_PATHS",
        "android.support.VERSION"
      ],
      "sha256": "fac710db36eb5b4d0abe288439bfeb57f32eb4b48f433d397499716122f7d287",
      "usesPermissions": [
        "18",
        "22",
        "22",
        "22",
        "android.permission.ACCESS_NETWORK_STATE",
        "android.permission.ACCESS_WIFI_STATE",
        "android.permission.AUTHENTICATE_ACCOUNTS",
        "android.permission.GET_ACCOUNTS",
        "android.permission.INTERNET",
        "android.permission.MANAGE_ACCOUNTS",
        "android.permission.READ_CALENDAR",
        "android.permission.READ_CONTACTS",
        "android.permission.READ_EXTERNAL_STORAGE",
        "android.permission.READ_SYNC_SETTINGS",
        "android.permission.READ_SYNC_STATS",
        "android.permission.REQUEST_IGNORE_BATTERY_OPTIMIZATIONS",
        "android.permission.WRITE_CALENDAR",
        "android.permission.WRITE_CONTACTS",
        "android.permission.WRITE_EXTERNAL_STORAGE",
        "android.permission.WRITE_SYNC_SETTINGS",
        "org.dmfs.permission.READ_TASKS",
        "org.dmfs.permission.WRITE_TASKS"
      ]
    }
  ],
  "meta": {
    "generated": "2020-08-27T17:21:29.537043",
    "generatedBy": [
      "/home/hc/code/trackingthetrackers/scripts/make-clean-apk-set.py"
    ],
    "generatedByCommitId": "40519285d6f404593fa655fa89b433743c25289e",
    "sourceDataCommitId": "888bb8f8c77ff55105fcab2ad84c263561eb1169",
    "ver": "0.3.0"
  }
}