{
  "apks": [
    {
      "applicationId": "eu.aagames.dragopet",
      "broadcastReceiverIntentFilterActionNames": [
        "android.intent.action.BOOT_COMPLETED",
        "com.android.vending.INSTALL_REFERRER",
        "com.android.vending.billing.IN_APP_NOTIFY",
        "com.android.vending.billing.PURCHASE_STATE_CHANGED",
        "com.android.vending.billing.RESPONSE_CODE",
        "eu.aagames.dragopet.game.service.ACTION_DISCIPLINE",
        "eu.aagames.dragopet.game.service.ACTION_EGG_UPDATE",
        "eu.aagames.dragopet.game.service.ACTION_EVOLVE",
        "eu.aagames.dragopet.game.service.ACTION_FEEDING",
        "eu.aagames.dragopet.game.service.ACTION_HAPPINESS",
        "eu.aagames.dragopet.game.service.ACTION_HYGIENE",
        "eu.aagames.dragopet.game.service.ACTION_NOTIFICATION_UPDATE",
        "eu.aagames.dragopet.game.service.ACTION_TEMP",
        "eu.aagames.dragopet.game.service.ACTION_TIME"
      ],
      "dependencies": [
        "com.google.ads.",
        "com.google.android.apps.analytics.",
        "com.mobfox.",
        "com_google_ads_"
      ],
      "domainNamesFilteredByExodus": [
        ".facebook.com",
        ".google.com",
        "api.airpush.com",
        "apistaging.airpush.com",
        "beta.airpush.com",
        "google-analytics.com",
        "m.airpush.com"
      ],
      "metaDataNames": [
        "com.wBasULvp.bWZBkLyj107702.APIKEY",
        "com.wBasULvp.bWZBkLyj107702.APPID",
        "net.metaps.sdk.APP_ID",
        "net.metaps.sdk.APP_KEY",
        "net.metaps.sdk.CLIENT_ID",
        "net.metaps.sdk.MARKET",
        "net.metaps.sdk.MODE",
        "net.metaps.sdk.PROMOTION_ID"
      ],
      "sha256": "159bab39b62317fbc355cc9c16db4a12730d45e011ca622c60f3835e9cb0c992",
      "usesPermissions": [
        "android.permission.ACCESS_COARSE_LOCATION",
        "android.permission.ACCESS_FINE_LOCATION",
        "android.permission.ACCESS_LOCATION_EXTRA_COMMANDS",
        "android.permission.ACCESS_NETWORK_STATE",
        "android.permission.ACCESS_WIFI_STATE",
        "android.permission.GET_ACCOUNTS",
        "android.permission.GET_TASKS",
        "android.permission.INTERNET",
        "android.permission.READ_PHONE_STATE",
        "android.permission.RECEIVE_BOOT_COMPLETED",
        "android.permission.VIBRATE",
        "android.permission.WAKE_LOCK",
        "android.permission.WRITE_EXTERNAL_STORAGE",
        "android.permission.WRITE_SETTINGS",
        "com.android.launcher.permission.INSTALL_SHORTCUT",
        "com.android.vending.BILLING"
      ]
    }
  ],
  "meta": {
    "generated": "2020-08-27T14:59:24.101836",
    "generatedBy": [
      "/home/hc/code/trackingthetrackers/scripts/make-trackers-apk-set.py"
    ],
    "ver": "0.3.0"
  }
}