{
  "apks": [
    {
      "applicationId": "ch.corten.aha.worldclock",
      "broadcastReceiverIntentFilterActionNames": [
        "android.appwidget.action.APPWIDGET_DISABLED",
        "android.appwidget.action.APPWIDGET_ENABLED",
        "android.appwidget.action.APPWIDGET_UPDATE",
        "android.intent.action.USER_PRESENT",
        "ch.corten.aha.worldclock.CLOCK_TICK",
        "ch.corten.aha.worldclock.WIDGET_DATA_CHANGED"
      ],
      "dependencies": [],
      "domainNamesFilteredByExodus": [],
      "metaDataNames": [
        "android.appwidget.provider"
      ],
      "sha256": "7c464a566098ba6386172a34c9b258f54c6145a58187e612e8301f91867c39eb",
      "usesPermissions": [
        "android.permission.INTERNET"
      ]
    }
  ],
  "meta": {
    "generated": "2020-08-27T16:52:00.169766",
    "generatedBy": [
      "/home/hc/code/trackingthetrackers/scripts/make-clean-apk-set.py"
    ],
    "generatedByCommitId": "40519285d6f404593fa655fa89b433743c25289e",
    "sourceDataCommitId": "888bb8f8c77ff55105fcab2ad84c263561eb1169",
    "ver": "0.3.0"
  }
}