{
  "apks": [
    {
      "applicationId": "it.rignanese.leo.slimfacebook",
      "broadcastReceiverIntentFilterActionNames": [],
      "dependencies": [],
      "domainNamesFilteredByExodus": [
        ".facebook.com",
        ".google.com"
      ],
      "metaDataNames": [
        "com.sec.android.multiwindow.DEFAULT_SIZE_H",
        "com.sec.android.multiwindow.DEFAULT_SIZE_W",
        "com.sec.android.multiwindow.MINIMUM_SIZE_H",
        "com.sec.android.multiwindow.MINIMUM_SIZE_W",
        "com.sec.android.support.multiwindow"
      ],
      "sha256": "b4e76cc8d00a491f27c0aba1d8ac94c9baba47723388c9f182c6e29750fe97df",
      "usesPermissions": [
        "android.permission.ACCESS_FINE_LOCATION",
        "android.permission.ACCESS_NETWORK_STATE",
        "android.permission.INTERNET",
        "android.permission.WRITE_EXTERNAL_STORAGE"
      ]
    }
  ],
  "meta": {
    "generated": "2020-08-27T18:14:39.651574",
    "generatedBy": [
      "/home/hc/code/trackingthetrackers/scripts/make-clean-apk-set.py"
    ],
    "generatedByCommitId": "3839559c80042252d3b947fb61c86a18e8b31114",
    "sourceDataCommitId": "888bb8f8c77ff55105fcab2ad84c263561eb1169",
    "ver": "0.3.0"
  }
}