{
  "apks": [
    {
      "applicationId": "com.qxtimes.ring",
      "broadcastReceiverIntentFilterActionNames": [],
      "dependencies": [
        "com.umeng.analytics"
      ],
      "domainNamesFilteredByExodus": [
        "alog.umeng.com",
        "oc.umeng.com",
        "umeng.com"
      ],
      "metaDataNames": [
        "AppID",
        "AppKey",
        "PubKey",
        "UMENG_APPKEY",
        "UMENG_CHANNEL",
        "hosturl",
        "miguopen_appid"
      ],
      "sha256": "a18f7762f3b080d300d64a9eacf6ee3b84207eb4d70cca9152aa3d003f94e29a",
      "usesPermissions": [
        "android.permission.ACCESS_COARSE_LOCATION",
        "android.permission.ACCESS_FINE_LOCATION",
        "android.permission.ACCESS_NETWORK_STATE",
        "android.permission.ACCESS_WIFI_STATE",
        "android.permission.CALL_PHONE",
        "android.permission.CHANGE_CONFIGURATION",
        "android.permission.CHANGE_NETWORK_STATE",
        "android.permission.CHANGE_WIFI_STATE",
        "android.permission.GET_TASKS",
        "android.permission.INTERNET",
        "android.permission.READ_CONTACTS",
        "android.permission.READ_EXTERNAL_STORAGE",
        "android.permission.READ_LOGS",
        "android.permission.READ_PHONE_STATE",
        "android.permission.READ_SMS",
        "android.permission.RECEIVE_SMS",
        "android.permission.SEND_SMS",
        "android.permission.VIBRATE",
        "android.permission.WRITE_CONTACTS",
        "android.permission.WRITE_EXTERNAL_STORAGE",
        "android.permission.WRITE_SETTINGS",
        "android.permission.WRITE_SMS"
      ]
    }
  ],
  "meta": {
    "generated": "2020-08-27T14:51:04.617038",
    "generatedBy": [
      "/home/hc/code/trackingthetrackers/scripts/make-trackers-apk-set.py"
    ],
    "ver": "0.3.0"
  }
}