{
  "apks": [
    {
      "applicationId": "fm.a2d.sf",
      "broadcastReceiverIntentFilterActionNames": [
        "android.intent.action.MEDIA_BUTTON",
        "android.media.AUDIO_BECOMING_NOISY"
      ],
      "dependencies": [],
      "domainNamesFilteredByExodus": [
        ".google.com"
      ],
      "metaDataNames": [],
      "sha256": "fb9cf4a9ef27bf7262d0f39b70136dff65350fbc1541552445ef1f39e4116a4a",
      "usesPermissions": [
        "android.permission.ACCESS_SUPERUSER",
        "android.permission.ACCESS_WIFI_STATE",
        "android.permission.BLUETOOTH",
        "android.permission.BLUETOOTH_ADMIN",
        "android.permission.BROADCAST_STICKY",
        "android.permission.CHANGE_WIFI_STATE",
        "android.permission.INTERNET",
        "android.permission.MODIFY_AUDIO_SETTINGS",
        "android.permission.READ_PHONE_STATE",
        "android.permission.RECORD_AUDIO",
        "android.permission.SYSTEM_ALERT_WINDOW",
        "android.permission.WRITE_EXTERNAL_STORAGE",
        "android.permission.WRITE_SETTINGS"
      ]
    }
  ],
  "meta": {
    "generated": "2020-08-27T17:02:57.253549",
    "generatedBy": [
      "/home/hc/code/trackingthetrackers/scripts/make-clean-apk-set.py"
    ],
    "generatedByCommitId": "40519285d6f404593fa655fa89b433743c25289e",
    "sourceDataCommitId": "888bb8f8c77ff55105fcab2ad84c263561eb1169",
    "ver": "0.3.0"
  }
}