{
  "apks": [
    {
      "applicationId": "click.dummer.yidkey",
      "broadcastReceiverIntentFilterActionNames": [],
      "dependencies": [],
      "domainNamesFilteredByExodus": [],
      "metaDataNames": [
        "android.view.im"
      ],
      "sha256": "2c4327c4ee6d1199d0d2254333b18090d6d18caa665a05cd8ae1beef65543e5e",
      "usesPermissions": []
    }
  ],
  "meta": {
    "generated": "2020-08-27T16:52:11.305078",
    "generatedBy": [
      "/home/hc/code/trackingthetrackers/scripts/make-clean-apk-set.py"
    ],
    "generatedByCommitId": "40519285d6f404593fa655fa89b433743c25289e",
    "sourceDataCommitId": "888bb8f8c77ff55105fcab2ad84c263561eb1169",
    "ver": "0.3.0"
  }
}