{
  "apks": [
    {
      "applicationId": "com.oF2pks.classyshark3xodus",
      "broadcastReceiverIntentFilterActionNames": [],
      "dependencies": [],
      "domainNamesFilteredByExodus": [
        ".avocarrot.com",
        ".chartboost.com",
        ".commander1.com",
        ".dynatrace.com",
        ".exacttarget.",
        ".facebook.com",
        ".google.com",
        "4seeresults.com",
        "a.fiksu.com",
        "a4.tl",
        "aatkit.com",
        "accengage.com",
        "ad4screen.com",
        "adc3-launch.adcolony.com",
        "adcolony.com",
        "adform.com",
        "adfurikun.jp",
        "adjust.com",
        "adm.dynamicyield.com",
        "adnxs.com",
        "adproxy.fyber.com",
        "ads.heyzap.com",
        "ads.rubiconproject.com",
        "ads30.adcolony.com",
        "adserver.unityads.unity3d.com",
        "adswizz.com",
        "alog.umeng.com",
        "alogs.umeng.com",
        "amplitude.com",
        "analytics.ad.daum.net",
        "analytics.foresee.com",
        "analytics.mobile.yandex.net",
        "analytics.social.unity.com",
        "android-quinoa-config-prod.sense360eng.com",
        "androidads20.adcolony.com",
        "androidads21.adcolony.com",
        "androidads23.adcolony.com",
        "api.alphonso.tv",
        "api.amplitude.com",
        "api.crittercism.com",
        "api.dynamicyield.com",
        "api.hypertrack.com",
        "api.mixpanel.com",
        "api.safegraph.com",
        "api.uca.cloud.unity3d.com",
        "appboy.com",
        "appengage-video.fyber.com",
        "appengage-video.sponsorpay.com",
        "appload.ingest.crittercism.com",
        "applovin.com",
        "appmetrica.yandex.com",
        "appnexus.com",
        "appsflyer.com",
        "ar.umeng.com",
        "areametrics.com",
        "ati-host.net",
        "auction.unityads.unity3d.com",
        "backelite.com",
        "banner.fyber.com",
        "banners-slb.mobile.yandex.net",
        "banners.mobile.yandex.net",
        "batch.com",
        "brahe.apptimize.com",
        "cdn-highwinds.unityads.unity3d.com",
        "cdn.dynamicyield.com",
        "cdn.gigya.com",
        "cdn.unityads.unity3d.com",
        "cdn1.gigya.com",
        "cdn1.sponsorpay.com",
        "cdn2.gigya.com",
        "cdn2.sponsorpay.com",
        "cdn3.gigya.com",
        "cdn3.sponsorpay.com",
        "cdn4.sponsorpay.com",
        "cdns.us1.gigya.com",
        "click-haproxy.supersonicads.com",
        "colocator.net",
        "comscore.com",
        "config-ltvp.inmobi.com",
        "config.uca.cloud.unity3d.com",
        "config.unityads.unity3d.com",
        "contextual.media.net",
        "control.kochava.com",
        "crashlytics.com",
        "cuebiq.com",
        "databerries.com",
        "dc.webtrends.com",
        "decide.mixpanel.com",
        "demdex.net",
        "device-api.urbanairship.com",
        "doubleclick.com",
        "doubleclick.net",
        "engine.fyber.com",
        "engine.sponsorpay.com",
        "etl.tindersparks.com",
        "eulerian.com",
        "events.uber.com",
        "events3alt.adcolony.com",
        "fastlane.rubiconproject.com",
        "fidzup",
        "firebase.com",
        "flurry.com",
        "foresee.com",
        "foreseeresults.com",
        "fyc.heyzap.com",
        "ginf.adfurikun.jp",
        "google-analytics.com",
        "helpshift.com",
        "hockeyapp.net",
        "hypertrack.amazonaws.com",
        "i.4see.mobi",
        "img-cloudflare-2.haizap.com",
        "img-cloudflare.haizap.com",
        "incoming-data-sense360.s3.amazonaws.com",
        "init.supersonicads.com",
        "inmobi.com",
        "inmobi.info",
        "inmobi.us",
        "inrix.com",
        "inrix.io",
        "interstitial.fyber.com",
        "js-agent.newrelic.com",
        "kontakt.io",
        "krxd.net",
        "leanplum.com",
        "ligatus.com",
        "lisnr.com",
        "locuslabs.com",
        "loggly.com",
        "login.microsoftonline.com",
        "management.azure.com",
        "map.baidu.com",
        "map.qq.com",
        "mars.telequid.com",
        "matomo.org",
        "mbe-cdn.fyber.com",
        "mc.yandex.ru",
        "md-a-c.apptimize.com",
        "md-a-s.apptimize.com",
        "med.heyzap.com",
        "media.net",
        "millennialmedia.com",
        "mixpanel.com",
        "mng-ads.com",
        "moat.com",
        "mobile-collector.newrelic.com",
        "mobileapptracking.com",
        "mobvista.com",
        "mopub.com",
        "mparticle.com",
        "nativex.com",
        "newrelic.com",
        "nexage.com",
        "nexus.ensighten.com",
        "nr-data.net",
        "oc.umeng.com",
        "offer.fyber.com",
        "omniture.com",
        "omtrdc.net",
        "optimized-by.rubiconproject.com",
        "outbrain.com",
        "outcome.supersonicads.com",
        "ow-gateway.supersonicads.com",
        "pixel-tracking.sonic-us.supersonicads.com",
        "pixel.rubiconproject.com",
        "presage.io",
        "prov.alphonso.tv",
        "proximitykit.radiusnetworks.com",
        "pushwoosh.com",
        "px.dynamicyield.com",
        "quantcast.com",
        "quantcast.net",
        "quinoa-personal-identify-prod.sense360eng.com",
        "rec.replay.answerscloud.com",
        "report.appmetrica.yandex.net",
        "rv-gateway.supersonicads.com",
        "s4m.io",
        "sam4m.com",
        "saspreview.com",
        "scandit.com",
        "schibsted.com",
        "schibsted.io",
        "scorecardresearch.com",
        "sdk.fiksu.com",
        "sdk.shopkick.com",
        "sdkm.w.inmobi.com",
        "segment.com",
        "service.fyber.com",
        "serving-sys.com",
        "shopkick.com",
        "shopkick.de",
        "signal360.com",
        "silverpush.co",
        "singlespot.com",
        "smaato.net",
        "smartadserver.com",
        "soma.smaato.net",
        "sonicnotify.com",
        "st.dynamicyield.com",
        "stags.bluekai.com",
        "startup.mobile.yandex.net",
        "statistics.videofarm.daum.net",
        "stats.aws.rubiconproject.com",
        "stats.unity3d.com",
        "supersonic.com",
        "switchboard.mixpanel.com",
        "sync2ad.com",
        "tag-mediation.supersonic.com",
        "tags.bluekai.com",
        "tap2-cdn.rubiconproject.com",
        "tiqcdn.com",
        "track.adform.net",
        "tracker.fyber.com",
        "trck.at",
        "txn.ingest.crittercism.com",
        "ua.supersonicads.com",
        "umeng.com",
        "uop.umeng.com",
        "urbanairship.com",
        "vectaury.io",
        "video-ads.rubiconproject.com",
        "video-interstitial-assets-cdn.fyber.com",
        "video.fyber.com",
        "wd.adcolony.com",
        "weborama.fr",
        "weborama.net",
        "webtrends.com",
        "webview.unityads.unity3d.com",
        "www.supersonicads.com",
        "x.heyzap.com"
      ],
      "metaDataNames": [],
      "sha256": "d6fac2727ee44817c8ce73c5c8e6825d0ecc1dfd5b91d1eaeb49318ea12a61c6",
      "usesPermissions": [
        "android.permission.READ_EXTERNAL_STORAGE"
      ]
    }
  ],
  "meta": {
    "generated": "2020-08-27T17:45:24.969162",
    "generatedBy": [
      "/home/hc/code/trackingthetrackers/scripts/make-clean-apk-set.py"
    ],
    "generatedByCommitId": "40519285d6f404593fa655fa89b433743c25289e",
    "sourceDataCommitId": "888bb8f8c77ff55105fcab2ad84c263561eb1169",
    "ver": "0.3.0"
  }
}