{
  "apks": [
    {
      "applicationId": "com.mypoy.yskdosslkjl",
      "broadcastReceiverIntentFilterActionNames": [],
      "dependencies": [
        "org.cocos2dx"
      ],
      "domainNamesFilteredByExodus": [],
      "metaDataNames": [
        "comment",
        "permission",
        "sid",
        "skey"
      ],
      "sha256": "a7c1c0c36b298eae6d44f36b02137f384cf54a55f093cb5fc4fddfae3cf6248a",
      "usesPermissions": [
        "android.permission.ACCESS_NETWORK_STATE",
        "android.permission.ACCESS_NETWORK_STATE",
        "android.permission.ACCESS_WIFI_STATE",
        "android.permission.INTERNET",
        "android.permission.INTERNET",
        "android.permission.MOUNT_UNMOUNT_FILESYSTEMS",
        "android.permission.READ_PHONE_STATE",
        "android.permission.WRITE_EXTERNAL_STORAGE"
      ]
    }
  ],
  "meta": {
    "generated": "2020-08-27T15:08:46.523765",
    "generatedBy": [
      "/home/hc/code/trackingthetrackers/scripts/make-trackers-apk-set.py"
    ],
    "ver": "0.3.0"
  }
}