{
  "apks": [
    {
      "applicationId": "io.davidar.tensor",
      "broadcastReceiverIntentFilterActionNames": [],
      "dependencies": [],
      "domainNamesFilteredByExodus": [
        ".google.com"
      ],
      "metaDataNames": [
        "android.app.auto_screen_scale_factor",
        "android.app.background_running",
        "android.app.bundle_local_qt_libs",
        "android.app.bundled_in_assets_resource_id",
        "android.app.bundled_in_lib_resource_id",
        "android.app.bundled_libs_resource_id",
        "android.app.fatal_error_msg",
        "android.app.lib_name",
        "android.app.libs_prefix",
        "android.app.load_local_jars",
        "android.app.load_local_libs",
        "android.app.ministro_needed_msg",
        "android.app.ministro_not_found_msg",
        "android.app.qt_libs_resource_id",
        "android.app.qt_sources_resource_id",
        "android.app.repository",
        "android.app.static_init_classes",
        "android.app.use_local_qt_libs"
      ],
      "sha256": "420c242bc0d15b7e8b9ea3308b6623e57d8c165412be365a0723d82d574658c9",
      "usesPermissions": [
        "android.permission.ACCESS_NETWORK_STATE",
        "android.permission.INTERNET",
        "android.permission.WRITE_EXTERNAL_STORAGE"
      ]
    }
  ],
  "meta": {
    "generated": "2020-08-27T17:03:26.567581",
    "generatedBy": [
      "/home/hc/code/trackingthetrackers/scripts/make-clean-apk-set.py"
    ],
    "generatedByCommitId": "40519285d6f404593fa655fa89b433743c25289e",
    "sourceDataCommitId": "888bb8f8c77ff55105fcab2ad84c263561eb1169",
    "ver": "0.3.0"
  }
}