{
  "apks": [
    {
      "applicationId": "com.mj.iCartoon",
      "broadcastReceiverIntentFilterActionNames": [
        "android.provider.Telephony.SMS_RECEIVED",
        "com.android.vending.INSTALL_REFERRER"
      ],
      "dependencies": [],
      "domainNamesFilteredByExodus": [],
      "metaDataNames": [
        "ADMOB_ALLOW_LOCATION_FOR_ADS",
        "ADMOB_INTERSTITIAL_PUBLISHER_ID",
        "ADMOB_PUBLISHER_ID"
      ],
      "sha256": "341283d8d10e0e380479a43bdb6524bad99c19a0ffe3825294c16ce9e7807a59",
      "usesPermissions": [
        "android.permission.ACCESS_COARSE_LOCATION",
        "android.permission.INTERNET",
        "android.permission.RECEIVE_SMS",
        "android.permission.RESTART_PACKAGES",
        "android.permission.SEND_SMS",
        "android.permission.SET_WALLPAPER"
      ]
    }
  ],
  "meta": {
    "generated": "2020-08-27T15:53:14.299322",
    "generatedBy": [
      "/home/hc/code/trackingthetrackers/scripts/make-trackers-apk-set.py"
    ],
    "ver": "0.3.0"
  }
}