{
  "apks": [
    {
      "applicationId": "org.quovadit.apps.andof",
      "broadcastReceiverIntentFilterActionNames": [],
      "dependencies": [],
      "domainNamesFilteredByExodus": [],
      "metaDataNames": [],
      "sha256": "aaff2698bb6b5afb4ceafa7610b75425a3892ac5cb6dcdf7a9490d43d5dec91b",
      "usesPermissions": []
    }
  ],
  "meta": {
    "generated": "2020-08-27T18:35:28.858690",
    "generatedBy": [
      "/home/hc/code/trackingthetrackers/scripts/make-clean-apk-set.py"
    ],
    "generatedByCommitId": "3839559c80042252d3b947fb61c86a18e8b31114",
    "sourceDataCommitId": "888bb8f8c77ff55105fcab2ad84c263561eb1169",
    "ver": "0.3.0"
  }
}