{
  "apks": [
    {
      "applicationId": "com.hww.locationcao",
      "broadcastReceiverIntentFilterActionNames": [
        "android.ad.ACTION_SHOW_TIP",
        "android.intent.action.NEW_OUTGOING_CALL",
        "android.intent.action.PACKAGE_ADDED",
        "android.intent.action.PACKAGE_REMOVED",
        "android.intent.action.PHONE_STATE",
        "android.net.conn.CONNECTIVITY_CHANGE",
        "com.android.alarmclock.ALARM_ALERT"
      ],
      "dependencies": [
        "com.umeng.analytics",
        "com.umeng.fb"
      ],
      "domainNamesFilteredByExodus": [
        "umeng.com"
      ],
      "metaDataNames": [
        "MAIN_ADS_CHANNEL",
        "MAIN_ADS_ID",
        "MAIN_APP_ID",
        "UMENG_APPKEY",
        "UMENG_CHANNEL"
      ],
      "sha256": "1a243d4d96b7125507b42ddcd0fb4d793eba95ed66d2979ced04f318d54b31d1",
      "usesPermissions": [
        "android.permission.ACCESS_COARSE_LOCATION",
        "android.permission.ACCESS_NETWORK_STATE",
        "android.permission.ACCESS_WIFI_STATE",
        "android.permission.GET_TASKS",
        "android.permission.INTERNET",
        "android.permission.MOUNT_UNMOUNT_FILESYSTEMS",
        "android.permission.PROCESS_OUTGOING_CALLS",
        "android.permission.READ_CONTACTS",
        "android.permission.READ_LOGS",
        "android.permission.READ_PHONE_STATE",
        "android.permission.READ_SMS",
        "android.permission.SYSTEM_ALERT_WINDOW",
        "android.permission.VIBRATE",
        "android.permission.WRITE_CONTACTS",
        "android.permission.WRITE_EXTERNAL_STORAGE",
        "android.permission.WRITE_SMS",
        "com.android.browser.permission.READ_HISTORY_BOOKMARKS",
        "com.android.browser.permission.WRITE_HISTORY_BOOKMARKS"
      ]
    }
  ],
  "meta": {
    "generated": "2020-08-27T14:53:51.122418",
    "generatedBy": [
      "/home/hc/code/trackingthetrackers/scripts/make-trackers-apk-set.py"
    ],
    "ver": "0.3.0"
  }
}