{
  "apks": [
    {
      "applicationId": "io.gresse.hugo.anecdote",
      "broadcastReceiverIntentFilterActionNames": [
        "com.android.vending.INSTALL_REFERRER"
      ],
      "dependencies": [
        "ly.count.android."
      ],
      "domainNamesFilteredByExodus": [],
      "metaDataNames": [
        "com.bumptech.glide.integration.okhttp3.OkHttpGlideModule",
        "io.fabric.ApiKey"
      ],
      "sha256": "e0b8b52f274350cc3f95620f34b4db04ea2cc83dd192c3d52261c5e7030d5282",
      "usesPermissions": [
        "android.permission.ACCESS_NETWORK_STATE",
        "android.permission.ACCESS_WIFI_STATE",
        "android.permission.INTERNET"
      ]
    }
  ],
  "meta": {
    "generated": "2020-08-27T14:45:26.765662",
    "generatedBy": [
      "/home/hc/code/trackingthetrackers/scripts/make-trackers-apk-set.py"
    ],
    "ver": "0.3.0"
  }
}