{
  "apks": [
    {
      "applicationId": "io.oversec.one",
      "broadcastReceiverIntentFilterActionNames": [
        "android.provider.Telephony.SECRET_CODE"
      ],
      "dependencies": [],
      "domainNamesFilteredByExodus": [
        ".google.com"
      ],
      "metaDataNames": [
        "android.accessibilityservice",
        "android.nfc.disable_beam_default"
      ],
      "sha256": "487da47eb3ccd7a93aeb397e6e435af0be8f6b79cff7a3a60eaf2051762c20f2",
      "usesPermissions": [
        "android.hardware.telephony",
        "android.permission.CAMERA",
        "android.permission.READ_EXTERNAL_STORAGE",
        "android.permission.SYSTEM_ALERT_WINDOW",
        "com.android.vending.BILLING",
        "false"
      ]
    }
  ],
  "meta": {
    "generated": "2020-08-27T17:03:40.203601",
    "generatedBy": [
      "/home/hc/code/trackingthetrackers/scripts/make-clean-apk-set.py"
    ],
    "generatedByCommitId": "40519285d6f404593fa655fa89b433743c25289e",
    "sourceDataCommitId": "888bb8f8c77ff55105fcab2ad84c263561eb1169",
    "ver": "0.3.0"
  }
}