{
  "apks": [
    {
      "applicationId": "com.skymobi.pay.appui",
      "broadcastReceiverIntentFilterActionNames": [],
      "dependencies": [],
      "domainNamesFilteredByExodus": [],
      "metaDataNames": [],
      "sha256": "54b7bb596cfec49b799e7b1c46bfa574a3c598d7601fb568f9c0ac1db38f359d",
      "usesPermissions": []
    }
  ],
  "meta": {
    "generated": "2020-08-27T15:41:21.310720",
    "generatedBy": [
      "/home/hc/code/trackingthetrackers/scripts/make-trackers-apk-set.py"
    ],
    "ver": "0.3.0"
  }
}