{
  "apks": [
    {
      "applicationId": "info.papdt.blackblub",
      "broadcastReceiverIntentFilterActionNames": [
        "info.papdt.blackbulb.ACTION_UPDATE_STATUS",
        "info.papdt.blackbulb.ALARM_ACTION_START",
        "info.papdt.blackbulb.ALARM_ACTION_STOP"
      ],
      "dependencies": [],
      "domainNamesFilteredByExodus": [],
      "metaDataNames": [
        "android.app.shortcuts"
      ],
      "sha256": "363f239177281ea5e3e5ef6ba50bf5be5bd9a43dd38017ba58d5bab065401a0c",
      "usesPermissions": [
        "23",
        "android.permission.FOREGROUND_SERVICE",
        "android.permission.READ_EXTERNAL_STORAGE",
        "android.permission.REQUEST_IGNORE_BATTERY_OPTIMIZATIONS",
        "android.permission.SYSTEM_ALERT_WINDOW",
        "android.permission.VIBRATE",
        "cyanogenmod.permission.PUBLISH_CUSTOM_TILE",
        "moe.shizuku.fontprovider.BIND"
      ]
    }
  ],
  "meta": {
    "generated": "2020-08-27T17:03:23.020909",
    "generatedBy": [
      "/home/hc/code/trackingthetrackers/scripts/make-clean-apk-set.py"
    ],
    "generatedByCommitId": "40519285d6f404593fa655fa89b433743c25289e",
    "sourceDataCommitId": "888bb8f8c77ff55105fcab2ad84c263561eb1169",
    "ver": "0.3.0"
  }
}