{
  "apks": [
    {
      "applicationId": "com.pocketchunk.sos78td9yyy",
      "broadcastReceiverIntentFilterActionNames": [],
      "dependencies": [],
      "domainNamesFilteredByExodus": [],
      "metaDataNames": [
        "com.sosceo.android.ads.SOSCEO_APP_ID"
      ],
      "sha256": "8153b22913a97e9977ad174a3e8b381ba6bd8ac83bee32f464f8b85b23c25829",
      "usesPermissions": [
        "android.permission.ACCESS_COARSE_LOCATION",
        "android.permission.ACCESS_COARSE_UPDATES",
        "android.permission.ACCESS_FINE_LOCATION",
        "android.permission.CALL_PHONE",
        "android.permission.INTERNET",
        "android.permission.READ_CONTACTS",
        "android.permission.READ_PHONE_STATE",
        "android.permission.SEND_SMS",
        "android.permission.WRITE_CONTACTS"
      ]
    }
  ],
  "meta": {
    "generated": "2020-08-27T15:12:00.123844",
    "generatedBy": [
      "/home/hc/code/trackingthetrackers/scripts/make-trackers-apk-set.py"
    ],
    "ver": "0.3.0"
  }
}