{
  "apks": [
    {
      "applicationId": "ohi.andre.consolelauncher",
      "broadcastReceiverIntentFilterActionNames": [
        "android.app.action.DEVICE_ADMIN_DISABLED",
        "android.app.action.DEVICE_ADMIN_ENABLED"
      ],
      "dependencies": [],
      "domainNamesFilteredByExodus": [
        ".google.com"
      ],
      "metaDataNames": [
        "android.app.device_admin",
        "android.support.PARENT_ACTIVITY"
      ],
      "sha256": "f62edd3a47356e8dbba423a798a3133e7cf33ee3d3f6659283ee47f8924c1609",
      "usesPermissions": [
        "android.permission.ACCESS_NETWORK_STATE",
        "android.permission.ACCESS_WIFI_STATE",
        "android.permission.CALL_PHONE",
        "android.permission.CAMERA",
        "android.permission.CHANGE_NETWORK_STATE",
        "android.permission.CHANGE_WIFI_STATE",
        "android.permission.GET_ACCOUNTS",
        "android.permission.READ_CONTACTS",
        "android.permission.READ_EXTERNAL_STORAGE",
        "android.permission.WRITE_EXTERNAL_STORAGE",
        "android.permission.WRITE_INTERNAL_STORAGE",
        "android.permission.WRITE_SETTINGS"
      ]
    }
  ],
  "meta": {
    "generated": "2020-08-27T18:21:27.684651",
    "generatedBy": [
      "/home/hc/code/trackingthetrackers/scripts/make-clean-apk-set.py"
    ],
    "generatedByCommitId": "3839559c80042252d3b947fb61c86a18e8b31114",
    "sourceDataCommitId": "888bb8f8c77ff55105fcab2ad84c263561eb1169",
    "ver": "0.3.0"
  }
}