{
  "apks": [
    {
      "applicationId": "org.zephyrsoft.checknetwork",
      "broadcastReceiverIntentFilterActionNames": [
        "android.intent.action.ACTION_EXTERNAL_APPLICATIONS_AVAILABLE",
        "android.intent.action.BOOT_COMPLETED"
      ],
      "dependencies": [],
      "domainNamesFilteredByExodus": [
        ".google.com"
      ],
      "metaDataNames": [],
      "sha256": "9b8e91095d7a4684e60159f26ad207ea262440a33dc9106716f3427cfd424c3b",
      "usesPermissions": [
        "android.permission.ACCESS_NETWORK_STATE",
        "android.permission.CHANGE_NETWORK_STATE",
        "android.permission.CHANGE_WIFI_STATE",
        "android.permission.INTERNET",
        "android.permission.RECEIVE_BOOT_COMPLETED",
        "android.permission.WRITE_APN_SETTINGS"
      ]
    }
  ],
  "meta": {
    "generated": "2020-08-27T14:48:28.977225",
    "generatedBy": [
      "/home/hc/code/trackingthetrackers/scripts/make-trackers-apk-set.py"
    ],
    "ver": "0.3.0"
  }
}