{
  "apks": [
    {
      "applicationId": "com.nd.android.pandatheme.Lovestoryjun",
      "broadcastReceiverIntentFilterActionNames": [],
      "dependencies": [],
      "domainNamesFilteredByExodus": [],
      "metaDataNames": [],
      "sha256": "e00a25ea4bf8d1849040bb740afa98ca76488935ccae3a63fed980a61a232a62",
      "usesPermissions": []
    }
  ],
  "meta": {
    "generated": "2020-08-27T15:13:36.954600",
    "generatedBy": [
      "/home/hc/code/trackingthetrackers/scripts/make-trackers-apk-set.py"
    ],
    "ver": "0.3.0"
  }
}