{
  "apks": [
    {
      "applicationId": "android.xlag.ddz",
      "broadcastReceiverIntentFilterActionNames": [
        "com.baidu.autoupdatesdk.ACTION_AS_DOWNLOAD_COMPLETE",
        "com.baidu.autoupdatesdk.ACTION_DOWNLOAD_COMPLETE",
        "com.baidu.autoupdatesdk.ACTION_NEW_AS",
        "com.baidu.autoupdatesdk.ACTION_NEW_UPDATE"
      ],
      "dependencies": [],
      "domainNamesFilteredByExodus": [],
      "metaDataNames": [
        "APP_CLASS",
        "BDAPPID",
        "BDAPPKEY",
        "BDAPPUNIONSDK_APIKEY",
        "UMENG_APPKEY",
        "UMENG_CHANNEL"
      ],
      "sha256": "cebb8488a0a91da41dbeec0bff9857fd6001144a3a72d76324e0d832ec873ea6",
      "usesPermissions": [
        "android.permission.ACCESS_COARSE_LOCATION",
        "android.permission.ACCESS_COARSE_LOCATION",
        "android.permission.ACCESS_FINE_LOCATION",
        "android.permission.ACCESS_NETWORK_STATE",
        "android.permission.ACCESS_NETWORK_STATE",
        "android.permission.ACCESS_WIFI_STATE",
        "android.permission.ACCESS_WIFI_STATE",
        "android.permission.CHANGE_NETWORK_STATE",
        "android.permission.CHANGE_WIFI_STATE",
        "android.permission.GET_PACKAGE_SIZE",
        "android.permission.GET_TASKS",
        "android.permission.GET_TASKS",
        "android.permission.INTERNET",
        "android.permission.INTERNET",
        "android.permission.MOUNT_UNMOUNT_FILESYSTEMS",
        "android.permission.PROCESS_OUTGOING_CALLS",
        "android.permission.READ_EXTERNAL_STORAGE",
        "android.permission.READ_LOGS",
        "android.permission.READ_PHONE_STATE",
        "android.permission.READ_PHONE_STATE",
        "android.permission.READ_PHONE_STATE",
        "android.permission.REORDER_TASKS",
        "android.permission.RESTART_PACKAGES",
        "android.permission.VIBRATE",
        "android.permission.VIBRATE",
        "android.permission.WAKE_LOCK",
        "android.permission.WRITE_EXTERNAL_STORAGE",
        "android.permission.WRITE_EXTERNAL_STORAGE",
        "android.permission.WRITE_SETTINGS",
        "android.permission.WRITE_SETTINGS",
        "com.android.launcher.permission.INSTALL_SHORTCUT",
        "com.android.launcher.permission.READ_SETTINGS",
        "com.android.launcher.permission.UNINSTALL_SHORTCUT"
      ]
    }
  ],
  "meta": {
    "generated": "2020-08-27T15:20:59.585642",
    "generatedBy": [
      "/home/hc/code/trackingthetrackers/scripts/make-trackers-apk-set.py"
    ],
    "ver": "0.3.0"
  }
}