{
  "apks": [
    {
      "applicationId": "com.adam.lock",
      "broadcastReceiverIntentFilterActionNames": [
        "android.app.action.DEVICE_ADMIN_ENABLED",
        "android.intent.action.BATTERY_CHANGED",
        "android.intent.action.BOOT_COMPLETED",
        "android.intent.action.PACKAGE_ADDED",
        "android.intent.action.PACKAGE_REMOVED",
        "android.intent.action.USER_PRESENT",
        "android.net.conn.CONNECTIVITY_CHANGE",
        "arui.alarm.action",
        "com.example.loadermanage.downloadManager",
        "com.zdt.action.ALARM_ACTION",
        "hahahahaha"
      ],
      "dependencies": [
        "com.umeng.analytics",
        "com.umeng.fb"
      ],
      "domainNamesFilteredByExodus": [
        "umeng.com"
      ],
      "metaDataNames": [
        "UMENG_APPKEY",
        "UMENG_CHANNEL",
        "android.app.device_admin"
      ],
      "sha256": "6847e5bf3192069c9548601724e32068ce91a614f55b5055ccd503f803cbd9a3",
      "usesPermissions": [
        "android.permission.ACCESS_COARSE_LOCATION",
        "android.permission.ACCESS_FINE_LOCATION",
        "android.permission.ACCESS_NETWORK_STATE",
        "android.permission.ACCESS_NETWORK_STATE",
        "android.permission.ACCESS_NETWORK_STATE",
        "android.permission.ACCESS_WIFI_STATE",
        "android.permission.ACCESS_WIFI_STATE",
        "android.permission.CALL_PHONE",
        "android.permission.DISABLE_KEYGUARD",
        "android.permission.EXPAND_STATUS_BAR",
        "android.permission.GET_TASKS",
        "android.permission.GET_TASKS",
        "android.permission.INTERNET",
        "android.permission.INTERNET",
        "android.permission.INTERNET",
        "android.permission.READ_CALL_LOG",
        "android.permission.READ_CONTACTS",
        "android.permission.READ_LOGS",
        "android.permission.READ_PHONE_STATE",
        "android.permission.READ_PHONE_STATE",
        "android.permission.READ_PHONE_STATE",
        "android.permission.READ_SMS",
        "android.permission.RECEIVE_BOOT_COMPLETED",
        "android.permission.RESTART_PACKAGES",
        "android.permission.RESTART_PACKAGES",
        "android.permission.SYSTEM_ALERT_WINDOW",
        "android.permission.SYSTEM_ALERT_WINDOW",
        "android.permission.VIBRATE",
        "android.permission.WRITE_EXTERNAL_STORAGE",
        "android.permission.WRITE_EXTERNAL_STORAGE",
        "android.permission.WRITE_EXTERNAL_STORAGE",
        "com.anddoes.launcher.permission.READ_SETTINGS",
        "com.anddoes.launcher.permission.WRITE_SETTINGS",
        "com.android.browser.permission.READ_HISTORY_BOOKMARKS",
        "com.android.browser.permission.WRITE_HISTORY_BOOKMARKS",
        "com.android.launcher.permission.INSTALL_SHORTCUT",
        "com.android.launcher.permission.INSTALL_SHORTCUT",
        "com.android.launcher.permission.READ_SETTINGS",
        "com.android.launcher.permission.UNINSTALL_SHORTCUT",
        "com.android.launcher.permission.UNINSTALL_SHORTCUT",
        "com.android.launcher.permission.WRITE_SETTINGS",
        "com.fede.launcher.permission.READ_SETTINGS",
        "com.fede.launcher.permission.WRITE_SETTINGS",
        "com.htc.launcher.permission.READ_SETTINGS",
        "com.htc.launcher.permission.WRITE_SETTINGS",
        "com.lge.launcher.permission.INSTALL_SHORTCUT",
        "com.lge.launcher.permission.READ_SETTINGS",
        "com.lge.launcher.permission.WRITE_SETTINGS",
        "com.motorola.dlauncher.permission.INSTALL_SHORTCUT",
        "com.motorola.dlauncher.permission.READ_SETTINGS",
        "com.motorola.dlauncher.permission.WRITE_SETTINGS",
        "com.motorola.launcher.permission.INSTALL_SHORTCUT",
        "com.motorola.launcher.permission.READ_SETTINGS",
        "com.motorola.launcher.permission.WRITE_SETTINGS",
        "com.teslacoilsw.launcher.permission.READ_SETTINGS",
        "com.teslacoilsw.launcher.permission.WRITE_SETTINGS",
        "org.adw.launcher.permission.READ_SETTINGS",
        "org.adw.launcher.permission.WRITE_SETTINGS"
      ]
    }
  ],
  "meta": {
    "generated": "2020-08-27T15:01:50.674169",
    "generatedBy": [
      "/home/hc/code/trackingthetrackers/scripts/make-trackers-apk-set.py"
    ],
    "ver": "0.3.0"
  }
}