{
  "apks": [
    {
      "applicationId": "com.kanedias.vanilla.audiotag",
      "broadcastReceiverIntentFilterActionNames": [
        "ch.blinkenlights.android.vanilla.action.REQUEST_PLUGIN_PARAMS"
      ],
      "dependencies": [],
      "domainNamesFilteredByExodus": [],
      "metaDataNames": [
        "android.support.FILE_PROVIDER_PATHS",
        "android.support.VERSION"
      ],
      "sha256": "0a10d44b1c1690c79199f77af78832ee5374004c049aa45671960eb4a203e009",
      "usesPermissions": [
        "android.permission.WRITE_EXTERNAL_STORAGE"
      ]
    }
  ],
  "meta": {
    "generated": "2020-08-27T17:35:27.517140",
    "generatedBy": [
      "/home/hc/code/trackingthetrackers/scripts/make-clean-apk-set.py"
    ],
    "generatedByCommitId": "40519285d6f404593fa655fa89b433743c25289e",
    "sourceDataCommitId": "888bb8f8c77ff55105fcab2ad84c263561eb1169",
    "ver": "0.3.0"
  }
}