{
  "apks": [
    {
      "applicationId": "net.gaast.giggity",
      "broadcastReceiverIntentFilterActionNames": [],
      "dependencies": [],
      "domainNamesFilteredByExodus": [],
      "metaDataNames": [
        "android.app.default_searchable",
        "android.app.searchable"
      ],
      "sha256": "f80f36e5c1cada163b6e12bfab04b25b3496a493a527eeeffc2019096c9cf960",
      "usesPermissions": [
        "android.permission.ACCESS_NETWORK_STATE",
        "android.permission.INTERNET",
        "android.permission.VIBRATE"
      ]
    }
  ],
  "meta": {
    "generated": "2020-08-27T18:17:12.704199",
    "generatedBy": [
      "/home/hc/code/trackingthetrackers/scripts/make-clean-apk-set.py"
    ],
    "generatedByCommitId": "3839559c80042252d3b947fb61c86a18e8b31114",
    "sourceDataCommitId": "888bb8f8c77ff55105fcab2ad84c263561eb1169",
    "ver": "0.3.0"
  }
}