{
  "apks": [
    {
      "applicationId": "com.github.cvzi.screenshottile",
      "broadcastReceiverIntentFilterActionNames": [],
      "dependencies": [],
      "domainNamesFilteredByExodus": [],
      "metaDataNames": [
        "android.app.shortcuts"
      ],
      "sha256": "62e7fdcf8cc7c7b89d936073990a8db475ead9899661977cf5b142b4a25f54f1",
      "usesPermissions": [
        "android.permission.FOREGROUND_SERVICE",
        "android.permission.WRITE_EXTERNAL_STORAGE"
      ]
    }
  ],
  "meta": {
    "generated": "2020-08-27T17:30:23.359758",
    "generatedBy": [
      "/home/hc/code/trackingthetrackers/scripts/make-clean-apk-set.py"
    ],
    "generatedByCommitId": "40519285d6f404593fa655fa89b433743c25289e",
    "sourceDataCommitId": "888bb8f8c77ff55105fcab2ad84c263561eb1169",
    "ver": "0.3.0"
  }
}