{
  "apks": [
    {
      "applicationId": "com.wb.goog.injustice",
      "broadcastReceiverIntentFilterActionNames": [
        "android.intent.action.PACKAGE_ADDED",
        "android.intent.action.PACKAGE_INSTALL",
        "com.amazon.inapp.purchasing.NOTIFY",
        "com.android.vending.INSTALL_REFERRER",
        "com.google.android.c2dm.intent.RECEIVE",
        "com.google.android.c2dm.intent.REGISTRATION"
      ],
      "dependencies": [
        "com.fiksu.asotracking"
      ],
      "domainNamesFilteredByExodus": [
        ".facebook.com"
      ],
      "metaDataNames": [
        "ADX_CLIENT_ID",
        "APP_NAME",
        "com.google.android.gms.appstate.APP_ID",
        "com.google.android.gms.games.APP_ID",
        "com.google.android.gms.version",
        "forward.AdX",
        "forward.kontagent"
      ],
      "sha256": "fc1b737037a173bab00e8831d3e073b7ea7c3a9438f45249581029a227624843",
      "usesPermissions": [
        "android.permission.ACCESS_FINE_LOCATION",
        "android.permission.ACCESS_NETWORK_STATE",
        "android.permission.ACCESS_WIFI_STATE",
        "android.permission.GET_ACCOUNTS",
        "android.permission.INTERNET",
        "android.permission.READ_PHONE_STATE",
        "android.permission.VIBRATE",
        "android.permission.WAKE_LOCK",
        "android.permission.WRITE_EXTERNAL_STORAGE",
        "com.android.vending.BILLING",
        "com.android.vending.CHECK_LICENSE",
        "com.google.android.c2dm.permission.RECEIVE",
        "com.wb.goog.injustice.permission.C2D_MESSAGE"
      ]
    }
  ],
  "meta": {
    "generated": "2020-08-27T15:18:00.237333",
    "generatedBy": [
      "/home/hc/code/trackingthetrackers/scripts/make-trackers-apk-set.py"
    ],
    "ver": "0.3.0"
  }
}