{
  "apks": [
    {
      "applicationId": "com.mobincube.android.sc_YZQ92",
      "broadcastReceiverIntentFilterActionNames": [
        "com.google.android.c2dm.intent.REGISTRATION"
      ],
      "dependencies": [
        "com$inneractive$api$ads",
        "com$millennialmedia$",
        "com$mopub$mobileads$",
        "com$smaato$soma$",
        "com.google.ads.",
        "com.google.android.gms.analytics.",
        "com.inmobi",
        "com.inneractive.api.ads",
        "com.mdotm.android",
        "com.millennialmedia.",
        "com.mopub.mobileads.",
        "com.smaato.soma.",
        "com_smaato_soma_"
      ],
      "domainNamesFilteredByExodus": [
        ".facebook.com",
        ".google.com",
        "247realmedia.com",
        "doubleclick.net",
        "et.w.inmobi.com",
        "google-analytics.com",
        "i.w.inmobi.com",
        "inmobi.com",
        "inmobisdk-a.akamaihd.net",
        "millennialmedia.com",
        "mopub.com",
        "openx.com",
        "smaato.net",
        "soma.smaato.net",
        "w.inmobi.com"
      ],
      "metaDataNames": [
        "com.tapcontext.DEVELOPERKEY",
        "com.tapcontext.EULA"
      ],
      "sha256": "898160dcbdb3449de574f0658c4ff255992bae811f41f3d351376a3c24d43078",
      "usesPermissions": [
        "android.permission.ACCESS_CORSE_LOCATION",
        "android.permission.ACCESS_FINE_LOCATION",
        "android.permission.ACCESS_NETWORK_STATE",
        "android.permission.ACCESS_WIFI_STATE",
        "android.permission.INTERNET",
        "android.permission.READ_PHONE_STATE",
        "android.permission.WRITE_EXTERNAL_STORAGE"
      ]
    }
  ],
  "meta": {
    "generated": "2020-08-27T15:06:25.474119",
    "generatedBy": [
      "/home/hc/code/trackingthetrackers/scripts/make-trackers-apk-set.py"
    ],
    "ver": "0.3.0"
  }
}