{
  "apks": [
    {
      "applicationId": "org.hlwd.bible",
      "broadcastReceiverIntentFilterActionNames": [],
      "dependencies": [],
      "domainNamesFilteredByExodus": [
        ".facebook.com",
        ".google.com"
      ],
      "metaDataNames": [],
      "sha256": "ffa9cb68983eafb30e28d7e4e8ef18bcaca92a79c585e26454a6d7162b0444ff",
      "usesPermissions": []
    }
  ],
  "meta": {
    "generated": "2020-08-27T18:28:10.312433",
    "generatedBy": [
      "/home/hc/code/trackingthetrackers/scripts/make-clean-apk-set.py"
    ],
    "generatedByCommitId": "3839559c80042252d3b947fb61c86a18e8b31114",
    "sourceDataCommitId": "888bb8f8c77ff55105fcab2ad84c263561eb1169",
    "ver": "0.3.0"
  }
}