{
  "apks": [
    {
      "applicationId": "de.gabbo.forro_lyrics",
      "broadcastReceiverIntentFilterActionNames": [],
      "dependencies": [],
      "domainNamesFilteredByExodus": [],
      "metaDataNames": [
        "android.app.searchable"
      ],
      "sha256": "cb6a81c25432dc2e80217b0db41d6e37c94ea63e168b2b8fd18205783d0717fd",
      "usesPermissions": []
    }
  ],
  "meta": {
    "generated": "2020-08-27T17:59:07.977982",
    "generatedBy": [
      "/home/hc/code/trackingthetrackers/scripts/make-clean-apk-set.py"
    ],
    "generatedByCommitId": "3839559c80042252d3b947fb61c86a18e8b31114",
    "sourceDataCommitId": "888bb8f8c77ff55105fcab2ad84c263561eb1169",
    "ver": "0.3.0"
  }
}