{
  "apks": [
    {
      "applicationId": "com.todobom.opennotescanner",
      "broadcastReceiverIntentFilterActionNames": [],
      "dependencies": [
        "org.piwik"
      ],
      "domainNamesFilteredByExodus": [
        ".google.com"
      ],
      "metaDataNames": [
        "android.arch.lifecycle.VERSION",
        "android.support.FILE_PROVIDER_PATHS"
      ],
      "sha256": "90d58619d46b3f1d7a53ffd9aefd3d77500607168b38edc4614750089a2cf905",
      "usesPermissions": [
        "android.permission.ACCESS_NETWORK_STATE",
        "android.permission.CAMERA",
        "android.permission.INTERNET",
        "android.permission.READ_EXTERNAL_STORAGE",
        "android.permission.REQUEST_INSTALL_PACKAGES",
        "android.permission.WRITE_EXTERNAL_STORAGE"
      ]
    }
  ],
  "meta": {
    "generated": "2020-08-27T17:51:43.298788",
    "generatedBy": [
      "/home/hc/code/trackingthetrackers/scripts/make-clean-apk-set.py"
    ],
    "generatedByCommitId": "40519285d6f404593fa655fa89b433743c25289e",
    "sourceDataCommitId": "888bb8f8c77ff55105fcab2ad84c263561eb1169",
    "ver": "0.3.0"
  }
}