{
  "apks": [
    {
      "applicationId": "com.threeupplus.dwhtzivsmgrk",
      "broadcastReceiverIntentFilterActionNames": [
        "android.intent.action.PACKAGE_ADDED",
        "android.intent.action.PACKAGE_REMOVED",
        "android.intent.action.USER_PRESENT",
        "android.net.conn.CONNECTIVITY_CHANGE",
        "com.lseiei.downloadManager"
      ],
      "dependencies": [
        "com.applovin"
      ],
      "domainNamesFilteredByExodus": [
        "applovin.com",
        "stats.unity3d.com"
      ],
      "metaDataNames": [
        "apkey",
        "applovin.sdk.key",
        "applovin.sdk.verbose_logging"
      ],
      "sha256": "3374c1f5c5aa10a2d761a3ffe0117571fe85148aa54bd563f9eab721daa2f367",
      "usesPermissions": [
        "android.permission.ACCESS_NETWORK_STATE",
        "android.permission.ACCESS_NETWORK_STATE",
        "android.permission.ACCESS_WIFI_STATE",
        "android.permission.GET_ACCOUNTS",
        "android.permission.GET_TASKS",
        "android.permission.INTERNET",
        "android.permission.INTERNET",
        "android.permission.READ_PHONE_STATE",
        "android.permission.READ_PHONE_STATE",
        "android.permission.SYSTEM_ALERT_WINDOW",
        "android.permission.WAKE_LOCK",
        "android.permission.WRITE_EXTERNAL_STORAGE"
      ]
    }
  ],
  "meta": {
    "generated": "2020-08-27T15:12:15.630797",
    "generatedBy": [
      "/home/hc/code/trackingthetrackers/scripts/make-trackers-apk-set.py"
    ],
    "ver": "0.3.0"
  }
}