{
  "apks": [
    {
      "applicationId": "woodenboxlwp.timnasu19.lwp",
      "broadcastReceiverIntentFilterActionNames": [
        "android.intent.action.BOOT_COMPLETED",
        "android.intent.action.USER_PRESENT"
      ],
      "dependencies": [
        "com$startapp$android$publish",
        "com.startapp.android.publish",
        "com_facebook_login"
      ],
      "domainNamesFilteredByExodus": [
        ".google.com",
        "api.airpush.com"
      ],
      "metaDataNames": [
        "android.service.wallpaper",
        "com.ybjk.qlft111182.APIKEY",
        "com.ybjk.qlft111182.APPID"
      ],
      "sha256": "123b6a090f78de98273a138ece8faf1694474ff71670ca6b45ba5ddc9c5e3f58",
      "usesPermissions": [
        "android.permission.ACCESS_COARSE_LOCATION",
        "android.permission.ACCESS_FINE_LOCATION",
        "android.permission.ACCESS_NETWORK_STATE",
        "android.permission.ACCESS_WIFI_STATE",
        "android.permission.INTERNET",
        "android.permission.READ_PHONE_STATE",
        "android.permission.RECEIVE_BOOT_COMPLETED",
        "android.permission.WRITE_EXTERNAL_STORAGE"
      ]
    }
  ],
  "meta": {
    "generated": "2020-08-27T15:03:13.780587",
    "generatedBy": [
      "/home/hc/code/trackingthetrackers/scripts/make-trackers-apk-set.py"
    ],
    "ver": "0.3.0"
  }
}