{
  "apks": [
    {
      "applicationId": "dk.kjeldsen.carwingsflutter",
      "broadcastReceiverIntentFilterActionNames": [
        "android.appwidget.action.APPWIDGET_UPDATE"
      ],
      "dependencies": [],
      "domainNamesFilteredByExodus": [
        ".google.com"
      ],
      "metaDataNames": [
        "android.appwidget.provider",
        "io.flutter.app.android.SplashScreenUntilFirstFrame"
      ],
      "sha256": "e6440890b17dcd0ccd481c770156d1f2a97307c6cd657bf5de4032ec9e9a61b1",
      "usesPermissions": [
        "android.permission.INTERNET",
        "com.android.vending.BILLING"
      ]
    }
  ],
  "meta": {
    "generated": "2020-08-27T14:46:05.905649",
    "generatedBy": [
      "/home/hc/code/trackingthetrackers/scripts/make-trackers-apk-set.py"
    ],
    "ver": "0.3.0"
  }
}