{
  "apks": [
    {
      "applicationId": "com.centurysoft.fruityrobo",
      "broadcastReceiverIntentFilterActionNames": [
        "android.intent.action.PACKAGE_ADDED",
        "android.intent.action.PACKAGE_REMOVED",
        "android.intent.action.PACKAGE_REPLACED",
        "android.net.conn.CONNECTIVITY_CHANGE",
        "cn.play.dservice",
        "com.skynet.push.notice.public"
      ],
      "dependencies": [
        "com.flurry.",
        "com.tencent.stat"
      ],
      "domainNamesFilteredByExodus": [
        "flurry.com",
        "map.qq.com",
        "stats.unity3d.com"
      ],
      "metaDataNames": [
        "EGAME_CHANNEL",
        "android.app.lib_name",
        "appid",
        "unityplayer.ForwardNativeEventsToDalvik",
        "wostore_billing_chinaunicom",
        "wostore_billing_otherpay"
      ],
      "sha256": "92d2f4b4bfc7c465f5f4e685fe158669b9446336a2e266d2e9e4d597a8994c29",
      "usesPermissions": [
        "android.permission.ACCESS_NETWORK_STATE",
        "android.permission.ACCESS_WIFI_STATE",
        "android.permission.DISABLE_KEYGUARD",
        "android.permission.GET_TASKS",
        "android.permission.INTERNET",
        "android.permission.MOUNT_UNMOUNT_FILESYSTEMS",
        "android.permission.READ_CONTACTS",
        "android.permission.READ_EXTERNAL_STORAGE",
        "android.permission.READ_PHONE_STATE",
        "android.permission.RECORD_AUDIO",
        "android.permission.SEND_SMS",
        "android.permission.SYSTEM_ALERT_WINDOW",
        "android.permission.VIBRATE",
        "android.permission.WRITE_EXTERNAL_STORAGE"
      ]
    }
  ],
  "meta": {
    "generated": "2020-08-27T15:43:20.127597",
    "generatedBy": [
      "/home/hc/code/trackingthetrackers/scripts/make-trackers-apk-set.py"
    ],
    "ver": "0.3.0"
  }
}