{
  "apks": [
    {
      "applicationId": "com.onest8.onetimepad",
      "broadcastReceiverIntentFilterActionNames": [],
      "dependencies": [],
      "domainNamesFilteredByExodus": [],
      "metaDataNames": [],
      "sha256": "efdf467dad176f9d29f40d1d64c2981030e942aa18166ed4bdd93ded730bbe4d",
      "usesPermissions": [
        "android.permission.CAMERA"
      ]
    }
  ],
  "meta": {
    "generated": "2020-08-27T17:45:28.485154",
    "generatedBy": [
      "/home/hc/code/trackingthetrackers/scripts/make-clean-apk-set.py"
    ],
    "generatedByCommitId": "40519285d6f404593fa655fa89b433743c25289e",
    "sourceDataCommitId": "888bb8f8c77ff55105fcab2ad84c263561eb1169",
    "ver": "0.3.0"
  }
}