{
  "apks": [
    {
      "applicationId": "science.iodev.fissh",
      "broadcastReceiverIntentFilterActionNames": [],
      "dependencies": [],
      "domainNamesFilteredByExodus": [],
      "metaDataNames": [],
      "sha256": "9f9306ec885271c935e83035cfdcb4568ec822a551a9325176b74ee96f3acad2",
      "usesPermissions": [
        "android.permission.INTERNET",
        "android.permission.USE_FINGERPRINT",
        "true",
        "true"
      ]
    }
  ],
  "meta": {
    "generated": "2020-08-27T17:07:45.052599",
    "generatedBy": [
      "/home/hc/code/trackingthetrackers/scripts/make-clean-apk-set.py"
    ],
    "generatedByCommitId": "40519285d6f404593fa655fa89b433743c25289e",
    "sourceDataCommitId": "888bb8f8c77ff55105fcab2ad84c263561eb1169",
    "ver": "0.3.0"
  }
}