{
  "apks": [
    {
      "applicationId": "com.baby.cmpnum",
      "broadcastReceiverIntentFilterActionNames": [],
      "dependencies": [
        "org.cocos2dx"
      ],
      "domainNamesFilteredByExodus": [],
      "metaDataNames": [],
      "sha256": "0ba40165e66644dd74eabedeac58b0aa92ddd333600c4a02a535dfb6cd188043",
      "usesPermissions": [
        "android.permission.ACCESS_NETWORK_STATE",
        "android.permission.ACCESS_WIFI_STATE",
        "android.permission.GET_TASKS",
        "android.permission.INTERNET",
        "android.permission.INTERNET",
        "android.permission.READ_PHONE_STATE",
        "android.permission.WRITE_EXTERNAL_STORAGE"
      ]
    }
  ],
  "meta": {
    "generated": "2020-08-27T14:50:00.831375",
    "generatedBy": [
      "/home/hc/code/trackingthetrackers/scripts/make-trackers-apk-set.py"
    ],
    "ver": "0.3.0"
  }
}