{
  "apks": [
    {
      "applicationId": "com.aurora.adroid",
      "broadcastReceiverIntentFilterActionNames": [
        "android.intent.action.BOOT_COMPLETED"
      ],
      "dependencies": [],
      "domainNamesFilteredByExodus": [],
      "metaDataNames": [
        "android.support.FILE_PROVIDER_PATHS",
        "preloaded_fonts"
      ],
      "sha256": "649b267a9a84f53914bcc7878c17d5d961c724bde21bde1d8fa3a01cc2fe298e",
      "usesPermissions": [
        "android.permission.ACCESS_NETWORK_STATE",
        "android.permission.ACCESS_WIFI_STATE",
        "android.permission.CAMERA",
        "android.permission.FOREGROUND_SERVICE",
        "android.permission.INSTALL_PACKAGES",
        "android.permission.INTERNET",
        "android.permission.READ_EXTERNAL_STORAGE",
        "android.permission.REQUEST_DELETE_PACKAGES",
        "android.permission.REQUEST_INSTALL_PACKAGES",
        "android.permission.WRITE_EXTERNAL_STORAGE"
      ]
    }
  ],
  "meta": {
    "generated": "2020-08-27T16:53:03.544838",
    "generatedBy": [
      "/home/hc/code/trackingthetrackers/scripts/make-clean-apk-set.py"
    ],
    "generatedByCommitId": "40519285d6f404593fa655fa89b433743c25289e",
    "sourceDataCommitId": "888bb8f8c77ff55105fcab2ad84c263561eb1169",
    "ver": "0.3.0"
  }
}