{
  "apks": [
    {
      "applicationId": "org.billthefarmer.diary",
      "broadcastReceiverIntentFilterActionNames": [],
      "dependencies": [],
      "domainNamesFilteredByExodus": [
        ".google.com"
      ],
      "metaDataNames": [],
      "sha256": "1632f1a84b5182881a70f02080487d141ad10aea8733f225c28cff4291ee5649",
      "usesPermissions": [
        "android.permission.INTERNET",
        "android.permission.READ_CALENDAR",
        "android.permission.WRITE_CALENDAR",
        "android.permission.WRITE_EXTERNAL_STORAGE"
      ]
    }
  ],
  "meta": {
    "generated": "2020-08-27T18:23:17.778833",
    "generatedBy": [
      "/home/hc/code/trackingthetrackers/scripts/make-clean-apk-set.py"
    ],
    "generatedByCommitId": "3839559c80042252d3b947fb61c86a18e8b31114",
    "sourceDataCommitId": "888bb8f8c77ff55105fcab2ad84c263561eb1169",
    "ver": "0.3.0"
  }
}