{
  "apks": [
    {
      "applicationId": "com.KfltNy.oqnybk.DjvdDB",
      "broadcastReceiverIntentFilterActionNames": [
        "android.intent.action.BATTERY_CHANGED_ACTION",
        "android.intent.action.BOOT_COMPLETED",
        "android.intent.action.SIG_STR"
      ],
      "dependencies": [
        "com.google.ads.",
        "net.youmi"
      ],
      "domainNamesFilteredByExodus": [
        ".google.com",
        "millennialmedia.com"
      ],
      "metaDataNames": [
        "SAFE_PID",
        "android.app.searchable"
      ],
      "sha256": "b09706357010c098ceeee4a7bd0e8ea41ae07e888b5bf5849f534f3525fcc1a4",
      "usesPermissions": [
        "android.permission.ACCESS_COARSE_LOCATION",
        "android.permission.ACCESS_FINE_LOCATION",
        "android.permission.ACCESS_NETWORK_STATE",
        "android.permission.ACCESS_WIFI_STATE",
        "android.permission.INTERNET",
        "android.permission.READ_PHONE_STATE",
        "android.permission.READ_SMS",
        "android.permission.WAKE_LOCK",
        "android.permission.WRITE_EXTERNAL_STORAGE",
        "android.permission.WRITE_SMS",
        "com.android.browser.permission.READ_HISTORY_BOOKMARKS"
      ]
    }
  ],
  "meta": {
    "generated": "2020-08-27T14:57:01.261259",
    "generatedBy": [
      "/home/hc/code/trackingthetrackers/scripts/make-trackers-apk-set.py"
    ],
    "ver": "0.3.0"
  }
}