{
  "apks": [
    {
      "applicationId": "org.billthefarmer.accordion",
      "broadcastReceiverIntentFilterActionNames": [],
      "dependencies": [],
      "domainNamesFilteredByExodus": [],
      "metaDataNames": [],
      "sha256": "e88bd9163381bb3796b521dee54f2af6b18c7b386fe71e320f1c4525d3f4b027",
      "usesPermissions": []
    }
  ],
  "meta": {
    "generated": "2020-08-27T18:23:08.826434",
    "generatedBy": [
      "/home/hc/code/trackingthetrackers/scripts/make-clean-apk-set.py"
    ],
    "generatedByCommitId": "3839559c80042252d3b947fb61c86a18e8b31114",
    "sourceDataCommitId": "888bb8f8c77ff55105fcab2ad84c263561eb1169",
    "ver": "0.3.0"
  }
}