{
  "apks": [
    {
      "applicationId": "eu.e43.impeller",
      "broadcastReceiverIntentFilterActionNames": [],
      "dependencies": [],
      "domainNamesFilteredByExodus": [],
      "metaDataNames": [
        "android.accounts.AccountAuthenticator",
        "android.content.SyncAdapter",
        "android.provider.CONTACTS_STRUCTURE",
        "android.support.PARENT_ACTIVITY"
      ],
      "sha256": "25d3332d0f3cf07dd0d549cfae317edaf6fa5d23acec4a208eb850a7c24ebaac",
      "usesPermissions": [
        "android.permission.AUTHENTICATE_ACCOUNTS",
        "android.permission.GET_ACCOUNTS",
        "android.permission.INTERNET",
        "android.permission.MANAGE_ACCOUNTS",
        "android.permission.READ_CONTACTS",
        "android.permission.USE_CREDENTIALS",
        "android.permission.WRITE_CONTACTS"
      ]
    }
  ],
  "meta": {
    "generated": "2020-08-27T18:06:18.677547",
    "generatedBy": [
      "/home/hc/code/trackingthetrackers/scripts/make-clean-apk-set.py"
    ],
    "generatedByCommitId": "3839559c80042252d3b947fb61c86a18e8b31114",
    "sourceDataCommitId": "888bb8f8c77ff55105fcab2ad84c263561eb1169",
    "ver": "0.3.0"
  }
}