{
  "apks": [
    {
      "applicationId": "savitabhabhi.amit.gallery.cartoon7",
      "broadcastReceiverIntentFilterActionNames": [
        "android.intent.action.BOOT_COMPLETED",
        "android.intent.action.MY_PACKAGE_REPLACED",
        "android.intent.action.PACKAGE_ADDED",
        "android.intent.action.PACKAGE_REPLACED"
      ],
      "dependencies": [
        "com$startapp$android$publish",
        "com.startapp.android.publish"
      ],
      "domainNamesFilteredByExodus": [
        ".google.com",
        "api.airpush.com",
        "beta.airpush.com",
        "m.airpush.com"
      ],
      "metaDataNames": [
        "appwiz_app_id",
        "com.jxbpj.zronq156149.APIKEY",
        "com.jxbpj.zronq156149.APPID",
        "com.tapcontext.DEVELOPERKEY"
      ],
      "sha256": "4fe729a2f12b88be708e9d7cc92cfd29507f2b543b2ddbd400bf84b9323beddd",
      "usesPermissions": [
        "android.permission.ACCESS_COARSE_LOCATION",
        "android.permission.ACCESS_COARSE_LOCATION",
        "android.permission.ACCESS_FINE_LOCATION",
        "android.permission.ACCESS_FINE_LOCATION",
        "android.permission.ACCESS_LOCATION_EXTRA_COMMANDS",
        "android.permission.ACCESS_NETWORK_STATE",
        "android.permission.ACCESS_NETWORK_STATE",
        "android.permission.ACCESS_NETWORK_STATE",
        "android.permission.ACCESS_WIFI_STATE",
        "android.permission.ACCESS_WIFI_STATE",
        "android.permission.ACCESS_WIFI_STATE",
        "android.permission.GET_ACCOUNTS",
        "android.permission.GET_ACCOUNTS",
        "android.permission.GET_ACCOUNTS",
        "android.permission.GET_TASKS",
        "android.permission.INTERNET",
        "android.permission.INTERNET",
        "android.permission.INTERNET",
        "android.permission.INTERNET",
        "android.permission.READ_EXTERNAL_STORAGE",
        "android.permission.READ_PHONE_STATE",
        "android.permission.READ_PHONE_STATE",
        "android.permission.READ_PHONE_STATE",
        "android.permission.RECEIVE_BOOT_COMPLETED",
        "android.permission.RECEIVE_BOOT_COMPLETED",
        "android.permission.RECEIVE_BOOT_COMPLETED",
        "android.permission.VIBRATE",
        "android.permission.WAKE_LOCK",
        "android.permission.WRITE_EXTERNAL_STORAGE",
        "android.permission.WRITE_EXTERNAL_STORAGE",
        "com.android.browser.permission.READ_HISTORY_BOOKMARKS",
        "com.android.browser.permission.READ_HISTORY_BOOKMARKS",
        "com.android.browser.permission.WRITE_HISTORY_BOOKMARKS",
        "com.android.browser.permission.WRITE_HISTORY_BOOKMARKS",
        "com.android.launcher.permission.INSTALL_SHORTCUT",
        "com.android.launcher.permission.INSTALL_SHORTCUT",
        "com.android.launcher.permission.INSTALL_SHORTCUT",
        "com.android.launcher.permission.INSTALL_SHORTCUT",
        "com.android.launcher.permission.READ_SETTINGS",
        "com.android.launcher.permission.UNINSTALL_SHORTCUT",
        "com.fede.launcher.permission.READ_SETTINGS",
        "com.htc.launcher.permission.READ_SETTINGS",
        "com.lge.launcher.permission.INSTALL_SHORTCUT",
        "com.lge.launcher.permission.READ_SETTINGS",
        "com.motorola.dlauncher.permission.INSTALL_SHORTCUT",
        "com.motorola.dlauncher.permission.READ_SETTINGS",
        "com.motorola.launcher.permission.INSTALL_SHORTCUT",
        "com.motorola.launcher.permission.READ_SETTINGS",
        "org.adw.launcher.permission.READ_SETTINGS"
      ]
    }
  ],
  "meta": {
    "generated": "2020-08-27T15:03:51.220046",
    "generatedBy": [
      "/home/hc/code/trackingthetrackers/scripts/make-trackers-apk-set.py"
    ],
    "ver": "0.3.0"
  }
}