{
  "apks": [
    {
      "applicationId": "com.github.axet.hourlyreminder",
      "broadcastReceiverIntentFilterActionNames": [
        "android.intent.action.BOOT_COMPLETED",
        "android.intent.action.EXTERNAL_APPLICATIONS_AVAILABLE",
        "android.intent.action.PACKAGE_REPLACED",
        "android.intent.action.QUICKBOOT_POWERON",
        "android.intent.action.TIMEZONE_CHANGED",
        "com.htc.intent.action.QUICKBOOT_POWERON"
      ],
      "dependencies": [],
      "domainNamesFilteredByExodus": [],
      "metaDataNames": [
        "android.support.VERSION"
      ],
      "sha256": "f65a2582e7f308ea77f8bb226f18c3db1fd760544cc107623ee8100bfc629526",
      "usesPermissions": [
        "android.permission.READ_EXTERNAL_STORAGE",
        "android.permission.READ_PHONE_STATE",
        "android.permission.RECEIVE_BOOT_COMPLETED",
        "android.permission.REQUEST_IGNORE_BATTERY_OPTIMIZATIONS",
        "android.permission.VIBRATE",
        "android.permission.WAKE_LOCK"
      ]
    }
  ],
  "meta": {
    "generated": "2020-08-27T17:25:52.115368",
    "generatedBy": [
      "/home/hc/code/trackingthetrackers/scripts/make-clean-apk-set.py"
    ],
    "generatedByCommitId": "40519285d6f404593fa655fa89b433743c25289e",
    "sourceDataCommitId": "888bb8f8c77ff55105fcab2ad84c263561eb1169",
    "ver": "0.3.0"
  }
}