{
  "apks": [
    {
      "applicationId": "com.echurchapps.redemptionch",
      "broadcastReceiverIntentFilterActionNames": [
        "android.intent.action.BOOT_COMPLETED",
        "android.intent.action.MEDIA_BUTTON",
        "com.android.vending.INSTALL_REFERRER",
        "com.google.android.c2dm.intent.RECEIVE",
        "com.google.android.c2dm.intent.REGISTRATION"
      ],
      "dependencies": [
        "com$facebook$login",
        "com$facebook$share",
        "com$smaato$soma$",
        "com.appsflyer.",
        "com.facebook.ads",
        "com.facebook.appevents",
        "com.facebook.login",
        "com.facebook.share",
        "com.flurry.",
        "com.google.ads.",
        "com.google.android.gms.ads.",
        "com.google.android.gms.analytics.",
        "com.google.android.gms.measurement.",
        "com.google.android.gms.tagmanager",
        "com.inmobi",
        "com.millennialmedia.",
        "com.mopub.mobileads.",
        "com.smaato.soma.",
        "com.smartadserver.",
        "com_facebook_login",
        "com_facebook_share",
        "ly$count$android$",
        "ly.count.android."
      ],
      "domainNamesFilteredByExodus": [
        ".facebook.com",
        ".google.com",
        "adtech.de",
        "appsflyer.com",
        "doubleclick.net",
        "flurry.com",
        "google-analytics.com",
        "smaato.net",
        "smartadserver.com",
        "soma.smaato.net",
        "www.googletagmanager.com"
      ],
      "metaDataNames": [
        "com.facebook.sdk.ApplicationId",
        "com.google.android.gms.version",
        "com.google.android.maps.v2.API_KEY"
      ],
      "sha256": "c1e408e3574cc7db342cafaca303d63546522a2f06923b0727d1ba20912c7ce7",
      "usesPermissions": [
        "android.permission.ACCESS_COARSE_LOCATION",
        "android.permission.ACCESS_FINE_LOCATION",
        "android.permission.ACCESS_NETWORK_STATE",
        "android.permission.ACCESS_WIFI_STATE",
        "android.permission.CAMERA",
        "android.permission.INTERNET",
        "android.permission.VIBRATE",
        "android.permission.WAKE_LOCK",
        "android.permission.WRITE_EXTERNAL_STORAGE",
        "com.echurchapps.redemptionch.permission.C2D_MESSAGE",
        "com.google.android.c2dm.permission.RECEIVE",
        "com.google.android.providers.gsf.permission.READ_GSERVICES"
      ]
    }
  ],
  "meta": {
    "generated": "2020-08-27T15:49:39.927746",
    "generatedBy": [
      "/home/hc/code/trackingthetrackers/scripts/make-trackers-apk-set.py"
    ],
    "ver": "0.3.0"
  }
}