{
  "apks": [
    {
      "applicationId": "com.gv.rewards",
      "broadcastReceiverIntentFilterActionNames": [
        "com.android.vending.INSTALL_REFERRER"
      ],
      "dependencies": [
        "com$facebook$login",
        "com$facebook$share",
        "com.appsflyer.",
        "com.facebook.appevents",
        "com.facebook.login",
        "com.facebook.share",
        "com.google.ads.",
        "com.google.android.gms.ads.",
        "com.google.android.gms.analytics.",
        "com.google.android.gms.tagmanager",
        "com.kochava.android.tracker.",
        "com.sponsorpay",
        "com.vungle.publisher.",
        "com_facebook_login",
        "com_facebook_share"
      ],
      "domainNamesFilteredByExodus": [
        ".facebook.com",
        ".google.com",
        "api.vungle.com",
        "appsflyer.com",
        "control.kochava.com",
        "doubleclick.net",
        "engine.sponsorpay.com",
        "google-analytics.com",
        "persona.ly",
        "www.googletagmanager.com",
        "youmi.net"
      ],
      "metaDataNames": [
        "com.facebook.sdk.ApplicationId",
        "com.google.android.gms.version"
      ],
      "sha256": "8c4ef75765643dae79e647728d85a1d3fc2c8751e0fb2337c8ed51b90b058566",
      "usesPermissions": [
        "android.permission.ACCESS_COARSE_LOCATION",
        "android.permission.ACCESS_NETWORK_STATE",
        "android.permission.ACCESS_WIFI_STATE",
        "android.permission.CAMERA",
        "android.permission.CHANGE_WIFI_STATE",
        "android.permission.GET_ACCOUNTS",
        "android.permission.GET_TASKS",
        "android.permission.INTERNET",
        "android.permission.READ_CONTACTS",
        "android.permission.READ_EXTERNAL_STORAGE",
        "android.permission.READ_PHONE_STATE",
        "android.permission.SYSTEM_ALERT_WINDOW",
        "android.permission.VIBRATE",
        "android.permission.WAKE_LOCK",
        "android.permission.WRITE_EXTERNAL_STORAGE",
        "android.permission.WRITE_EXTERNAL_STORAGE",
        "com.android.vending.BILLING"
      ]
    }
  ],
  "meta": {
    "generated": "2020-08-27T15:17:03.620461",
    "generatedBy": [
      "/home/hc/code/trackingthetrackers/scripts/make-trackers-apk-set.py"
    ],
    "ver": "0.3.0"
  }
}