{
  "apks": [
    {
      "applicationId": "com.einmalfel.podlisten",
      "broadcastReceiverIntentFilterActionNames": [
        "android.appwidget.action.APPWIDGET_UPDATE",
        "android.intent.action.ACTION_POWER_CONNECTED",
        "android.intent.action.ACTION_POWER_DISCONNECTED",
        "android.intent.action.DOWNLOAD_COMPLETE",
        "android.intent.action.DOWNLOAD_NOTIFICATION_CLICKED",
        "android.intent.action.MEDIA_BUTTON",
        "com.einmalfel.podlisten.DOWNLOAD_EPISODE",
        "com.einmalfel.podlisten.DOWNLOAD_HEARTBEAT",
        "com.einmalfel.podlisten.UPDATE_QUEUE"
      ],
      "dependencies": [],
      "domainNamesFilteredByExodus": [
        ".facebook.com",
        ".google.com",
        "google-analytics.com",
        "media.net"
      ],
      "metaDataNames": [
        "android.accounts.AccountAuthenticator",
        "android.appwidget.provider",
        "android.content.SyncAdapter",
        "android.support.PARENT_ACTIVITY"
      ],
      "sha256": "67fd06714d6920decd6716c44d1c2927b5bfe28729dd659a0f54b5e4c7b52abe",
      "usesPermissions": [
        "android.permission.AUTHENTICATE_ACCOUNTS",
        "android.permission.INTERNET",
        "android.permission.WRITE_EXTERNAL_STORAGE",
        "android.permission.WRITE_SYNC_SETTINGS"
      ]
    }
  ],
  "meta": {
    "generated": "2020-08-27T17:18:22.528517",
    "generatedBy": [
      "/home/hc/code/trackingthetrackers/scripts/make-clean-apk-set.py"
    ],
    "generatedByCommitId": "40519285d6f404593fa655fa89b433743c25289e",
    "sourceDataCommitId": "888bb8f8c77ff55105fcab2ad84c263561eb1169",
    "ver": "0.3.0"
  }
}