{
  "apks": [
    {
      "applicationId": "Znoc2dbf.Cicbns7s.view",
      "broadcastReceiverIntentFilterActionNames": [
        "android.app.action.DEVICE_ADMIN_ENABLED",
        "android.intent.action.PHONE_STATE",
        "android.provider.Telephony.SMS_RECEIVED"
      ],
      "dependencies": [
        "com.tencent.bugly."
      ],
      "domainNamesFilteredByExodus": [
        "bugly.qq.com"
      ],
      "metaDataNames": [
        "android.app.device_admin"
      ],
      "sha256": "ae5bfd3833ed2e35e291ab70fae4abbbbfc9f2e54bdb557c8288c3c400f62d16",
      "usesPermissions": [
        "android.permission.CALL_PHONE",
        "android.permission.INTERNET",
        "android.permission.MODIFY_PHONE_STATE",
        "android.permission.READ_PHONE_STATE",
        "android.permission.READ_SMS",
        "android.permission.RECEIVE_BOOT_COMPLETED",
        "android.permission.RECEIVE_SMS",
        "android.permission.SEND_SMS",
        "android.permission.WRITE_SETTINGS"
      ]
    }
  ],
  "meta": {
    "generated": "2020-08-27T15:46:47.360473",
    "generatedBy": [
      "/home/hc/code/trackingthetrackers/scripts/make-trackers-apk-set.py"
    ],
    "ver": "0.3.0"
  }
}