{
  "apks": [
    {
      "applicationId": "gigantwin.czomisterupd.com",
      "broadcastReceiverIntentFilterActionNames": [
        "android.appwidget.action.APPWIDGET_UPDATE",
        "com.android.vending.INSTALL_REFERRER"
      ],
      "dependencies": [
        "com.appbrain.",
        "com.flurry.",
        "com.google.ads.",
        "com.google.android.gms.ads.",
        "com.google.android.gms.analytics.",
        "com.ironsource.",
        "com.millennialmedia.",
        "com.mopub.mobileads."
      ],
      "domainNamesFilteredByExodus": [
        ".google.com",
        "doubleclick.net",
        "flurry.com",
        "google-analytics.com",
        "millennialmedia.com",
        "mopub.com",
        "www.googletagmanager.com"
      ],
      "metaDataNames": [
        "android.appwidget.provider",
        "android.service.wallpaper",
        "com.google.android.gms.version"
      ],
      "sha256": "b0ca9766cfd370c49faf806b546ab15c95ab618b450f6e943f63eee64765999c",
      "usesPermissions": [
        "android.permission.ACCESS_NETWORK_STATE",
        "android.permission.ACCESS_WIFI_STATE",
        "android.permission.INTERNET",
        "android.permission.READ_PHONE_STATE",
        "android.permission.WRITE_EXTERNAL_STORAGE"
      ]
    }
  ],
  "meta": {
    "generated": "2020-08-27T15:53:05.346489",
    "generatedBy": [
      "/home/hc/code/trackingthetrackers/scripts/make-trackers-apk-set.py"
    ],
    "ver": "0.3.0"
  }
}