{
  "apks": [
    {
      "applicationId": "org.wahtod.wififixer",
      "broadcastReceiverIntentFilterActionNames": [
        "android.appwidget.action.APPWIDGET_UPDATE",
        "android.intent.action.BOOT_COMPLETED",
        "org.wahtod.wififixer.ACTION_WIFI_CHANGE",
        "org.wahtod.wififixer.ACTION_WIFI_OFF",
        "org.wahtod.wififixer.ACTION_WIFI_ON",
        "org.wahtod.wififixer.ACTION_WIFI_SERVICE_DISABLE",
        "org.wahtod.wififixer.ACTION_WIFI_SERVICE_ENABLE",
        "org.wahtod.wififixer.ACTION_WIFI_TOGGLE",
        "org.wahtod.wififixer.AUTH",
        "org.wahtod.wififixer.WIDGET",
        "org.wahtod.wififixer.WNOTIF",
        "org.wahtod.wififixer.WidgetReceiver.WIFI_OFF",
        "org.wahtod.wififixer.WidgetReceiver.WIFI_ON",
        "org.wahtod.wififixer.WidgetReceiver.WIFI_REASSOCIATE",
        "org.wahtod.wififixer.WidgetReceiver.WIFI_TOGGLE"
      ],
      "dependencies": [],
      "domainNamesFilteredByExodus": [
        ".google.com"
      ],
      "metaDataNames": [
        "android.appwidget.provider",
        "com.google.android.backup.api_key"
      ],
      "sha256": "7031feede327f9be103e55823764c3a65f8d90991587480d8d4219b4825c9cc7",
      "usesPermissions": [
        "android.permission.ACCESS_NETWORK_STATE",
        "android.permission.ACCESS_WIFI_STATE",
        "android.permission.CHANGE_WIFI_STATE",
        "android.permission.INTERNET",
        "android.permission.RECEIVE_BOOT_COMPLETED",
        "android.permission.WAKE_LOCK",
        "android.permission.WRITE_EXTERNAL_STORAGE",
        "android.permission.WRITE_SETTINGS"
      ]
    }
  ],
  "meta": {
    "generated": "2020-08-27T18:40:45.934638",
    "generatedBy": [
      "/home/hc/code/trackingthetrackers/scripts/make-clean-apk-set.py"
    ],
    "generatedByCommitId": "3839559c80042252d3b947fb61c86a18e8b31114",
    "sourceDataCommitId": "888bb8f8c77ff55105fcab2ad84c263561eb1169",
    "ver": "0.3.0"
  }
}