{
  "apks": [
    {
      "applicationId": "org.secuso.privacyfriendlyrecknoningskills",
      "broadcastReceiverIntentFilterActionNames": [],
      "dependencies": [],
      "domainNamesFilteredByExodus": [],
      "metaDataNames": [
        "android.arch.lifecycle.VERSION",
        "android.support.PARENT_ACTIVITY",
        "android.support.VERSION"
      ],
      "sha256": "fb287221cfaf1ce39cb76cd4f74b45fd6b186cbd1f017684543477d0900fe0f9",
      "usesPermissions": []
    }
  ],
  "meta": {
    "generated": "2020-08-27T17:06:49.711001",
    "generatedBy": [
      "/home/hc/code/trackingthetrackers/scripts/make-clean-apk-set.py"
    ],
    "generatedByCommitId": "40519285d6f404593fa655fa89b433743c25289e",
    "sourceDataCommitId": "888bb8f8c77ff55105fcab2ad84c263561eb1169",
    "ver": "0.3.0"
  }
}