{
  "apks": [
    {
      "applicationId": "com.nexustecinteractive.birthstone",
      "broadcastReceiverIntentFilterActionNames": [
        "android.intent.action.BOOT_COMPLETED"
      ],
      "dependencies": [
        "com.flurry."
      ],
      "domainNamesFilteredByExodus": [
        "api.airpush.com",
        "beta.airpush.com",
        "flurry.com",
        "m.airpush.com"
      ],
      "metaDataNames": [
        "com-nriassnh-rpbrqevi168492.APIKEY",
        "com-nriassnh-rpbrqevi168492.APPID"
      ],
      "sha256": "d717906a661127498b6d00b4e8e24ab66c97868fa57dc447c89aeac59764da98",
      "usesPermissions": [
        "android.permission.ACCESS_COARSE_LOCATION",
        "android.permission.ACCESS_FINE_LOCATION",
        "android.permission.ACCESS_NETWORK_STATE",
        "android.permission.ACCESS_WIFI_STATE",
        "android.permission.GET_ACCOUNTS",
        "android.permission.INTERNET",
        "android.permission.READ_PHONE_STATE",
        "android.permission.RECEIVE_BOOT_COMPLETED",
        "android.permission.WRITE_EXTERNAL_STORAGE",
        "com.android.browser.permission.READ_HISTORY_BOOKMARKS",
        "com.android.launcher.permission.INSTALL_SHORTCUT"
      ]
    }
  ],
  "meta": {
    "generated": "2020-08-27T15:03:23.712661",
    "generatedBy": [
      "/home/hc/code/trackingthetrackers/scripts/make-trackers-apk-set.py"
    ],
    "ver": "0.3.0"
  }
}