{
  "apks": [
    {
      "applicationId": "ch.logixisland.anuto",
      "broadcastReceiverIntentFilterActionNames": [],
      "dependencies": [],
      "domainNamesFilteredByExodus": [],
      "metaDataNames": [],
      "sha256": "a59df577cf02212f023fb436c1e96bf0d17196f03b010ec2ea4c240b3c73c48a",
      "usesPermissions": []
    }
  ],
  "meta": {
    "generated": "2020-08-27T17:13:22.044283",
    "generatedBy": [
      "/home/hc/code/trackingthetrackers/scripts/make-clean-apk-set.py"
    ],
    "generatedByCommitId": "40519285d6f404593fa655fa89b433743c25289e",
    "sourceDataCommitId": "888bb8f8c77ff55105fcab2ad84c263561eb1169",
    "ver": "0.3.0"
  }
}