{
  "apks": [
    {
      "applicationId": "br.com.gtlsistemas.reidamatematica",
      "broadcastReceiverIntentFilterActionNames": [],
      "dependencies": [
        "com.google.ads.",
        "com.scoreloop.client.android",
        "com_facebook_login"
      ],
      "domainNamesFilteredByExodus": [
        ".facebook.com",
        ".google.com",
        "doubleclick.net",
        "google-analytics.com"
      ],
      "metaDataNames": [
        "com.facebook.sdk.ApplicationId"
      ],
      "sha256": "8e392ff3125a7b0c0630160bd280ea8a33d718b58b146aa46e01cdb67bc50ce4",
      "usesPermissions": [
        "android.permission.ACCESS_NETWORK_STATE",
        "android.permission.INTERNET"
      ]
    }
  ],
  "meta": {
    "generated": "2020-08-27T15:06:09.260512",
    "generatedBy": [
      "/home/hc/code/trackingthetrackers/scripts/make-trackers-apk-set.py"
    ],
    "ver": "0.3.0"
  }
}