{
  "apks": [
    {
      "applicationId": "com.slash.batterychargelimit",
      "broadcastReceiverIntentFilterActionNames": [
        "android.appwidget.action.APPWIDGET_UPDATE",
        "android.intent.action.ACTION_POWER_CONNECTED",
        "android.intent.action.ACTION_POWER_DISCONNECTED",
        "android.intent.action.BOOT_COMPLETED",
        "com.slash.batterychargelimit.CHANGE_LIMIT",
        "com.slash.batterychargelimit.TOGGLE"
      ],
      "dependencies": [],
      "domainNamesFilteredByExodus": [],
      "metaDataNames": [
        "android.appwidget.provider",
        "android.support.VERSION"
      ],
      "sha256": "a0339670c06434e5e8bbeab015afb57eb56852183428cb29c203be21e56ed718",
      "usesPermissions": [
        "android.permission.BATTERY_STATS",
        "android.permission.RECEIVE_BOOT_COMPLETED",
        "android.permission.RESET_BATTERY_STATS"
      ]
    }
  ],
  "meta": {
    "generated": "2020-08-27T17:00:43.151319",
    "generatedBy": [
      "/home/hc/code/trackingthetrackers/scripts/make-clean-apk-set.py"
    ],
    "generatedByCommitId": "40519285d6f404593fa655fa89b433743c25289e",
    "sourceDataCommitId": "888bb8f8c77ff55105fcab2ad84c263561eb1169",
    "ver": "0.3.0"
  }
}