{
  "apks": [
    {
      "applicationId": "pc.javier.seguime",
      "broadcastReceiverIntentFilterActionNames": [],
      "dependencies": [],
      "domainNamesFilteredByExodus": [
        "api.tiles.mapbox.com"
      ],
      "metaDataNames": [
        "android.arch.lifecycle.VERSION",
        "android.support.VERSION"
      ],
      "sha256": "5b10a0fdcbad256071538fc880efdd2e1956f0f6a9c32ec2a229140a48e3f983",
      "usesPermissions": [
        "android.permission.ACCESS_COARSE_LOCATION",
        "android.permission.ACCESS_FINE_LOCATION",
        "android.permission.ACCESS_NETWORK_STATE",
        "android.permission.INTERNET",
        "android.permission.READ_CONTACTS",
        "android.permission.SEND_SMS",
        "android.permission.WRITE_EXTERNAL_STORAGE"
      ]
    }
  ],
  "meta": {
    "generated": "2020-08-27T18:42:32.061583",
    "generatedBy": [
      "/home/hc/code/trackingthetrackers/scripts/make-clean-apk-set.py"
    ],
    "generatedByCommitId": "3839559c80042252d3b947fb61c86a18e8b31114",
    "sourceDataCommitId": "888bb8f8c77ff55105fcab2ad84c263561eb1169",
    "ver": "0.3.0"
  }
}