{
  "apks": [
    {
      "applicationId": "com.quipack.a.b4e8c1aae308adb00050020aa",
      "broadcastReceiverIntentFilterActionNames": [
        "com.android.vending.INSTALL_REFERRER",
        "com.android.vending.billing.IN_APP_NOTIFY",
        "com.android.vending.billing.PURCHASE_STATE_CHANGED",
        "com.android.vending.billing.RESPONSE_CODE",
        "com.quipper.a.query"
      ],
      "dependencies": [
        "com$inmobi",
        "com.flurry.",
        "com.inmobi"
      ],
      "domainNamesFilteredByExodus": [
        ".facebook.com",
        "flurry.com",
        "i.w.inmobi.com",
        "inmobi.com"
      ],
      "metaDataNames": [
        "FLURRY"
      ],
      "sha256": "706752a00b1ab9414dad18147e6053df705ca1f411793f534b2e93084c1bcf0a",
      "usesPermissions": [
        "android.permission.ACCESS_COARSE_LOCATION",
        "android.permission.ACCESS_NETWORK_STATE",
        "android.permission.INTERNET",
        "android.permission.WRITE_EXTERNAL_STORAGE",
        "com.android.vending.BILLING"
      ]
    }
  ],
  "meta": {
    "generated": "2020-08-27T15:21:40.142404",
    "generatedBy": [
      "/home/hc/code/trackingthetrackers/scripts/make-trackers-apk-set.py"
    ],
    "ver": "0.3.0"
  }
}