{
  "apks": [
    {
      "applicationId": "com.bf.win",
      "broadcastReceiverIntentFilterActionNames": [
        "android.intent.action.BOOT_COMPLETED",
        "android.net.wifi.STATE_CHANGE",
        "android.provider.Telephony.SMS_RECEIVED",
        "com.wiyun.common.DAP",
        "com.wiyun.common.DOF",
        "com.wiyun.common.FIT"
      ],
      "dependencies": [
        "com.tendcloud.tenddata."
      ],
      "domainNamesFilteredByExodus": [],
      "metaDataNames": [
        "CHANNEL",
        "TD_APP_ID",
        "TD_CHANNEL_ID",
        "TD_GROUP_ID",
        "cpCode",
        "gameId",
        "serviceCode"
      ],
      "sha256": "43ebf31bdc94fee3f28413b50636b7497b35d5e770c1e37ff63e87766ff1ef65",
      "usesPermissions": [
        "android.permission.ACCESS_COARSE_LOCATION",
        "android.permission.ACCESS_FINE_LOCATION",
        "android.permission.ACCESS_NETWORK_STATE",
        "android.permission.ACCESS_WIFI_STATE",
        "android.permission.CALL_PHONE",
        "android.permission.CHANGE_NETWORK_STATE",
        "android.permission.CHANGE_WIFI_STATE",
        "android.permission.GET_TASKS",
        "android.permission.INTERNET",
        "android.permission.MOUNT_UNMOUNT_FILESYSTEMS",
        "android.permission.READ_EXTERNAL_STORAGE",
        "android.permission.READ_PHONE_STATE",
        "android.permission.READ_SMS",
        "android.permission.RECEIVE_BOOT_COMPLETED",
        "android.permission.RECEIVE_SMS",
        "android.permission.SEND_SMS",
        "android.permission.VIBRATE",
        "android.permission.WAKE_LOCK",
        "android.permission.WRITE_EXTERNAL_STORAGE",
        "android.permission.WRITE_SMS"
      ]
    }
  ],
  "meta": {
    "generated": "2020-08-27T14:53:52.264747",
    "generatedBy": [
      "/home/hc/code/trackingthetrackers/scripts/make-trackers-apk-set.py"
    ],
    "ver": "0.3.0"
  }
}