{
  "apks": [
    {
      "applicationId": "com.beemdevelopment.aegis",
      "broadcastReceiverIntentFilterActionNames": [],
      "dependencies": [],
      "domainNamesFilteredByExodus": [],
      "metaDataNames": [],
      "sha256": "29213ef8f0b56595db9a6a837139503f066b6d801726bfbba3a79595ea7f6919",
      "usesPermissions": [
        "android.permission.CAMERA",
        "android.permission.READ_EXTERNAL_STORAGE",
        "android.permission.USE_FINGERPRINT",
        "android.permission.WRITE_EXTERNAL_STORAGE"
      ]
    }
  ],
  "meta": {
    "generated": "2020-08-27T17:15:50.798008",
    "generatedBy": [
      "/home/hc/code/trackingthetrackers/scripts/make-clean-apk-set.py"
    ],
    "generatedByCommitId": "40519285d6f404593fa655fa89b433743c25289e",
    "sourceDataCommitId": "888bb8f8c77ff55105fcab2ad84c263561eb1169",
    "ver": "0.3.0"
  }
}