{
  "apks": [
    {
      "applicationId": "com.fensuibaoshi.lelebaopo",
      "broadcastReceiverIntentFilterActionNames": [
        "android.intent.action.DOWNLOAD_COMPLETE",
        "android.intent.action.DOWNLOAD_NOTIFICATION_CLICKED",
        "android.intent.action.PACKAGE_ADDED"
      ],
      "dependencies": [],
      "domainNamesFilteredByExodus": [],
      "metaDataNames": [
        "BDAPPUNIONSDK_APIKEY"
      ],
      "sha256": "c240d15f99b7d6878f616704942e655de8b8a28953e3fdcf53ea8479f411270c",
      "usesPermissions": [
        "android.permission.ACCESS_NETWORK_STATE",
        "android.permission.ACCESS_WIFI_STATE",
        "android.permission.CHANGE_WIFI_STATE",
        "android.permission.GET_PACKAGE_SIZE",
        "android.permission.GET_TASKS",
        "android.permission.INTERNET",
        "android.permission.READ_PHONE_STATE",
        "android.permission.SYSTEM_ALERT_WINDOW",
        "android.permission.VIBRATE",
        "android.permission.WAKE_LOCK",
        "android.permission.WAKE_LOCK",
        "android.permission.WRITE_EXTERNAL_STORAGE",
        "android.permission.WRITE_SETTINGS"
      ]
    }
  ],
  "meta": {
    "generated": "2020-08-27T15:37:27.993230",
    "generatedBy": [
      "/home/hc/code/trackingthetrackers/scripts/make-trackers-apk-set.py"
    ],
    "ver": "0.3.0"
  }
}