{
  "apks": [
    {
      "applicationId": "com.dream.find.words",
      "broadcastReceiverIntentFilterActionNames": [
        "android.intent.action.BOOT_COMPLETED",
        "android.intent.action.PACKAGE_ADDED",
        "android.intent.action.PACKAGE_INSTALL",
        "android.net.conn.CONNECTIVITY_CHANGE",
        "com.zm.intent.action.update_ad_broadcast_action",
        "com.zm.intent.action.update_config_broadcast_action"
      ],
      "dependencies": [
        "com.facebook.ads",
        "com.google.android.gms.ads.",
        "com.tencent.bugly.",
        "com.tencent.stat"
      ],
      "domainNamesFilteredByExodus": [
        ".facebook.com",
        ".google.com",
        "alog.umeng.com",
        "bugly.qq.com",
        "doubleclick.net",
        "pubnative.net",
        "umeng.com"
      ],
      "metaDataNames": [
        "UMENG_APPKEY",
        "UMENG_CHANNEL",
        "com.google.android.gms.version"
      ],
      "sha256": "7b379003dc48689e612aba66b4d848ca0f965dbf5140fc1eb53ba7fcc3913235",
      "usesPermissions": [
        "android.permission.ACCESS_NETWORK_STATE",
        "android.permission.ACCESS_WIFI_STATE",
        "android.permission.CAMERA",
        "android.permission.CHANGE_NETWORK_STATE",
        "android.permission.DISABLE_KEYGUARD",
        "android.permission.GET_TASKS",
        "android.permission.INTERNET",
        "android.permission.KILL_BACKGROUND_PROCESSES",
        "android.permission.READ_EXTERNAL_STORAGE",
        "android.permission.READ_LOGS",
        "android.permission.READ_PHONE_STATE",
        "android.permission.RECEIVE_BOOT_COMPLETED",
        "android.permission.SYSTEM_ALERT_WINDOW",
        "android.permission.WRITE_EXTERNAL_STORAGE",
        "com.android.alarm.permission.SET_ALARM",
        "com.android.launcher.permission.READ_SETTINGS"
      ]
    }
  ],
  "meta": {
    "generated": "2020-08-27T15:50:22.874099",
    "generatedBy": [
      "/home/hc/code/trackingthetrackers/scripts/make-trackers-apk-set.py"
    ],
    "ver": "0.3.0"
  }
}