{
  "apks": [
    {
      "applicationId": "fulledition.media.audioplayer.musicplayer",
      "broadcastReceiverIntentFilterActionNames": [
        "android.intent.action.PACKAGE_ADDED",
        "android.intent.action.PACKAGE_INSTALL",
        "android.net.conn.CONNECTIVITY_CHANGE",
        "android.net.wifi.WIFI_STATE_CHANGED"
      ],
      "dependencies": [
        "com$millennialmedia$",
        "com$tapjoy$",
        "com.flurry.",
        "com.google.ads.",
        "com.google.android.gms.ads.",
        "com.google.android.gms.analytics.",
        "com.google.android.gms.tagmanager",
        "com.millennialmedia.",
        "com.sponsorpay",
        "com.supersonicads.sdk",
        "com.tapjoy.",
        "com.vungle.publisher.",
        "org.nexage."
      ],
      "domainNamesFilteredByExodus": [
        ".google.com",
        "adcolony.com",
        "androidads21.adcolony.com",
        "api.vungle.com",
        "doubleclick.net",
        "engine.sponsorpay.com",
        "flurry.com",
        "google-analytics.com",
        "millennialmedia.com",
        "tapjoy.com",
        "tapjoyads.com",
        "www.googletagmanager.com"
      ],
      "metaDataNames": [
        "com.google.android.gms.version",
        "com.rixallab.ads.FLURRY_KEY"
      ],
      "sha256": "b4120bfc3b94b4f8e9584b58c80e1b1491bd2784eda7662cf50798bb7473e22f",
      "usesPermissions": [
        "android.permission.ACCESS_COARSE_LOCATION",
        "android.permission.ACCESS_NETWORK_STATE",
        "android.permission.ACCESS_WIFI_STATE",
        "android.permission.GET_TASKS",
        "android.permission.INTERNET",
        "android.permission.READ_PHONE_STATE",
        "android.permission.SYSTEM_ALERT_WINDOW",
        "android.permission.WRITE_EXTERNAL_STORAGE",
        "android.permission.WRITE_SETTINGS"
      ]
    }
  ],
  "meta": {
    "generated": "2020-08-27T15:40:56.258499",
    "generatedBy": [
      "/home/hc/code/trackingthetrackers/scripts/make-trackers-apk-set.py"
    ],
    "ver": "0.3.0"
  }
}