{
  "apks": [
    {
      "applicationId": "com.omni.android.gagent",
      "broadcastReceiverIntentFilterActionNames": [
        "android.intent.action.BATTERY_CHANGED",
        "android.intent.action.BOOT_COMPLETED",
        "android.provider.Telephony.SMS_RECEIVED"
      ],
      "dependencies": [],
      "domainNamesFilteredByExodus": [
        ".google.com"
      ],
      "metaDataNames": [],
      "sha256": "706b81a2c49f13e930049d867bdac424dec6a7cbbc6028fa6df0c1ff72b175a0",
      "usesPermissions": [
        "android.permission.ACCESS_COARSE_LOCATION",
        "android.permission.ACCESS_FINE_LOCATION",
        "android.permission.BATTERY_STATS",
        "android.permission.INTERNET",
        "android.permission.READ_CONTACTS",
        "android.permission.READ_PHONE_STATE",
        "android.permission.RECEIVE_BOOT_COMPLETED",
        "android.permission.RECEIVE_SMS",
        "android.permission.WRITE_SETTINGS"
      ]
    }
  ],
  "meta": {
    "generated": "2020-08-27T15:02:43.074472",
    "generatedBy": [
      "/home/hc/code/trackingthetrackers/scripts/make-trackers-apk-set.py"
    ],
    "ver": "0.3.0"
  }
}