{
  "apks": [
    {
      "applicationId": "com.menny.android.anysoftkeyboard",
      "broadcastReceiverIntentFilterActionNames": [],
      "dependencies": [],
      "domainNamesFilteredByExodus": [],
      "metaDataNames": [
        "android.app.shortcuts",
        "android.view.im",
        "com.google.android.backup.api_key"
      ],
      "sha256": "4371509dab0caa20b9108728e0f060b1ebcfc5f7995a1fe326dc280e31a5b226",
      "usesPermissions": [
        "android.permission.READ_CONTACTS",
        "android.permission.READ_USER_DICTIONARY",
        "android.permission.VIBRATE",
        "android.permission.WRITE_EXTERNAL_STORAGE",
        "android.permission.WRITE_USER_DICTIONARY"
      ]
    }
  ],
  "meta": {
    "generated": "2020-08-27T17:36:58.660309",
    "generatedBy": [
      "/home/hc/code/trackingthetrackers/scripts/make-clean-apk-set.py"
    ],
    "generatedByCommitId": "40519285d6f404593fa655fa89b433743c25289e",
    "sourceDataCommitId": "888bb8f8c77ff55105fcab2ad84c263561eb1169",
    "ver": "0.3.0"
  }
}