{
  "apks": [
    {
      "applicationId": "eu.e43.impeller",
      "broadcastReceiverIntentFilterActionNames": [
        "eu.e43.impeller.FetchUserFeed",
        "eu.e43.impeller.UpdateObject",
        "eu.e43.impeller.UpdateReplies",
        "eu.e43.impeller.content.NEW_FEED_ENTRY"
      ],
      "dependencies": [],
      "domainNamesFilteredByExodus": [
        ".google.com"
      ],
      "metaDataNames": [
        "android.accounts.AccountAuthenticator",
        "android.content.SyncAdapter",
        "android.provider.CONTACTS_STRUCTURE",
        "android.support.PARENT_ACTIVITY"
      ],
      "sha256": "1e86649139f400e478ea0749cba51625dfc9124f781120fbdbd429f9f2d7f4be",
      "usesPermissions": [
        "android.permission.ACCESS_COARSE_LOCATION",
        "android.permission.AUTHENTICATE_ACCOUNTS",
        "android.permission.GET_ACCOUNTS",
        "android.permission.INTERNET",
        "android.permission.MANAGE_ACCOUNTS",
        "android.permission.READ_CONTACTS",
        "android.permission.READ_EXTERNAL_STORAGE",
        "android.permission.READ_SOCIAL_STREAM",
        "android.permission.READ_SYNC_SETTINGS",
        "android.permission.READ_SYNC_STATS",
        "android.permission.RECORD_AUDIO",
        "android.permission.USE_CREDENTIALS",
        "android.permission.WRITE_CONTACTS",
        "android.permission.WRITE_SOCIAL_STREAM",
        "android.permission.WRITE_SYNC_SETTINGS"
      ]
    }
  ],
  "meta": {
    "generated": "2020-08-27T18:06:11.207682",
    "generatedBy": [
      "/home/hc/code/trackingthetrackers/scripts/make-clean-apk-set.py"
    ],
    "generatedByCommitId": "3839559c80042252d3b947fb61c86a18e8b31114",
    "sourceDataCommitId": "888bb8f8c77ff55105fcab2ad84c263561eb1169",
    "ver": "0.3.0"
  }
}