{
  "apks": [
    {
      "applicationId": "im.vector.alpha",
      "broadcastReceiverIntentFilterActionNames": [
        "im.vector.receiver.BROADCAST_ACTION_REGISTRATION",
        "im.vector.receiver.UNIVERSAL_LINK",
        "im.vector.receiver.UNIVERSAL_LINK_RESUME"
      ],
      "dependencies": [],
      "domainNamesFilteredByExodus": [
        ".google.com"
      ],
      "metaDataNames": [
        "android.support.PARENT_ACTIVITY"
      ],
      "sha256": "1d02be594f8e79fbac8363d2c8cde2769a96b4b87362ee95db501429212e61d7",
      "usesPermissions": [
        "android.permission.ACCESS_NETWORK_STATE",
        "android.permission.CAMERA",
        "android.permission.INTERNET",
        "android.permission.MANAGE_DOCUMENTS",
        "android.permission.MODIFY_AUDIO_SETTINGS",
        "android.permission.READ_CONTACTS",
        "android.permission.READ_EXTERNAL_STORAGE",
        "android.permission.READ_LOGS",
        "android.permission.RECORD_AUDIO",
        "android.permission.VIBRATE",
        "android.permission.WAKE_LOCK",
        "android.permission.WRITE_EXTERNAL_STORAGE",
        "com.anddoes.launcher.permission.UPDATE_COUNT",
        "com.htc.launcher.permission.READ_SETTINGS",
        "com.htc.launcher.permission.UPDATE_SHORTCUT",
        "com.majeur.launcher.permission.UPDATE_BADGE",
        "com.sec.android.provider.badge.permission.READ",
        "com.sec.android.provider.badge.permission.WRITE",
        "com.sonyericsson.home.permission.BROADCAST_BADGE"
      ]
    }
  ],
  "meta": {
    "generated": "2020-08-27T18:12:24.335560",
    "generatedBy": [
      "/home/hc/code/trackingthetrackers/scripts/make-clean-apk-set.py"
    ],
    "generatedByCommitId": "3839559c80042252d3b947fb61c86a18e8b31114",
    "sourceDataCommitId": "888bb8f8c77ff55105fcab2ad84c263561eb1169",
    "ver": "0.3.0"
  }
}