{
  "apks": [
    {
      "applicationId": "com.tianxun.android.zh",
      "broadcastReceiverIntentFilterActionNames": [
        "android.intent.action.ACTION_POWER_CONNECTED",
        "android.intent.action.ACTION_POWER_DISCONNECTED",
        "android.intent.action.BOOT_COMPLETED",
        "android.intent.action.MEDIA_MOUNTED",
        "android.intent.action.USER_PRESENT",
        "android.net.conn.CONNECTIVITY_CHANGE",
        "com.google.android.c2dm.intent.RECEIVE",
        "com.google.android.c2dm.intent.REGISTRATION",
        "com.google.android.gms.analytics.ANALYTICS_DISPATCH",
        "com.google.android.gms.measurement.UPLOAD",
        "com.igexin.sdk.action.7fjUl2Z3LH6xYy7NQK4ni4",
        "com.igexin.sdk.action.WtZg2zHFhQAjxV0QC5Ghh7",
        "com.igexin.sdk.action.pushmanager",
        "com.igexin.sdk.action.refreshls",
        "com.tianxu.test.action"
      ],
      "dependencies": [],
      "domainNamesFilteredByExodus": [
        ".google.com",
        "map.baidu.com"
      ],
      "metaDataNames": [
        "PUSH_APPID",
        "PUSH_APPKEY",
        "PUSH_APPSECRET",
        "com.baidu.lbsapi.API_KEY",
        "com.google.android.gms.version",
        "io.fabric.ApiKey"
      ],
      "sha256": "423324a47881abfad4944819689509eb8e1c8ed5d94de9ab72dca8c61ffd5668",
      "usesPermissions": [
        "android.permission.ACCESS_COARSE_LOCATION",
        "android.permission.ACCESS_FIND_LOCATION",
        "android.permission.ACCESS_FINE_LOCATION",
        "android.permission.ACCESS_GPS",
        "android.permission.ACCESS_LOCATION_EXTRA_COMMANDS",
        "android.permission.ACCESS_NETWORK_STATE",
        "android.permission.ACCESS_WIFI_STATE",
        "android.permission.BLUETOOTH",
        "android.permission.BLUETOOTH_ADMIN",
        "android.permission.CALL_PHONE",
        "android.permission.CHANGE_WIFI_STATE",
        "android.permission.GET_TASKS",
        "android.permission.INTERNET",
        "android.permission.MOUNT_UNMOUNT_FILESYSTEMS",
        "android.permission.READ_LOGS",
        "android.permission.READ_PHONE_STATE",
        "android.permission.RECEIVE_BOOT_COMPLETED",
        "android.permission.SYSTEM_ALERT_WINDOW",
        "android.permission.VIBRATE",
        "android.permission.WAKE_LOCK",
        "android.permission.WRITE_EXTERNAL_STORAGE",
        "android.permission.WRITE_SETTINGS",
        "com.android.launcher.permission.INSTALL_SHORTCUT",
        "com.google.android.c2dm.permission.RECEIVE",
        "com.tianxun.android.zh.permission.C2D_MESSAGE",
        "getui.permission.GetuiService.com.tianxun.android.zh"
      ]
    }
  ],
  "meta": {
    "generated": "2020-08-27T15:51:45.317829",
    "generatedBy": [
      "/home/hc/code/trackingthetrackers/scripts/make-trackers-apk-set.py"
    ],
    "ver": "0.3.0"
  }
}