{
  "apks": [
    {
      "applicationId": "de.srlabs.snoopsnitch",
      "broadcastReceiverIntentFilterActionNames": [
        "android.intent.action.BOOT_COMPLETED"
      ],
      "dependencies": [],
      "domainNamesFilteredByExodus": [],
      "metaDataNames": [],
      "sha256": "6b90f2356c44facd2a43d7cee8fadf54d2dccfc4905340d8801e175e8f94f668",
      "usesPermissions": [
        "android.permission.ACCESS_COARSE_LOCATION",
        "android.permission.ACCESS_FINE_LOCATION",
        "android.permission.ACCESS_NETWORK_STATE",
        "android.permission.ACCESS_SUPERUSER",
        "android.permission.CALL_PHONE",
        "android.permission.GET_TASKS",
        "android.permission.INTERNET",
        "android.permission.READ_PHONE_STATE",
        "android.permission.RECEIVE_BOOT_COMPLETED",
        "android.permission.RECEIVE_SMS",
        "android.permission.SEND_SMS",
        "android.permission.WAKE_LOCK",
        "android.permission.WRITE_EXTERNAL_STORAGE"
      ]
    }
  ],
  "meta": {
    "generated": "2020-08-27T18:04:03.450156",
    "generatedBy": [
      "/home/hc/code/trackingthetrackers/scripts/make-clean-apk-set.py"
    ],
    "generatedByCommitId": "3839559c80042252d3b947fb61c86a18e8b31114",
    "sourceDataCommitId": "888bb8f8c77ff55105fcab2ad84c263561eb1169",
    "ver": "0.3.0"
  }
}