{
  "apks": [
    {
      "applicationId": "penguins.avs.com",
      "broadcastReceiverIntentFilterActionNames": [
        "android.appwidget.action.APPWIDGET_UPDATE",
        "com.android.vending.INSTALL_REFERRER"
      ],
      "dependencies": [
        "com.appbrain.",
        "com.flurry.",
        "com.google.ads.",
        "com.google.android.gms.ads.",
        "com.ironsource."
      ],
      "domainNamesFilteredByExodus": [
        ".google.com",
        "adcolony.com",
        "androidads21.adcolony.com",
        "doubleclick.net",
        "flurry.com"
      ],
      "metaDataNames": [
        "android.appwidget.provider",
        "android.service.wallpaper",
        "com.google.android.gms.version"
      ],
      "sha256": "cd25a760e2fd8d7331e8ae0b0bdc70533e3b59c2683125c8fd26f68f79405a50",
      "usesPermissions": [
        "android.permission.ACCESS_NETWORK_STATE",
        "android.permission.ACCESS_WIFI_STATE",
        "android.permission.INTERNET",
        "android.permission.READ_PHONE_STATE",
        "android.permission.WRITE_EXTERNAL_STORAGE"
      ]
    }
  ],
  "meta": {
    "generated": "2020-08-27T15:44:23.419607",
    "generatedBy": [
      "/home/hc/code/trackingthetrackers/scripts/make-trackers-apk-set.py"
    ],
    "ver": "0.3.0"
  }
}