{
  "apks": [
    {
      "applicationId": "com.genonbeta.TrebleShot",
      "broadcastReceiverIntentFilterActionNames": [
        "android.net.wifi.STATE_CHANGE",
        "android.net.wifi.WIFI_AP_STATE_CHANGED",
        "android.net.wifi.WIFI_STATE_CHANGED",
        "android.net.wifi.p2p.CONNECTION_STATE_CHANGE"
      ],
      "dependencies": [],
      "domainNamesFilteredByExodus": [],
      "metaDataNames": [
        "android.arch.lifecycle.VERSION",
        "android.service.chooser.chooser_target_service",
        "android.support.FILE_PROVIDER_PATHS",
        "android.support.VERSION"
      ],
      "sha256": "c024568a9ddd0a9b9b1151d4da293a55c5b0e58bad2e9fe0fcb29105abb30712",
      "usesPermissions": [
        "android.permission.ACCESS_COARSE_LOCATION",
        "android.permission.ACCESS_FINE_LOCATION",
        "android.permission.ACCESS_NETWORK_STATE",
        "android.permission.ACCESS_WIFI_STATE",
        "android.permission.CHANGE_NETWORK_STATE",
        "android.permission.CHANGE_WIFI_STATE",
        "android.permission.INTERNET",
        "android.permission.READ_PHONE_STATE",
        "android.permission.SYSTEM_ALERT_WINDOW",
        "android.permission.VIBRATE",
        "android.permission.WAKE_LOCK",
        "android.permission.WRITE_EXTERNAL_STORAGE",
        "android.permission.WRITE_SETTINGS"
      ]
    }
  ],
  "meta": {
    "generated": "2020-08-27T17:23:06.576155",
    "generatedBy": [
      "/home/hc/code/trackingthetrackers/scripts/make-clean-apk-set.py"
    ],
    "generatedByCommitId": "40519285d6f404593fa655fa89b433743c25289e",
    "sourceDataCommitId": "888bb8f8c77ff55105fcab2ad84c263561eb1169",
    "ver": "0.3.0"
  }
}