{
  "apks": [
    {
      "applicationId": "com.android2.calculator3",
      "broadcastReceiverIntentFilterActionNames": [],
      "dependencies": [],
      "domainNamesFilteredByExodus": [],
      "metaDataNames": [],
      "sha256": "0c9cae90a13b43564655d79cb21894ee731df348cf6ad9af418bdf24e88285c9",
      "usesPermissions": []
    }
  ],
  "meta": {
    "generated": "2020-08-27T17:14:52.534057",
    "generatedBy": [
      "/home/hc/code/trackingthetrackers/scripts/make-clean-apk-set.py"
    ],
    "generatedByCommitId": "40519285d6f404593fa655fa89b433743c25289e",
    "sourceDataCommitId": "888bb8f8c77ff55105fcab2ad84c263561eb1169",
    "ver": "0.3.0"
  }
}