{
  "apks": [
    {
      "applicationId": "org.jsl.wfwt",
      "broadcastReceiverIntentFilterActionNames": [],
      "dependencies": [],
      "domainNamesFilteredByExodus": [],
      "metaDataNames": [],
      "sha256": "1f6b91f14739eb734204010c8cb754754a626c483164eb077c536d4cb8832701",
      "usesPermissions": [
        "android.permission.INTERNET",
        "android.permission.RECORD_AUDIO"
      ]
    }
  ],
  "meta": {
    "generated": "2020-08-27T17:05:44.852329",
    "generatedBy": [
      "/home/hc/code/trackingthetrackers/scripts/make-clean-apk-set.py"
    ],
    "generatedByCommitId": "40519285d6f404593fa655fa89b433743c25289e",
    "sourceDataCommitId": "888bb8f8c77ff55105fcab2ad84c263561eb1169",
    "ver": "0.3.0"
  }
}