{
  "apks": [
    {
      "applicationId": "com.pub1.game.candystar",
      "broadcastReceiverIntentFilterActionNames": [
        "android.intent.action.BOOT_COMPLETED",
        "android.intent.action.USER_PRESENT",
        "android.net.conn.CONNECTIVITY_CHANGE"
      ],
      "dependencies": [
        "com$google$ads$",
        "com$inmobi",
        "com$tapjoy$",
        "com.google.ads.",
        "com.inmobi",
        "com.tapjoy.",
        "com.umeng.analytics"
      ],
      "domainNamesFilteredByExodus": [
        ".facebook.com",
        ".google.com",
        "alog.umeng.com",
        "beta.airpush.com",
        "doubleclick.net",
        "i.w.inmobi.com",
        "inmobi.com",
        "inmobisdk-a.akamaihd.net",
        "oc.umeng.com",
        "tapjoy.com",
        "tapjoyads.com",
        "umeng.com"
      ],
      "metaDataNames": [
        "DEBUG_SETTING",
        "UMENG_APPKEY",
        "UMENG_CHANNEL",
        "com.pfmlwcj.phpjepw173894.APIKEY",
        "com.pfmlwcj.phpjepw173894.APPID",
        "com.wgyqsbzh.urewrmkp181909.APIKEY",
        "com.wgyqsbzh.urewrmkp181909.APPID",
        "sprovider_channelID",
        "sprovider_productID"
      ],
      "sha256": "d50e4911e0f320f943d2c2106665559054acd1196a84da27e1015c4fea05bddf",
      "usesPermissions": [
        "android.permission.ACCESS_COARSE_LOCATION",
        "android.permission.ACCESS_COARSE_UPDATES",
        "android.permission.ACCESS_FINE_LOCATION",
        "android.permission.ACCESS_NETWORK_STATE",
        "android.permission.ACCESS_WIFI_STATE",
        "android.permission.CALL_PHONE",
        "android.permission.CHANGE_WIFI_STATE",
        "android.permission.GET_ACCOUNTS",
        "android.permission.GET_TASKS",
        "android.permission.INTERNET",
        "android.permission.READ_LOGS",
        "android.permission.READ_PHONE_STATE",
        "android.permission.RECEIVE_BOOT_COMPLETED",
        "android.permission.SYSTEM_ALERT_WINDOW",
        "android.permission.VIBRATE",
        "android.permission.WAKE_LOCK",
        "android.permission.WRITE_EXTERNAL_STORAGE",
        "com.android.browser.permission.READ_HISTORY_BOOKMARKS",
        "com.android.launcher.permission.INSTALL_SHORTCUT",
        "com.android.launcher.permission.UNINSTALL_SHORTCUT"
      ]
    }
  ],
  "meta": {
    "generated": "2020-08-27T15:08:34.143369",
    "generatedBy": [
      "/home/hc/code/trackingthetrackers/scripts/make-trackers-apk-set.py"
    ],
    "ver": "0.3.0"
  }
}