{
  "apks": [
    {
      "applicationId": "u.ahvkjb.eprny",
      "broadcastReceiverIntentFilterActionNames": [],
      "dependencies": [],
      "domainNamesFilteredByExodus": [],
      "metaDataNames": [],
      "sha256": "7a9a0b93be5febac03ee26e7814f980a44cb4723ba6373ab9aef0627c8c01a6d",
      "usesPermissions": []
    }
  ],
  "meta": {
    "generated": "2020-08-27T14:59:31.854484",
    "generatedBy": [
      "/home/hc/code/trackingthetrackers/scripts/make-trackers-apk-set.py"
    ],
    "ver": "0.3.0"
  }
}