{
  "apks": [
    {
      "applicationId": "com.nd.android.pandatheme.myrabbitjuly",
      "broadcastReceiverIntentFilterActionNames": [],
      "dependencies": [],
      "domainNamesFilteredByExodus": [],
      "metaDataNames": [],
      "sha256": "291e472ff7b0a76787adb52a5f276c4171b45c06d6b2b7577f3d173e6e625532",
      "usesPermissions": []
    }
  ],
  "meta": {
    "generated": "2020-08-27T15:00:32.850890",
    "generatedBy": [
      "/home/hc/code/trackingthetrackers/scripts/make-trackers-apk-set.py"
    ],
    "ver": "0.3.0"
  }
}