{
  "apks": [
    {
      "applicationId": "com.blood.zombies2",
      "broadcastReceiverIntentFilterActionNames": [
        "android.intent.action.BOOT_COMPLETED",
        "android.intent.action.USER_PRESENT",
        "com.android.vending.INSTALL_REFERRER"
      ],
      "dependencies": [
        "com$tapjoy$",
        "com.google.ads.",
        "com.google.android.gms.ads.",
        "com.tapjoy.",
        "com.umeng.analytics",
        "org.cocos2dx"
      ],
      "domainNamesFilteredByExodus": [
        ".google.com",
        "alog.umeng.com",
        "doubleclick.net",
        "oc.umeng.com",
        "tapjoy.com",
        "tapjoyads.com",
        "umeng.com"
      ],
      "metaDataNames": [
        "MORE_EXCHANGE_KEY",
        "MORE_EXCHANGE_SECRET",
        "UMENG_APPKEY",
        "UMENG_CHANNEL",
        "com.google.android.gms.version",
        "com.yzurhfxi.oygjvkzq208596.APIKEY",
        "com.yzurhfxi.oygjvkzq208596.APPID",
        "comment",
        "permission"
      ],
      "sha256": "ff0d935243cfd98c9b4900e34bd6446ef4f9098efb149e755a8145a2f69916c2",
      "usesPermissions": [
        "android.permission.ACCESS_COARSE_LOCATION",
        "android.permission.ACCESS_FINE_LOCATION",
        "android.permission.ACCESS_NETWORK_STATE",
        "android.permission.ACCESS_NETWORK_STATE",
        "android.permission.ACCESS_WIFI_STATE",
        "android.permission.ACCESS_WIFI_STATE",
        "android.permission.INTERNET",
        "android.permission.INTERNET",
        "android.permission.READ_LOGS",
        "android.permission.READ_PHONE_STATE",
        "android.permission.READ_PHONE_STATE",
        "android.permission.RECEIVE_BOOT_COMPLETED",
        "android.permission.RECEIVE_BOOT_COMPLETED",
        "android.permission.RECEIVE_SMS",
        "android.permission.SEND_SMS",
        "android.permission.WAKE_LOCK",
        "android.permission.WRITE_EXTERNAL_STORAGE",
        "android.permission.WRITE_EXTERNAL_STORAGE",
        "com.android.vending.BILLING"
      ]
    }
  ],
  "meta": {
    "generated": "2020-08-27T15:19:34.234574",
    "generatedBy": [
      "/home/hc/code/trackingthetrackers/scripts/make-trackers-apk-set.py"
    ],
    "ver": "0.3.0"
  }
}