{
  "apks": [
    {
      "applicationId": "com.nicobrailo.pianoli",
      "broadcastReceiverIntentFilterActionNames": [],
      "dependencies": [],
      "domainNamesFilteredByExodus": [],
      "metaDataNames": [],
      "sha256": "7c3b4dacb4a8423f13df2f378c5f45790482c950300a6a962458e948cbd75257",
      "usesPermissions": []
    }
  ],
  "meta": {
    "generated": "2020-08-27T17:43:08.453180",
    "generatedBy": [
      "/home/hc/code/trackingthetrackers/scripts/make-clean-apk-set.py"
    ],
    "generatedByCommitId": "40519285d6f404593fa655fa89b433743c25289e",
    "sourceDataCommitId": "888bb8f8c77ff55105fcab2ad84c263561eb1169",
    "ver": "0.3.0"
  }
}