{
  "apks": [
    {
      "applicationId": "com.github.quarck.calnotify",
      "broadcastReceiverIntentFilterActionNames": [
        "android.intent.action.BOOT_COMPLETED",
        "android.intent.action.EVENTEX_REMINDER",
        "android.intent.action.EVENT_REMINDER",
        "android.intent.action.MY_PACKAGE_REPLACED",
        "android.intent.action.PROVIDER_CHANGED",
        "android.intent.action.QUICKBOOT_POWERON",
        "android.intent.action.REBOOT",
        "android.intent.action.TIMEZONE_CHANGED",
        "android.intent.action.TIME_SET",
        "com.htc.intent.action.QUICKBOOT_POWERON"
      ],
      "dependencies": [],
      "domainNamesFilteredByExodus": [],
      "metaDataNames": [
        "android.support.FILE_PROVIDER_PATHS"
      ],
      "sha256": "8fd699dfb5971d84de7419cdd5aef35bc53c4747595c7f0433a93a8ad2992788",
      "usesPermissions": [
        "android.permission.QUICKBOOT_POWERON",
        "android.permission.READ_CALENDAR",
        "android.permission.RECEIVE_BOOT_COMPLETED",
        "android.permission.VIBRATE",
        "android.permission.WAKE_LOCK",
        "android.permission.WRITE_CALENDAR"
      ]
    }
  ],
  "meta": {
    "generated": "2020-08-27T17:31:12.640348",
    "generatedBy": [
      "/home/hc/code/trackingthetrackers/scripts/make-clean-apk-set.py"
    ],
    "generatedByCommitId": "40519285d6f404593fa655fa89b433743c25289e",
    "sourceDataCommitId": "888bb8f8c77ff55105fcab2ad84c263561eb1169",
    "ver": "0.3.0"
  }
}