{
  "apks": [
    {
      "applicationId": "com.metinkale.prayer",
      "broadcastReceiverIntentFilterActionNames": [
        "android.appwidget.action.APPWIDGET_UPDATE",
        "android.intent.action.BOOT_COMPLETED",
        "android.intent.action.DATE_CHANGED",
        "android.intent.action.QUICKBOOT_POWERON",
        "android.intent.action.TIME_SET",
        "android.intent.action.USER_PRESENT",
        "android.intent.action.USER_UNLOCKED"
      ],
      "dependencies": [
        "com.crashlytics.",
        "com.mapbox.mapboxsdk.",
        "io.fabric."
      ],
      "domainNamesFilteredByExodus": [
        ".google.com",
        "a.tiles.mapbox.com",
        "api.tiles.mapbox.com"
      ],
      "metaDataNames": [
        "android.appwidget.provider",
        "com.sec.android.multiwindow.DEFAULT_SIZE_H",
        "com.sec.android.multiwindow.DEFAULT_SIZE_W",
        "com.sec.android.multiwindow.MINIMUM_SIZE_H",
        "com.sec.android.multiwindow.MINIMUM_SIZE_W",
        "com.sec.android.support.multiwindow",
        "io.fabric.ApiKey"
      ],
      "sha256": "b8ca125ea668afb179cb87be31b0f9d3ef1eb8037e2161c8499fc2b8f54dac7d",
      "usesPermissions": [
        "android.permission.ACCESS_COARSE_LOCATION",
        "android.permission.ACCESS_FINE_LOCATION",
        "android.permission.ACCESS_NETWORK_STATE",
        "android.permission.ACCESS_WIFI_STATE",
        "android.permission.CAMERA",
        "android.permission.DISABLE_KEYGUARD",
        "android.permission.INTERNET",
        "android.permission.READ_CALENDAR",
        "android.permission.READ_EXTERNAL_STORAGE",
        "android.permission.RECEIVE_BOOT_COMPLETED",
        "android.permission.VIBRATE",
        "android.permission.WAKE_LOCK",
        "android.permission.WRITE_CALENDAR",
        "android.permission.WRITE_EXTERNAL_STORAGE",
        "com.android.alarm.permission.SET_ALARM",
        "com.android.launcher.permission.INSTALL_SHORTCUT"
      ]
    }
  ],
  "meta": {
    "generated": "2020-08-27T17:37:04.723795",
    "generatedBy": [
      "/home/hc/code/trackingthetrackers/scripts/make-clean-apk-set.py"
    ],
    "generatedByCommitId": "40519285d6f404593fa655fa89b433743c25289e",
    "sourceDataCommitId": "888bb8f8c77ff55105fcab2ad84c263561eb1169",
    "ver": "0.3.0"
  }
}