{
  "apks": [
    {
      "applicationId": "org.whitequark.sipcaller",
      "broadcastReceiverIntentFilterActionNames": [],
      "dependencies": [],
      "domainNamesFilteredByExodus": [],
      "metaDataNames": [],
      "sha256": "e177752b5956b896fe8f59492bfd664de6c1074ec31f21108a26c24bd61e9ad7",
      "usesPermissions": [
        "android.permission.CALL_PHONE"
      ]
    }
  ],
  "meta": {
    "generated": "2020-08-27T17:07:16.195111",
    "generatedBy": [
      "/home/hc/code/trackingthetrackers/scripts/make-clean-apk-set.py"
    ],
    "generatedByCommitId": "40519285d6f404593fa655fa89b433743c25289e",
    "sourceDataCommitId": "888bb8f8c77ff55105fcab2ad84c263561eb1169",
    "ver": "0.3.0"
  }
}