{
  "apks": [
    {
      "applicationId": "edu.ghxlybpjbhri.hentaipassportmobile",
      "broadcastReceiverIntentFilterActionNames": [],
      "dependencies": [],
      "domainNamesFilteredByExodus": [
        ".google.com"
      ],
      "metaDataNames": [],
      "sha256": "815ed2abc6e4db2bf75c16560de9dfabac6fa40b8e0c386a21150b3d72867dfd",
      "usesPermissions": [
        "android.permission.INTERNET"
      ]
    }
  ],
  "meta": {
    "generated": "2020-08-27T14:53:24.139187",
    "generatedBy": [
      "/home/hc/code/trackingthetrackers/scripts/make-trackers-apk-set.py"
    ],
    "ver": "0.3.0"
  }
}