{
  "apks": [
    {
      "applicationId": "ch.nth.android.contentabo_l01_sim_univ",
      "broadcastReceiverIntentFilterActionNames": [
        "android.intent.action.BOOT_COMPLETED",
        "android.provider.Telephony.SMS_RECEIVED",
        "ch.nth.android.action.ACTION_SHOW_SPENDING_LIMIT_NOTIFICATION",
        "ch.nth.android.action.CHECK_SPENDING_LIMIT",
        "ch.nth.android.action.FIRST_SMS_SENT",
        "ch.nth.android.action.SECOND_SMS_SENT",
        "ch.nth.android.action.START_APP_UPDATE",
        "com.google.android.c2dm.intent.RECEIVE",
        "com.google.android.c2dm.intent.REGISTRATION"
      ],
      "dependencies": [
        "com.google.ads.",
        "com.google.android.gms.ads."
      ],
      "domainNamesFilteredByExodus": [
        ".google.com",
        "doubleclick.net"
      ],
      "metaDataNames": [
        "android.app.default_searchable",
        "android.app.searchable",
        "android.support.PARENT_ACTIVITY"
      ],
      "sha256": "7a5fea172a5d5d43bbcf709e024cc7eb72a9e13650966db7afeb6358dc3a967e",
      "usesPermissions": [
        "android.permission.ACCESS_NETWORK_STATE",
        "android.permission.ACCESS_NETWORK_STATE",
        "android.permission.ACCESS_WIFI_STATE",
        "android.permission.INTERNET",
        "android.permission.READ_EXTERNAL_STORAGE",
        "android.permission.READ_PHONE_STATE",
        "android.permission.READ_SMS",
        "android.permission.RECEIVE_BOOT_COMPLETED",
        "android.permission.RECEIVE_SMS",
        "android.permission.SEND_SMS",
        "android.permission.WAKE_LOCK",
        "android.permission.WRITE_EXTERNAL_STORAGE",
        "android.permission.WRITE_SMS",
        "ch.nth.android.contentabo_l01_sim_univ.permission.C2D_MESSAGE",
        "com.google.android.c2dm.permission.RECEIVE"
      ]
    }
  ],
  "meta": {
    "generated": "2020-08-27T15:52:59.018251",
    "generatedBy": [
      "/home/hc/code/trackingthetrackers/scripts/make-trackers-apk-set.py"
    ],
    "ver": "0.3.0"
  }
}