{
  "apks": [
    {
      "applicationId": "com.rockshowforall.blue.baby.panda",
      "broadcastReceiverIntentFilterActionNames": [
        "com.android.vending.INSTALL_REFERRER"
      ],
      "dependencies": [
        "com$startapp$android$publish",
        "com.google.ads.",
        "com.ironsource.",
        "com.startapp.android.publish"
      ],
      "domainNamesFilteredByExodus": [
        ".facebook.com",
        ".google.com",
        "api.airpush.com",
        "doubleclick.net"
      ],
      "metaDataNames": [
        "com.nolmdhijsz.shamjpfbzl103837.APIKEY",
        "com.nolmdhijsz.shamjpfbzl103837.APPID",
        "com.startapp.android.APP_ID",
        "com.startapp.android.DEV_ID"
      ],
      "sha256": "bbd65b565b10895faf920cede5c5b03e15f9242897b9694b27007439d5c811c5",
      "usesPermissions": [
        "android.permission.ACCESS_COARSE_LOCATION",
        "android.permission.ACCESS_FINE_LOCATION",
        "android.permission.ACCESS_NETWORK_STATE",
        "android.permission.ACCESS_WIFI_STATE",
        "android.permission.GET_TASKS",
        "android.permission.INTERNET",
        "android.permission.READ_PHONE_STATE",
        "android.permission.SYSTEM_ALERT_WINDOW",
        "android.permission.WRITE_EXTERNAL_STORAGE"
      ]
    }
  ],
  "meta": {
    "generated": "2020-08-27T15:42:05.250095",
    "generatedBy": [
      "/home/hc/code/trackingthetrackers/scripts/make-trackers-apk-set.py"
    ],
    "ver": "0.3.0"
  }
}