{
  "apks": [
    {
      "applicationId": "riddle.me.that.riddles.logo.quiz.icomania",
      "broadcastReceiverIntentFilterActionNames": [
        "android.intent.action.BOOT_COMPLETED",
        "android.intent.action.PACKAGE_ADDED",
        "android.intent.action.PACKAGE_REMOVED",
        "android.intent.action.SIG_STR",
        "android.net.wifi.WIFI_STATE_CHANGED",
        "com.amazon.inapp.purchasing.NOTIFY",
        "com.android.vending.billing.IN_APP_NOTIFY",
        "com.android.vending.billing.PURCHASE_STATE_CHANGED",
        "com.android.vending.billing.RESPONSE_CODE"
      ],
      "dependencies": [
        "com.flurry.",
        "com.google.ads.",
        "com_facebook_login"
      ],
      "domainNamesFilteredByExodus": [
        ".facebook.com",
        ".google.com",
        "doubleclick.net",
        "flurry.com"
      ],
      "metaDataNames": [
        "ADWHIRL_KEY",
        "app_id",
        "com.facebook.sdk.ApplicationId",
        "default_ad_url",
        "error_report_sever_app_1",
        "error_report_sever_app_2",
        "is_ad_enable",
        "is_ad_interstitial_enable",
        "is_amazon_app",
        "is_award_rate_enable",
        "is_debug",
        "is_house_banner_ad_enable",
        "is_house_popup_ad_enable",
        "platform_sever",
        "platform_version",
        "promo_app_popup_type_activity_name",
        "promo_app_popup_type_activity_name_2",
        "promo_app_popup_type_popup_interval",
        "promo_app_popup_type_popup_interval_2",
        "quiz_stage_mode",
        "show_debug_info",
        "tag_real_project"
      ],
      "sha256": "693f5a39e4035359d9d24896ba36ffcb896732fd14e163ce03e063d4e23160d2",
      "usesPermissions": [
        "android.permission.ACCESS_COARSE_LOCATION",
        "android.permission.ACCESS_FINE_LOCATION",
        "android.permission.ACCESS_NETWORK_STATE",
        "android.permission.ACCESS_WIFI_STATE",
        "android.permission.INTERNET",
        "android.permission.READ_PHONE_STATE",
        "android.permission.RECEIVE_BOOT_COMPLETED",
        "android.permission.RESTART_PACKAGES",
        "android.permission.SYSTEM_ALERT_WINDOW",
        "android.permission.VIBRATE",
        "android.permission.WAKE_LOCK",
        "android.permission.WRITE_APN_SETTINGS",
        "android.permission.WRITE_EXTERNAL_STORAGE",
        "com.android.launcher.permission.INSTALL_SHORTCUT",
        "com.android.vending.BILLING"
      ]
    }
  ],
  "meta": {
    "generated": "2020-08-27T15:05:12.481060",
    "generatedBy": [
      "/home/hc/code/trackingthetrackers/scripts/make-trackers-apk-set.py"
    ],
    "ver": "0.3.0"
  }
}