{
  "apks": [
    {
      "applicationId": "apps.amine.bou.readerforselfoss",
      "broadcastReceiverIntentFilterActionNames": [],
      "dependencies": [],
      "domainNamesFilteredByExodus": [
        ".facebook.com",
        ".google.com",
        "hockeyapp.net",
        "mixpanel.com"
      ],
      "metaDataNames": [
        "android.max_aspect",
        "android.support.PARENT_ACTIVITY",
        "android.webkit.WebView.EnableSafeBrowsing",
        "android.webkit.WebView.MetricsOptOut",
        "apps.amine.bou.readerforselfoss.utils.glide.SelfSignedGlideModule"
      ],
      "sha256": "64de3123442b763473ef833bb04a9dcc0d45a821bcddee2f2739117f765f6e67",
      "usesPermissions": [
        "25",
        "android.permission.INTERNET",
        "android.permission.WAKE_LOCK"
      ]
    }
  ],
  "meta": {
    "generated": "2020-08-27T17:10:01.609334",
    "generatedBy": [
      "/home/hc/code/trackingthetrackers/scripts/make-clean-apk-set.py"
    ],
    "generatedByCommitId": "40519285d6f404593fa655fa89b433743c25289e",
    "sourceDataCommitId": "888bb8f8c77ff55105fcab2ad84c263561eb1169",
    "ver": "0.3.0"
  }
}