{
  "apks": [
    {
      "applicationId": "de.jl.notificationlog",
      "broadcastReceiverIntentFilterActionNames": [],
      "dependencies": [],
      "domainNamesFilteredByExodus": [],
      "metaDataNames": [
        "android.accessibilityservice",
        "android.support.PARENT_ACTIVITY"
      ],
      "sha256": "c3cb200afd2f4ad1373a7fba7d8042b29b1bf1c4ec46c76fe3271cf1a121541d",
      "usesPermissions": []
    }
  ],
  "meta": {
    "generated": "2020-08-27T18:00:53.699307",
    "generatedBy": [
      "/home/hc/code/trackingthetrackers/scripts/make-clean-apk-set.py"
    ],
    "generatedByCommitId": "3839559c80042252d3b947fb61c86a18e8b31114",
    "sourceDataCommitId": "888bb8f8c77ff55105fcab2ad84c263561eb1169",
    "ver": "0.3.0"
  }
}