{
  "apks": [
    {
      "applicationId": "org.gnu.icecat",
      "broadcastReceiverIntentFilterActionNames": [
        "android.appwidget.action.APPWIDGET_UPDATE",
        "android.intent.action.ACTION_EXTERNAL_APPLICATIONS_AVAILABLE",
        "android.intent.action.BOOT_COMPLETED",
        "android.intent.action.GET_RESTRICTION_ENTRIES",
        "android.intent.action.MY_PACKAGE_REPLACED",
        "android.intent.action.PACKAGE_REPLACED",
        "com.android.vending.INSTALL_REFERRER",
        "org.gnu.icecat.CHECK_UPDATE_RESULT",
        "org.gnu.icecat.NOTIFICATION_CLICK",
        "org.gnu.icecat.NOTIFICATION_CLOSE",
        "org.gnu.icecat.helperBroadcastAction",
        "org.mozilla.gecko.STUMBLER_REGISTER_LOCAL_LISTENER",
        "org.mozilla.widget.LAUNCH_BROWSER",
        "org.mozilla.widget.LAUNCH_NEW_TAB",
        "org.mozilla.widget.LAUNCH_SEARCH"
      ],
      "dependencies": [
        "org.mozilla.gecko.telemetry"
      ],
      "domainNamesFilteredByExodus": [
        "outbrain.com",
        "qualtrics.com"
      ],
      "metaDataNames": [
        "android.accounts.AccountAuthenticator",
        "android.appwidget.provider",
        "android.content.SyncAdapter",
        "android.support.PARENT_ACTIVITY",
        "com.android.systemui.action_assist_icon",
        "com.sec.android.support.multiwindow",
        "com.sec.minimode.icon.landscape.normal",
        "com.sec.minimode.icon.portrait.normal"
      ],
      "sha256": "8c8dd6c7884d3a4fc82c4ee6ad2d554a3dabc53abcf7c7e4665b2b7096f9c666",
      "usesPermissions": [
        "android.permission.ACCESS_FINE_LOCATION",
        "android.permission.ACCESS_FINE_LOCATION",
        "android.permission.ACCESS_NETWORK_STATE",
        "android.permission.ACCESS_NETWORK_STATE",
        "android.permission.ACCESS_NETWORK_STATE",
        "android.permission.ACCESS_WIFI_STATE",
        "android.permission.AUTHENTICATE_ACCOUNTS",
        "android.permission.CAMERA",
        "android.permission.CHANGE_WIFI_STATE",
        "android.permission.DOWNLOAD_WITHOUT_NOTIFICATION",
        "android.permission.GET_ACCOUNTS",
        "android.permission.INTERNET",
        "android.permission.INTERNET",
        "android.permission.MANAGE_ACCOUNTS",
        "android.permission.NFC",
        "android.permission.READ_EXTERNAL_STORAGE",
        "android.permission.READ_SYNC_SETTINGS",
        "android.permission.READ_SYNC_STATS",
        "android.permission.RECEIVE_BOOT_COMPLETED",
        "android.permission.RECORD_AUDIO",
        "android.permission.SYSTEM_ALERT_WINDOW",
        "android.permission.USE_CREDENTIALS",
        "android.permission.VIBRATE",
        "android.permission.WAKE_LOCK",
        "android.permission.WRITE_EXTERNAL_STORAGE",
        "android.permission.WRITE_SETTINGS",
        "android.permission.WRITE_SYNC_SETTINGS",
        "com.android.browser.permission.READ_HISTORY_BOOKMARKS",
        "com.android.launcher.permission.INSTALL_SHORTCUT",
        "com.android.launcher.permission.UNINSTALL_SHORTCUT",
        "com.google.android.c2dm.permission.RECEIVE",
        "org.gnu.icecat_fxaccount.permission.PER_ACCOUNT_TYPE"
      ]
    }
  ],
  "meta": {
    "generated": "2020-08-27T18:27:25.586210",
    "generatedBy": [
      "/home/hc/code/trackingthetrackers/scripts/make-clean-apk-set.py"
    ],
    "generatedByCommitId": "3839559c80042252d3b947fb61c86a18e8b31114",
    "sourceDataCommitId": "888bb8f8c77ff55105fcab2ad84c263561eb1169",
    "ver": "0.3.0"
  }
}