{
  "apks": [
    {
      "applicationId": "com.syhrobert1991.audifans",
      "broadcastReceiverIntentFilterActionNames": [],
      "dependencies": [
        "net.youmi",
        "net_youmi"
      ],
      "domainNamesFilteredByExodus": [
        ".google.com",
        "youmi.net"
      ],
      "metaDataNames": [],
      "sha256": "0dd63447dd30124ecb0ddcc5d7c5544b3bb4af167e51308fd073aeac57e28394",
      "usesPermissions": [
        "android.permission.ACCESS_FINE_LOCATION",
        "android.permission.ACCESS_NETWORK_STATE",
        "android.permission.INTERNET",
        "android.permission.READ_PHONE_STATE",
        "android.permission.WRITE_EXTERNAL_STORAGE"
      ]
    }
  ],
  "meta": {
    "generated": "2020-08-27T15:03:08.281082",
    "generatedBy": [
      "/home/hc/code/trackingthetrackers/scripts/make-trackers-apk-set.py"
    ],
    "ver": "0.3.0"
  }
}