{
  "apks": [
    {
      "applicationId": "ttnjovx.cyvgusucqe.t",
      "broadcastReceiverIntentFilterActionNames": [],
      "dependencies": [],
      "domainNamesFilteredByExodus": [],
      "metaDataNames": [],
      "sha256": "92d5bb4188dc0bece1b5dc425b330186b9daf71cdcbc7802bce6af89b5258692",
      "usesPermissions": []
    }
  ],
  "meta": {
    "generated": "2020-08-27T14:58:48.587780",
    "generatedBy": [
      "/home/hc/code/trackingthetrackers/scripts/make-trackers-apk-set.py"
    ],
    "ver": "0.3.0"
  }
}