{
  "apks": [
    {
      "applicationId": "top.wallpapers.edgKoreanpopFrame",
      "broadcastReceiverIntentFilterActionNames": [],
      "dependencies": [],
      "domainNamesFilteredByExodus": [
        "api.airpush.com"
      ],
      "metaDataNames": [
        "com.ojvttpbynw.hfayhrstyl136339.APIKEY",
        "com.ojvttpbynw.hfayhrstyl136339.APPID"
      ],
      "sha256": "1a51272277a975a6f8942bdc75aa616f9bf0836c3453fae659e71f63b4d5042c",
      "usesPermissions": [
        "android.permission.ACCESS_COARSE_LOCATION",
        "android.permission.ACCESS_FINE_LOCATION",
        "android.permission.ACCESS_NETWORK_STATE",
        "android.permission.ACCESS_WIFI_STATE",
        "android.permission.INTERNET",
        "android.permission.READ_PHONE_STATE",
        "android.permission.SET_WALLPAPER",
        "android.permission.WRITE",
        "android.permission.WRITE_EXTERNAL_STORAGE",
        "android.permission.WRITE_EXTERNAL_STORAGE"
      ]
    }
  ],
  "meta": {
    "generated": "2020-08-27T15:37:19.144287",
    "generatedBy": [
      "/home/hc/code/trackingthetrackers/scripts/make-trackers-apk-set.py"
    ],
    "ver": "0.3.0"
  }
}