{
  "apks": [
    {
      "applicationId": "HealthPlan.UI",
      "broadcastReceiverIntentFilterActionNames": [],
      "dependencies": [
        "net.youmi",
        "net_youmi"
      ],
      "domainNamesFilteredByExodus": [
        ".google.com",
        "youmi.net"
      ],
      "metaDataNames": [],
      "sha256": "7d504330cd6a6f094ddc5a90c24cd4cda98bc966ecfe9ed15bc8560c163e7cd9",
      "usesPermissions": [
        "android.permission.ACCESS_FINE_LOCATION",
        "android.permission.ACCESS_NETWORK_STATE",
        "android.permission.INTERNET",
        "android.permission.WRITE_EXTERNAL_STORAGE"
      ]
    }
  ],
  "meta": {
    "generated": "2020-08-27T15:00:38.451536",
    "generatedBy": [
      "/home/hc/code/trackingthetrackers/scripts/make-trackers-apk-set.py"
    ],
    "ver": "0.3.0"
  }
}