{
  "apks": [
    {
      "applicationId": "org.amoradi.syncopoli",
      "broadcastReceiverIntentFilterActionNames": [
        "android.net.wifi.STATE_CHANGE",
        "android.net.wifi.WIFI_STATE_CHANGED",
        "org.amoradi.syncopoli.SYNC_PROFILE"
      ],
      "dependencies": [],
      "domainNamesFilteredByExodus": [],
      "metaDataNames": [
        "android.accounts.AccountAuthenticator",
        "android.content.SyncAdapter",
        "android.support.VERSION"
      ],
      "sha256": "cff30aad948979f22916e72b3d4889f83fc18b3e32e2b6b283c0828b7a89e122",
      "usesPermissions": [
        "android.permission.ACCESS_NETWORK_STATE",
        "android.permission.AUTHENTICATE_ACCOUNTS",
        "android.permission.INTERNET",
        "android.permission.READ_EXTERNAL_STORAGE",
        "android.permission.READ_SYNC_SETTINGS",
        "android.permission.WAKE_LOCK",
        "android.permission.WRITE_EXTERNAL_STORAGE",
        "android.permission.WRITE_SYNC_SETTINGS"
      ]
    }
  ],
  "meta": {
    "generated": "2020-08-27T18:22:01.489537",
    "generatedBy": [
      "/home/hc/code/trackingthetrackers/scripts/make-clean-apk-set.py"
    ],
    "generatedByCommitId": "3839559c80042252d3b947fb61c86a18e8b31114",
    "sourceDataCommitId": "888bb8f8c77ff55105fcab2ad84c263561eb1169",
    "ver": "0.3.0"
  }
}