{
  "apks": [
    {
      "applicationId": "org.projectmaxs.main",
      "broadcastReceiverIntentFilterActionNames": [
        "android.intent.action.BOOT_COMPLETED",
        "android.intent.action.PACKAGE_ADDED",
        "android.intent.action.PACKAGE_REMOVED",
        "android.intent.action.PACKAGE_REPLACED"
      ],
      "dependencies": [],
      "domainNamesFilteredByExodus": [],
      "metaDataNames": [],
      "sha256": "8f48ddb84a191810e419802473a53267fef39b4ea71861e611e4b91fe72024f5",
      "usesPermissions": [
        "android.permission.RECEIVE_BOOT_COMPLETED",
        "org.projectmaxs.permission.USE_FILEREAD",
        "org.projectmaxs.permission.USE_FILEWRITE",
        "org.projectmaxs.permission.USE_MAIN",
        "org.projectmaxs.permission.USE_MAIN_AS_MODULE",
        "org.projectmaxs.permission.USE_MODULE",
        "org.projectmaxs.permission.USE_TRANSPORT"
      ]
    }
  ],
  "meta": {
    "generated": "2020-08-27T18:34:10.327915",
    "generatedBy": [
      "/home/hc/code/trackingthetrackers/scripts/make-clean-apk-set.py"
    ],
    "generatedByCommitId": "3839559c80042252d3b947fb61c86a18e8b31114",
    "sourceDataCommitId": "888bb8f8c77ff55105fcab2ad84c263561eb1169",
    "ver": "0.3.0"
  }
}