{
  "apks": [
    {
      "applicationId": "com.magamesnew.ahuja.babysittingroom",
      "broadcastReceiverIntentFilterActionNames": [
        "android.intent.action.BOOT_COMPLETED"
      ],
      "dependencies": [
        "com.google.ads.",
        "com.umeng.analytics"
      ],
      "domainNamesFilteredByExodus": [
        ".google.com",
        "alog.umeng.com",
        "api.airpush.com",
        "apistaging.airpush.com",
        "beta.airpush.com",
        "oc.umeng.com",
        "umeng.com"
      ],
      "metaDataNames": [
        "UMENG_APPKEY",
        "UMENG_CHANNEL",
        "com.UsTa.QvAE115205.APIKEY",
        "com.UsTa.QvAE115205.APPID"
      ],
      "sha256": "f325843d7cbb2e7ccff317a3a0b4eae022531116c48a5a68df0fd052f17a0506",
      "usesPermissions": [
        "android.permission.ACCESS_NETWORK_STATE",
        "android.permission.INTERNET",
        "android.permission.READ_PHONE_STATE",
        "android.permission.WAKE_LOCK"
      ]
    }
  ],
  "meta": {
    "generated": "2020-08-27T15:01:24.320382",
    "generatedBy": [
      "/home/hc/code/trackingthetrackers/scripts/make-trackers-apk-set.py"
    ],
    "ver": "0.3.0"
  }
}