{
  "apks": [
    {
      "applicationId": "com.pplive.androidphone",
      "broadcastReceiverIntentFilterActionNames": [
        "android.appwidget.action.APPWIDGET_UPDATE",
        "android.intent.action.BOOT_COMPLETED",
        "android.intent.action.LIVE_ALARM_PPTV",
        "android.intent.action.PACKAGE_ADDED",
        "android.intent.action.PACKAGE_REMOVED",
        "android.intent.action.TIME_ORDER",
        "android.intent.action.USER_PRESENT",
        "android.net.conn.CONNECTIVITY_CHANGE",
        "com.igexin.sdk.action.l76htOu2zc82Lix9Xu08B6",
        "com.igexin.sdk.action.pushmanager",
        "com.igexin.sdk.action.refreshls",
        "com.pplive.action.MEDIA_MOUNTED",
        "com.pplive.action.MEDIA_SCANNER_SCAN_FILE",
        "com.pplive.dlna.DLNASdkUIReceiver.ACTION_DMC",
        "com.pplive.dlna.DLNASdkUIReceiver.ACTION_DMR_DEVICE_CHANGED",
        "com.pplive.dlna.DLNASdkUIReceiver.ACTION_DMS_DEVICE_CHANGED",
        "com.pplive.remotecontrol.RemoteClientService.ACTION_CALLBACK",
        "com.tencent.mm.plugin.openapi.Intent.ACTION_REFRESH_WXAPP"
      ],
      "dependencies": [
        "com.tencent.stat",
        "com.umeng.analytics"
      ],
      "domainNamesFilteredByExodus": [
        "alog.umeng.com",
        "map.qq.com",
        "oc.umeng.com",
        "umeng.com"
      ],
      "metaDataNames": [
        "DREAMVOC_APPID",
        "PUSH_APPID",
        "PUSH_APPKEY",
        "PUSH_APPSECRET",
        "PUSH_GROUPID",
        "TA_APPKEY",
        "UMENG_APPKEY",
        "UMENG_CHANNEL",
        "android.appwidget.provider",
        "com.amap.api.v2.apikey",
        "com.baidu.lbsapi.API_KEY",
        "wifilocating_sdk_app_id"
      ],
      "sha256": "b5894a44f4b8adba28c27dbc7c1924cfa00baa4b0b259be368235937cd1cafdc",
      "usesPermissions": [
        "android.permission.ACCESS_COARSE_LOCATION",
        "android.permission.ACCESS_DOWNLOAD_MANAGER",
        "android.permission.ACCESS_FINE_LOCATION",
        "android.permission.ACCESS_NETWORK_STATE",
        "android.permission.ACCESS_WIFI_STATE",
        "android.permission.CAMERA",
        "android.permission.CHANGE_CONFIGURATION",
        "android.permission.CHANGE_NETWORK_STATE",
        "android.permission.CHANGE_WIFI_STATE",
        "android.permission.DOWNLOAD_WITHOUT_NOTIFICATION",
        "android.permission.FLASHLIGHT",
        "android.permission.GET_ACCOUNTS",
        "android.permission.GET_TASKS",
        "android.permission.INTERNET",
        "android.permission.KILL_BACKGROUND_PROCESSES",
        "android.permission.READ_EXTERNAL_STORAGE",
        "android.permission.READ_LOGS",
        "android.permission.READ_PHONE_STATE",
        "android.permission.READ_SETTINGS",
        "android.permission.RECEIVE_USER_PRESENT",
        "android.permission.RECORD_AUDIO",
        "android.permission.RESTART_PACKAGES",
        "android.permission.SYSTEM_ALERT_WINDOW",
        "android.permission.SYSTEM_OVERLAY_WINDOW",
        "android.permission.VIBRATE",
        "android.permission.VIBRATE",
        "android.permission.WAKE_LOCK",
        "android.permission.WRITE_EXTERNAL_STORAGE",
        "android.permission.WRITE_SETTINGS",
        "com.android.launcher.permission.INSTALL_SHORTCUT",
        "com.android.launcher.permission.UNINSTALL_SHORTCUT"
      ]
    }
  ],
  "meta": {
    "generated": "2020-08-27T15:32:43.109265",
    "generatedBy": [
      "/home/hc/code/trackingthetrackers/scripts/make-trackers-apk-set.py"
    ],
    "ver": "0.3.0"
  }
}