{
  "apks": [
    {
      "applicationId": "com.duckduckgo.mobile.android",
      "dependencies": [],
      "domainNamesFilteredByExodus": [
        ".google.com",
        "teads.tv"
      ],
      "sha256": "a8a17342e566fe253ad68a4aeefa67fddc0902974d9c10cac45d2cc01e0a98ee",
      "usesPermissions": [
        "android.permission.ACCESS_NETWORK_STATE",
        "android.permission.INTERNET",
        "android.permission.RECEIVE_BOOT_COMPLETED",
        "android.permission.WAKE_LOCK",
        "android.permission.WRITE_EXTERNAL_STORAGE",
        "com.android.launcher.permission.INSTALL_SHORTCUT"
      ]
    }
  ],
  "meta": {
    "ver": "0.2.0"
  }
}