{
  "apks": [
    {
      "applicationId": "com.bestlwp.bee",
      "broadcastReceiverIntentFilterActionNames": [
        "android.intent.action.BOOT_COMPLETED"
      ],
      "dependencies": [
        "com.applovin",
        "com.google.ads.",
        "com.google.android.gms.ads."
      ],
      "domainNamesFilteredByExodus": [
        ".google.com",
        "applovin.com",
        "beta.airpush.com",
        "doubleclick.net"
      ],
      "metaDataNames": [
        "MINIMOB_APPHOST",
        "MINIMOB_APPID",
        "MINIMOB_APPKEY",
        "MINIMOB_OUTOFAPP",
        "android.service.wallpaper",
        "applovin.sdk.key",
        "com.google.android.gms.version",
        "com.yrkfgo.assxqx4.APIKEY",
        "com.yrkfgo.assxqx4.APPID"
      ],
      "sha256": "146ce222a33bd122bd3bfee6e8781405de3930e60ee665e440d20cf442ad8ff6",
      "usesPermissions": [
        "android.permission.ACCESS_COARSE_LOCATION",
        "android.permission.ACCESS_FINE_LOCATION",
        "android.permission.ACCESS_NETWORK_STATE",
        "android.permission.ACCESS_WIFI_STATE",
        "android.permission.GET_ACCOUNTS",
        "android.permission.INTERNET",
        "android.permission.READ_PHONE_STATE",
        "android.permission.RECEIVE_BOOT_COMPLETED",
        "android.permission.SYSTEM_ALERT_WINDOW",
        "android.permission.VIBRATE",
        "android.permission.WAKE_LOCK",
        "android.permission.WRITE_EXTERNAL_STORAGE",
        "com.android.browser.permission.READ_HISTORY_BOOKMARKS",
        "com.android.launcher.permission.INSTALL_SHORTCUT"
      ]
    }
  ],
  "meta": {
    "generated": "2020-08-27T15:33:42.856004",
    "generatedBy": [
      "/home/hc/code/trackingthetrackers/scripts/make-trackers-apk-set.py"
    ],
    "ver": "0.3.0"
  }
}