{
  "apks": [
    {
      "applicationId": "de.quaddyservices.dynamicnightlight",
      "broadcastReceiverIntentFilterActionNames": [],
      "dependencies": [],
      "domainNamesFilteredByExodus": [],
      "metaDataNames": [],
      "sha256": "76bc8a3716cb55a91e0959a9d335dbbc424ddd64b626d0b7e38095ef70f25fb7",
      "usesPermissions": []
    }
  ],
  "meta": {
    "generated": "2020-08-27T18:02:11.303691",
    "generatedBy": [
      "/home/hc/code/trackingthetrackers/scripts/make-clean-apk-set.py"
    ],
    "generatedByCommitId": "3839559c80042252d3b947fb61c86a18e8b31114",
    "sourceDataCommitId": "888bb8f8c77ff55105fcab2ad84c263561eb1169",
    "ver": "0.3.0"
  }
}