{
  "apks": [
    {
      "applicationId": "org.fitchfamily.android.symphony",
      "broadcastReceiverIntentFilterActionNames": [],
      "dependencies": [],
      "domainNamesFilteredByExodus": [],
      "metaDataNames": [
        "android.support.VERSION"
      ],
      "sha256": "38a4bbd27d3f42755c39b2b2bfdd4d32be3ea51f4a7b4342109e3d10947e942c",
      "usesPermissions": [
        "android.permission.MEDIA_CONTENT_CONTROL",
        "android.permission.READ_EXTERNAL_STORAGE",
        "android.permission.WAKE_LOCK"
      ]
    }
  ],
  "meta": {
    "generated": "2020-08-27T18:26:35.100613",
    "generatedBy": [
      "/home/hc/code/trackingthetrackers/scripts/make-clean-apk-set.py"
    ],
    "generatedByCommitId": "3839559c80042252d3b947fb61c86a18e8b31114",
    "sourceDataCommitId": "888bb8f8c77ff55105fcab2ad84c263561eb1169",
    "ver": "0.3.0"
  }
}