{
  "apks": [
    {
      "applicationId": "atm.starun.game",
      "broadcastReceiverIntentFilterActionNames": [],
      "dependencies": [],
      "domainNamesFilteredByExodus": [],
      "metaDataNames": [],
      "sha256": "339d0092f31c8d7153f14d139ec1cdbfa658c2f0baed72eaea168b97ff4d8357",
      "usesPermissions": []
    }
  ],
  "meta": {
    "generated": "2020-08-27T16:51:47.150765",
    "generatedBy": [
      "/home/hc/code/trackingthetrackers/scripts/make-clean-apk-set.py"
    ],
    "generatedByCommitId": "40519285d6f404593fa655fa89b433743c25289e",
    "sourceDataCommitId": "888bb8f8c77ff55105fcab2ad84c263561eb1169",
    "ver": "0.3.0"
  }
}