{
  "apks": [
    {
      "applicationId": "sermon.free.howto81",
      "broadcastReceiverIntentFilterActionNames": [],
      "dependencies": [],
      "domainNamesFilteredByExodus": [
        ".google.com",
        "api.airpush.com"
      ],
      "metaDataNames": [
        "com.pktios.djiacj141867.APIKEY",
        "com.pktios.djiacj141867.APPID"
      ],
      "sha256": "c1b5a7bf3c80d08a852d1b4412ff3ae5e6fb24320253d4a8e8d41bbbab80dff9",
      "usesPermissions": [
        "android.permission.ACCESS_NETWORK_STATE",
        "android.permission.INTERNET",
        "android.permission.READ_PHONE_STATE",
        "android.permission.WRITE_EXTERNAL_STORAGE"
      ]
    }
  ],
  "meta": {
    "generated": "2020-08-27T15:21:36.946735",
    "generatedBy": [
      "/home/hc/code/trackingthetrackers/scripts/make-trackers-apk-set.py"
    ],
    "ver": "0.3.0"
  }
}