{
  "apks": [
    {
      "applicationId": "org.hlwd.bible",
      "broadcastReceiverIntentFilterActionNames": [],
      "dependencies": [],
      "domainNamesFilteredByExodus": [
        ".google.com"
      ],
      "metaDataNames": [],
      "sha256": "f39f099e3145c37e0e5e27a284bd1cf5c84749863155f5e8064531664a59f5dc",
      "usesPermissions": []
    }
  ],
  "meta": {
    "generated": "2020-08-27T18:28:10.867823",
    "generatedBy": [
      "/home/hc/code/trackingthetrackers/scripts/make-clean-apk-set.py"
    ],
    "generatedByCommitId": "3839559c80042252d3b947fb61c86a18e8b31114",
    "sourceDataCommitId": "888bb8f8c77ff55105fcab2ad84c263561eb1169",
    "ver": "0.3.0"
  }
}