{
  "apks": [
    {
      "applicationId": "com.simplemobiletools.calculator",
      "broadcastReceiverIntentFilterActionNames": [
        "android.appwidget.action.APPWIDGET_UPDATE",
        "com.simplemobiletools.commons.SHARED_THEME_ACTIVATED",
        "com.simplemobiletools.commons.SHARED_THEME_UPDATED"
      ],
      "dependencies": [],
      "domainNamesFilteredByExodus": [
        ".facebook.com",
        ".google.com"
      ],
      "metaDataNames": [
        "android.appwidget.provider"
      ],
      "sha256": "778f6396b2355a98b0e1e55303c295a1e00ca3a62a6570a8069bf10b39bb34a4",
      "usesPermissions": []
    }
  ],
  "meta": {
    "generated": "2020-08-27T17:47:34.813281",
    "generatedBy": [
      "/home/hc/code/trackingthetrackers/scripts/make-clean-apk-set.py"
    ],
    "generatedByCommitId": "40519285d6f404593fa655fa89b433743c25289e",
    "sourceDataCommitId": "888bb8f8c77ff55105fcab2ad84c263561eb1169",
    "ver": "0.3.0"
  }
}