{
  "apks": [
    {
      "applicationId": "me.murks.feedwatcher",
      "dependencies": [],
      "domainNamesFilteredByExodus": [],
      "sha256": "3e834e874b51ada8c493053e74492c2e311e9e75343f0c3eb7dd43405a923d9e",
      "usesPermissions": [
        "android.permission.INTERNET",
        "android.permission.RECEIVE_BOOT_COMPLETED"
      ]
    }
  ],
  "meta": {
    "ver": "0.2.0"
  }
}