{
  "apks": [
    {
      "applicationId": "org.lrnoqcxpnpiw.camappforandroid",
      "broadcastReceiverIntentFilterActionNames": [],
      "dependencies": [],
      "domainNamesFilteredByExodus": [],
      "metaDataNames": [],
      "sha256": "2051cf0d786b0f765f6c4eea2ee98228688b98e8f8d9aaa864461bf1778f2419",
      "usesPermissions": [
        "android.permission.INTERNET"
      ]
    }
  ],
  "meta": {
    "generated": "2020-08-27T15:43:09.899689",
    "generatedBy": [
      "/home/hc/code/trackingthetrackers/scripts/make-trackers-apk-set.py"
    ],
    "ver": "0.3.0"
  }
}