{
  "apks": [
    {
      "applicationId": "org.mariotaku.twidere",
      "broadcastReceiverIntentFilterActionNames": [
        "android.net.conn.CONNECTIVITY_CHANGE",
        "android.provider.Telephony.SECRET_CODE",
        "org.mariotaku.twidere.NOTIFICATION_DELETED"
      ],
      "dependencies": [],
      "domainNamesFilteredByExodus": [
        ".google.com",
        "api.tiles.mapbox.com"
      ],
      "metaDataNames": [
        "android.accounts.AccountAuthenticator",
        "android.app.default_searchable",
        "android.app.searchable",
        "android.app.shortcuts",
        "android.content.SyncAdapter",
        "android.service.wallpaper",
        "android.support.FILE_PROVIDER_PATHS",
        "android.support.PARENT_ACTIVITY",
        "com.android.systemui.action_assist_icon",
        "com.google.android.backup.api_key",
        "com.sec.android.multiwindow.DEFAULT_SIZE_H",
        "com.sec.android.multiwindow.DEFAULT_SIZE_W",
        "com.sec.android.multiwindow.MINIMUM_SIZE_H",
        "com.sec.android.multiwindow.MINIMUM_SIZE_W",
        "com.sec.android.support.multiwindow",
        "io.fabric.ApiKey",
        "override_tinted_status_bar_defaults"
      ],
      "sha256": "81eeef471d182c04da9106960626f361e08afbe219b267db1a3a01c009706701",
      "usesPermissions": [
        "22",
        "22",
        "22",
        "android.permission.ACCESS_COARSE_LOCATION",
        "android.permission.ACCESS_FINE_LOCATION",
        "android.permission.ACCESS_NETWORK_STATE",
        "android.permission.ACCESS_WIFI_STATE",
        "android.permission.AUTHENTICATE_ACCOUNTS",
        "android.permission.GET_ACCOUNTS",
        "android.permission.INTERNET",
        "android.permission.MANAGE_ACCOUNTS",
        "android.permission.NFC",
        "android.permission.READ_EXTERNAL_STORAGE",
        "android.permission.READ_SYNC_SETTINGS",
        "android.permission.RECEIVE_BOOT_COMPLETED",
        "android.permission.VIBRATE",
        "android.permission.WRITE_EXTERNAL_STORAGE",
        "android.permission.WRITE_SYNC_SETTINGS",
        "org.mariotaku.twidere.permission.SHORTEN_STATUS",
        "org.mariotaku.twidere.permission.SYNC_TIMELINE",
        "org.mariotaku.twidere.permission.UPLOAD_MEDIA"
      ]
    }
  ],
  "meta": {
    "generated": "2020-08-27T18:31:23.848343",
    "generatedBy": [
      "/home/hc/code/trackingthetrackers/scripts/make-clean-apk-set.py"
    ],
    "generatedByCommitId": "3839559c80042252d3b947fb61c86a18e8b31114",
    "sourceDataCommitId": "888bb8f8c77ff55105fcab2ad84c263561eb1169",
    "ver": "0.3.0"
  }
}