{
  "apks": [
    {
      "applicationId": "com.kfjsrjxxshvnmkouim",
      "broadcastReceiverIntentFilterActionNames": [],
      "dependencies": [],
      "domainNamesFilteredByExodus": [
        "stats.unity3d.com"
      ],
      "metaDataNames": [
        "unityplayer.ForwardNativeEventsToDalvik",
        "unityplayer.UnityActivity"
      ],
      "sha256": "a985f52ea0b1d141f836de61ddf15c16bf3569ddd9537939395440caff4875df",
      "usesPermissions": [
        "android.permission.ACCESS_NETWORK_STATE",
        "android.permission.ACCESS_WIFI_STATE",
        "android.permission.GET_TASKS",
        "android.permission.INTERNET",
        "android.permission.INTERNET",
        "android.permission.READ_PHONE_STATE",
        "android.permission.SYSTEM_ALERT_WINDOW",
        "android.permission.WRITE_EXTERNAL_STORAGE",
        "com.android.vending.BILLING"
      ]
    }
  ],
  "meta": {
    "generated": "2020-08-27T15:46:35.354051",
    "generatedBy": [
      "/home/hc/code/trackingthetrackers/scripts/make-trackers-apk-set.py"
    ],
    "ver": "0.3.0"
  }
}