{
  "apks": [
    {
      "applicationId": "com.awindmill.crazymole",
      "broadcastReceiverIntentFilterActionNames": [],
      "dependencies": [
        "com.google.ads.",
        "com.google.android.apps.analytics.",
        "com.inmobi",
        "com.mdotm.android",
        "com.millennialmedia.",
        "net.youmi"
      ],
      "domainNamesFilteredByExodus": [
        ".google.com",
        "google-analytics.com",
        "umeng.com"
      ],
      "metaDataNames": [
        "UMENG_APPKEY",
        "YOUMI_CHANNEL",
        "channelId",
        "cooId"
      ],
      "sha256": "e8d07c2e144578dc77c0652c58c8290408d642d20b32bb72bc5784b2e02dbe6d",
      "usesPermissions": [
        "android.permission.ACCESS_COARSE_LOCATION",
        "android.permission.ACCESS_FINE_LOCATION",
        "android.permission.ACCESS_NETWORK_STATE",
        "android.permission.ACCESS_WIFI_STATE",
        "android.permission.GET_ACCOUNTS",
        "android.permission.INTERNET",
        "android.permission.READ_EXTERNAL_STORAGE",
        "android.permission.READ_PHONE_STATE",
        "android.permission.SYSTEM_ALERT_WINDOW",
        "android.permission.VIBRATE",
        "android.permission.WAKE_LOCK",
        "android.permission.WRITE_EXTERNAL_STORAGE"
      ]
    }
  ],
  "meta": {
    "generated": "2020-08-27T15:00:51.917453",
    "generatedBy": [
      "/home/hc/code/trackingthetrackers/scripts/make-trackers-apk-set.py"
    ],
    "ver": "0.3.0"
  }
}