{
  "apks": [
    {
      "applicationId": "com.chudchud.DumpsterDive",
      "broadcastReceiverIntentFilterActionNames": [],
      "dependencies": [],
      "domainNamesFilteredByExodus": [
        "stats.unity3d.com"
      ],
      "metaDataNames": [
        "unityplayer.ForwardNativeEventsToDalvik"
      ],
      "sha256": "6e79ccc01cb7298f5154b608006637fe30aa74e3d08ec9f35fe69a907e5c09a4",
      "usesPermissions": []
    }
  ],
  "meta": {
    "generated": "2020-08-27T15:08:49.539640",
    "generatedBy": [
      "/home/hc/code/trackingthetrackers/scripts/make-trackers-apk-set.py"
    ],
    "ver": "0.3.0"
  }
}