{
  "apks": [
    {
      "applicationId": "org.epstudios.morbidmeter",
      "broadcastReceiverIntentFilterActionNames": [
        "android.appwidget.action.APPWIDGET_UPDATE"
      ],
      "dependencies": [],
      "domainNamesFilteredByExodus": [],
      "metaDataNames": [
        "android.appwidget.provider"
      ],
      "sha256": "49f09e1a0f50e2eac8114e3e6896b73808bc8c874f5d932b4a669c02867ac418",
      "usesPermissions": []
    }
  ],
  "meta": {
    "generated": "2020-08-27T18:24:57.071761",
    "generatedBy": [
      "/home/hc/code/trackingthetrackers/scripts/make-clean-apk-set.py"
    ],
    "generatedByCommitId": "3839559c80042252d3b947fb61c86a18e8b31114",
    "sourceDataCommitId": "888bb8f8c77ff55105fcab2ad84c263561eb1169",
    "ver": "0.3.0"
  }
}