{
  "apks": [
    {
      "applicationId": "cn.konami.contraevo",
      "broadcastReceiverIntentFilterActionNames": [],
      "dependencies": [
        "com.flurry.",
        "com_facebook_login",
        "org.cocos2dx"
      ],
      "domainNamesFilteredByExodus": [
        ".facebook.com",
        "flurry.com"
      ],
      "metaDataNames": [],
      "sha256": "bd94711dd15bc8493515c35921ac007495c619122d0b3806c0e73f58e36a6a0c",
      "usesPermissions": [
        "android.permission.ACCESS_COARSE_LOCATION",
        "android.permission.ACCESS_FINE_LOCATION",
        "android.permission.ACCESS_NETWORK_STATE",
        "android.permission.ACCESS_WIFI_STATE",
        "android.permission.DISABLE_KEYGUARD",
        "android.permission.INSTALL_PACKAGES",
        "android.permission.INTERNET",
        "android.permission.READ_CONTACTS",
        "android.permission.READ_PHONE_STATE",
        "android.permission.SEND_SMS",
        "android.permission.WRITE_EXTERNAL_STORAGE"
      ]
    }
  ],
  "meta": {
    "generated": "2020-08-27T15:43:17.313661",
    "generatedBy": [
      "/home/hc/code/trackingthetrackers/scripts/make-trackers-apk-set.py"
    ],
    "ver": "0.3.0"
  }
}