{
  "apks": [
    {
      "applicationId": "me.ccrama.redditslide",
      "dependencies": [],
      "domainNamesFilteredByExodus": [
        ".chartbeat.com",
        ".facebook.com",
        ".google.com",
        "247realmedia.com",
        "2mdn.net",
        "ad4game.com",
        "adform.com",
        "adnxs.com",
        "ads.glispa.com",
        "ads.pubmatic.com",
        "adsafeprotected.com",
        "adsrvr.org",
        "adtech.de",
        "adzerk.net",
        "api.airpush.com",
        "appnexus.com",
        "apx.moatads.com",
        "auditude.com",
        "cdn1.smartadserver.com",
        "conversantmedia.com",
        "criteo.com",
        "demdex.net",
        "diff2.smartadserver.com",
        "diff3.smartadserver.com",
        "doubleclick.com",
        "doubleclick.net",
        "engine.adzerk.net",
        "flurry.com",
        "fwmrm.net",
        "gemius.pl",
        "i.w.inmobi.com",
        "image2.pubmatic.com",
        "inmobi.com",
        "js.adsrvr.org",
        "js.moatads.com",
        "ligatus.com",
        "match.adsrvr.org",
        "media.net",
        "mixpanel.com",
        "mobileanalytics.us-east-1.amazonaws.com",
        "mopub.com",
        "newrelic.com",
        "omniture.com",
        "omtrdc.net",
        "openx.com",
        "openx.net",
        "openx.org",
        "outbrain.com",
        "pixel.tapad.com",
        "scorecardresearch.com",
        "serving-sys.com",
        "smartadserver.com",
        "static.adzerk.net",
        "taboola.com",
        "tags.bluekai.com",
        "tiqcdn.com",
        "track.adform.net",
        "us-ads.openx.net",
        "weborama.fr",
        "webtrends.com",
        "widespace.com",
        "youmi.net",
        "z.moatads.com"
      ],
      "sha256": "c429c14ce8c1134b502e62c325ef6b59eda85f20af5fbfe6446a5e9d9f18326a",
      "usesPermissions": [
        "android.permission.ACCESS_NETWORK_STATE",
        "android.permission.ACCESS_WIFI_STATE",
        "android.permission.INTERNET",
        "android.permission.NFC",
        "android.permission.READ_EXTERNAL_STORAGE",
        "android.permission.WRITE_EXTERNAL_STORAGE",
        "com.android.vending.BILLING"
      ]
    }
  ],
  "meta": {
    "ver": "0.2.0"
  }
}