{
  "apks": [
    {
      "applicationId": "cm.aptoide.pt",
      "broadcastReceiverIntentFilterActionNames": [
        "PAYPAL_PAYMENT",
        "android.appwidget.action.APPWIDGET_UPDATE",
        "android.intent.action.BOOT_COMPLETED",
        "android.intent.action.PACKAGE_ADDED",
        "android.intent.action.PACKAGE_REMOVED",
        "android.intent.action.PACKAGE_REPLACED",
        "android.net.conn.CONNECTIVITY_CHANGE",
        "android.provider.Telephony.SMS_RECEIVED",
        "cm.aptoide.pt.PushNotification",
        "cm.aptoide.pt.PushNotificationFirstTime",
        "cm.aptoide.pt.PushNotificationTrackUrl",
        "com.google.android.gms.measurement.UPLOAD"
      ],
      "dependencies": [
        "com$amazon$insights",
        "com$localytics$android$",
        "com.amazon.insights",
        "com.crashlytics.",
        "com.facebook.ads",
        "com.flurry.",
        "com.google.android.gms.ads.",
        "com.google.android.gms.measurement.",
        "com.localytics.android.",
        "com_crashlytics_",
        "com_facebook_login",
        "io$fabric$",
        "io.fabric."
      ],
      "domainNamesFilteredByExodus": [
        ".facebook.com",
        ".google.com",
        "analytics.localytics.com",
        "crashlytics.com",
        "flurry.com",
        "profile.localytics.com"
      ],
      "metaDataNames": [
        "LOCALYTICS_APP_KEY",
        "android.accounts.AccountAuthenticator",
        "android.app.default_searchable",
        "android.app.searchable",
        "android.appwidget.provider",
        "com.aptoide.amethyst.AptoideGlideModule",
        "com.bumptech.glide.integration.okhttp.OkHttpGlideModule",
        "com.crashlytics.ApiKey",
        "com.facebook.sdk.ApplicationId",
        "com.google.android.gms.version"
      ],
      "sha256": "915d5f1cb616484b44d93aea4393d538853b38c93a28177d053b93a46d27f698",
      "usesPermissions": [
        "android.permission.ACCESS_NETWORK_STATE",
        "android.permission.AUTHENTICATE_ACCOUNTS",
        "android.permission.GET_ACCOUNTS",
        "android.permission.INTERNET",
        "android.permission.MANAGE_ACCOUNTS",
        "android.permission.READ_PHONE_STATE",
        "android.permission.RECEIVE_SMS",
        "android.permission.SEND_SMS",
        "android.permission.SYSTEM_ALERT_WINDOW",
        "android.permission.USE_CREDENTIALS",
        "android.permission.WAKE_LOCK",
        "android.permission.WRITE_EXTERNAL_STORAGE",
        "android.permission.WRITE_SYNC_SETTINGS",
        "cm.aptoide.ptdev.PAYMENT_BROADCAST_PERMISSION",
        "com.android.launcher.permission.INSTALL_SHORTCUT"
      ]
    }
  ],
  "meta": {
    "generated": "2020-08-27T15:36:42.663015",
    "generatedBy": [
      "/home/hc/code/trackingthetrackers/scripts/make-trackers-apk-set.py"
    ],
    "ver": "0.3.0"
  }
}