{
  "apks": [
    {
      "applicationId": "org.og8.a1tox",
      "broadcastReceiverIntentFilterActionNames": [],
      "dependencies": [],
      "domainNamesFilteredByExodus": [],
      "metaDataNames": [],
      "sha256": "34895a84a638d53bd5ed57d134511eee9468f5461cb0e41874a1968ac256e4c8",
      "usesPermissions": []
    }
  ],
  "meta": {
    "generated": "2020-08-27T17:06:14.188694",
    "generatedBy": [
      "/home/hc/code/trackingthetrackers/scripts/make-clean-apk-set.py"
    ],
    "generatedByCommitId": "40519285d6f404593fa655fa89b433743c25289e",
    "sourceDataCommitId": "888bb8f8c77ff55105fcab2ad84c263561eb1169",
    "ver": "0.3.0"
  }
}