{
  "apks": [
    {
      "applicationId": "csllc.CellShark",
      "broadcastReceiverIntentFilterActionNames": [
        "android.intent.action.BOOT_COMPLETED"
      ],
      "dependencies": [],
      "domainNamesFilteredByExodus": [],
      "metaDataNames": [],
      "sha256": "3d8d214aa3ebc8276df8f1b3d33ff47d57cd5b9da6dfb0002acb3cd8fe07c8ea",
      "usesPermissions": [
        "android.permission.ACCESS_ASSISTED_GPS",
        "android.permission.ACCESS_CELL_ID",
        "android.permission.ACCESS_COARSE_LOCATION",
        "android.permission.ACCESS_FINE_LOCATION",
        "android.permission.ACCESS_GPS",
        "android.permission.ACCESS_LOCATION",
        "android.permission.DELETE_PACKAGES",
        "android.permission.INTERNET",
        "android.permission.INTERNET",
        "android.permission.READ_CONTACTS",
        "android.permission.READ_MMS",
        "android.permission.READ_PHONE_STATE",
        "android.permission.READ_SMS"
      ]
    }
  ],
  "meta": {
    "generated": "2020-08-27T15:01:07.853491",
    "generatedBy": [
      "/home/hc/code/trackingthetrackers/scripts/make-trackers-apk-set.py"
    ],
    "ver": "0.3.0"
  }
}