{
  "apks": [
    {
      "applicationId": "com.lectek.android.sfreader",
      "broadcastReceiverIntentFilterActionNames": [
        "AppWidget_Update",
        "android.appwidget.action.APPWIDGET_UPDATE",
        "android.intent.action.BOOT_COMPLETED",
        "android.intent.action.PHONE_STATE",
        "android.intent.action.USER_PRESENT",
        "android.net.conn.CONNECTIVITY_CHANGE",
        "com.igexin.sdk.action.7fjUl2Z3LH6xYy7NQK4ni4",
        "com.igexin.sdk.action.SnJnZuu7FC7YaJ2cuDgBe6",
        "com.igexin.sdk.action.pushmanager",
        "com.igexin.sdk.action.refreshls",
        "com.lectek.android.action.ACTION_USER_LOGIN_STATE_CHANGE",
        "com.tencent.mm.plugin.openapi.Intent.ACTION_REFRESH_WXAPP",
        "im.yixin.sdk.api.Intent.ACTION_REFRESH_YXAPP"
      ],
      "dependencies": [
        "com.tencent.stat",
        "com.umeng.analytics"
      ],
      "domainNamesFilteredByExodus": [
        ".facebook.com",
        ".google.com",
        "alog.umeng.com",
        "map.baidu.com",
        "oc.umeng.com",
        "umeng.com"
      ],
      "metaDataNames": [
        "PUSH_APPID",
        "PUSH_APPKEY",
        "PUSH_APPSECRET",
        "PUSH_GROUPID",
        "android.appwidget.provider"
      ],
      "sha256": "724e53c55fc5529143ad1e359f50e40a64dea542498902c0c1c172406342ff36",
      "usesPermissions": [
        "android.permission.ACCESS_COARSE_LOCATION",
        "android.permission.ACCESS_NETWORK_STATE",
        "android.permission.ACCESS_WIFI_STATE",
        "android.permission.BLUETOOTH",
        "android.permission.BLUETOOTH_ADMIN",
        "android.permission.CAMERA",
        "android.permission.CHANGE_NETWORK_STATE",
        "android.permission.CHANGE_WIFI_STATE",
        "android.permission.GET_TASKS",
        "android.permission.INTERNET",
        "android.permission.MOUNT_UNMOUNT_FILESYSTEMS",
        "android.permission.READ_CONTACTS",
        "android.permission.READ_PHONE_STATE",
        "android.permission.READ_SMS",
        "android.permission.RECEIVE_BOOT_COMPLETED",
        "android.permission.RECEIVE_SMS",
        "android.permission.RECORD_AUDIO",
        "android.permission.REORDER_TASKS",
        "android.permission.SEND_SMS",
        "android.permission.SYSTEM_ALERT_WINDOW",
        "android.permission.VIBRATE",
        "android.permission.WAKE_LOCK",
        "android.permission.WRITE_EXTERNAL_STORAGE",
        "android.permission.WRITE_SETTINGS",
        "android.permission.WRITE_SMS",
        "com.android.launcher.permission.INSTALL_SHORTCUT",
        "com.android.launcher.permission.READ_SETTINGS",
        "com.android.launcher.permission.UNINSTALL_SHORTCUT",
        "getui.permission.GetuiService.com.lectek.android.sfreader"
      ]
    }
  ],
  "meta": {
    "generated": "2020-08-27T15:51:00.782665",
    "generatedBy": [
      "/home/hc/code/trackingthetrackers/scripts/make-trackers-apk-set.py"
    ],
    "ver": "0.3.0"
  }
}