{
  "apks": [
    {
      "applicationId": "com.hujiang.cctalk",
      "broadcastReceiverIntentFilterActionNames": [
        "android.intent.action.BOOT_COMPLETED",
        "android.intent.action.DOWNLOAD_COMPLETE",
        "android.intent.action.PACKAGE_ADDED",
        "android.intent.action.PACKAGE_REMOVED",
        "android.intent.action.USER_PRESENT",
        "android.net.conn.CONNECTIVITY_CHANGE",
        "cn.jpush.android.intent.NOTIFICATION_RECEIVED_PROXY",
        "com.alibaba.sdk.android.hotpatch.action.HOT_PATCH",
        "com.hujiang.cctalk.intent.action.MYOPENCLASS_CHANGE",
        "com.hujiang.cctalk.service.MESSAGE_NOTIFY",
        "com.hujiang.cctalk.services.enterroom",
        "com.hujiang.cctalk.services.enterroom_fail",
        "com.hujiang.cctalk.services.enterroom_ok",
        "com.hujiang.cctalk.services.leaveroom",
        "com.hujiang.cctalk.services.leaveroom_fail",
        "com.hujiang.cctalk.services.leaveroom_ok",
        "com.hujiang.cctalk.services.login",
        "com.hujiang.cctalk.services.login_ok",
        "com.hujiang.cctalk.services.quiz",
        "com.hujiang.pushsdk.receive.MESSAGE_RECEIVE",
        "com.hujiang.pushsdk.receive.OPENED",
        "com.hujiang.pushsdk.receive.REGISTER_ID",
        "com.hujiang.pushsdk.receive.SET_SUCCESS",
        "com.tencent.mm.plugin.openapi.Intent.ACTION_REFRESH_WXAPP",
        "com.xiaomi.mipush.ERROR",
        "com.xiaomi.mipush.RECEIVE_MESSAGE",
        "com.xiaomi.push.PING_TIMER"
      ],
      "dependencies": [
        "com.tencent.stat",
        "com.umeng.analytics",
        "com_crashlytics_"
      ],
      "domainNamesFilteredByExodus": [
        ".google.com",
        "alog.umeng.com",
        "map.qq.com",
        "umeng.com"
      ],
      "metaDataNames": [
        "ANS_APPKEY",
        "ANS_CHANNEL",
        "HJ_APP_SOURCE",
        "HJ_LOGIN_KEY",
        "HJ_LOGIN_SECRET",
        "HJ_PACKAGE_NAME",
        "HJ_QQ_KEY",
        "HJ_QQ_SCOPE",
        "HJ_REGISTER_SOURCE",
        "HJ_WEIBO_KEY",
        "HJ_WEIBO_SCOPE",
        "HJ_WEIBO_URL",
        "HJ_WEIXIN_KEY",
        "HJ_WEIXIN_SCOPE",
        "HJ_WEIXIN_SECRET",
        "JPUSH_APPKEY",
        "JPUSH_CHANNEL",
        "MIPUSH_APPID",
        "MIPUSH_APPKEY",
        "UMENG_APPKEY",
        "UMENG_CHANNEL",
        "VERSION_UPGRADE_BROADCAST"
      ],
      "sha256": "6317289e8edf771caf8904e31792b6a6c37528b763196553e59809e023b1de2f",
      "usesPermissions": [
        "ANDROID.PERMISSION.WRITE_APN_SETTINGS",
        "android.permission.ACCESS_COARSE_LOCATION",
        "android.permission.ACCESS_FINE_LOCATION",
        "android.permission.ACCESS_LOCATION_EXTRA_COMMANDS",
        "android.permission.ACCESS_NETWORK_STATE",
        "android.permission.ACCESS_WIFI_STATE",
        "android.permission.BLUETOOTH",
        "android.permission.CAMERA",
        "android.permission.CHANGE_NETWORK_STATE",
        "android.permission.CHANGE_WIFI_STATE",
        "android.permission.GET_TASKS",
        "android.permission.INTERNET",
        "android.permission.MODIFY_AUDIO_SETTINGS",
        "android.permission.MODIFY_AUDIO_SETTINGS",
        "android.permission.MOUNT_UNMOUNT_FILESYSTEMS",
        "android.permission.READ_EXTERNAL_STORAGE",
        "android.permission.READ_LOGS",
        "android.permission.READ_PHONE_STATE",
        "android.permission.READ_SETTINGS",
        "android.permission.READ_SMS",
        "android.permission.RECEIVE_BOOT_COMPLETED",
        "android.permission.RECEIVE_SMS",
        "android.permission.RECEIVE_USER_PRESENT",
        "android.permission.RECORD_AUDIO",
        "android.permission.SET_TIME_ZONE",
        "android.permission.SYSTEM_ALERT_WINDOW",
        "android.permission.VIBRATE",
        "android.permission.WAKE_LOCK",
        "android.permission.WRITE_EXTERNAL_STORAGE",
        "android.permission.WRITE_SETTINGS",
        "com.hujiang.cctalk.permission.JPUSH_MESSAGE",
        "com.hujiang.cctalk.permission.MIPUSH_RECEIVE"
      ]
    }
  ],
  "meta": {
    "generated": "2020-08-27T15:49:32.999921",
    "generatedBy": [
      "/home/hc/code/trackingthetrackers/scripts/make-trackers-apk-set.py"
    ],
    "ver": "0.3.0"
  }
}