{
  "apks": [
    {
      "applicationId": "org.tasks",
      "broadcastReceiverIntentFilterActionNames": [
        "android.appwidget.action.APPWIDGET_UPDATE",
        "android.intent.action.BOOT_COMPLETED",
        "android.intent.action.MY_PACKAGE_REPLACED",
        "android.intent.action.PHONE_STATE",
        "android.intent.action.QUICKBOOT_POWERON",
        "com.evernote.android.job.v14.RUN_JOB",
        "com.htc.intent.action.QUICKBOOT_POWERON",
        "com.todoroo.astrid.widget.TasksWidget.COMPLETE_TASK",
        "com.todoroo.astrid.widget.TasksWidget.EDIT_TASK",
        "com.twofortyfouram.locale.intent.action.FIRE_SETTING",
        "net.vrallev.android.job.v14.RUN_JOB"
      ],
      "dependencies": [],
      "domainNamesFilteredByExodus": [],
      "metaDataNames": [
        "android.appwidget.provider",
        "android.support.FILE_PROVIDER_PATHS",
        "description",
        "protocolVersion",
        "settingsActivity",
        "worldReadable"
      ],
      "sha256": "e1056dab4d6ec1b1d19c7f8b8c25aa3b2398ac6111653cd5e84a67b9e4d274ae",
      "usesPermissions": [
        "android.permission.ACCESS_NETWORK_STATE",
        "android.permission.INTERNET",
        "android.permission.READ_APP_BADGE",
        "android.permission.READ_CALENDAR",
        "android.permission.READ_CALL_LOG",
        "android.permission.READ_CONTACTS",
        "android.permission.READ_PHONE_STATE",
        "android.permission.RECEIVE_BOOT_COMPLETED",
        "android.permission.RECORD_AUDIO",
        "android.permission.VIBRATE",
        "android.permission.WAKE_LOCK",
        "android.permission.WRITE_CALENDAR",
        "android.permission.WRITE_EXTERNAL_STORAGE",
        "com.anddoes.launcher.permission.UPDATE_COUNT",
        "com.android.launcher.permission.INSTALL_SHORTCUT",
        "com.android.vending.BILLING",
        "com.htc.launcher.permission.READ_SETTINGS",
        "com.htc.launcher.permission.UPDATE_SHORTCUT",
        "com.huawei.android.launcher.permission.CHANGE_BADGE",
        "com.huawei.android.launcher.permission.READ_SETTINGS",
        "com.huawei.android.launcher.permission.WRITE_SETTINGS",
        "com.majeur.launcher.permission.UPDATE_BADGE",
        "com.oppo.launcher.permission.READ_SETTINGS",
        "com.oppo.launcher.permission.WRITE_SETTINGS",
        "com.sec.android.provider.badge.permission.READ",
        "com.sec.android.provider.badge.permission.WRITE",
        "com.sonyericsson.home.permission.BROADCAST_BADGE",
        "com.sonymobile.home.permission.PROVIDER_INSERT_BADGE",
        "me.everything.badger.permission.BADGE_COUNT_READ",
        "me.everything.badger.permission.BADGE_COUNT_WRITE",
        "org.dmfs.permission.READ_TASKS",
        "org.dmfs.permission.WRITE_TASKS",
        "org.tasks.permission.READ_TASKS"
      ]
    }
  ],
  "meta": {
    "generated": "2020-08-27T18:37:44.834414",
    "generatedBy": [
      "/home/hc/code/trackingthetrackers/scripts/make-clean-apk-set.py"
    ],
    "generatedByCommitId": "3839559c80042252d3b947fb61c86a18e8b31114",
    "sourceDataCommitId": "888bb8f8c77ff55105fcab2ad84c263561eb1169",
    "ver": "0.3.0"
  }
}