{
  "apks": [
    {
      "applicationId": "com.eventyay.organizer",
      "broadcastReceiverIntentFilterActionNames": [
        "android.intent.action.ACTION_POWER_CONNECTED",
        "android.intent.action.ACTION_POWER_DISCONNECTED",
        "android.intent.action.BATTERY_LOW",
        "android.intent.action.BATTERY_OKAY",
        "android.intent.action.BOOT_COMPLETED",
        "android.intent.action.DEVICE_STORAGE_LOW",
        "android.intent.action.DEVICE_STORAGE_OK",
        "android.intent.action.TIMEZONE_CHANGED",
        "android.intent.action.TIME_SET",
        "android.net.conn.CONNECTIVITY_CHANGE",
        "androidx.work.impl.background.systemalarm.UpdateProxies"
      ],
      "dependencies": [],
      "domainNamesFilteredByExodus": [
        ".google.com"
      ],
      "metaDataNames": [
        "com.bumptech.glide.integration.okhttp3.OkHttpGlideModule",
        "com.google.android.geo.API_KEY"
      ],
      "sha256": "32897ecd8a3ec0dcb9df7c8218cb7a6d9ce2707e5c27ec206e5ba8a9fc27329a",
      "usesPermissions": [
        "android.permission.ACCESS_NETWORK_STATE",
        "android.permission.CAMERA",
        "android.permission.INTERNET",
        "android.permission.RECEIVE_BOOT_COMPLETED",
        "android.permission.WAKE_LOCK"
      ]
    }
  ],
  "meta": {
    "generated": "2020-08-27T14:45:35.885264",
    "generatedBy": [
      "/home/hc/code/trackingthetrackers/scripts/make-trackers-apk-set.py"
    ],
    "ver": "0.3.0"
  }
}