{
  "apks": [
    {
      "applicationId": "com.branduapps.kfc.hd_cars_lwp",
      "broadcastReceiverIntentFilterActionNames": [
        "android.intent.action.BOOT_COMPLETED"
      ],
      "dependencies": [
        "com.google.ads.",
        "com.google.android.gms.ads.",
        "com.google.android.gms.analytics.",
        "com.google.android.gms.tagmanager",
        "com.pollfish"
      ],
      "domainNamesFilteredByExodus": [
        ".google.com",
        "beta.airpush.com",
        "doubleclick.net",
        "google-analytics.com",
        "www.googletagmanager.com"
      ],
      "metaDataNames": [
        "android.service.wallpaper",
        "com.google.android.gms.version",
        "com.ijvncbxxu.pvbgtrcam92576.APIKEY",
        "com.ijvncbxxu.pvbgtrcam92576.APPID"
      ],
      "sha256": "da3f66f0044fc541cd472f46426cc9b693a53bbf6465c252f46b47fd8465e590",
      "usesPermissions": [
        "android.permission.ACCESS_COARSE_LOCATION",
        "android.permission.ACCESS_FINE_LOCATION",
        "android.permission.ACCESS_NETWORK_STATE",
        "android.permission.ACCESS_NETWORK_STATE",
        "android.permission.ACCESS_WIFI_STATE",
        "android.permission.ACCESS_WIFI_STATE",
        "android.permission.GET_ACCOUNTS",
        "android.permission.GET_TASKS",
        "android.permission.INTERNET",
        "android.permission.INTERNET",
        "android.permission.INTERNET",
        "android.permission.READ_PHONE_STATE",
        "android.permission.READ_PHONE_STATE",
        "android.permission.RECEIVE_BOOT_COMPLETED",
        "android.permission.SYSTEM_ALERT_WINDOW",
        "android.permission.WRITE_EXTERNAL_STORAGE",
        "com.android.browser.permission.READ_HISTORY_BOOKMARKS",
        "com.android.launcher.permission.INSTALL_SHORTCUT"
      ]
    }
  ],
  "meta": {
    "generated": "2020-08-27T14:49:17.330059",
    "generatedBy": [
      "/home/hc/code/trackingthetrackers/scripts/make-trackers-apk-set.py"
    ],
    "ver": "0.3.0"
  }
}