{
  "apks": [
    {
      "applicationId": "info.meoblast001.thugaim",
      "broadcastReceiverIntentFilterActionNames": [],
      "dependencies": [],
      "domainNamesFilteredByExodus": [],
      "metaDataNames": [],
      "sha256": "8886234e9fa97bd44968cacde60598742fb68d2d7ebd538744c4855ab4a619fb",
      "usesPermissions": []
    }
  ],
  "meta": {
    "generated": "2020-08-27T17:03:21.960632",
    "generatedBy": [
      "/home/hc/code/trackingthetrackers/scripts/make-clean-apk-set.py"
    ],
    "generatedByCommitId": "40519285d6f404593fa655fa89b433743c25289e",
    "sourceDataCommitId": "888bb8f8c77ff55105fcab2ad84c263561eb1169",
    "ver": "0.3.0"
  }
}