{
  "apks": [
    {
      "applicationId": "it.pinkyapp.alphabet.galinha.coloring",
      "broadcastReceiverIntentFilterActionNames": [
        "android.intent.action.PACKAGE_ADDED",
        "com.google.android.gms.wallet.ENABLE_WALLET_OPTIMIZATION"
      ],
      "dependencies": [
        "com$facebook$login",
        "com$facebook$share",
        "com$startapp$android$publish",
        "com.facebook.appevents",
        "com.facebook.login",
        "com.facebook.share",
        "com.google.ads.",
        "com.google.android.gms.ads.",
        "com.google.android.gms.analytics.",
        "com.google.android.gms.tagmanager",
        "com.kidoz.sdk",
        "com.startapp.android.publish",
        "com_facebook_login",
        "com_facebook_share"
      ],
      "domainNamesFilteredByExodus": [
        ".facebook.com",
        ".google.com",
        "doubleclick.net",
        "google-analytics.com",
        "loggly.com",
        "www.googletagmanager.com"
      ],
      "metaDataNames": [
        "android.support.PARENT_ACTIVITY",
        "com.facebook.sdk.ApplicationId",
        "com.google.android.gms.version",
        "com.google.android.gms.wallet.api.enabled"
      ],
      "sha256": "30a8267d59cc3099950046c081804f4344431db8bace1ee4a7470b5c9c37c871",
      "usesPermissions": [
        "android.permission.ACCESS_COARSE_LOCATION",
        "android.permission.ACCESS_NETWORK_STATE",
        "android.permission.ACCESS_WIFI_STATE",
        "android.permission.GET_ACCOUNTS",
        "android.permission.INTERNET",
        "android.permission.USE_CREDENTIALS",
        "android.permission.WRITE_EXTERNAL_STORAGE",
        "com.android.vending.BILLING"
      ]
    }
  ],
  "meta": {
    "generated": "2020-08-27T15:37:18.286069",
    "generatedBy": [
      "/home/hc/code/trackingthetrackers/scripts/make-trackers-apk-set.py"
    ],
    "ver": "0.3.0"
  }
}