{
  "apks": [
    {
      "applicationId": "com.robo.union.gw",
      "broadcastReceiverIntentFilterActionNames": [
        "android.intent.action.BOOT_COMPLETED",
        "android.intent.action.USER_PRESENT"
      ],
      "dependencies": [
        "com.google.ads."
      ],
      "domainNamesFilteredByExodus": [
        ".google.com",
        "doubleclick.net"
      ],
      "metaDataNames": [],
      "sha256": "41bb5c6d3ed7392873d614fd3bb23e079db5a0df66c9432c8dc0d411588b90ba",
      "usesPermissions": [
        "android.permission.ACCESS_NETWORK_STATE",
        "android.permission.ACCESS_WIFI_STATE",
        "android.permission.GET_TASKS",
        "android.permission.INTERNET",
        "android.permission.READ_PHONE_STATE",
        "android.permission.WRITE_EXTERNAL_STORAGE"
      ]
    }
  ],
  "meta": {
    "generated": "2020-08-27T15:24:52.779289",
    "generatedBy": [
      "/home/hc/code/trackingthetrackers/scripts/make-trackers-apk-set.py"
    ],
    "ver": "0.3.0"
  }
}