{
  "apks": [
    {
      "applicationId": "com.kovalsky.diygreenhouse",
      "broadcastReceiverIntentFilterActionNames": [
        "android.net.conn.CONNECTIVITY_CHANGE",
        "com.android.vending.INSTALL_REFERRER"
      ],
      "dependencies": [
        "com$mopub$mobileads$",
        "com.flurry.",
        "com.google.ads.",
        "com.google.android.gms.ads.",
        "com.google.android.gms.analytics.",
        "com.google.android.gms.tagmanager",
        "com.mobileapptracker",
        "com.mopub.mobileads.",
        "ly$count$android$",
        "ly.count.android."
      ],
      "domainNamesFilteredByExodus": [
        ".google.com",
        "doubleclick.net",
        "flurry.com",
        "google-analytics.com",
        "mobileapptracking.com",
        "mopub.com",
        "www.googletagmanager.com"
      ],
      "metaDataNames": [
        "com.google.android.gms.version"
      ],
      "sha256": "f7f11b39acd63202e772264c73dd32c5d3f96d354f167ac6661d2f69e4c5a502",
      "usesPermissions": [
        "android.permission.ACCESS_COARSE_LOCATION",
        "android.permission.ACCESS_NETWORK_STATE",
        "android.permission.ACCESS_WIFI_STATE",
        "android.permission.GET_ACCOUNTS",
        "android.permission.GET_TASKS",
        "android.permission.INTERNET",
        "android.permission.READ_CONTACTS",
        "android.permission.READ_LOGS",
        "android.permission.READ_PHONE_STATE",
        "android.permission.RECEIVE_BOOT_COMPLETED",
        "android.permission.SYSTEM_ALERT_WINDOW",
        "android.permission.WAKE_LOCK",
        "android.permission.WRITE_EXTERNAL_STORAGE"
      ]
    }
  ],
  "meta": {
    "generated": "2020-08-27T15:33:55.439710",
    "generatedBy": [
      "/home/hc/code/trackingthetrackers/scripts/make-trackers-apk-set.py"
    ],
    "ver": "0.3.0"
  }
}