{
  "apks": [
    {
      "applicationId": "com.androidarmour.security",
      "broadcastReceiverIntentFilterActionNames": [
        "android.intent.action.BOOT_COMPLETED",
        "android.intent.action.PACKAGE_ADDED",
        "android.intent.action.PACKAGE_REMOVED",
        "android.provider.Telephony.SMS_RECEIVED",
        "com.android.vending.INSTALL_REFERRER",
        "com.androidarmour.notification.NOTIFICATION_CLEARED",
        "com.androidarmour.notification.NOTIFICATION_CLICKED",
        "com.androidarmour.security.SCAN",
        "com.androidarmour.security.THREAT_NOTIFICATION",
        "com.androidarmour.security.notification.action.ALARM",
        "com.androidarmour.security.notification.action.CANCEL",
        "com.androidarmour.security.notification.action.CLICKED",
        "com.google.android.c2dm.intent.RECEIVE",
        "com.google.android.c2dm.intent.REGISTRATION"
      ],
      "dependencies": [
        "com.mixpanel."
      ],
      "domainNamesFilteredByExodus": [
        "api.mixpanel.com",
        "mixpanel.com"
      ],
      "metaDataNames": [],
      "sha256": "10376f0ed64b14db233080b6b450a53d41a5275a1e5f4195f4fa38a459cfd889",
      "usesPermissions": [
        "android.permission.ACCESS_NETWORK_STATE",
        "android.permission.ACCESS_WIFI_STATE",
        "android.permission.CLEAR_APP_CACHE",
        "android.permission.GET_ACCOUNTS",
        "android.permission.GET_PACKAGE_SIZE",
        "android.permission.INTERNET",
        "android.permission.KILL_BACKGROUND_PROCESSES",
        "android.permission.READ_CONTACTS",
        "android.permission.READ_LOGS",
        "android.permission.READ_PHONE_STATE",
        "android.permission.READ_SMS",
        "android.permission.RECEIVE_BOOT_COMPLETED",
        "android.permission.RECEIVE_SMS",
        "android.permission.RESTART_PACKAGES",
        "android.permission.SEND_SMS",
        "android.permission.VIBRATE",
        "android.permission.WAKE_LOCK",
        "android.permission.WRITE_CONTACTS",
        "android.permission.WRITE_EXTERNAL_STORAGE",
        "android.permission.WRITE_SMS",
        "com.android.browser.permission.READ_HISTORY_BOOKMARKS",
        "com.android.browser.permission.WRITE_HISTORY_BOOKMARKS",
        "com.androidarmour.security.permission.C2D_MESSAGE",
        "com.google.android.c2dm.permission.RECEIVE"
      ]
    }
  ],
  "meta": {
    "generated": "2020-08-27T15:37:10.920071",
    "generatedBy": [
      "/home/hc/code/trackingthetrackers/scripts/make-trackers-apk-set.py"
    ],
    "ver": "0.3.0"
  }
}