{
  "apks": [
    {
      "applicationId": "com.nononsenseapps.feeder",
      "broadcastReceiverIntentFilterActionNames": [],
      "dependencies": [],
      "domainNamesFilteredByExodus": [
        ".google.com"
      ],
      "metaDataNames": [
        "android.accounts.AccountAuthenticator",
        "android.content.SyncAdapter",
        "android.support.PARENT_ACTIVITY",
        "com.bumptech.glide.integration.okhttp3.OkHttpGlideModule"
      ],
      "sha256": "15b83966d6804f6fba6ddb226a3116f9dc7b3e156711055eea8eaa1464773313",
      "usesPermissions": [
        "android.permission.INTERNET",
        "android.permission.READ_EXTERNAL_STORAGE",
        "android.permission.READ_SYNC_SETTINGS",
        "android.permission.WRITE_EXTERNAL_STORAGE",
        "android.permission.WRITE_SYNC_SETTINGS"
      ]
    }
  ],
  "meta": {
    "generated": "2020-08-27T17:43:35.384230",
    "generatedBy": [
      "/home/hc/code/trackingthetrackers/scripts/make-clean-apk-set.py"
    ],
    "generatedByCommitId": "40519285d6f404593fa655fa89b433743c25289e",
    "sourceDataCommitId": "888bb8f8c77ff55105fcab2ad84c263561eb1169",
    "ver": "0.3.0"
  }
}