{
  "apks": [
    {
      "applicationId": "org.pocketworkstation.pckeyboard",
      "broadcastReceiverIntentFilterActionNames": [],
      "dependencies": [],
      "domainNamesFilteredByExodus": [
        ".google.com"
      ],
      "metaDataNames": [
        "android.view.im"
      ],
      "sha256": "f71224554686f65f4ee56808cd291fa6d746431dc977f83a16b63b61d1f13750",
      "usesPermissions": [
        "android.permission.READ_USER_DICTIONARY",
        "android.permission.VIBRATE",
        "android.permission.WRITE_USER_DICTIONARY"
      ]
    }
  ],
  "meta": {
    "generated": "2020-08-27T18:33:55.624967",
    "generatedBy": [
      "/home/hc/code/trackingthetrackers/scripts/make-clean-apk-set.py"
    ],
    "generatedByCommitId": "3839559c80042252d3b947fb61c86a18e8b31114",
    "sourceDataCommitId": "888bb8f8c77ff55105fcab2ad84c263561eb1169",
    "ver": "0.3.0"
  }
}