{
  "apks": [
    {
      "applicationId": "com.kanedias.vanilla.lyrics",
      "broadcastReceiverIntentFilterActionNames": [
        "ch.blinkenlights.android.vanilla.action.REQUEST_PLUGIN_PARAMS"
      ],
      "dependencies": [],
      "domainNamesFilteredByExodus": [],
      "metaDataNames": [],
      "sha256": "f0beaad00aa0a1d61f815aa7ba3e94791a58e01c18ea19005732e0747dba54f2",
      "usesPermissions": [
        "android.permission.INTERNET"
      ]
    }
  ],
  "meta": {
    "generated": "2020-08-27T17:35:31.700150",
    "generatedBy": [
      "/home/hc/code/trackingthetrackers/scripts/make-clean-apk-set.py"
    ],
    "generatedByCommitId": "40519285d6f404593fa655fa89b433743c25289e",
    "sourceDataCommitId": "888bb8f8c77ff55105fcab2ad84c263561eb1169",
    "ver": "0.3.0"
  }
}