{
  "apks": [
    {
      "applicationId": "fr.neamar.kiss",
      "broadcastReceiverIntentFilterActionNames": [
        "android.intent.action.LOCALE_CHANGED",
        "android.intent.action.PHONE_STATE",
        "com.android.launcher.action.INSTALL_SHORTCUT",
        "com.android.launcher.action.UNINSTALL_SHORTCUT"
      ],
      "dependencies": [],
      "domainNamesFilteredByExodus": [
        ".google.com"
      ],
      "metaDataNames": [
        "android.max_aspect",
        "android.support.PARENT_ACTIVITY",
        "com.android.systemui.action_assist_icon"
      ],
      "sha256": "9fe9bc4ff548b24b0cb526f64a3fc1fd04c84fd0c72d99e506bb3411af15929b",
      "usesPermissions": [
        "android.permission.CALL_PHONE",
        "android.permission.EXPAND_STATUS_BAR",
        "android.permission.READ_CONTACTS",
        "android.permission.READ_PHONE_STATE",
        "android.permission.REQUEST_DELETE_PACKAGES"
      ]
    }
  ],
  "meta": {
    "generated": "2020-08-27T18:10:55.854337",
    "generatedBy": [
      "/home/hc/code/trackingthetrackers/scripts/make-clean-apk-set.py"
    ],
    "generatedByCommitId": "3839559c80042252d3b947fb61c86a18e8b31114",
    "sourceDataCommitId": "888bb8f8c77ff55105fcab2ad84c263561eb1169",
    "ver": "0.3.0"
  }
}