{
  "apks": [
    {
      "applicationId": "com.stimeglobal.golf",
      "broadcastReceiverIntentFilterActionNames": [
        "android.intent.action.BOOT_COMPLETED",
        "com.google.android.c2dm.intent.RECEIVE",
        "com.google.android.c2dm.intent.REGISTRATION"
      ],
      "dependencies": [
        "com$fsn$cauly",
        "com$google$tagmanager",
        "com$millennialmedia$",
        "com.admixer",
        "com.fsn.cauly",
        "com.google.ads.",
        "com.google.android.gms.analytics.",
        "com.google.tagmanager",
        "com.inmobi",
        "com.jm.co.shallwead.sdk.",
        "com.mediba.jp",
        "com.millennialmedia.",
        "com.mobclix.android.sdk",
        "com.skplanet.tad",
        "com.trid.tridad",
        "mediba.ad.sdk.android.openx"
      ],
      "domainNamesFilteredByExodus": [
        ".facebook.com",
        ".google.com",
        "admixer.co.kr",
        "adotsolution.com",
        "ads.mobclix.com",
        "data.mobclix.com",
        "doubleclick.net",
        "google-analytics.com",
        "i.w.inmobi.com",
        "inmobi.com",
        "inmobisdk-a.akamaihd.net",
        "millennialmedia.com",
        "mobclix.com",
        "www.googletagmanager.com"
      ],
      "metaDataNames": [
        "ShallWeAd_AppKey"
      ],
      "sha256": "f70b0ac8492b350d281f62399b7512c81d4f4fb887185ec8ca88eed8faf55a78",
      "usesPermissions": [
        "android.permission.ACCESS_COARSE_LOCATION",
        "android.permission.ACCESS_FINE_LOCATION",
        "android.permission.ACCESS_NETWORK_STATE",
        "android.permission.ACCESS_WIFI_STATE",
        "android.permission.CALL_PHONE",
        "android.permission.GET_ACCOUNTS",
        "android.permission.GET_TASKS",
        "android.permission.INTERNET",
        "android.permission.READ_CONTACTS",
        "android.permission.READ_EXTERNAL_STORAGE",
        "android.permission.READ_PHONE_STATE",
        "android.permission.RECEIVE_BOOT_COMPLETED",
        "android.permission.RESTART_PACKAGES",
        "android.permission.SEND_MAIL",
        "android.permission.VIBRATE",
        "android.permission.WAKE_LOCK",
        "android.permission.WRITE_EXTERNAL_STORAGE",
        "com.android.browser.permission.WRITE_HISTORY_BOOKMARKS",
        "com.android.launcher.permission.INSTALL_SHORTCUT",
        "com.google.android.c2dm.permission.RECEIVE",
        "com.google.android.providers.gsf.permission.READ_GSERVICES",
        "com.stimeglobal.golf.permission.C2D_MESSAGE"
      ]
    }
  ],
  "meta": {
    "generated": "2020-08-27T15:22:47.808617",
    "generatedBy": [
      "/home/hc/code/trackingthetrackers/scripts/make-trackers-apk-set.py"
    ],
    "ver": "0.3.0"
  }
}