{
  "apks": [
    {
      "applicationId": "com.magicartgames.breakbrick3d",
      "broadcastReceiverIntentFilterActionNames": [
        "com.android.vending.INSTALL_REFERRER",
        "com.inmobi.share.id"
      ],
      "dependencies": [
        "com$facebook$ads",
        "com$mopub$mobileads$",
        "com$unity3d$ads",
        "com.amazon.device.ads",
        "com.applovin",
        "com.appodeal.ads.",
        "com.chartboost.sdk.",
        "com.facebook.ads",
        "com.google.ads.",
        "com.google.android.gms.ads.",
        "com.google.android.gms.analytics.",
        "com.google.android.gms.measurement.",
        "com.google.android.gms.tagmanager",
        "com.inmobi",
        "com.mopub.mobileads.",
        "com.startapp.android.publish",
        "com.unity3d.ads",
        "com.yandex.metrica.",
        "org.nexage."
      ],
      "domainNamesFilteredByExodus": [
        ".chartboost.com",
        ".facebook.com",
        ".google.com",
        "adcolony.com",
        "androidads21.adcolony.com",
        "api.vungle.com",
        "applovin.com",
        "appodeal.com",
        "appodealx.com",
        "config.inmobi.com",
        "doubleclick.net",
        "google-analytics.com",
        "i.w.inmobi.com",
        "ingest.vungle.com",
        "inmobi.com",
        "inmobisdk-a.akamaihd.net",
        "mopub.com",
        "sdkm.w.inmobi.com",
        "startup.mobile.yandex.net",
        "stats.unity3d.com",
        "w.inmobi.com",
        "www.googletagmanager.com"
      ],
      "metaDataNames": [
        "com.appodeal.framework",
        "com.google.android.gms.version",
        "metrica:api:level",
        "unityplayer.ForwardNativeEventsToDalvik",
        "unityplayer.UnityActivity"
      ],
      "sha256": "8dd7a73f07ef2207b3ffc9747d778b9172f26f60f9ea807f308edfb12574a46e",
      "usesPermissions": [
        "android.permission.ACCESS_COARSE_LOCATION",
        "android.permission.ACCESS_NETWORK_STATE",
        "android.permission.GET_ACCOUNTS",
        "android.permission.GET_TASKS",
        "android.permission.INTERNET",
        "android.permission.VIBRATE",
        "android.permission.WAKE_LOCK",
        "android.permission.WRITE_EXTERNAL_STORAGE",
        "com.android.vending.CHECK_LICENSE",
        "com.google.android.c2dm.permission.RECEIVE",
        "com.magicartgames.breakbrick3d.permission.C2D_MESSAGE"
      ]
    }
  ],
  "meta": {
    "generated": "2020-08-27T15:37:16.610209",
    "generatedBy": [
      "/home/hc/code/trackingthetrackers/scripts/make-trackers-apk-set.py"
    ],
    "ver": "0.3.0"
  }
}