{
  "apks": [
    {
      "applicationId": "org.billthefarmer.scope",
      "broadcastReceiverIntentFilterActionNames": [],
      "dependencies": [],
      "domainNamesFilteredByExodus": [],
      "metaDataNames": [],
      "sha256": "4cb152c03c0a398b215cbc98c634fa9df96b3428451002c9c50fa490460aa343",
      "usesPermissions": [
        "android.permission.RECORD_AUDIO"
      ]
    }
  ],
  "meta": {
    "generated": "2020-08-27T18:23:29.884179",
    "generatedBy": [
      "/home/hc/code/trackingthetrackers/scripts/make-clean-apk-set.py"
    ],
    "generatedByCommitId": "3839559c80042252d3b947fb61c86a18e8b31114",
    "sourceDataCommitId": "888bb8f8c77ff55105fcab2ad84c263561eb1169",
    "ver": "0.3.0"
  }
}