{
  "apks": [
    {
      "applicationId": "ch.logixisland.anuto",
      "broadcastReceiverIntentFilterActionNames": [],
      "dependencies": [],
      "domainNamesFilteredByExodus": [],
      "metaDataNames": [],
      "sha256": "d37a5c1ead7da65a5455d050ec769d391bbda4b5c899d18efc8add8334c56725",
      "usesPermissions": []
    }
  ],
  "meta": {
    "generated": "2020-08-27T17:13:20.488498",
    "generatedBy": [
      "/home/hc/code/trackingthetrackers/scripts/make-clean-apk-set.py"
    ],
    "generatedByCommitId": "40519285d6f404593fa655fa89b433743c25289e",
    "sourceDataCommitId": "888bb8f8c77ff55105fcab2ad84c263561eb1169",
    "ver": "0.3.0"
  }
}