{
  "apks": [
    {
      "applicationId": "new.kw14105",
      "broadcastReceiverIntentFilterActionNames": [
        "com.google.android.c2dm.intent.RECEIVE"
      ],
      "dependencies": [
        "com.google.ads.",
        "com.google.android.gms.ads.",
        "com.google.android.gms.analytics.",
        "com.google.android.gms.tagmanager",
        "com.pollfish",
        "com.revmob.ads."
      ],
      "domainNamesFilteredByExodus": [
        ".facebook.com",
        ".google.com",
        "doubleclick.net",
        "google-analytics.com",
        "www.googletagmanager.com"
      ],
      "metaDataNames": [
        "android.app.default_searchable",
        "android.app.searchable",
        "com.google.android.gms.version",
        "com.google.android.maps.v2.API_KEY"
      ],
      "sha256": "3e50eab5cb2d5fbd7ea623b6f73931d98c37d923cae508265b1db2ead590ffd4",
      "usesPermissions": [
        "android.permission.ACCESS_NETWORK_STATE",
        "android.permission.ACCESS_WIFI_STATE",
        "android.permission.GET_ACCOUNTS",
        "android.permission.INTERNET",
        "com.google.android.c2dm.permission.RECEIVE",
        "new.kw14105.permission.C2D_MESSAGE"
      ]
    }
  ],
  "meta": {
    "generated": "2020-08-27T15:16:04.516364",
    "generatedBy": [
      "/home/hc/code/trackingthetrackers/scripts/make-trackers-apk-set.py"
    ],
    "ver": "0.3.0"
  }
}