{
  "apks": [
    {
      "applicationId": "com.farmerbb.taskbar",
      "broadcastReceiverIntentFilterActionNames": [
        "android.app.action.DEVICE_ADMIN_ENABLED",
        "android.intent.action.BOOT_COMPLETED",
        "android.intent.action.MY_PACKAGE_REPLACED",
        "android.intent.action.PACKAGE_FULLY_REMOVED",
        "com.farmerbb.taskbar.QUIT",
        "com.farmerbb.taskbar.RECEIVE_SETTINGS",
        "com.farmerbb.taskbar.SEND_SETTINGS",
        "com.farmerbb.taskbar.SHOW_HIDE_TASKBAR",
        "com.farmerbb.taskbar.START"
      ],
      "dependencies": [],
      "domainNamesFilteredByExodus": [
        ".google.com"
      ],
      "metaDataNames": [
        "android.accessibilityservice",
        "android.app.device_admin"
      ],
      "sha256": "51d8d300fe443e31d5432ca7174c04d20c2418e4735538ce28c94b6daaa7123e",
      "usesPermissions": [
        "android.permission.PACKAGE_USAGE_STATS",
        "android.permission.RECEIVE_BOOT_COMPLETED",
        "android.permission.SYSTEM_ALERT_WINDOW",
        "com.farmerbb.taskbar.SEND_RECEIVE_SETTINGS",
        "com.farmerbb.taskbar.START_STOP_TASKBAR"
      ]
    }
  ],
  "meta": {
    "generated": "2020-08-27T17:21:55.915123",
    "generatedBy": [
      "/home/hc/code/trackingthetrackers/scripts/make-clean-apk-set.py"
    ],
    "generatedByCommitId": "40519285d6f404593fa655fa89b433743c25289e",
    "sourceDataCommitId": "888bb8f8c77ff55105fcab2ad84c263561eb1169",
    "ver": "0.3.0"
  }
}