{
  "apks": [
    {
      "applicationId": "com.armstropoy.flashlight",
      "broadcastReceiverIntentFilterActionNames": [
        "android.appwidget.action.APPWIDGET_UPDATE",
        "android.intent.action.MEDIA_MOUNTED",
        "android.intent.action.PACKAGE_ADDED",
        "android.intent.action.USER_PRESENT",
        "com.armstropoy.flashlight.TOGGLE",
        "com.armstropoy.utils.action.BECDCBICDFIF"
      ],
      "dependencies": [
        "com.flurry.",
        "com.google.ads.",
        "com.millennialmedia."
      ],
      "domainNamesFilteredByExodus": [
        ".facebook.com",
        ".google.com",
        "flurry.com",
        "millennialmedia.com"
      ],
      "metaDataNames": [
        "android.appwidget.provider"
      ],
      "sha256": "32e914ea416f8edbaabaa714d3ae4f1cd55b10461d889ea35d8620201fbc2487",
      "usesPermissions": [
        "android.permission.ACCESS_NETWORK_STATE",
        "android.permission.ACCESS_WIFI_STATE",
        "android.permission.CAMERA",
        "android.permission.FLASHLIGHT",
        "android.permission.INTERNET",
        "android.permission.READ_PHONE_STATE",
        "android.permission.VIBRATE",
        "android.permission.WAKE_LOCK",
        "android.permission.WRITE_EXTERNAL_STORAGE",
        "com.android.launcher.permission.INSTALL_SHORTCUT",
        "com.android.launcher.permission.UNINSTALL_SHORTCUT"
      ]
    }
  ],
  "meta": {
    "generated": "2020-08-27T15:04:42.341157",
    "generatedBy": [
      "/home/hc/code/trackingthetrackers/scripts/make-trackers-apk-set.py"
    ],
    "ver": "0.3.0"
  }
}