{
  "apks": [
    {
      "applicationId": "com.iskrembilen.quasseldroid",
      "broadcastReceiverIntentFilterActionNames": [],
      "dependencies": [],
      "domainNamesFilteredByExodus": [
        ".google.com"
      ],
      "metaDataNames": [
        "WindowManagerPreference:FreeformWindowOrientation",
        "WindowManagerPreference:FreeformWindowSize",
        "android.support.FILE_PROVIDER_PATHS"
      ],
      "sha256": "46601cb80907389cd7f891739bf8bde12b360323643b304da1dbbfd15c1f9ab5",
      "usesPermissions": [
        "android.permission.ACCESS_NETWORK_STATE",
        "android.permission.FOREGROUND_SERVICE",
        "android.permission.INTERNET"
      ]
    }
  ],
  "meta": {
    "generated": "2020-08-27T17:33:00.198419",
    "generatedBy": [
      "/home/hc/code/trackingthetrackers/scripts/make-clean-apk-set.py"
    ],
    "generatedByCommitId": "40519285d6f404593fa655fa89b433743c25289e",
    "sourceDataCommitId": "888bb8f8c77ff55105fcab2ad84c263561eb1169",
    "ver": "0.3.0"
  }
}