{
  "apks": [
    {
      "applicationId": "com.zhangyou.ttycy",
      "broadcastReceiverIntentFilterActionNames": [
        "aspire.iap.SMS_DELIVERED_ACTION",
        "aspire.iap.SMS_SEND_ACTIOIN"
      ],
      "dependencies": [
        "org.cocos2dx"
      ],
      "domainNamesFilteredByExodus": [],
      "metaDataNames": [],
      "sha256": "10c3445e65006c9e904114e6394450dd3758ba8a770925fde4c71cd37c38f915",
      "usesPermissions": [
        "android.permission.INTERNET",
        "android.permission.MOUNT_UNMOUNT_FILESYSTEMS",
        "android.permission.READ_PHONE_STATE",
        "android.permission.SEND_SMS",
        "android.permission.WRITE_EXTERNAL_STORAGE"
      ]
    }
  ],
  "meta": {
    "generated": "2020-08-27T15:14:15.886398",
    "generatedBy": [
      "/home/hc/code/trackingthetrackers/scripts/make-trackers-apk-set.py"
    ],
    "ver": "0.3.0"
  }
}