{
  "apks": [
    {
      "applicationId": "net.sourceforge.servestream",
      "broadcastReceiverIntentFilterActionNames": [
        "android.appwidget.action.APPWIDGET_UPDATE",
        "android.intent.action.MEDIA_BUTTON",
        "android.media.AUDIO_BECOMING_NOISY",
        "net.sourceforge.servestream.ALARM_ALERT",
        "net.sourceforge.servestream.ALARM_KILLED",
        "net.sourceforge.servestream.CANCEL_SNOOZE",
        "net.sourceforge.servestream.metachanged",
        "net.sourceforge.servestream.playbackcomplete",
        "net.sourceforge.servestream.playbackstarted",
        "net.sourceforge.servestream.playstatechanged"
      ],
      "dependencies": [],
      "domainNamesFilteredByExodus": [
        ".google.com"
      ],
      "metaDataNames": [
        "android.appwidget.provider",
        "com.google.android.backup.api_key"
      ],
      "sha256": "232c06040736dd9fd47e1921cf5db3ff4a0f3ab516949c6faed1acec85767019",
      "usesPermissions": [
        "android.permission.ACCESS_NETWORK_STATE",
        "android.permission.BROADCAST_STICKY",
        "android.permission.INTERNET",
        "android.permission.READ_PHONE_STATE",
        "android.permission.VIBRATE",
        "android.permission.WAKE_LOCK",
        "android.permission.WRITE_EXTERNAL_STORAGE"
      ]
    }
  ],
  "meta": {
    "generated": "2020-08-27T18:19:25.881762",
    "generatedBy": [
      "/home/hc/code/trackingthetrackers/scripts/make-clean-apk-set.py"
    ],
    "generatedByCommitId": "3839559c80042252d3b947fb61c86a18e8b31114",
    "sourceDataCommitId": "888bb8f8c77ff55105fcab2ad84c263561eb1169",
    "ver": "0.3.0"
  }
}