{
  "apks": [
    {
      "applicationId": "com.fang.fangpedometer",
      "broadcastReceiverIntentFilterActionNames": [
        "android.intent.action.PACKAGE_ADDED",
        "android.intent.action.PACKAGE_INSTALL"
      ],
      "dependencies": [
        "net.youmi"
      ],
      "domainNamesFilteredByExodus": [
        "youmi.net"
      ],
      "metaDataNames": [
        "YOUMI_CHANNEL",
        "splashAnim"
      ],
      "sha256": "f4bd7f4463852780bfaa490214733488058271614e90312facfb2c538d0dad39",
      "usesPermissions": [
        "android.permission.ACCESS_NETWORK_STATE",
        "android.permission.ACCESS_WIFI_STATE",
        "android.permission.INTERNET",
        "android.permission.WAKE_LOCK",
        "android.permission.WRITE_EXTERNAL_STORAGE"
      ]
    }
  ],
  "meta": {
    "generated": "2020-08-27T15:23:13.804710",
    "generatedBy": [
      "/home/hc/code/trackingthetrackers/scripts/make-trackers-apk-set.py"
    ],
    "ver": "0.3.0"
  }
}