{
  "apks": [
    {
      "applicationId": "com.kunzisoft.keepass.libre",
      "broadcastReceiverIntentFilterActionNames": [],
      "dependencies": [],
      "domainNamesFilteredByExodus": [
        ".google.com"
      ],
      "metaDataNames": [
        "android.app.default_searchable",
        "android.app.searchable",
        "android.autofill",
        "android.support.FILE_PROVIDER_PATHS",
        "android.view.im",
        "com.google.android.backup.api_key",
        "com.sec.android.support.multiwindow"
      ],
      "sha256": "aa490e2c3e8fad854541bcc57af6ecc20fdfea2dc858a05dca638a10f1c8b94e",
      "usesPermissions": [
        "android.permission.USE_FINGERPRINT",
        "android.permission.VIBRATE",
        "android.permission.WRITE_EXTERNAL_STORAGE"
      ]
    }
  ],
  "meta": {
    "generated": "2020-08-27T17:35:46.178844",
    "generatedBy": [
      "/home/hc/code/trackingthetrackers/scripts/make-clean-apk-set.py"
    ],
    "generatedByCommitId": "40519285d6f404593fa655fa89b433743c25289e",
    "sourceDataCommitId": "888bb8f8c77ff55105fcab2ad84c263561eb1169",
    "ver": "0.3.0"
  }
}