{
  "apks": [
    {
      "applicationId": "org.fitchfamily.android.dejavu",
      "broadcastReceiverIntentFilterActionNames": [],
      "dependencies": [],
      "domainNamesFilteredByExodus": [],
      "metaDataNames": [
        "android.support.VERSION",
        "org.microg.nlp.API_VERSION",
        "org.microg.nlp.BACKEND_SUMMARY"
      ],
      "sha256": "3efab053bf5e10d67405ffe65f667a4dd9013ca0edef060777534446053af227",
      "usesPermissions": [
        "android.permission.ACCESS_COARSE_LOCATION",
        "android.permission.ACCESS_FINE_LOCATION",
        "android.permission.ACCESS_WIFI_STATE",
        "android.permission.CHANGE_WIFI_STATE"
      ]
    }
  ],
  "meta": {
    "generated": "2020-08-27T18:26:21.282296",
    "generatedBy": [
      "/home/hc/code/trackingthetrackers/scripts/make-clean-apk-set.py"
    ],
    "generatedByCommitId": "3839559c80042252d3b947fb61c86a18e8b31114",
    "sourceDataCommitId": "888bb8f8c77ff55105fcab2ad84c263561eb1169",
    "ver": "0.3.0"
  }
}