{
  "apks": [
    {
      "applicationId": "org.fox.tttrss",
      "broadcastReceiverIntentFilterActionNames": [
        "android.appwidget.action.APPWIDGET_UPDATE",
        "android.intent.action.BOOT_COMPLETED",
        "com.twofortyfouram.locale.intent.action.FIRE_SETTING",
        "com.twofortyfouram.locale.intent.action.QUERY_CONDITION",
        "org.fox.ttrss.WIDGET_FORCE_UPDATE"
      ],
      "dependencies": [],
      "domainNamesFilteredByExodus": [
        ".google.com"
      ],
      "metaDataNames": [
        "android.appwidget.provider",
        "com.google.android.backup.api_key",
        "description",
        "org.fox.ttrss.glide.OkHttpProgressGlideModule",
        "protocolVersion"
      ],
      "sha256": "352412f223c5ecdeacc7766c1d01fcd503100754b89ed5bc0b9252f11ef521b7",
      "usesPermissions": [
        "android.permission.ACCESS_NETWORK_STATE",
        "android.permission.INTERNET",
        "android.permission.RECEIVE_BOOT_COMPLETED",
        "android.permission.WAKE_LOCK",
        "android.permission.WRITE_EXTERNAL_STORAGE",
        "com.android.launcher.permission.INSTALL_SHORTCUT"
      ]
    }
  ],
  "meta": {
    "generated": "2020-08-27T17:05:29.054030",
    "generatedBy": [
      "/home/hc/code/trackingthetrackers/scripts/make-clean-apk-set.py"
    ],
    "generatedByCommitId": "40519285d6f404593fa655fa89b433743c25289e",
    "sourceDataCommitId": "888bb8f8c77ff55105fcab2ad84c263561eb1169",
    "ver": "0.3.0"
  }
}