{
  "apks": [
    {
      "applicationId": "com.changdu_embbdsfhzc",
      "broadcastReceiverIntentFilterActionNames": [
        "com.changdu.PushAppNotificationReceiver.PushAppNotification",
        "com.changdu.PushNotificationReceiver.PushNotification",
        "com.changdu.RepeatNotificationReceiver.RepeatNotification",
        "com.changdu.actionSmsSend",
        "com.changdu.addchapterInfo",
        "com.changdu.backupHistory",
        "com.changdu.restoreHistory",
        "com.changdu.zone.chapter.push.ChapterNotification",
        "com.changdu.zone.chapter.push.ChapterPush"
      ],
      "dependencies": [
        "com.tencent.stat",
        "com.tencent.weiyun",
        "com.umeng.analytics"
      ],
      "domainNamesFilteredByExodus": [
        "alog.umeng.com",
        "map.qq.com",
        "oc.umeng.com",
        "umeng.com"
      ],
      "metaDataNames": [
        "QHOPENSDK_APPID",
        "QHOPENSDK_APPKEY",
        "UMENG_APPKEY"
      ],
      "sha256": "a3683d24a2394bbb3541bde6e97604c9d3a11a53d45cc9e7e5b1ecd7977522bb",
      "usesPermissions": [
        "android.permission.ACCESS_COARSE_LOCATION",
        "android.permission.ACCESS_FINE_LOCATION",
        "android.permission.ACCESS_NETWORK_STATE",
        "android.permission.ACCESS_WIFI_STATE",
        "android.permission.CHANGE_CONFIGURATION",
        "android.permission.CHANGE_NETWORK_STATE",
        "android.permission.CHANGE_WIFI_STATE",
        "android.permission.GET_TASKS",
        "android.permission.INTERNET",
        "android.permission.PROCESS_OUTGOING_CALLS",
        "android.permission.READ_PHONE_STATE",
        "android.permission.SEND_SMS",
        "android.permission.SYSTEM_ALERT_WINDOW",
        "android.permission.VIBRATE",
        "android.permission.WAKE_LOCK",
        "android.permission.WRITE_EXTERNAL_STORAGE",
        "android.permission.WRITE_SETTINGS",
        "com.android.launcher.permission.INSTALL_SHORTCUT",
        "com.android.launcher.permission.READ_SETTINGS",
        "com.android.launcher.permission.UNINSTALL_SHORTCUT"
      ]
    }
  ],
  "meta": {
    "generated": "2020-08-27T15:12:54.608618",
    "generatedBy": [
      "/home/hc/code/trackingthetrackers/scripts/make-trackers-apk-set.py"
    ],
    "ver": "0.3.0"
  }
}