{
  "apks": [
    {
      "applicationId": "org.transdroid",
      "broadcastReceiverIntentFilterActionNames": [
        "android.appwidget.action.APPWIDGET_UPDATE",
        "android.intent.action.BOOT_COMPLETED"
      ],
      "dependencies": [],
      "domainNamesFilteredByExodus": [
        ".google.com"
      ],
      "metaDataNames": [
        "android.app.default_searchable",
        "android.app.searchable",
        "android.appwidget.provider"
      ],
      "sha256": "ebd51febc67ca05a3ac2f8fe8683b66e67fbc861e127c0edd096e3a24d52a13c",
      "usesPermissions": [
        "android.permission.INTERNET",
        "android.permission.RECEIVE_BOOT_COMPLETED",
        "android.permission.VIBRATE",
        "android.permission.WRITE_EXTERNAL_STORAGE"
      ]
    }
  ],
  "meta": {
    "generated": "2020-08-27T14:48:10.114719",
    "generatedBy": [
      "/home/hc/code/trackingthetrackers/scripts/make-trackers-apk-set.py"
    ],
    "ver": "0.3.0"
  }
}