{
  "apks": [
    {
      "applicationId": "com.kumars.bodybuilding.workouts",
      "broadcastReceiverIntentFilterActionNames": [],
      "dependencies": [],
      "domainNamesFilteredByExodus": [
        ".google.com",
        "api.airpush.com",
        "m.airpush.com"
      ],
      "metaDataNames": [
        "com.inapp.sdk.APIKEY",
        "com.inapp.sdk.APPID"
      ],
      "sha256": "ed4d54ad9ff33e8cf3cd37f9bde47cfe8fdc41ccb1afd551c2dbd82cf62f8ddf",
      "usesPermissions": [
        "android.permission.ACCESS_COARSE_LOCATION",
        "android.permission.ACCESS_FINE_LOCATION",
        "android.permission.ACCESS_NETWORK_STATE",
        "android.permission.ACCESS_WIFI_STATE",
        "android.permission.INTERNET",
        "android.permission.READ_PHONE_STATE",
        "android.permission.WRITE_EXTERNAL_STORAGE"
      ]
    }
  ],
  "meta": {
    "generated": "2020-08-27T15:04:48.690015",
    "generatedBy": [
      "/home/hc/code/trackingthetrackers/scripts/make-trackers-apk-set.py"
    ],
    "ver": "0.3.0"
  }
}