{
  "apks": [
    {
      "applicationId": "com.wTVALLCHANNEL",
      "broadcastReceiverIntentFilterActionNames": [
        "android.intent.action.BOOT_COMPLETED",
        "com.android.vending.INSTALL_REFERRER",
        "com.google.android.c2dm.intent.RECEIVE",
        "com.google.android.c2dm.intent.REGISTRATION",
        "com.inmobi.share.id"
      ],
      "dependencies": [
        "com$startapp$android$publish",
        "com.applovin",
        "com.chartboost.sdk.",
        "com.google.ads.",
        "com.google.android.gms.ads.",
        "com.google.android.gms.measurement.",
        "com.inmobi",
        "com.startapp.android.publish",
        "org.nexage."
      ],
      "domainNamesFilteredByExodus": [
        ".chartboost.com",
        ".facebook.com",
        ".google.com",
        "adcolony.com",
        "androidads23.adcolony.com",
        "applovin.com",
        "config.inmobi.com",
        "doubleclick.net",
        "i.w.inmobi.com",
        "inmobi.com",
        "inmobisdk-a.akamaihd.net",
        "sdkm.w.inmobi.com",
        "w.inmobi.com"
      ],
      "metaDataNames": [
        "applovin.sdk.key",
        "com.google.android.gms.version"
      ],
      "sha256": "5fa4c8ec2146448a35549763484fbe0596b256f9b0b20be85999b396de98f702",
      "usesPermissions": [
        "android.permission.ACCESS_NETWORK_STATE",
        "android.permission.INTERNET",
        "android.permission.READ_PHONE_STATE",
        "android.permission.RECEIVE_BOOT_COMPLETED",
        "android.permission.SYSTEM_ALERT_WINDOW",
        "android.permission.WAKE_LOCK",
        "android.permission.WRITE_EXTERNAL_STORAGE",
        "com.google.android.c2dm.permission.RECEIVE",
        "com.wTVALLCHANNEL.permission.C2D_MESSAGE"
      ]
    }
  ],
  "meta": {
    "generated": "2020-08-27T15:49:28.359193",
    "generatedBy": [
      "/home/hc/code/trackingthetrackers/scripts/make-trackers-apk-set.py"
    ],
    "ver": "0.3.0"
  }
}