{
  "apks": [
    {
      "applicationId": "com.jorgecastillo.kanadrill",
      "broadcastReceiverIntentFilterActionNames": [],
      "dependencies": [],
      "domainNamesFilteredByExodus": [],
      "metaDataNames": [],
      "sha256": "6ba39d2e7cd5d7d1f4915ad6b835ab3a45c00aa4bbbe715099a627b75a92c7ba",
      "usesPermissions": []
    }
  ],
  "meta": {
    "generated": "2020-08-27T17:34:07.262854",
    "generatedBy": [
      "/home/hc/code/trackingthetrackers/scripts/make-clean-apk-set.py"
    ],
    "generatedByCommitId": "40519285d6f404593fa655fa89b433743c25289e",
    "sourceDataCommitId": "888bb8f8c77ff55105fcab2ad84c263561eb1169",
    "ver": "0.3.0"
  }
}