{
  "apks": [
    {
      "applicationId": "de.nodomain.tobihille.seniorlauncher",
      "broadcastReceiverIntentFilterActionNames": [],
      "dependencies": [],
      "domainNamesFilteredByExodus": [],
      "metaDataNames": [],
      "sha256": "ae2025aa5fe8eb959f291f19beb02dc0f46bc8073f6bbca39577e2420776ebb1",
      "usesPermissions": [
        "android.permission.CALL_PHONE",
        "android.permission.READ_CONTACTS"
      ]
    }
  ],
  "meta": {
    "generated": "2020-08-27T17:02:13.849917",
    "generatedBy": [
      "/home/hc/code/trackingthetrackers/scripts/make-clean-apk-set.py"
    ],
    "generatedByCommitId": "40519285d6f404593fa655fa89b433743c25289e",
    "sourceDataCommitId": "888bb8f8c77ff55105fcab2ad84c263561eb1169",
    "ver": "0.3.0"
  }
}