{
  "apks": [
    {
      "applicationId": "android.com.adermark.seaofpoppiesfull",
      "broadcastReceiverIntentFilterActionNames": [
        "android.net.conn.CONNECTIVITY_CHANGE",
        "android.net.wifi.WIFI_STATE_CHANGED"
      ],
      "dependencies": [
        "com$millennialmedia$",
        "com.chartboost.sdk.",
        "com.flurry.",
        "com.google.ads.",
        "com.google.android.gms.ads.",
        "com.google.android.gms.analytics.",
        "com.google.android.gms.tagmanager",
        "com.millennialmedia.",
        "org.nexage."
      ],
      "domainNamesFilteredByExodus": [
        ".chartboost.com",
        ".google.com",
        "doubleclick.net",
        "flurry.com",
        "millennialmedia.com",
        "www.googletagmanager.com",
        "www.supersonicads.com"
      ],
      "metaDataNames": [
        "com.google.android.gms.version",
        "com.rixallab.ads.FLURRY_KEY"
      ],
      "sha256": "3261bac164adbb60c17ad5b7a6e4729c33d6ba8e9f9254a7c4106a6ddce9ac37",
      "usesPermissions": [
        "android.permission.ACCESS_COARSE_LOCATION",
        "android.permission.ACCESS_FINE_LOCATION",
        "android.permission.ACCESS_NETWORK_STATE",
        "android.permission.ACCESS_WIFI_STATE",
        "android.permission.GET_TASKS",
        "android.permission.INTERNET",
        "android.permission.READ_PHONE_STATE",
        "android.permission.SYSTEM_ALERT_WINDOW",
        "android.permission.WAKE_LOCK",
        "android.permission.WRITE_EXTERNAL_STORAGE"
      ]
    }
  ],
  "meta": {
    "generated": "2020-08-27T15:33:16.105009",
    "generatedBy": [
      "/home/hc/code/trackingthetrackers/scripts/make-trackers-apk-set.py"
    ],
    "ver": "0.3.0"
  }
}