{
  "apks": [
    {
      "applicationId": "com.anysoftkeyboard.languagepack.portuguese",
      "broadcastReceiverIntentFilterActionNames": [
        "com.menny.android.anysoftkeyboard.DICTIONARY",
        "com.menny.android.anysoftkeyboard.KEYBOARD"
      ],
      "dependencies": [],
      "domainNamesFilteredByExodus": [],
      "metaDataNames": [
        "com.menny.android.anysoftkeyboard.dictionaries",
        "com.menny.android.anysoftkeyboard.keyboards"
      ],
      "sha256": "744ba649d2c3fb7c03e938052491ef2c908339fa63df5968b44c86ae039bc07b",
      "usesPermissions": []
    }
  ],
  "meta": {
    "generated": "2020-08-27T16:52:57.476796",
    "generatedBy": [
      "/home/hc/code/trackingthetrackers/scripts/make-clean-apk-set.py"
    ],
    "generatedByCommitId": "40519285d6f404593fa655fa89b433743c25289e",
    "sourceDataCommitId": "888bb8f8c77ff55105fcab2ad84c263561eb1169",
    "ver": "0.3.0"
  }
}