{
  "apks": [
    {
      "applicationId": "com.credroid.fotospalabra",
      "broadcastReceiverIntentFilterActionNames": [
        "android.intent.action.BOOT_COMPLETED",
        "com.android.vending.INSTALL_REFERRER",
        "com.google.android.gms.analytics.ANALYTICS_DISPATCH",
        "com.inmobi.share.id"
      ],
      "dependencies": [
        "com$amazon$device$ads",
        "com$facebook$login",
        "com$facebook$share",
        "com$instreamatic",
        "com$smaato$soma$",
        "com$startapp$android$publish",
        "com$supersonicads$sdk",
        "com.amazon.device.ads",
        "com.applovin",
        "com.chartboost.sdk.",
        "com.facebook.appevents",
        "com.facebook.login",
        "com.facebook.share",
        "com.flurry.",
        "com.google.ads.",
        "com.google.android.gms.ads.",
        "com.google.android.gms.analytics.",
        "com.google.android.gms.measurement.",
        "com.google.android.gms.tagmanager",
        "com.inmobi",
        "com.instreamatic",
        "com.millennialmedia.",
        "com.mopub.mobileads.",
        "com.smaato.soma.",
        "com.startapp.android.publish",
        "com.supersonic.adapters.supersonicads",
        "com.supersonicads.sdk",
        "com.tapjoy.",
        "com.unity3d.ads",
        "com.vungle.publisher.",
        "com.yandex.metrica.",
        "com.yandex.mobile.ads",
        "com_facebook_login",
        "com_facebook_share"
      ],
      "domainNamesFilteredByExodus": [
        ".chartboost.com",
        ".facebook.com",
        ".google.com",
        "adcolony.com",
        "androidads21.adcolony.com",
        "api.vungle.com",
        "applovin.com",
        "config.inmobi.com",
        "doubleclick.net",
        "flurry.com",
        "google-analytics.com",
        "i.l.inmobicdn.net",
        "i.w.inmobi.com",
        "ingest.vungle.com",
        "init.supersonicads.com",
        "inmobi.com",
        "inmobicdn.net",
        "logs.supersonic.com",
        "openx.com",
        "outcome.supersonicads.com",
        "sdkm.w.inmobi.com",
        "smaato.net",
        "soma.smaato.net",
        "startup.mobile.yandex.net",
        "supersonic.com",
        "tapjoy.com",
        "tapjoyads.com",
        "ua.supersonicads.com",
        "w.inmobi.com",
        "www.googletagmanager.com",
        "www.supersonicads.com"
      ],
      "metaDataNames": [
        "adtoapp.sdk.key",
        "adtoapp.sdk.plugin",
        "applovin.sdk.key",
        "com.facebook.sdk.ApplicationId",
        "com.google.android.gms.version",
        "metrica:api:level"
      ],
      "sha256": "a6bbffc35d75cb909c415710ab2df69785b53ee24c06556fdba49340549b98be",
      "usesPermissions": [
        "android.permission.ACCESS_COARSE_LOCATION",
        "android.permission.ACCESS_FINE_LOCATION",
        "android.permission.ACCESS_NETWORK_STATE",
        "android.permission.ACCESS_WIFI_STATE",
        "android.permission.BATTERY_STATS",
        "android.permission.INTERNET",
        "android.permission.READ_PHONE_STATE",
        "android.permission.RECEIVE_BOOT_COMPLETED",
        "android.permission.VIBRATE",
        "android.permission.WRITE_EXTERNAL_STORAGE",
        "com.android.vending.BILLING"
      ]
    }
  ],
  "meta": {
    "generated": "2020-08-27T15:18:44.975584",
    "generatedBy": [
      "/home/hc/code/trackingthetrackers/scripts/make-trackers-apk-set.py"
    ],
    "ver": "0.3.0"
  }
}