{
  "apks": [
    {
      "applicationId": "nitezh.ministock",
      "broadcastReceiverIntentFilterActionNames": [
        "android.appwidget.action.APPWIDGET_UPDATE",
        "nitezh.ministock.ALARM_UPDATE",
        "nitezh.ministock.ASYNC_UPDATE",
        "nitezh.ministocks.ALARM_UPDATE"
      ],
      "dependencies": [],
      "domainNamesFilteredByExodus": [
        ".google.com"
      ],
      "metaDataNames": [
        "android.app.searchable",
        "android.appwidget.provider"
      ],
      "sha256": "305ce61c0ea48c5c11ec0417f3ec20fafd02aac01d0660a668c52b6e2e0255f8",
      "usesPermissions": [
        "android.permission.INTERNET"
      ]
    }
  ],
  "meta": {
    "generated": "2020-08-27T18:19:39.125551",
    "generatedBy": [
      "/home/hc/code/trackingthetrackers/scripts/make-clean-apk-set.py"
    ],
    "generatedByCommitId": "3839559c80042252d3b947fb61c86a18e8b31114",
    "sourceDataCommitId": "888bb8f8c77ff55105fcab2ad84c263561eb1169",
    "ver": "0.3.0"
  }
}