{
  "apks": [
    {
      "applicationId": "net.sourceforge.solitaire_cg",
      "broadcastReceiverIntentFilterActionNames": [],
      "dependencies": [],
      "domainNamesFilteredByExodus": [
        ".google.com"
      ],
      "metaDataNames": [],
      "sha256": "8187f45914e939161fb0af0252c0d7749c22f834057623be14e4a8f5f256049c",
      "usesPermissions": []
    }
  ],
  "meta": {
    "generated": "2020-08-27T18:19:27.432323",
    "generatedBy": [
      "/home/hc/code/trackingthetrackers/scripts/make-clean-apk-set.py"
    ],
    "generatedByCommitId": "3839559c80042252d3b947fb61c86a18e8b31114",
    "sourceDataCommitId": "888bb8f8c77ff55105fcab2ad84c263561eb1169",
    "ver": "0.3.0"
  }
}