{
  "apks": [
    {
      "applicationId": "com.ah.backupviberchat",
      "broadcastReceiverIntentFilterActionNames": [],
      "dependencies": [
        "com.google.ads."
      ],
      "domainNamesFilteredByExodus": [
        ".google.com",
        "doubleclick.net"
      ],
      "metaDataNames": [
        "ADMOB_ALLOW_LOCATION_FOR_ADS"
      ],
      "sha256": "d731e560b2d7566ca905c372f851e9d9046b2f43cafe4b19c3b95dabb81be2ed",
      "usesPermissions": [
        "android.permission.ACCESS_NETWORK_STATE",
        "android.permission.INTERNET",
        "android.permission.READ_CONTACTS",
        "android.permission.READ_EXTERNAL_STORAGE",
        "android.permission.WRITE_EXTERNAL_STORAGE"
      ]
    }
  ],
  "meta": {
    "generated": "2020-08-27T15:18:30.357631",
    "generatedBy": [
      "/home/hc/code/trackingthetrackers/scripts/make-trackers-apk-set.py"
    ],
    "ver": "0.3.0"
  }
}