{
  "apks": [
    {
      "applicationId": "obfkc.hbwwgukagx.celgytpea",
      "broadcastReceiverIntentFilterActionNames": [],
      "dependencies": [],
      "domainNamesFilteredByExodus": [
        "alog.umeng.com",
        "umeng.com"
      ],
      "metaDataNames": [
        "EXTENDS_INFO",
        "HFT_APP_ID",
        "HFT_APP_KEY",
        "UMENG_APPKEY",
        "UMENG_CHANNEL"
      ],
      "sha256": "ad08b07db490842f3b16e40e8978b8d282d7cadc006da5411bf2e4f1f14edba9",
      "usesPermissions": [
        "android.permission.ACCESS_NETWORK_STATE",
        "android.permission.ACCESS_WIFI_STATE",
        "android.permission.ACCESS_WIFI_STATE",
        "android.permission.CHANGE_NETWORK_STATE",
        "android.permission.CHANGE_NETWORK_STATE",
        "android.permission.CHANGE_WIFI_STATE",
        "android.permission.CHANGE_WIFI_STATE",
        "android.permission.DOWNLOAD_WITHOUT_NOTIFICATION",
        "android.permission.GET_TASKS",
        "android.permission.GET_TASKS",
        "android.permission.INTERNET",
        "android.permission.INTERNET",
        "android.permission.MOUNT_UNMOUNT_FILESYSTEMS",
        "android.permission.READ_EXTERNAL_STORAGE",
        "android.permission.READ_EXTERNAL_STORAGE",
        "android.permission.READ_PHONE_STATE",
        "android.permission.RECEIVE_USER_PRESENT",
        "android.permission.SYSTEM_ALERT_WINDOW",
        "android.permission.SYSTEM_ALERT_WINDOW",
        "android.permission.SYSTEM_OVERLAY_WINDOW",
        "android.permission.VIBRATE",
        "android.permission.WRITE_EXTERNAL_STORAGE",
        "android.permission.WRITE_EXTERNAL_STORAGE",
        "android.permission.WRITE_EXTERNAL_STORAGE",
        "android.webkit.permission.PLUGIN",
        "com.android.launcher.permission.INSTALL_SHORTCUT",
        "com.android.launcher.permission.READ_SETTINGS"
      ]
    }
  ],
  "meta": {
    "generated": "2020-08-27T14:59:03.155408",
    "generatedBy": [
      "/home/hc/code/trackingthetrackers/scripts/make-trackers-apk-set.py"
    ],
    "ver": "0.3.0"
  }
}