{
  "apks": [
    {
      "applicationId": "eu.veldsoft.fish.rings",
      "broadcastReceiverIntentFilterActionNames": [],
      "dependencies": [],
      "domainNamesFilteredByExodus": [],
      "metaDataNames": [],
      "sha256": "83dc39f479924c3f47b6f79cad871cfb651d48cab6912462988202dccfb4fb21",
      "usesPermissions": []
    }
  ],
  "meta": {
    "generated": "2020-08-27T17:02:50.725839",
    "generatedBy": [
      "/home/hc/code/trackingthetrackers/scripts/make-clean-apk-set.py"
    ],
    "generatedByCommitId": "40519285d6f404593fa655fa89b433743c25289e",
    "sourceDataCommitId": "888bb8f8c77ff55105fcab2ad84c263561eb1169",
    "ver": "0.3.0"
  }
}