{
  "apks": [
    {
      "applicationId": "com.simplemobiletools.applauncher",
      "broadcastReceiverIntentFilterActionNames": [
        "com.simplemobiletools.commons.SHARED_THEME_ACTIVATED",
        "com.simplemobiletools.commons.SHARED_THEME_UPDATED"
      ],
      "dependencies": [],
      "domainNamesFilteredByExodus": [
        ".facebook.com",
        ".google.com"
      ],
      "metaDataNames": [],
      "sha256": "3043ba6d9e9aab0b9929888aacee1c96b43c711c0205c85e40eb2ba6cd0c11c0",
      "usesPermissions": []
    }
  ],
  "meta": {
    "generated": "2020-08-27T17:47:31.869556",
    "generatedBy": [
      "/home/hc/code/trackingthetrackers/scripts/make-clean-apk-set.py"
    ],
    "generatedByCommitId": "40519285d6f404593fa655fa89b433743c25289e",
    "sourceDataCommitId": "888bb8f8c77ff55105fcab2ad84c263561eb1169",
    "ver": "0.3.0"
  }
}