{
  "apks": [
    {
      "applicationId": "wfcwg.y.ucyvns",
      "broadcastReceiverIntentFilterActionNames": [],
      "dependencies": [],
      "domainNamesFilteredByExodus": [],
      "metaDataNames": [],
      "sha256": "777cce40cb08706d90a030f0ef464f6bf53e81691f03e2133b3a7da59db0e3dc",
      "usesPermissions": []
    }
  ],
  "meta": {
    "generated": "2020-08-27T14:58:58.699467",
    "generatedBy": [
      "/home/hc/code/trackingthetrackers/scripts/make-trackers-apk-set.py"
    ],
    "ver": "0.3.0"
  }
}