{
  "apks": [
    {
      "applicationId": "com.ckck.bubbledexlue",
      "broadcastReceiverIntentFilterActionNames": [],
      "dependencies": [
        "com.flurry.",
        "net.youmi"
      ],
      "domainNamesFilteredByExodus": [
        ".google.com",
        "flurry.com",
        "youmi.net"
      ],
      "metaDataNames": [
        "doodle_mobile_appid"
      ],
      "sha256": "c9bb7b9ef1cc2805ffe7f2ef64755d0e7a7c4c242041970490871068cbe98028",
      "usesPermissions": [
        "android.permission.ACCESS_COARSE_LOCATION",
        "android.permission.ACCESS_NETWORK_STATE",
        "android.permission.ACCESS_WIFI_STATE",
        "android.permission.INTERNET",
        "android.permission.READ_PHONE_STATE",
        "android.permission.WRITE_EXTERNAL_STORAGE"
      ]
    }
  ],
  "meta": {
    "generated": "2020-08-27T15:05:35.684575",
    "generatedBy": [
      "/home/hc/code/trackingthetrackers/scripts/make-trackers-apk-set.py"
    ],
    "ver": "0.3.0"
  }
}