{
  "apks": [
    {
      "applicationId": "com.b44t.messenger",
      "broadcastReceiverIntentFilterActionNames": [
        "android.intent.action.BOOT_COMPLETED",
        "android.intent.action.MEDIA_BUTTON",
        "android.media.AUDIO_BECOMING_NOISY",
        "com.b44t.android.musicplayer.close",
        "com.b44t.android.musicplayer.next",
        "com.b44t.android.musicplayer.pause",
        "com.b44t.android.musicplayer.play",
        "com.b44t.android.musicplayer.previous",
        "com.b44t.messenger.ACTION_MESSAGE_HEARD",
        "com.b44t.messenger.ACTION_MESSAGE_REPLY"
      ],
      "dependencies": [],
      "domainNamesFilteredByExodus": [
        ".google.com"
      ],
      "metaDataNames": [
        "android.support.FILE_PROVIDER_PATHS",
        "android.support.VERSION",
        "com.google.android.gms.car.application",
        "com.google.android.gms.car.notification.SmallIcon",
        "com.sec.android.multiwindow.DEFAULT_SIZE_H",
        "com.sec.android.multiwindow.DEFAULT_SIZE_W",
        "com.sec.android.multiwindow.MINIMUM_SIZE_H",
        "com.sec.android.multiwindow.MINIMUM_SIZE_W",
        "com.sec.android.support.multiwindow"
      ],
      "sha256": "a22022fefa1614b1beadeb16552397ae2a03c80b2936a26f6744f2ba533eaf72",
      "usesPermissions": [
        "android.permission.ACCESS_NETWORK_STATE",
        "android.permission.ACCESS_WIFI_STATE",
        "android.permission.CAMERA",
        "android.permission.INSTALL_SHORTCUT",
        "android.permission.INTERNET",
        "android.permission.READ_CONTACTS",
        "android.permission.READ_EXTERNAL_STORAGE",
        "android.permission.READ_PHONE_STATE",
        "android.permission.RECEIVE_BOOT_COMPLETED",
        "android.permission.RECORD_AUDIO",
        "android.permission.USE_FINGERPRINT",
        "android.permission.VIBRATE",
        "android.permission.WAKE_LOCK",
        "android.permission.WRITE_EXTERNAL_STORAGE",
        "com.android.launcher.permission.INSTALL_SHORTCUT"
      ]
    }
  ],
  "meta": {
    "generated": "2020-08-27T17:15:23.962703",
    "generatedBy": [
      "/home/hc/code/trackingthetrackers/scripts/make-clean-apk-set.py"
    ],
    "generatedByCommitId": "40519285d6f404593fa655fa89b433743c25289e",
    "sourceDataCommitId": "888bb8f8c77ff55105fcab2ad84c263561eb1169",
    "ver": "0.3.0"
  }
}