{
  "apks": [
    {
      "applicationId": "com.digitalfishfun.openshift",
      "broadcastReceiverIntentFilterActionNames": [],
      "dependencies": [],
      "domainNamesFilteredByExodus": [],
      "metaDataNames": [
        "android.support.VERSION"
      ],
      "sha256": "6a6cb684cc24e2fd34b9b277f0e0fdc089c2735812d4e3be5a687b2e423db8a7",
      "usesPermissions": []
    }
  ],
  "meta": {
    "generated": "2020-08-27T16:53:26.101543",
    "generatedBy": [
      "/home/hc/code/trackingthetrackers/scripts/make-clean-apk-set.py"
    ],
    "generatedByCommitId": "40519285d6f404593fa655fa89b433743c25289e",
    "sourceDataCommitId": "888bb8f8c77ff55105fcab2ad84c263561eb1169",
    "ver": "0.3.0"
  }
}