{
  "apks": [
    {
      "applicationId": "cn.edu.nuc.icebreaker",
      "broadcastReceiverIntentFilterActionNames": [
        "android.intent.action.BOOT_COMPLETED",
        "android.intent.action.PACKAGE_ADDED",
        "android.intent.action.PACKAGE_REPLACED",
        "android.intent.action.USER_PRESENT",
        "android.intent.action.VIEW",
        "android.net.conn.CONNECTIVITY_CHANGE",
        "com.android.vending.INSTALL_REFERRER",
        "com.google.android.c2dm.intent.RECEIVE",
        "com.google.android.c2dm.intent.REGISTRATION",
        "com.inmobi.share.id"
      ],
      "dependencies": [
        "com$google$ads$",
        "com$inmobi",
        "com$ironsource$",
        "com$supersonicads$sdk",
        "com$tapjoy$",
        "com.google.ads.",
        "com.google.android.gms.ads.",
        "com.google.android.gms.analytics.",
        "com.google.android.gms.tagmanager",
        "com.inmobi",
        "com.ironsource.",
        "com.supersonicads.sdk",
        "com.tapjoy.",
        "com.vungle.publisher."
      ],
      "domainNamesFilteredByExodus": [
        ".facebook.com",
        ".google.com",
        "adcolony.com",
        "androidads20.adcolony.com",
        "api.vungle.com",
        "doubleclick.net",
        "google-analytics.com",
        "i.w.inmobi.com",
        "inmobi.com",
        "inmobisdk-a.akamaihd.net",
        "sdkm.w.inmobi.com",
        "stats.unity3d.com",
        "tapjoy.com",
        "tapjoyads.com",
        "www.googletagmanager.com",
        "www.supersonicads.com"
      ],
      "metaDataNames": [
        "PW_APPID",
        "PW_PROJECT_ID",
        "com.google.android.gms.appstate.APP_ID",
        "com.google.android.gms.games.APP_ID",
        "com.google.android.gms.version",
        "com.jirbo.adcolony.AdColonyBrowser",
        "com.jirbo.adcolony.AdColonyFullscreen",
        "com.jirbo.adcolony.AdColonyOverlay",
        "com.jirbo.unityadc.UnityADCActivity",
        "com.playhaven.android.view.FullScreen",
        "com.playhaven.unity3d.PlayHavenUnityActivity",
        "com.prime31.ChartboostPlugin",
        "com.prime31.FlurryPlugin",
        "com.tapjoy.TJAdUnitView",
        "com.tapjoy.TJCOffersWebView",
        "com.tapjoy.TapjoyDailyRewardAdWebView",
        "com.tapjoy.TapjoyFullScreenAdWebView",
        "com.tapjoy.TapjoyVideoView",
        "com.tapjoy.mraid.view.ActionHandler",
        "com.tapjoy.mraid.view.Browser",
        "com.unity3d.player.VideoPlayer",
        "unityplayer.ForwardNativeEventsToDalvik"
      ],
      "sha256": "c0dff581288e40a00a5ff49de77d8d9812551f417f42e69abb035bfd80de301c",
      "usesPermissions": [
        "android.permission.ACCESS_NETWORK_STATE",
        "android.permission.ACCESS_WIFI_STATE",
        "android.permission.CHANGE_WIFI_STATE",
        "android.permission.GET_ACCOUNTS",
        "android.permission.GET_TASKS",
        "android.permission.INTERNET",
        "android.permission.MOUNT_UNMOUNT_FILESYSTEMS",
        "android.permission.READ_CALENDAR",
        "android.permission.READ_LOGS",
        "android.permission.READ_PHONE_STATE",
        "android.permission.RECORD_AUDIO",
        "android.permission.SYSTEM_ALERT_WINDOW",
        "android.permission.VIBRATE",
        "android.permission.WAKE_LOCK",
        "android.permission.WRITE_CALENDAR",
        "android.permission.WRITE_EXTERNAL_STORAGE",
        "com.google.android.c2dm.permission.RECEIVE",
        "com.google.android.gms.permission.ACTIVITY_RECOGNITION",
        "com.teamil.icebreakerparking.permission.C2D_MESSAGE"
      ]
    }
  ],
  "meta": {
    "generated": "2020-08-27T15:35:38.483628",
    "generatedBy": [
      "/home/hc/code/trackingthetrackers/scripts/make-trackers-apk-set.py"
    ],
    "ver": "0.3.0"
  }
}