{
  "apks": [
    {
      "applicationId": "com.tengu.sharetoclipboard",
      "broadcastReceiverIntentFilterActionNames": [],
      "dependencies": [],
      "domainNamesFilteredByExodus": [
        ".google.com"
      ],
      "metaDataNames": [],
      "sha256": "b0896a939444c9300623f1dd73422a9f80cb27a6665f95b50d4a15f285f32124",
      "usesPermissions": []
    }
  ],
  "meta": {
    "generated": "2020-08-27T17:51:15.094230",
    "generatedBy": [
      "/home/hc/code/trackingthetrackers/scripts/make-clean-apk-set.py"
    ],
    "generatedByCommitId": "40519285d6f404593fa655fa89b433743c25289e",
    "sourceDataCommitId": "888bb8f8c77ff55105fcab2ad84c263561eb1169",
    "ver": "0.3.0"
  }
}