{
  "apks": [
    {
      "applicationId": "com.cainiu.cainiulvshi",
      "broadcastReceiverIntentFilterActionNames": [
        "com.cainiu.cainiulvshi.poj.notification.receiver.NotificationReceiver"
      ],
      "dependencies": [
        "com.tencent.bugly."
      ],
      "domainNamesFilteredByExodus": [
        ".facebook.com",
        "bugly.qq.com"
      ],
      "metaDataNames": [
        "TxAppEntry",
        "com.samsung.android.sdk.multiwindow.enable",
        "com.samsung.android.sdk.multiwindow.multiinstance.enable",
        "com.sec.android.multiwindow.STYLE",
        "com.sec.android.support.multiwindow",
        "com.tencent.rdm.uuid"
      ],
      "sha256": "ecb698472842510975a9282b16e15fa06c9bc02b3f93031572644990c4f5f22d",
      "usesPermissions": [
        "android.permission.ACCESS_COARSE_LOCATION",
        "android.permission.ACCESS_FINE_LOCATION",
        "android.permission.ACCESS_LOCATION_EXTRA_COMMANDS",
        "android.permission.ACCESS_NETWORK_STATE",
        "android.permission.ACCESS_NETWORK_STATE",
        "android.permission.ACCESS_WIFI_STATE",
        "android.permission.ACCESS_WIFI_STATE",
        "android.permission.BROADCAST_STICKY",
        "android.permission.CALL_PHONE",
        "android.permission.CALL_PHONE",
        "android.permission.CAMERA",
        "android.permission.CHANGE_CONFIGURATION",
        "android.permission.CHANGE_NETWORK_STATE",
        "android.permission.CHANGE_WIFI_STATE",
        "android.permission.FLASHLIGHT",
        "android.permission.GET_TASKS",
        "android.permission.INTERNET",
        "android.permission.INTERNET",
        "android.permission.MOUNT_UNMOUNT_FILESYSTEMS",
        "android.permission.READ_CONTACTS",
        "android.permission.READ_EXTERNAL_STORAGE",
        "android.permission.READ_LOGS",
        "android.permission.READ_LOGS",
        "android.permission.READ_PHONE_STATE",
        "android.permission.READ_PHONE_STATE",
        "android.permission.RECEIVE_USER_PRESENT",
        "android.permission.VIBRATE",
        "android.permission.WAKE_LOCK",
        "android.permission.WRITE_CONTACTS",
        "android.permission.WRITE_EXTERNAL_STORAGE",
        "android.permission.WRITE_SETTINGS",
        "com.samsung.android.providers.context.permission.WRITE_USE_APP_FEATURE_SURVEY"
      ]
    }
  ],
  "meta": {
    "generated": "2020-08-27T15:52:54.012973",
    "generatedBy": [
      "/home/hc/code/trackingthetrackers/scripts/make-trackers-apk-set.py"
    ],
    "ver": "0.3.0"
  }
}