{
  "apks": [
    {
      "applicationId": "org.thosp.yourlocalweather",
      "broadcastReceiverIntentFilterActionNames": [
        "android.appwidget.action.APPWIDGET_UPDATE",
        "android.intent.action.BOOT_COMPLETED",
        "android.intent.action.LOCALE_CHANGED",
        "org.thosp.yourlocalweather.action.ACTION_APPWIDGET_CHANGE_LOCATION",
        "org.thosp.yourlocalweather.action.APPWIDGET_THEME_CHANGED",
        "org.thosp.yourlocalweather.action.APPWIDGET_UPDATE_PERIOD_CHANGED",
        "org.thosp.yourlocalweather.action.FORCED_APPWIDGET_UPDATE",
        "org.thosp.yourlocalweather.action.WEATHER_UPDATE_RESULT"
      ],
      "dependencies": [],
      "domainNamesFilteredByExodus": [
        ".google.com",
        "api.tiles.mapbox.com"
      ],
      "metaDataNames": [
        "android.appwidget.provider",
        "android.support.PARENT_ACTIVITY",
        "android.support.VERSION",
        "org.microg.nlp.API_VERSION"
      ],
      "sha256": "bbd85c379442b0a7380327edb8714a2b0fb0356280e3e3d86f2152f8ca6c3a38",
      "usesPermissions": [
        "android.permission.ACCESS_COARSE_LOCATION",
        "android.permission.ACCESS_FINE_LOCATION",
        "android.permission.ACCESS_NETWORK_STATE",
        "android.permission.ACCESS_WIFI_STATE",
        "android.permission.CHANGE_WIFI_STATE",
        "android.permission.INTERNET",
        "android.permission.READ_PHONE_STATE",
        "android.permission.RECEIVE_BOOT_COMPLETED",
        "android.permission.VIBRATE",
        "android.permission.WAKE_LOCK",
        "android.permission.WRITE_EXTERNAL_STORAGE"
      ]
    }
  ],
  "meta": {
    "generated": "2020-08-27T18:38:57.248966",
    "generatedBy": [
      "/home/hc/code/trackingthetrackers/scripts/make-clean-apk-set.py"
    ],
    "generatedByCommitId": "3839559c80042252d3b947fb61c86a18e8b31114",
    "sourceDataCommitId": "888bb8f8c77ff55105fcab2ad84c263561eb1169",
    "ver": "0.3.0"
  }
}