{
  "apks": [
    {
      "applicationId": "org.mozilla.fennec_fdroid",
      "broadcastReceiverIntentFilterActionNames": [
        "android.appwidget.action.APPWIDGET_UPDATE",
        "android.intent.action.ACTION_EXTERNAL_APPLICATIONS_AVAILABLE",
        "android.intent.action.BOOT_COMPLETED",
        "android.intent.action.GET_RESTRICTION_ENTRIES",
        "android.intent.action.MY_PACKAGE_REPLACED",
        "android.intent.action.PACKAGE_REPLACED",
        "com.android.vending.INSTALL_REFERRER",
        "org.mozilla.fennec_fdroid.CHECK_UPDATE_RESULT",
        "org.mozilla.fennec_fdroid.NOTIFICATION_CLICK",
        "org.mozilla.fennec_fdroid.NOTIFICATION_CLOSE",
        "org.mozilla.fennec_fdroid.helperBroadcastAction",
        "org.mozilla.gecko.STUMBLER_REGISTER_LOCAL_LISTENER",
        "org.mozilla.widget.LAUNCH_BROWSER",
        "org.mozilla.widget.LAUNCH_NEW_TAB",
        "org.mozilla.widget.LAUNCH_SEARCH"
      ],
      "dependencies": [
        "org.mozilla.gecko.telemetry"
      ],
      "domainNamesFilteredByExodus": [
        ".facebook.com",
        "outbrain.com",
        "qualtrics.com"
      ],
      "metaDataNames": [
        "android.accounts.AccountAuthenticator",
        "android.appwidget.provider",
        "android.content.SyncAdapter",
        "android.support.PARENT_ACTIVITY",
        "com.android.systemui.action_assist_icon",
        "com.sec.android.support.multiwindow",
        "com.sec.minimode.icon.landscape.normal",
        "com.sec.minimode.icon.portrait.normal"
      ],
      "sha256": "876ad42be571a138e348ad38eb2cca0847a642e8d33fe350f88e9e2f46c434b1",
      "usesPermissions": [
        "android.permission.ACCESS_FINE_LOCATION",
        "android.permission.ACCESS_FINE_LOCATION",
        "android.permission.ACCESS_NETWORK_STATE",
        "android.permission.ACCESS_NETWORK_STATE",
        "android.permission.ACCESS_NETWORK_STATE",
        "android.permission.ACCESS_WIFI_STATE",
        "android.permission.AUTHENTICATE_ACCOUNTS",
        "android.permission.CAMERA",
        "android.permission.CHANGE_WIFI_STATE",
        "android.permission.DOWNLOAD_WITHOUT_NOTIFICATION",
        "android.permission.GET_ACCOUNTS",
        "android.permission.INTERNET",
        "android.permission.INTERNET",
        "android.permission.MANAGE_ACCOUNTS",
        "android.permission.NFC",
        "android.permission.READ_EXTERNAL_STORAGE",
        "android.permission.READ_SYNC_SETTINGS",
        "android.permission.READ_SYNC_STATS",
        "android.permission.RECEIVE_BOOT_COMPLETED",
        "android.permission.RECORD_AUDIO",
        "android.permission.SYSTEM_ALERT_WINDOW",
        "android.permission.USE_CREDENTIALS",
        "android.permission.VIBRATE",
        "android.permission.WAKE_LOCK",
        "android.permission.WRITE_EXTERNAL_STORAGE",
        "android.permission.WRITE_SETTINGS",
        "android.permission.WRITE_SYNC_SETTINGS",
        "com.android.browser.permission.READ_HISTORY_BOOKMARKS",
        "com.android.launcher.permission.INSTALL_SHORTCUT",
        "com.android.launcher.permission.UNINSTALL_SHORTCUT",
        "com.google.android.c2dm.permission.RECEIVE",
        "org.mozilla.fennec_fdroid_fxaccount.permission.PER_ACCOUNT_TYPE"
      ]
    }
  ],
  "meta": {
    "generated": "2020-08-27T14:47:49.960039",
    "generatedBy": [
      "/home/hc/code/trackingthetrackers/scripts/make-trackers-apk-set.py"
    ],
    "ver": "0.3.0"
  }
}