{
  "apks": [
    {
      "applicationId": "org.y20k.transistor",
      "broadcastReceiverIntentFilterActionNames": [
        "android.intent.action.MEDIA_BUTTON"
      ],
      "dependencies": [],
      "domainNamesFilteredByExodus": [],
      "metaDataNames": [
        "android.support.PARENT_ACTIVITY"
      ],
      "sha256": "f51b1b144e8b26729c9056ff8fe16338bd46221b16f7222dcb1ad75491c8f8c8",
      "usesPermissions": [
        "android.permission.INTERNET",
        "android.permission.READ_EXTERNAL_STORAGE",
        "android.permission.VIBRATE",
        "android.permission.WAKE_LOCK",
        "com.android.launcher.permission.INSTALL_SHORTCUT",
        "com.android.launcher.permission.UNINSTALL_SHORTCUT"
      ]
    }
  ],
  "meta": {
    "generated": "2020-08-27T18:42:16.063062",
    "generatedBy": [
      "/home/hc/code/trackingthetrackers/scripts/make-clean-apk-set.py"
    ],
    "generatedByCommitId": "3839559c80042252d3b947fb61c86a18e8b31114",
    "sourceDataCommitId": "888bb8f8c77ff55105fcab2ad84c263561eb1169",
    "ver": "0.3.0"
  }
}