{
  "apks": [
    {
      "applicationId": "nwvtj.ov.lzebxzwvm",
      "broadcastReceiverIntentFilterActionNames": [],
      "dependencies": [],
      "domainNamesFilteredByExodus": [],
      "metaDataNames": [
        "HFT_APP_ID",
        "HFT_APP_KEY",
        "UMENG_APPKEY",
        "UMENG_CHANNEL",
        "zpayAppKey",
        "zpayAppSecret"
      ],
      "sha256": "e5b4ff27e75cfd147c24b86e5d2227beeef2c3868605f93568f0a60d8cb6900b",
      "usesPermissions": [
        "android.permission.ACCESS_NETWORK_STATE",
        "android.permission.ACCESS_WIFI_STATE",
        "android.permission.CHANGE_NETWORK_STATE",
        "android.permission.CHANGE_WIFI_STATE",
        "android.permission.INTERNET",
        "android.permission.READ_PHONE_STATE",
        "android.permission.VIBRATE",
        "android.permission.WRITE_EXTERNAL_STORAGE",
        "android.webkit.permission.PLUGIN"
      ]
    }
  ],
  "meta": {
    "generated": "2020-08-27T14:57:16.348514",
    "generatedBy": [
      "/home/hc/code/trackingthetrackers/scripts/make-trackers-apk-set.py"
    ],
    "ver": "0.3.0"
  }
}