{
  "apks": [
    {
      "applicationId": "com.armorforandroid.security",
      "broadcastReceiverIntentFilterActionNames": [
        "android.intent.action.BATTERY_LOW",
        "android.intent.action.PACKAGE_ADDED",
        "android.intent.action.PACKAGE_REMOVED",
        "com.armorforandroid.notification.NOTIFICATION_CLEARED",
        "com.armorforandroid.notification.NOTIFICATION_CLICKED",
        "com.armorforandroid.security.SCAN",
        "com.armorforandroid.security.THREAT_NOTIFICATION",
        "com.armorforandroid.security.intent.http.SHOW",
        "com.armorforandroid.security.notification.action.ALARM",
        "com.armorforandroid.security.notification.action.CANCEL",
        "com.armorforandroid.security.notification.action.CLICKED"
      ],
      "dependencies": [
        "com_facebook_login"
      ],
      "domainNamesFilteredByExodus": [
        ".facebook.com"
      ],
      "metaDataNames": [
        "com.facebook.sdk.ApplicationId"
      ],
      "sha256": "18bf43fe5860fb897f45e4875607326f7019e8f7e9839b5b9fb9e29324d67ecc",
      "usesPermissions": [
        "android.permission.ACCESS_NETWORK_STATE",
        "android.permission.GET_ACCOUNTS",
        "android.permission.INTERNET",
        "android.permission.READ_EXTERNAL_STORAGE",
        "android.permission.READ_PHONE_STATE",
        "android.permission.VIBRATE",
        "android.permission.WAKE_LOCK",
        "android.permission.WRITE_EXTERNAL_STORAGE"
      ]
    }
  ],
  "meta": {
    "generated": "2020-08-27T14:52:56.091388",
    "generatedBy": [
      "/home/hc/code/trackingthetrackers/scripts/make-trackers-apk-set.py"
    ],
    "ver": "0.3.0"
  }
}