{
  "apks": [
    {
      "applicationId": "com.android.monkey",
      "broadcastReceiverIntentFilterActionNames": [
        "android.intent.action.BATTERY_CHANGED",
        "android.intent.action.BOOT_COMPLETED",
        "android.intent.action.EXTERNAL_APPLICATIONS_AVAILABLE",
        "android.intent.action.PACKAGE_ADDED",
        "android.intent.action.PACKAGE_REMOVED",
        "android.intent.action.SCREEN_ON",
        "android.intent.action.TIME_TICK",
        "android.intent.action.USER_PRESENT",
        "android.net.conn.CONNECTIVITY_CHANGE",
        "android.net.wifi.WIFI_STATE_CHANGED",
        "com.android.vending.INSTALL_REFERRER",
        "com.das.CHECK_UPLOAD_ACTION_FILE",
        "com.du.appsadlib.ADS_ACTION",
        "com.du.appsadlib.CHECK_QUERY_ACTION",
        "com.du.appsadlib.CHECK_UPDATE_ACTION",
        "com.du.appsplatform.CORE_RECEIVER",
        "com.du.appsplatform.MSG_ACTION",
        "com.du.appsplatform.UPDATE_LOAD_FILE_SEQ"
      ],
      "dependencies": [],
      "domainNamesFilteredByExodus": [],
      "metaDataNames": [
        "ADJUST_KEY",
        "CHANNEL_ID",
        "MbvChannel",
        "MbvLicense",
        "MbvProduction",
        "OWN_KEY",
        "UMENG_APPKEY",
        "UMENG_CHANNEL"
      ],
      "sha256": "d2dda32db860bdf122a272346a3dee0724f137e89e7addeeb05a321b455f4b28",
      "usesPermissions": [
        "android.permission.ACCESS_COARSE_LOCATION",
        "android.permission.ACCESS_DOWNLOAD_MANAGER",
        "android.permission.ACCESS_FINE_LOCATION",
        "android.permission.ACCESS_FINE_LOCATION",
        "android.permission.ACCESS_NETWORK_STATE",
        "android.permission.ACCESS_WIFI_STATE",
        "android.permission.ACCES_NETWORK_STATE",
        "android.permission.BLUETOOTH",
        "android.permission.BLUETOOTH_ADMIN",
        "android.permission.CAMERA",
        "android.permission.CHANGE_CONFIGURATION",
        "android.permission.CHANGE_NETWORK_STATE",
        "android.permission.CHANGE_WIFI_STATE",
        "android.permission.DOWNLOAD_WITHOUT_NOTIFICATION",
        "android.permission.GET_ACCOUNTS",
        "android.permission.GET_TASKS",
        "android.permission.INTERNET",
        "android.permission.KILL_BACKGROUND_PROCESSES",
        "android.permission.READ_EXTERNAL_STORAGE",
        "android.permission.READ_LOGS",
        "android.permission.READ_PHONE_STATE",
        "android.permission.RECEIVE_BOOT_COMPLETED",
        "android.permission.SYSTEM_ALERT_WINDOW",
        "android.permission.VIBRATE",
        "android.permission.WRITE_EXTERNAL_STORAGE",
        "android.permission.WRITE_SETTINGS",
        "com.android.launcher.permission.INSTALL_SHORTCUT",
        "com.android.launcher.permission.READ_SETTINGS"
      ]
    }
  ],
  "meta": {
    "generated": "2020-08-27T15:12:12.933462",
    "generatedBy": [
      "/home/hc/code/trackingthetrackers/scripts/make-trackers-apk-set.py"
    ],
    "ver": "0.3.0"
  }
}