{
  "apks": [
    {
      "applicationId": "de.gabbo.forro_lyrics",
      "broadcastReceiverIntentFilterActionNames": [],
      "dependencies": [],
      "domainNamesFilteredByExodus": [],
      "metaDataNames": [],
      "sha256": "6cf56405a040864c982dc66d393f86032dd2f8725e3fd9de39d99ec8ea130c07",
      "usesPermissions": []
    }
  ],
  "meta": {
    "generated": "2020-08-27T17:59:06.516072",
    "generatedBy": [
      "/home/hc/code/trackingthetrackers/scripts/make-clean-apk-set.py"
    ],
    "generatedByCommitId": "3839559c80042252d3b947fb61c86a18e8b31114",
    "sourceDataCommitId": "888bb8f8c77ff55105fcab2ad84c263561eb1169",
    "ver": "0.3.0"
  }
}