{
  "apks": [
    {
      "applicationId": "com.icustomsolutions.vido",
      "broadcastReceiverIntentFilterActionNames": [
        "android.intent.action.BOOT_COMPLETED",
        "com.icustomsolutions.vido.EXECUTE_ACTION",
        "com.icustomsolutions.vido.KAT_REGISTERED",
        "com.icustomsolutions.vido.SCHEDULED_TASK",
        "com.icustomsolutions.vido.USER_EVENT"
      ],
      "dependencies": [
        "com$google$tagmanager",
        "com.crashlytics.",
        "com.google.android.gms.analytics.",
        "com.google.tagmanager",
        "com_crashlytics_"
      ],
      "domainNamesFilteredByExodus": [
        ".google.com",
        "crashlytics.com",
        "google-analytics.com",
        "www.googletagmanager.com"
      ],
      "metaDataNames": [
        "android.support.FILE_PROVIDER_PATHS",
        "com.crashlytics.ApiKey"
      ],
      "sha256": "0c1c0e9e1f4e866df664d40ce0b81136ac120189d45bf509e05b231e0fc50e4f",
      "usesPermissions": [
        "android.permission.ACCESS_COARSE_LOCATION",
        "android.permission.ACCESS_FINE_LOCATION",
        "android.permission.ACCESS_NETWORK_STATE",
        "android.permission.ACCESS_NETWORK_STATE",
        "android.permission.ACCESS_WIFI_STATE",
        "android.permission.CALL_PHONE",
        "android.permission.GET_ACCOUNTS",
        "android.permission.INTERNET",
        "android.permission.READ_EXTERNAL_STORAGE",
        "android.permission.READ_PHONE_STATE",
        "android.permission.RECEIVE_BOOT_COMPLETED",
        "android.permission.SEND_SMS",
        "android.permission.WAKE_LOCK",
        "android.permission.WRITE_EXTERNAL_STORAGE",
        "com.android.browser.permission.READ_HISTORY_BOOKMARKS",
        "com.android.launcher.permission.INSTALL_SHORTCUT",
        "com.android.launcher.permission.UNINSTALL_SHORTCUT"
      ]
    }
  ],
  "meta": {
    "generated": "2020-08-27T15:07:02.005666",
    "generatedBy": [
      "/home/hc/code/trackingthetrackers/scripts/make-trackers-apk-set.py"
    ],
    "ver": "0.3.0"
  }
}