{
  "apks": [
    {
      "applicationId": "de.nico.asura",
      "broadcastReceiverIntentFilterActionNames": [
        "android.appwidget.action.APPWIDGET_UPDATE"
      ],
      "dependencies": [],
      "domainNamesFilteredByExodus": [],
      "metaDataNames": [
        "android.appwidget.provider",
        "android.support.PARENT_ACTIVITY"
      ],
      "sha256": "b9020787aa286d586818617410869eedbd7f2e1ecbd71f6e80e1a069526ab869",
      "usesPermissions": [
        "android.permission.ACCESS_NETWORK_STATE",
        "android.permission.INTERNET",
        "android.permission.READ_EXTERNAL_STORAGE",
        "android.permission.WRITE_EXTERNAL_STORAGE"
      ]
    }
  ],
  "meta": {
    "generated": "2020-08-27T18:01:44.072186",
    "generatedBy": [
      "/home/hc/code/trackingthetrackers/scripts/make-clean-apk-set.py"
    ],
    "generatedByCommitId": "3839559c80042252d3b947fb61c86a18e8b31114",
    "sourceDataCommitId": "888bb8f8c77ff55105fcab2ad84c263561eb1169",
    "ver": "0.3.0"
  }
}