{
  "apks": [
    {
      "applicationId": "com.livetmestudios.neonbubblelivewallpaper",
      "broadcastReceiverIntentFilterActionNames": [
        "android.appwidget.action.APPWIDGET_UPDATE",
        "android.intent.action.ACTION_POWER_CONNECTED",
        "android.intent.action.ACTION_POWER_DISCONNECTED",
        "android.intent.action.BOOT_COMPLETED",
        "android.intent.action.PACKAGE_ADDED",
        "android.intent.action.PACKAGE_INSTALL",
        "com.android.vending.INSTALL_REFERRER",
        "com.google.android.gms.analytics.ANALYTICS_DISPATCH",
        "com.inmobi.share.id"
      ],
      "dependencies": [
        "com$supersonicads$sdk",
        "com.facebook.ads",
        "com.flurry.",
        "com.google.ads.",
        "com.google.android.gms.ads.",
        "com.google.android.gms.analytics.",
        "com.inmobi",
        "com.supersonic.adapters.supersonicads",
        "com.supersonicads.sdk"
      ],
      "domainNamesFilteredByExodus": [
        ".facebook.com",
        ".google.com",
        "adcolony.com",
        "androidads23.adcolony.com",
        "config.inmobi.com",
        "doubleclick.net",
        "google-analytics.com",
        "i.w.inmobi.com",
        "init.supersonicads.com",
        "inmobi.com",
        "inmobisdk-a.akamaihd.net",
        "logs.supersonic.com",
        "outcome.supersonicads.com",
        "sdkm.w.inmobi.com",
        "supersonic.com",
        "ua.supersonicads.com",
        "w.inmobi.com",
        "www.supersonicads.com"
      ],
      "metaDataNames": [
        "android.appwidget.provider",
        "android.service.wallpaper",
        "com.facebook.sdk.ApplicationId",
        "com.google.android.gms.version"
      ],
      "sha256": "11ef0331327ead7e666e8df4b5b86ec58d12aeae1439a389f868f8c1bd616f34",
      "usesPermissions": [
        "android.permission.ACCESS_COARSE_LOCATION",
        "android.permission.ACCESS_NETWORK_STATE",
        "android.permission.INTERNET",
        "android.permission.RECEIVE_BOOT_COMPLETED",
        "android.permission.SET_WALLPAPER",
        "android.permission.VIBRATE",
        "android.permission.WAKE_LOCK",
        "android.permission.WRITE_EXTERNAL_STORAGE",
        "com.android.launcher.permission.INSTALL_SHORTCUT",
        "com.android.launcher.permission.UNINSTALL_SHORTCUT"
      ]
    }
  ],
  "meta": {
    "generated": "2020-08-27T15:47:38.047375",
    "generatedBy": [
      "/home/hc/code/trackingthetrackers/scripts/make-trackers-apk-set.py"
    ],
    "ver": "0.3.0"
  }
}