{
  "apks": [
    {
      "applicationId": "com.nd.android.pandatheme.notyetjuly",
      "broadcastReceiverIntentFilterActionNames": [],
      "dependencies": [],
      "domainNamesFilteredByExodus": [],
      "metaDataNames": [],
      "sha256": "ba20b42cf96ddd4dd84df2451e3a20c9a61840c08242f9fadb680d8e21719b36",
      "usesPermissions": []
    }
  ],
  "meta": {
    "generated": "2020-08-27T15:37:28.835064",
    "generatedBy": [
      "/home/hc/code/trackingthetrackers/scripts/make-trackers-apk-set.py"
    ],
    "ver": "0.3.0"
  }
}