{
  "apks": [
    {
      "applicationId": "com.gitlab.ardash.appleflinger.android",
      "broadcastReceiverIntentFilterActionNames": [],
      "dependencies": [],
      "domainNamesFilteredByExodus": [
        ".facebook.com",
        ".google.com"
      ],
      "metaDataNames": [
        "com.google.android.gms.games.APP_ID"
      ],
      "sha256": "3de1e62334a6d14c840bb2e6a0f4e5f2a5e98d586b225931e455e33d52f1186c",
      "usesPermissions": []
    }
  ],
  "meta": {
    "generated": "2020-08-27T17:31:33.043795",
    "generatedBy": [
      "/home/hc/code/trackingthetrackers/scripts/make-clean-apk-set.py"
    ],
    "generatedByCommitId": "40519285d6f404593fa655fa89b433743c25289e",
    "sourceDataCommitId": "888bb8f8c77ff55105fcab2ad84c263561eb1169",
    "ver": "0.3.0"
  }
}