{
  "apks": [
    {
      "applicationId": "com.duckduckgo.mobile.android",
      "dependencies": [],
      "domainNamesFilteredByExodus": [
        ".google.com"
      ],
      "sha256": "3fb8c564ddff17aa0db71903f8f6c67b6628c8e2572fef252342f098dd680cd4",
      "usesPermissions": [
        "android.permission.INTERNET",
        "android.permission.WRITE_EXTERNAL_STORAGE"
      ]
    }
  ],
  "meta": {
    "ver": "0.2.0"
  }
}