{
  "apks": [
    {
      "applicationId": "android.cqy.novel.dpcq",
      "broadcastReceiverIntentFilterActionNames": [],
      "dependencies": [
        "com.google.ads.",
        "com.mdotm.android",
        "com.millennialmedia.",
        "com.tencent.lbs",
        "com.tencent.mobwin",
        "net.youmi"
      ],
      "domainNamesFilteredByExodus": [
        ".google.com",
        "inmobi.com",
        "media.net",
        "w.inmobi.com"
      ],
      "metaDataNames": [
        "ADMOGO_KEY"
      ],
      "sha256": "0691aac2704544753abf89322338da4b7e5c8154cfa44efeaa189ee07c640123",
      "usesPermissions": [
        "android.permission.ACCESS_COARSE_LOCATION",
        "android.permission.ACCESS_NETWORK_STATE",
        "android.permission.ACCESS_WIFI_STATE",
        "android.permission.INTERNET",
        "android.permission.READ_EXTERNAL_STORAGE",
        "android.permission.READ_PHONE_STATE",
        "android.permission.WRITE_EXTERNAL_STORAGE"
      ]
    }
  ],
  "meta": {
    "generated": "2020-08-27T14:59:49.275377",
    "generatedBy": [
      "/home/hc/code/trackingthetrackers/scripts/make-trackers-apk-set.py"
    ],
    "ver": "0.3.0"
  }
}