{
  "apks": [
    {
      "applicationId": "robodefense.topguide",
      "broadcastReceiverIntentFilterActionNames": [
        "com.google.android.c2dm.intent.RECEIVE"
      ],
      "dependencies": [
        "com.google.ads.",
        "com.google.android.gms.analytics.",
        "com.revmob.ads."
      ],
      "domainNamesFilteredByExodus": [
        ".facebook.com",
        ".google.com",
        "google-analytics.com",
        "smaato.net",
        "soma.smaato.net"
      ],
      "metaDataNames": [
        "android.app.default_searchable",
        "android.app.searchable",
        "com.google.android.maps.v2.API_KEY"
      ],
      "sha256": "048e3d8f4bf9eb24ed831e3c34f44d08412dfe4a03d22ffac7e22cb25458c042",
      "usesPermissions": [
        "android.permission.ACCESS_NETWORK_STATE",
        "android.permission.GET_ACCOUNTS",
        "android.permission.INTERNET",
        "com.google.android.c2dm.permission.RECEIVE",
        "robodefense.topguide.permission.C2D_MESSAGE"
      ]
    }
  ],
  "meta": {
    "generated": "2020-08-27T15:02:03.239923",
    "generatedBy": [
      "/home/hc/code/trackingthetrackers/scripts/make-trackers-apk-set.py"
    ],
    "ver": "0.3.0"
  }
}