{
  "apks": [
    {
      "applicationId": "de.shandschuh.sparserss",
      "broadcastReceiverIntentFilterActionNames": [
        "android.appwidget.action.APPWIDGET_UPDATE",
        "android.intent.action.BOOT_COMPLETED",
        "android.intent.action.MEDIA_MOUNTED",
        "de.shandschuh.sparserss.REFRESH",
        "de.shandschuh.sparserss.RESTART",
        "de.shandschuh.sparserss.widget.UPDATE"
      ],
      "dependencies": [],
      "domainNamesFilteredByExodus": [],
      "metaDataNames": [
        "android.appwidget.provider"
      ],
      "sha256": "70755c5b729ac3752c6e4badd01336b2dfa8a2e9bbf4231b47b6744be0d96a12",
      "usesPermissions": [
        "android.permission.ACCESS_NETWORK_STATE",
        "android.permission.INTERNET",
        "android.permission.RECEIVE_BOOT_COMPLETED",
        "android.permission.VIBRATE",
        "android.permission.WRITE_EXTERNAL_STORAGE"
      ]
    }
  ],
  "meta": {
    "generated": "2020-08-27T18:03:58.096472",
    "generatedBy": [
      "/home/hc/code/trackingthetrackers/scripts/make-clean-apk-set.py"
    ],
    "generatedByCommitId": "3839559c80042252d3b947fb61c86a18e8b31114",
    "sourceDataCommitId": "888bb8f8c77ff55105fcab2ad84c263561eb1169",
    "ver": "0.3.0"
  }
}