{
  "apks": [
    {
      "applicationId": "com.appsunderground.game.Android264DefendYourCastlec0",
      "broadcastReceiverIntentFilterActionNames": [],
      "dependencies": [],
      "domainNamesFilteredByExodus": [
        ".google.com"
      ],
      "metaDataNames": [
        "NOWIS_AD_PUBLISHER",
        "NOWIS_CHANNEL_ID",
        "NOWIS_GAME_COPY",
        "NOWIS_GAME_ID",
        "NOWIS_KEY_A",
        "NOWIS_KEY_B",
        "NOWIS_KEY_C",
        "NOWIS_KEY_D",
        "NOWIS_KEY_DOWN",
        "NOWIS_KEY_LEFT",
        "NOWIS_KEY_RIGHT",
        "NOWIS_KEY_UP",
        "NOWIS_MATURITY",
        "NOWIS_SHOW_AD",
        "NOWIS_SHOW_PROMPT",
        "NOWIS_WAIT_TIME",
        "android.dock_home"
      ],
      "sha256": "b02cb9acf141eb2db4b02539806e45e2126f3689e5e24dadfa609a590a1527d8",
      "usesPermissions": [
        "android.permission.GET_ACCOUNTS",
        "android.permission.INSTALL_PACKAGES",
        "android.permission.INTERNET",
        "android.permission.READ_CONTACTS",
        "android.permission.READ_PHONE_STATE",
        "android.permission.WAKE_LOCK",
        "android.permission.WRITE_EXTERNAL_STORAGE",
        "com.android.launcher.permission.INSTALL_SHORTCUT"
      ]
    }
  ],
  "meta": {
    "generated": "2020-08-27T14:59:55.038226",
    "generatedBy": [
      "/home/hc/code/trackingthetrackers/scripts/make-trackers-apk-set.py"
    ],
    "ver": "0.3.0"
  }
}