{
  "apks": [
    {
      "applicationId": "org.scoutant.blokish",
      "broadcastReceiverIntentFilterActionNames": [],
      "dependencies": [],
      "domainNamesFilteredByExodus": [],
      "metaDataNames": [],
      "sha256": "c933bd04d62e9b46e1252f16cbcb91cdd412ba965b790a4dd002d99723a01bc5",
      "usesPermissions": []
    }
  ],
  "meta": {
    "generated": "2020-08-27T18:35:55.731952",
    "generatedBy": [
      "/home/hc/code/trackingthetrackers/scripts/make-clean-apk-set.py"
    ],
    "generatedByCommitId": "3839559c80042252d3b947fb61c86a18e8b31114",
    "sourceDataCommitId": "888bb8f8c77ff55105fcab2ad84c263561eb1169",
    "ver": "0.3.0"
  }
}