{
  "apks": [
    {
      "applicationId": "com.christian.howtochatwithgirlschristian",
      "broadcastReceiverIntentFilterActionNames": [
        "com.google.android.c2dm.intent.RECEIVE"
      ],
      "dependencies": [
        "com.google.ads.",
        "com.google.android.gms.ads.",
        "com.google.android.gms.analytics.",
        "com.google.android.gms.tagmanager",
        "com.pollfish",
        "com.revmob.ads."
      ],
      "domainNamesFilteredByExodus": [
        ".facebook.com",
        ".google.com",
        "doubleclick.net",
        "google-analytics.com",
        "www.googletagmanager.com"
      ],
      "metaDataNames": [
        "android.app.default_searchable",
        "android.app.searchable",
        "com.google.android.gms.version",
        "com.google.android.maps.v2.API_KEY"
      ],
      "sha256": "afae8b4e2b7a1b6b41cf49d2efa54f46d7371de9571c681f775b0c1f6da42b5c",
      "usesPermissions": [
        "android.permission.ACCESS_COARSE_LOCATION",
        "android.permission.ACCESS_FINE_LOCATION",
        "android.permission.ACCESS_NETWORK_STATE",
        "android.permission.CAMERA",
        "android.permission.GET_ACCOUNTS",
        "android.permission.INTERNET",
        "android.permission.READ_PHONE_STATE",
        "android.permission.RECORD_AUDIO",
        "android.permission.WRITE_EXTERNAL_STORAGE",
        "com.christian.howtochatwithgirlschristian.permission.C2D_MESSAGE",
        "com.google.android.c2dm.permission.RECEIVE"
      ]
    }
  ],
  "meta": {
    "generated": "2020-08-27T15:15:36.388644",
    "generatedBy": [
      "/home/hc/code/trackingthetrackers/scripts/make-trackers-apk-set.py"
    ],
    "ver": "0.3.0"
  }
}