{
  "apks": [
    {
      "applicationId": "com.farmerbb.notepad",
      "broadcastReceiverIntentFilterActionNames": [],
      "dependencies": [],
      "domainNamesFilteredByExodus": [],
      "metaDataNames": [
        "android.app.shortcuts"
      ],
      "sha256": "ce55b60677e26d36e53e85bc09c524faf194002cc9c6430f09154267b01cc765",
      "usesPermissions": []
    }
  ],
  "meta": {
    "generated": "2020-08-27T17:21:49.487238",
    "generatedBy": [
      "/home/hc/code/trackingthetrackers/scripts/make-clean-apk-set.py"
    ],
    "generatedByCommitId": "40519285d6f404593fa655fa89b433743c25289e",
    "sourceDataCommitId": "888bb8f8c77ff55105fcab2ad84c263561eb1169",
    "ver": "0.3.0"
  }
}