{
  "apks": [
    {
      "applicationId": "org.jmoyer.NotificationPlus",
      "broadcastReceiverIntentFilterActionNames": [
        "android.intent.action.BOOT_COMPLETED",
        "android.intent.action.PROVIDER_CHANGED"
      ],
      "dependencies": [],
      "domainNamesFilteredByExodus": [],
      "metaDataNames": [],
      "sha256": "562804842130817a9723de96c9d719ca628ef7926e1c8f4dc9cc78f64fcab06b",
      "usesPermissions": [
        "android.permission.READ_PHONE_STATE",
        "android.permission.RECEIVE_BOOT_COMPLETED",
        "android.permission.RECEIVE_SMS",
        "android.permission.VIBRATE",
        "true",
        "true"
      ]
    }
  ],
  "meta": {
    "generated": "2020-08-27T17:05:43.499684",
    "generatedBy": [
      "/home/hc/code/trackingthetrackers/scripts/make-clean-apk-set.py"
    ],
    "generatedByCommitId": "40519285d6f404593fa655fa89b433743c25289e",
    "sourceDataCommitId": "888bb8f8c77ff55105fcab2ad84c263561eb1169",
    "ver": "0.3.0"
  }
}