{
  "apks": [
    {
      "applicationId": "org.billthefarmer.tuner",
      "broadcastReceiverIntentFilterActionNames": [],
      "dependencies": [],
      "domainNamesFilteredByExodus": [],
      "metaDataNames": [],
      "sha256": "7eb2a31bf21d4ed9b4c472561dad1b2c2af3db4161fbff6b3a4b527e80c43388",
      "usesPermissions": [
        "android.permission.RECORD_AUDIO"
      ]
    }
  ],
  "meta": {
    "generated": "2020-08-27T18:23:37.079367",
    "generatedBy": [
      "/home/hc/code/trackingthetrackers/scripts/make-clean-apk-set.py"
    ],
    "generatedByCommitId": "3839559c80042252d3b947fb61c86a18e8b31114",
    "sourceDataCommitId": "888bb8f8c77ff55105fcab2ad84c263561eb1169",
    "ver": "0.3.0"
  }
}