{
  "apks": [
    {
      "applicationId": "at.bitfire.davdroid",
      "broadcastReceiverIntentFilterActionNames": [
        "android.accounts.LOGIN_ACCOUNTS_CHANGED",
        "android.intent.action.PACKAGE_REPLACED",
        "at.bitfire.davdroid.REINIT_LOGGER"
      ],
      "dependencies": [],
      "domainNamesFilteredByExodus": [],
      "metaDataNames": [
        "android.accounts.AccountAuthenticator",
        "android.content.SyncAdapter",
        "android.provider.CONTACTS_STRUCTURE"
      ],
      "sha256": "f1aa02257e99c167d2ea9b0e9525c3ce7c181fe2e7f4dd00b65dd81ed2e27a62",
      "usesPermissions": [
        "18",
        "18",
        "22",
        "22",
        "22",
        "android.permission.ACCESS_NETWORK_STATE",
        "android.permission.ACCESS_WIFI_STATE",
        "android.permission.AUTHENTICATE_ACCOUNTS",
        "android.permission.GET_ACCOUNTS",
        "android.permission.INTERNET",
        "android.permission.MANAGE_ACCOUNTS",
        "android.permission.READ_CALENDAR",
        "android.permission.READ_CONTACTS",
        "android.permission.READ_EXTERNAL_STORAGE",
        "android.permission.READ_SYNC_SETTINGS",
        "android.permission.REQUEST_IGNORE_BATTERY_OPTIMIZATIONS",
        "android.permission.WRITE_CALENDAR",
        "android.permission.WRITE_CONTACTS",
        "android.permission.WRITE_EXTERNAL_STORAGE",
        "android.permission.WRITE_SYNC_SETTINGS",
        "org.dmfs.permission.READ_TASKS",
        "org.dmfs.permission.WRITE_TASKS"
      ]
    }
  ],
  "meta": {
    "generated": "2020-08-27T17:11:08.976443",
    "generatedBy": [
      "/home/hc/code/trackingthetrackers/scripts/make-clean-apk-set.py"
    ],
    "generatedByCommitId": "40519285d6f404593fa655fa89b433743c25289e",
    "sourceDataCommitId": "888bb8f8c77ff55105fcab2ad84c263561eb1169",
    "ver": "0.3.0"
  }
}