{
  "apks": [
    {
      "applicationId": "air.com.adobe.pstouch",
      "broadcastReceiverIntentFilterActionNames": [
        "android.intent.action.BOOT_COMPLETED",
        "android.intent.action.PACKAGE_ADDED",
        "android.intent.action.PACKAGE_REMOVED",
        "android.intent.action.PACKAGE_REPLACED"
      ],
      "dependencies": [
        "com$startapp$android$publish",
        "com.revmob.ads.",
        "com.startapp.android.publish"
      ],
      "domainNamesFilteredByExodus": [
        ".google.com",
        "api.airpush.com",
        "api.vungle.com",
        "beta.airpush.com",
        "m.airpush.com"
      ],
      "metaDataNames": [
        "com.revmob.app.id",
        "com.startapp.android.APP_ID",
        "com.startapp.android.DEV_ID",
        "com.wzcekejxiy.hmpayhipjz136074.APIKEY",
        "com.wzcekejxiy.hmpayhipjz136074.APPID"
      ],
      "sha256": "94c50193c03718cf6813e0b46f2467c931156b7d5c81f7f0683a30ff65607b44",
      "usesPermissions": [
        "android.permission.ACCESS_COARSE_LOCATION",
        "android.permission.ACCESS_FINE_LOCATION",
        "android.permission.ACCESS_NETWORK_STATE",
        "android.permission.ACCESS_WIFI_STATE",
        "android.permission.GET_TASKS",
        "android.permission.INTERNET",
        "android.permission.LOCATION",
        "android.permission.READ_PHONE_STATE",
        "android.permission.RECEIVE_BOOT_COMPLETED",
        "android.permission.SYSTEM_ALERT_WINDOW",
        "android.permission.VIBRATE",
        "android.permission.WAKE_LOCK",
        "android.permission.WRITE_EXTERNAL_STORAGE",
        "com.anddoes.launcher.permission.READ_SETTINGS",
        "com.anddoes.launcher.permission.WRITE_SETTINGS",
        "com.android.browser.permission.READ_HISTORY_BOOKMARKS",
        "com.android.browser.permission.WRITE_HISTORY_BOOKMARKS",
        "com.android.launcher.permission.INSTALL_SHORTCUT",
        "com.android.launcher.permission.READ_SETTINGS",
        "com.android.launcher.permission.UNINSTALL_SHORTCUT",
        "com.android.launcher.permission.WRITE_SETTINGS",
        "com.fede.launcher.permission.READ_SETTINGS",
        "com.fede.launcher.permission.WRITE_SETTINGS",
        "com.htc.launcher.permission.READ_SETTINGS",
        "com.htc.launcher.permission.WRITE_SETTINGS",
        "com.lge.launcher.permission.INSTALL_SHORTCUT",
        "com.lge.launcher.permission.READ_SETTINGS",
        "com.lge.launcher.permission.WRITE_SETTINGS",
        "com.motorola.dlauncher.permission.INSTALL_SHORTCUT",
        "com.motorola.dlauncher.permission.READ_SETTINGS",
        "com.motorola.dlauncher.permission.WRITE_SETTINGS",
        "com.motorola.launcher.permission.INSTALL_SHORTCUT",
        "com.motorola.launcher.permission.READ_SETTINGS",
        "com.motorola.launcher.permission.WRITE_SETTINGS",
        "com.teslacoilsw.launcher.permission.READ_SETTINGS",
        "com.teslacoilsw.launcher.permission.WRITE_SETTINGS",
        "org.adw.launcher.permission.READ_SETTINGS",
        "org.adw.launcher.permission.WRITE_SETTINGS"
      ]
    }
  ],
  "meta": {
    "generated": "2020-08-27T14:48:58.399068",
    "generatedBy": [
      "/home/hc/code/trackingthetrackers/scripts/make-trackers-apk-set.py"
    ],
    "ver": "0.3.0"
  }
}