{
  "apks": [
    {
      "applicationId": "com.michaelbuettner.battlebowgoogle",
      "broadcastReceiverIntentFilterActionNames": [
        "android.intent.action.BOOT_COMPLETED",
        "android.intent.action.PACKAGE_ADDED",
        "android.intent.action.USER_PRESENT",
        "android.net.conn.CONNECTIVITY_CHANGE"
      ],
      "dependencies": [
        "com.chartboost.sdk.",
        "com.flurry.",
        "com.google.ads.",
        "com.google.android.gms.analytics.",
        "com.inmobi",
        "com.millennialmedia.",
        "com.mobclix.android.sdk",
        "com.tapjoy."
      ],
      "domainNamesFilteredByExodus": [
        ".chartboost.com",
        ".facebook.com",
        ".google.com",
        "flurry.com",
        "google-analytics.com",
        "tapjoy.com",
        "tapjoyads.com"
      ],
      "metaDataNames": [
        "AdView_CHANNEL"
      ],
      "sha256": "3807e7eee059b42edb450bfbe2b0e70070666234e3a1269efa0125722ca9a3ca",
      "usesPermissions": [
        "android.permission.ACCESS_NETWORK_STATE",
        "android.permission.ACCESS_NETWORK_STATE",
        "android.permission.ACCESS_WIFI_STATE",
        "android.permission.ACCESS_WIFI_STATE",
        "android.permission.INTERNET",
        "android.permission.INTERNET",
        "android.permission.READ_PHONE_STATE",
        "android.permission.READ_PHONE_STATE",
        "android.permission.WAKE_LOCK",
        "android.permission.WRITE_EXTERNAL_STORAGE",
        "android.permission.WRITE_EXTERNAL_STORAGE",
        "com.android.launcher.permission.INSTALL_SHORTCUT"
      ]
    }
  ],
  "meta": {
    "generated": "2020-08-27T15:00:14.500013",
    "generatedBy": [
      "/home/hc/code/trackingthetrackers/scripts/make-trackers-apk-set.py"
    ],
    "ver": "0.3.0"
  }
}