{
  "apks": [
    {
      "applicationId": "com.voicetranslator.SpeakAndTranslateFrenchFree",
      "broadcastReceiverIntentFilterActionNames": [],
      "dependencies": [
        "com.google.ads.",
        "com.localytics.android."
      ],
      "domainNamesFilteredByExodus": [
        ".google.com",
        "analytics.localytics.com",
        "doubleclick.net"
      ],
      "metaDataNames": [],
      "sha256": "30fc750ca717dd2b5842afe575d2a23713787511fc9e760595a1edce158a39ce",
      "usesPermissions": [
        "android.permission.ACCESS_NETWORK_STATE",
        "android.permission.ACCESS_WIFI_STATE",
        "android.permission.INTERNET",
        "android.permission.MODIFY_AUDIO_SETTINGS",
        "android.permission.READ_PHONE_STATE",
        "android.permission.RECORD_AUDIO",
        "android.permission.WRITE_EXTERNAL_STORAGE"
      ]
    }
  ],
  "meta": {
    "generated": "2020-08-27T14:56:06.479892",
    "generatedBy": [
      "/home/hc/code/trackingthetrackers/scripts/make-trackers-apk-set.py"
    ],
    "ver": "0.3.0"
  }
}