{
  "apks": [
    {
      "applicationId": "uwbku.aioqeo.bdbv",
      "broadcastReceiverIntentFilterActionNames": [],
      "dependencies": [
        "com.umeng.analytics"
      ],
      "domainNamesFilteredByExodus": [
        "alog.umeng.com",
        "umeng.com"
      ],
      "metaDataNames": [
        "SYSKKEY",
        "SYSKNAME",
        "UMENG_APPKEY",
        "UMENG_CHANNEL"
      ],
      "sha256": "70313e31ddf66f7c41ce3aec5b97a0d2591adba2c51d3daf55c9faba4446b347",
      "usesPermissions": [
        "android.permission.ACCESS_COARSE_LOCATION",
        "android.permission.ACCESS_NETWORK_STATE",
        "android.permission.ACCESS_WIFI_STATE",
        "android.permission.CAMERA",
        "android.permission.CHANGE_WIFI_STATE",
        "android.permission.FLASHLIGHT",
        "android.permission.GET_TASKS",
        "android.permission.INTERNET",
        "android.permission.INTERNET",
        "android.permission.READ_EXTERNAL_STORAGE",
        "android.permission.READ_PHONE_STATE",
        "android.permission.SYSTEM_ALERT_WINDOW",
        "android.permission.SYSTEM_OVERLAY_WINDOW",
        "android.permission.VIBRATE",
        "android.permission.WAKE_LOCK",
        "android.permission.WRITE_EXTERNAL_STORAGE",
        "cn.swiftpass.wxpay.permission.MMOAUTH_CALLBACK",
        "cn.swiftpass.wxpay.permission.MM_MESSAGE",
        "xvtian.gai.receiver"
      ]
    }
  ],
  "meta": {
    "generated": "2020-08-27T15:19:00.328118",
    "generatedBy": [
      "/home/hc/code/trackingthetrackers/scripts/make-trackers-apk-set.py"
    ],
    "ver": "0.3.0"
  }
}