{
  "apks": [
    {
      "applicationId": "air.hp.enlig.age4.kmszhubojiadebaobei",
      "broadcastReceiverIntentFilterActionNames": [],
      "dependencies": [
        "com.umeng.analytics"
      ],
      "domainNamesFilteredByExodus": [
        ".facebook.com",
        ".google.com",
        "alog.umeng.com",
        "oc.umeng.com",
        "stats.unity3d.com",
        "umeng.com"
      ],
      "metaDataNames": [
        "UMENG_APPKEY",
        "unityplayer.ForwardNativeEventsToDalvik",
        "unityplayer.UnityActivity"
      ],
      "sha256": "02e820feee27ca0b1f1781784817dfc48f7f7d02111fdcef5c976ec63bcf55f1",
      "usesPermissions": [
        "android.permission.ACCESS_NETWORK_STATE",
        "android.permission.ACCESS_WIFI_STATE",
        "android.permission.CHANGE_WIFI_STATE",
        "android.permission.GET_ACCOUNTS",
        "android.permission.GET_TASKS",
        "android.permission.INTERNET",
        "android.permission.MANAGE_ACCOUNTS",
        "android.permission.READ_PHONE_STATE",
        "android.permission.WRITE_EXTERNAL_STORAGE"
      ]
    }
  ],
  "meta": {
    "generated": "2020-08-27T15:43:44.420591",
    "generatedBy": [
      "/home/hc/code/trackingthetrackers/scripts/make-trackers-apk-set.py"
    ],
    "ver": "0.3.0"
  }
}