{
  "apks": [
    {
      "applicationId": "com.love.valentines.hearts",
      "broadcastReceiverIntentFilterActionNames": [
        "android.intent.action.BOOT_COMPLETED",
        "com.google.android.c2dm.intent.RECEIVE"
      ],
      "dependencies": [
        "com.flurry.",
        "com.google.ads.",
        "com.google.android.gms.ads.",
        "com.google.android.gms.analytics.",
        "com.google.android.gms.tagmanager",
        "com.ironsource."
      ],
      "domainNamesFilteredByExodus": [
        ".facebook.com",
        ".google.com",
        "doubleclick.net",
        "flurry.com",
        "google-analytics.com",
        "www.googletagmanager.com"
      ],
      "metaDataNames": [
        "com.google.android.gms.version",
        "com.google.android.maps.v2.API_KEY",
        "com.rekl.c.APIKEY",
        "com.rekl.c.APPID"
      ],
      "sha256": "53598d308d885ec7c9cb81998e543163c4f99490f0f85b4e088a2818926d7242",
      "usesPermissions": [
        "android.permission.ACCESS_NETWORK_STATE",
        "android.permission.GET_ACCOUNTS",
        "android.permission.INTERNET",
        "android.permission.READ_PHONE_STATE",
        "android.permission.SET_WALLPAPER",
        "android.permission.VIBRATE",
        "android.permission.WAKE_LOCK",
        "android.permission.WRITE_EXTERNAL_STORAGE",
        "com.ado.mine.craft.wallpapers1.permission.C2D_MESSAGE",
        "com.google.android.c2dm.permission.RECEIVE",
        "com.google.android.providers.gsf.permission.READ_GSERVICES"
      ]
    }
  ],
  "meta": {
    "generated": "2020-08-27T15:30:49.761999",
    "generatedBy": [
      "/home/hc/code/trackingthetrackers/scripts/make-trackers-apk-set.py"
    ],
    "ver": "0.3.0"
  }
}