{
  "apks": [
    {
      "applicationId": "com.vrem.wifianalyzer",
      "broadcastReceiverIntentFilterActionNames": [],
      "dependencies": [],
      "domainNamesFilteredByExodus": [
        ".google.com"
      ],
      "metaDataNames": [
        "android.max_aspect"
      ],
      "sha256": "935fd7e0fb47504ee1549ea7362ab1d8aadd9725296c86342cabc700a27fc0c1",
      "usesPermissions": [
        "android.permission.ACCESS_WIFI_STATE",
        "android.permission.CHANGE_WIFI_STATE"
      ]
    }
  ],
  "meta": {
    "generated": "2020-08-27T17:52:27.582745",
    "generatedBy": [
      "/home/hc/code/trackingthetrackers/scripts/make-clean-apk-set.py"
    ],
    "generatedByCommitId": "3839559c80042252d3b947fb61c86a18e8b31114",
    "sourceDataCommitId": "888bb8f8c77ff55105fcab2ad84c263561eb1169",
    "ver": "0.3.0"
  }
}