{
  "apks": [
    {
      "applicationId": "com.virgil.ctgbijqpze",
      "broadcastReceiverIntentFilterActionNames": [
        "android.intent.action.ACTION_SHUTDOWN",
        "android.intent.action.PACKAGE_ADDED",
        "android.intent.action.PACKAGE_REMOVED",
        "android.intent.action.USER_PRESENT",
        "android.net.conn.CONNECTIVITY_CHANGE",
        "com.lseiei.downloadManager",
        "com.p.d"
      ],
      "dependencies": [
        "com.flurry."
      ],
      "domainNamesFilteredByExodus": [
        ".facebook.com",
        ".google.com",
        "flurry.com"
      ],
      "metaDataNames": [
        "apkey",
        "doodle_mobile_appid"
      ],
      "sha256": "2e1f3fdd7cf69d08e9036969b36428ccf4181f151041b3a800449e2f4601a892",
      "usesPermissions": [
        "android.permission.ACCESS_NETWORK_STATE",
        "android.permission.ACCESS_NETWORK_STATE",
        "android.permission.ACCESS_WIFI_STATE",
        "android.permission.ACCESS_WIFI_STATE",
        "android.permission.GET_TASKS",
        "android.permission.INTERNET",
        "android.permission.INTERNET",
        "android.permission.READ_LOGS",
        "android.permission.READ_PHONE_STATE",
        "android.permission.READ_PHONE_STATE",
        "android.permission.SYSTEM_ALERT_WINDOW",
        "android.permission.VIBRATE",
        "android.permission.WAKE_LOCK",
        "android.permission.WRITE_EXTERNAL_STORAGE",
        "android.permission.WRITE_EXTERNAL_STORAGE"
      ]
    }
  ],
  "meta": {
    "generated": "2020-08-27T15:16:21.899436",
    "generatedBy": [
      "/home/hc/code/trackingthetrackers/scripts/make-trackers-apk-set.py"
    ],
    "ver": "0.3.0"
  }
}