{
  "apks": [
    {
      "applicationId": "com.simplemobiletools.notes",
      "broadcastReceiverIntentFilterActionNames": [
        "android.appwidget.action.APPWIDGET_UPDATE"
      ],
      "dependencies": [],
      "domainNamesFilteredByExodus": [
        ".facebook.com",
        ".google.com"
      ],
      "metaDataNames": [
        "android.appwidget.provider"
      ],
      "sha256": "a81d8953b808e015f2fc67c9664b4f81dc7e9d80a35fb1303d7a17e12ad58f89",
      "usesPermissions": []
    }
  ],
  "meta": {
    "generated": "2020-08-27T17:48:58.754518",
    "generatedBy": [
      "/home/hc/code/trackingthetrackers/scripts/make-clean-apk-set.py"
    ],
    "generatedByCommitId": "40519285d6f404593fa655fa89b433743c25289e",
    "sourceDataCommitId": "888bb8f8c77ff55105fcab2ad84c263561eb1169",
    "ver": "0.3.0"
  }
}