{
  "apks": [
    {
      "applicationId": "ht.hanumanchalisa",
      "broadcastReceiverIntentFilterActionNames": [
        "android.intent.action.BOOT_COMPLETED"
      ],
      "dependencies": [
        "com.airpush.",
        "com.apsalar.sdk."
      ],
      "domainNamesFilteredByExodus": [
        "api.airpush.com",
        "beta.airpush.com",
        "e.apsalar.com",
        "m.airpush.com"
      ],
      "metaDataNames": [
        "com.airpush.android.APIKEY",
        "com.airpush.android.APPID"
      ],
      "sha256": "5607fa8ddc4b462c8f1075cb30261b50ec8a8cc20a28fcf9c684489488494c27",
      "usesPermissions": [
        "android.permission.ACCESS_COARSE_LOCATION",
        "android.permission.ACCESS_FINE_LOCATION",
        "android.permission.ACCESS_NETWORK_STATE",
        "android.permission.ACCESS_WIFI_STATE",
        "android.permission.GET_ACCOUNTS",
        "android.permission.INTERNET",
        "android.permission.READ_PHONE_STATE",
        "android.permission.RECEIVE_BOOT_COMPLETED",
        "com.android.browser.permission.READ_HISTORY_BOOKMARKS",
        "com.android.launcher.permission.INSTALL_SHORTCUT"
      ]
    }
  ],
  "meta": {
    "generated": "2020-08-27T15:01:18.168403",
    "generatedBy": [
      "/home/hc/code/trackingthetrackers/scripts/make-trackers-apk-set.py"
    ],
    "ver": "0.3.0"
  }
}