{
  "apks": [
    {
      "applicationId": "com.frozendevs.periodictable",
      "broadcastReceiverIntentFilterActionNames": [],
      "dependencies": [],
      "domainNamesFilteredByExodus": [
        ".facebook.com",
        ".google.com"
      ],
      "metaDataNames": [
        "android.support.PARENT_ACTIVITY"
      ],
      "sha256": "6d8daa01ba7f4403f836d1e36aceb8095e7b2ba9f1bff9c05b6d899836ae77bd",
      "usesPermissions": []
    }
  ],
  "meta": {
    "generated": "2020-08-27T16:55:26.973651",
    "generatedBy": [
      "/home/hc/code/trackingthetrackers/scripts/make-clean-apk-set.py"
    ],
    "generatedByCommitId": "40519285d6f404593fa655fa89b433743c25289e",
    "sourceDataCommitId": "888bb8f8c77ff55105fcab2ad84c263561eb1169",
    "ver": "0.3.0"
  }
}