{
  "apks": [
    {
      "applicationId": "com.indiagames.ipl2012",
      "broadcastReceiverIntentFilterActionNames": [
        "com.android.vending.INSTALL_REFERRER"
      ],
      "dependencies": [
        "com.flurry.",
        "com.google.ads.",
        "com.google.android.apps.analytics.",
        "com_google_ads_"
      ],
      "domainNamesFilteredByExodus": [
        ".facebook.com",
        ".google.com",
        "doubleclick.net",
        "flurry.com",
        "google-analytics.com",
        "smaato.net",
        "soma.smaato.net"
      ],
      "metaDataNames": [],
      "sha256": "dcc331f4d373a055d3dbd4ce3ea385e30ee18bbf5a7b0078fadc6a1e1f501411",
      "usesPermissions": [
        "android.permission.ACCESS_COARSE_LOCATION",
        "android.permission.ACCESS_FINE_LOCATION",
        "android.permission.ACCESS_NETWORK_STATE",
        "android.permission.ACCESS_WIFI_STATE",
        "android.permission.INTERNET",
        "android.permission.READ_PHONE_STATE",
        "android.permission.VIBRATE",
        "android.permission.WAKE_LOCK",
        "android.permission.WRITE_EXTERNAL_STORAGE"
      ]
    }
  ],
  "meta": {
    "generated": "2020-08-27T15:07:20.272500",
    "generatedBy": [
      "/home/hc/code/trackingthetrackers/scripts/make-trackers-apk-set.py"
    ],
    "ver": "0.3.0"
  }
}