{
  "apks": [
    {
      "applicationId": "fun.cz.auradesign.wibrplus",
      "broadcastReceiverIntentFilterActionNames": [
        "android.intent.action.BOOT_COMPLETED",
        "android.intent.action.PACKAGE_ADDED",
        "android.intent.action.PACKAGE_INSTALL",
        "android.net.conn.CONNECTIVITY_CHANGE",
        "android.net.wifi.WIFI_STATE_CHANGED",
        "com.android.vending.INSTALL_REFERRER"
      ],
      "dependencies": [
        "com.appnexus.opensdk.",
        "com.flurry.",
        "com.google.ads.",
        "com.google.android.gms.ads.",
        "com.google.android.gms.analytics.",
        "com.google.android.gms.tagmanager",
        "com.inneractive.api.ads",
        "com.purplebrain.adbuddiz.sdk.",
        "com.sponsorpay",
        "com.supersonicads.sdk",
        "com.tapjoy.",
        "com.vungle.publisher.",
        "org.nexage."
      ],
      "domainNamesFilteredByExodus": [
        ".google.com",
        "adcolony.com",
        "adnxs.com",
        "androidads21.adcolony.com",
        "api.vungle.com",
        "doubleclick.net",
        "engine.sponsorpay.com",
        "flurry.com",
        "google-analytics.com",
        "sdk.adbuddiz.com",
        "tapjoy.com",
        "tapjoyads.com",
        "www.googletagmanager.com",
        "www.supersonicads.com"
      ],
      "metaDataNames": [
        "com.google.android.gms.version",
        "com.somepackage.llibs.AFFILIATE_ID",
        "com.somepackage.llibs.APPLICATION_KEY",
        "com.somepackage.llibs.FLURRY_KEY",
        "com.somepackage.llibs.PUBLISHER_ID"
      ],
      "sha256": "799631a63ce4536f82b560c251556d07ee636da0e266628a75a74129597baa63",
      "usesPermissions": [
        "android.permission.ACCESS_COARSE_LOCATION",
        "android.permission.ACCESS_NETWORK_STATE",
        "android.permission.ACCESS_WIFI_STATE",
        "android.permission.GET_ACCOUNTS",
        "android.permission.GET_TASKS",
        "android.permission.INTERNET",
        "android.permission.READ_EXTERNAL_STORAGE",
        "android.permission.READ_PHONE_STATE",
        "android.permission.RECEIVE_BOOT_COMPLETED",
        "android.permission.SYSTEM_ALERT_WINDOW",
        "android.permission.WRITE_EXTERNAL_STORAGE",
        "android.permission.WRITE_SETTINGS",
        "app.cloudstringers.permission.C2D_MESSAGE",
        "com.google.android.c2dm.permission.RECEIVE"
      ]
    }
  ],
  "meta": {
    "generated": "2020-08-27T15:12:02.902343",
    "generatedBy": [
      "/home/hc/code/trackingthetrackers/scripts/make-trackers-apk-set.py"
    ],
    "ver": "0.3.0"
  }
}