{
  "apks": [
    {
      "applicationId": "org.sufficientlysecure.keychain",
      "broadcastReceiverIntentFilterActionNames": [
        "android.intent.action.PACKAGE_FULLY_REMOVED",
        "android.net.conn.CONNECTIVITY_CHANGE",
        "org.torproject.android.intent.action.STATUS"
      ],
      "dependencies": [],
      "domainNamesFilteredByExodus": [
        ".facebook.com",
        ".google.com"
      ],
      "metaDataNames": [
        "android.accounts.AccountAuthenticator",
        "android.content.SyncAdapter",
        "android.hardware.usb.action.USB_DEVICE_ATTACHED",
        "android.provider.CONTACTS_STRUCTURE",
        "android.support.PARENT_ACTIVITY"
      ],
      "sha256": "17dfa278c8075ef4e06b5be7875e5a04ea550e4815b23ff64837463b96d629f8",
      "usesPermissions": [
        "android.permission.ACCESS_NETWORK_STATE",
        "android.permission.ACCESS_WIFI_STATE",
        "android.permission.AUTHENTICATE_ACCOUNTS",
        "android.permission.CAMERA",
        "android.permission.GET_ACCOUNTS",
        "android.permission.INTERNET",
        "android.permission.MANAGE_ACCOUNTS",
        "android.permission.NFC",
        "android.permission.READ_CONTACTS",
        "android.permission.READ_EXTERNAL_STORAGE",
        "android.permission.READ_PROFILE",
        "android.permission.READ_SYNC_SETTINGS",
        "android.permission.WRITE_CONTACTS",
        "android.permission.WRITE_EXTERNAL_STORAGE",
        "android.permission.WRITE_PROFILE",
        "android.permission.WRITE_SYNC_SETTINGS"
      ]
    }
  ],
  "meta": {
    "generated": "2020-08-27T18:36:51.653939",
    "generatedBy": [
      "/home/hc/code/trackingthetrackers/scripts/make-clean-apk-set.py"
    ],
    "generatedByCommitId": "3839559c80042252d3b947fb61c86a18e8b31114",
    "sourceDataCommitId": "888bb8f8c77ff55105fcab2ad84c263561eb1169",
    "ver": "0.3.0"
  }
}