{
  "apks": [
    {
      "applicationId": "cn.playboy.ithu",
      "broadcastReceiverIntentFilterActionNames": [],
      "dependencies": [
        "com.tencent.lbs",
        "com.tencent.mobwin"
      ],
      "domainNamesFilteredByExodus": [],
      "metaDataNames": [
        "APP_CHANNEL",
        "APP_ID",
        "APP_INTERVAL"
      ],
      "sha256": "5b762aae2e198c85f503e5580b6bbde06b6398c157397ca3f46e1df9191bdf8c",
      "usesPermissions": [
        "android.permission.ACCESS_COARSE_LOCATION",
        "android.permission.ACCESS_FINE_LOCATION",
        "android.permission.ACCESS_NETWORK_STATE",
        "android.permission.ACCESS_WIFI_STATE",
        "android.permission.CHANGE_WIFI_STATE",
        "android.permission.INTERNET",
        "android.permission.READ_PHONE_STATE",
        "android.permission.WRITE_EXTERNAL_STORAGE"
      ]
    }
  ],
  "meta": {
    "generated": "2020-08-27T15:02:42.603624",
    "generatedBy": [
      "/home/hc/code/trackingthetrackers/scripts/make-trackers-apk-set.py"
    ],
    "ver": "0.3.0"
  }
}