{
  "apks": [
    {
      "applicationId": "org.billthefarmer.melodeon",
      "broadcastReceiverIntentFilterActionNames": [],
      "dependencies": [],
      "domainNamesFilteredByExodus": [],
      "metaDataNames": [],
      "sha256": "3af42a6c59760720b5985b17364316fbd238ed0e1d221975348af8605eb793fb",
      "usesPermissions": []
    }
  ],
  "meta": {
    "generated": "2020-08-27T17:04:58.102835",
    "generatedBy": [
      "/home/hc/code/trackingthetrackers/scripts/make-clean-apk-set.py"
    ],
    "generatedByCommitId": "40519285d6f404593fa655fa89b433743c25289e",
    "sourceDataCommitId": "888bb8f8c77ff55105fcab2ad84c263561eb1169",
    "ver": "0.3.0"
  }
}