{
  "apks": [
    {
      "applicationId": "com.grarak.kerneladiutor",
      "broadcastReceiverIntentFilterActionNames": [
        "android.appwidget.action.APPWIDGET_UPDATE",
        "android.intent.action.BOOT_COMPLETED",
        "com.grarak.kerneladiutor.action.ACTION_TOGGLE_STATE",
        "com.twofortyfouram.locale.intent.action.FIRE_SETTING"
      ],
      "dependencies": [],
      "domainNamesFilteredByExodus": [
        ".google.com"
      ],
      "metaDataNames": [
        "android.appwidget.provider",
        "protocolVersion"
      ],
      "sha256": "a30f66ea93f3a89fa283f7a430bd400c540bb92a4be39721b3f8ca2ba1074c5f",
      "usesPermissions": [
        "android.permission.ACCESS_SUPERUSER",
        "android.permission.INTERNET",
        "android.permission.RECEIVE_BOOT_COMPLETED",
        "android.permission.WAKE_LOCK",
        "android.permission.WRITE_EXTERNAL_STORAGE",
        "cyanogenmod.permission.PUBLISH_CUSTOM_TILE"
      ]
    }
  ],
  "meta": {
    "generated": "2020-08-27T17:31:44.930932",
    "generatedBy": [
      "/home/hc/code/trackingthetrackers/scripts/make-clean-apk-set.py"
    ],
    "generatedByCommitId": "40519285d6f404593fa655fa89b433743c25289e",
    "sourceDataCommitId": "888bb8f8c77ff55105fcab2ad84c263561eb1169",
    "ver": "0.3.0"
  }
}