{
  "apks": [
    {
      "applicationId": "de.baumann.browser",
      "broadcastReceiverIntentFilterActionNames": [],
      "dependencies": [],
      "domainNamesFilteredByExodus": [
        ".chartbeat.com",
        ".chartbeat.net",
        ".chartboost.com",
        ".commander1.com",
        ".exacttarget.",
        ".facebook.com",
        ".google.com",
        "247realmedia.com",
        "2mdn.net",
        "4seeresults.com",
        "ad.cauly.co.kr",
        "ad4game.com",
        "adcolony.com",
        "adformdsp.net",
        "adlibr.com",
        "admixer.co.kr",
        "adnxs.com",
        "adotsolution.com",
        "ads.glispa.com",
        "ads.heyzap.com",
        "ads.mobclix.com",
        "ads.pubmatic.com",
        "ads.rubiconproject.com",
        "adsafeprotected.com",
        "adsrvr.org",
        "adswizz.com",
        "adtech.de",
        "adtheorent.com",
        "adzerk.net",
        "akamai.smartadserver.com",
        "aktrack.pubmatic.com",
        "alog.umeng.com",
        "amobee.com",
        "analytics.ad.daum.net",
        "analytics.localytics.com",
        "androidads20.adcolony.com",
        "aos.wall.youmi.net",
        "api.airpush.com",
        "api.crittercism.com",
        "api.mixpanel.com",
        "api.otherlevels.com",
        "api.vungle.com",
        "appboy.com",
        "appload.ingest.crittercism.com",
        "applovin.com",
        "appsflyer.com",
        "assets.tapad.com",
        "au.youmi.net",
        "avazutracking.net",
        "c.betrad.com",
        "c.w.inmobi.com",
        "cdn.dynamicyield.com",
        "cdn1.smartadserver.com",
        "cedexis-radar.net",
        "cedexis.com",
        "china.inmobi.com",
        "comscore.com",
        "config-ltvp.inmobi.com",
        "contextual.media.net",
        "crashlytics.com",
        "criteo.com",
        "data.mobclix.com",
        "demdex.net",
        "diff.smartadserver.com",
        "diff2.smartadserver.com",
        "diff3.smartadserver.com",
        "dmtry.com",
        "doubleclick.com",
        "doubleclick.net",
        "engine.adzerk.net",
        "eqx.smartadserver.com",
        "et.w.inmobi.com",
        "flurry.com",
        "foreseeresults.com",
        "fwmrm.net",
        "gemius.pl",
        "google-analytics.com",
        "helpshift.com",
        "hockeyapp.net",
        "i.4see.mobi",
        "i.w.inmobi.com",
        "im2.smartadserver.com",
        "image2.pubmatic.com",
        "inmobi.com",
        "inmobicdn.net",
        "inmobisdk-a.akamaihd.net",
        "insight.adsrvr.org",
        "itx5-publicidad.smartadserver.com",
        "itx5.smartadserver.com",
        "japan.inmobi.com",
        "js-agent.newrelic.com",
        "js.moatads.com",
        "jwpltx.com",
        "kiip.me",
        "krxd.net",
        "ligatus.com",
        "loadus.exelator.com",
        "log.pinterest.com",
        "loggly.com",
        "marketo.com",
        "marketo.net",
        "match.adsrvr.org",
        "mc.yandex.ru",
        "media.net",
        "metrics.brightcove.com",
        "millennialmedia.com",
        "mixpanel.com",
        "mobclix.com",
        "mobile-collector.newrelic.com",
        "mobileapptracking.com",
        "mopub.com",
        "newrelic.com",
        "nexage.com",
        "nr-data.net",
        "oc.umeng.com",
        "omniture.com",
        "omtrdc.net",
        "ooyala.com",
        "openx.com",
        "openx.net",
        "openx.org",
        "optimized-by.rubiconproject.com",
        "optimizely.com",
        "outbrain.com",
        "pixel.mathtag.com",
        "pixel.moatads.com",
        "pixel.rubiconproject.com",
        "pixel.tapad.com",
        "pushwoosh.com",
        "qualtrics.com",
        "quantcast.com",
        "r.w.inmobi.com",
        "radar.cedexis.com",
        "s.mobclix.com",
        "scorecardresearch.com",
        "sdk.appbrain.com",
        "sdkm.w.inmobi.com",
        "segment.com",
        "serving-sys.com",
        "smaato.net",
        "smartadserver.com",
        "soma.smaato.net",
        "stags.bluekai.com",
        "static.adzerk.net",
        "stats.unity3d.com",
        "taboola.com",
        "tags.bluekai.com",
        "tap2-cdn.rubiconproject.com",
        "tapestry.tapad.com",
        "tapjoy.com",
        "tapjoyads.com",
        "tiqcdn.com",
        "track.adform.net",
        "umeng.com",
        "us-ads.openx.net",
        "w.inmobi.com",
        "weborama.fr",
        "webtrends.com",
        "widespace.com",
        "www.googletagmanager.com",
        "www.googletagservices.com",
        "www.supersonicads.com",
        "yoc-performance.com",
        "youmi.net",
        "z.moatads.com"
      ],
      "metaDataNames": [
        "android.app.searchable",
        "android.app.shortcuts",
        "android.support.FILE_PROVIDER_PATHS"
      ],
      "sha256": "6698200dc36cf6cbb5a0be6520732b76be43e336c38203d4d268008ce7199dfa",
      "usesPermissions": [
        "android.permission.ACCESS_COARSE_LOCATION",
        "android.permission.ACCESS_FINE_LOCATION",
        "android.permission.ACCESS_NETWORK_STATE",
        "android.permission.INTERNET",
        "android.permission.READ_EXTERNAL_STORAGE",
        "android.permission.WRITE_EXTERNAL_STORAGE"
      ]
    }
  ],
  "meta": {
    "generated": "2020-08-27T17:56:13.859823",
    "generatedBy": [
      "/home/hc/code/trackingthetrackers/scripts/make-clean-apk-set.py"
    ],
    "generatedByCommitId": "3839559c80042252d3b947fb61c86a18e8b31114",
    "sourceDataCommitId": "888bb8f8c77ff55105fcab2ad84c263561eb1169",
    "ver": "0.3.0"
  }
}