{
  "apks": [
    {
      "applicationId": "com.zhkj.shwj",
      "broadcastReceiverIntentFilterActionNames": [],
      "dependencies": [
        "com.tencent.bugly."
      ],
      "domainNamesFilteredByExodus": [
        "adjust.com",
        "bugly.qq.com"
      ],
      "metaDataNames": [],
      "sha256": "b3a1d15649d5dcf3833071bd3511c0ba532cac40f5a9821e2ee4f409068e95ba",
      "usesPermissions": [
        "android.permission.ACCESS_NETWORK_STATE",
        "android.permission.ACCESS_WIFI_STATE",
        "android.permission.CHANGE_WIFI_STATE",
        "android.permission.GET_PACKAGE_SIZE",
        "android.permission.GET_TASKS",
        "android.permission.INTERNET",
        "android.permission.READ_EXTERNAL_STORAGE",
        "android.permission.READ_PHONE_STATE",
        "android.permission.RECEIVE_SMS",
        "android.permission.SEND_SMS",
        "android.permission.VIBRATE",
        "android.permission.WAKE_LOCK",
        "android.permission.WRITE_EXTERNAL_STORAGE",
        "android.permission.WRITE_SETTINGS"
      ]
    }
  ],
  "meta": {
    "generated": "2020-08-27T15:40:08.405541",
    "generatedBy": [
      "/home/hc/code/trackingthetrackers/scripts/make-trackers-apk-set.py"
    ],
    "ver": "0.3.0"
  }
}