{
  "apks": [
    {
      "applicationId": "ww.ditudaohang.weixingditu",
      "broadcastReceiverIntentFilterActionNames": [],
      "dependencies": [
        "com.google.ads.",
        "com.mdotm.android",
        "com.millennialmedia.",
        "com.tencent.lbs",
        "com.tencent.mobwin",
        "net.youmi"
      ],
      "domainNamesFilteredByExodus": [
        ".google.com",
        "inmobi.com",
        "media.net",
        "w.inmobi.com",
        "youmi.net"
      ],
      "metaDataNames": [
        "ADMOGO_KEY",
        "BaiduMobAd_APP_ID",
        "BaiduMobAd_APP_SEC",
        "Market_ID"
      ],
      "sha256": "3a7108b2a2c4c9c6ff00fcd3a878ba1a5f6224cec57df37f97e70c7191728a25",
      "usesPermissions": [
        "android.permission.ACCESS_COARSE_LOCATION",
        "android.permission.ACCESS_FINE_LOCATION",
        "android.permission.ACCESS_LOCATION_EXTRA_COMMANDS",
        "android.permission.ACCESS_NETWORK_STATE",
        "android.permission.ACCESS_WIFI_STATE",
        "android.permission.CHANGE_WIFI_STATE",
        "android.permission.INTERNET",
        "android.permission.READ_EXTERNAL_STORAGE",
        "android.permission.READ_PHONE_STATE",
        "android.permission.RECORD_AUDIO",
        "android.permission.VIBRATE",
        "android.permission.WRITE_EXTERNAL_STORAGE",
        "com.android.browser.permission.READ_HISTORY_BOOKMARKS",
        "com.android.browser.permission.WRITE_HISTORY_BOOKMARKS"
      ]
    }
  ],
  "meta": {
    "generated": "2020-08-27T14:55:51.227211",
    "generatedBy": [
      "/home/hc/code/trackingthetrackers/scripts/make-trackers-apk-set.py"
    ],
    "ver": "0.3.0"
  }
}