{
  "apks": [
    {
      "applicationId": "me.echeung.moemoekyun.fdroid",
      "dependencies": [],
      "domainNamesFilteredByExodus": [
        ".google.com"
      ],
      "sha256": "fde3f43335292aa8f6d34de9bbfde2a706df2aa4b6a669b7a42d1dd85c5e1d8d",
      "usesPermissions": [
        "android.permission.ACCESS_NETWORK_STATE",
        "android.permission.FOREGROUND_SERVICE",
        "android.permission.INTERNET",
        "android.permission.WAKE_LOCK"
      ]
    }
  ],
  "meta": {
    "ver": "0.2.0"
  }
}