{
  "apks": [
    {
      "applicationId": "com.launcher.silverfish",
      "broadcastReceiverIntentFilterActionNames": [],
      "dependencies": [],
      "domainNamesFilteredByExodus": [],
      "metaDataNames": [],
      "sha256": "f155f884ce75899a04ed1cecf3bc75ef92eacc8448ddbba1673cd9e97054dd29",
      "usesPermissions": [
        "android.permission.BIND_APPWIDGET"
      ]
    }
  ],
  "meta": {
    "generated": "2020-08-27T17:35:52.226715",
    "generatedBy": [
      "/home/hc/code/trackingthetrackers/scripts/make-clean-apk-set.py"
    ],
    "generatedByCommitId": "40519285d6f404593fa655fa89b433743c25289e",
    "sourceDataCommitId": "888bb8f8c77ff55105fcab2ad84c263561eb1169",
    "ver": "0.3.0"
  }
}