{
  "apks": [
    {
      "applicationId": "com.chaozh.iReader.one_LANMAODENGYIGUANGWENJI",
      "broadcastReceiverIntentFilterActionNames": [
        "android.intent.action.BOOT_COMPLETED",
        "android.intent.action.USER_PRESENT",
        "android.net.conn.CONNECTIVITY_CHANGE",
        "com.igexin.sdk.action.YN7GZFYiSX7opmqCOVeOw1",
        "com.igexin.sdk.action.refreshls",
        "com.tencent.mm.plugin.openapi.Intent.ACTION_REFRESH_WXAPP"
      ],
      "dependencies": [
        "com.baidu.location"
      ],
      "domainNamesFilteredByExodus": [
        "map.baidu.com"
      ],
      "metaDataNames": [
        "appid",
        "appkey",
        "appsecret"
      ],
      "sha256": "14637efff3c8a5688e4cfa0050fe0ff033cad8c9aef6ef7adee72934513da3b5",
      "usesPermissions": [
        "android.permission.ACCESS_COARSE_LOCATION",
        "android.permission.ACCESS_FINE_LOCATION",
        "android.permission.ACCESS_NETWORK_STATE",
        "android.permission.ACCESS_WIFI_STATE",
        "android.permission.CAMERA",
        "android.permission.CHANGE_WIFI_STATE",
        "android.permission.DISABLE_KEYGUARD",
        "android.permission.FLASHLIGHT",
        "android.permission.GET_TASKS",
        "android.permission.INTERNET",
        "android.permission.READ_LOGS",
        "android.permission.READ_PHONE_STATE",
        "android.permission.RECEIVE_BOOT_COMPLETED",
        "android.permission.RECEIVE_USER_PRESENT",
        "android.permission.SEND_SMS",
        "android.permission.SYSTEM_ALERT_WINDOW",
        "android.permission.VIBRATE",
        "android.permission.VIBRATE",
        "android.permission.WAKE_LOCK",
        "android.permission.WRITE_EXTERNAL_STORAGE",
        "android.permission.WRITE_SETTINGS",
        "com.android.launcher.permission.INSTALL_SHORTCUT",
        "com.android.launcher.permission.READ_SETTINGS"
      ]
    }
  ],
  "meta": {
    "generated": "2020-08-27T15:46:22.544452",
    "generatedBy": [
      "/home/hc/code/trackingthetrackers/scripts/make-trackers-apk-set.py"
    ],
    "ver": "0.3.0"
  }
}