{
  "apks": [
    {
      "applicationId": "de.uni_potsdam.hpi.openmensa",
      "broadcastReceiverIntentFilterActionNames": [],
      "dependencies": [],
      "domainNamesFilteredByExodus": [
        ".google.com",
        "api.tiles.mapbox.com"
      ],
      "metaDataNames": [
        "android.support.PARENT_ACTIVITY"
      ],
      "sha256": "aec3530be4d42fb18726e6b78ffe22ea1a28d1ce8f699673d2938a0efc3ee131",
      "usesPermissions": [
        "android.permission.ACCESS_COARSE_LOCATION",
        "android.permission.ACCESS_FINE_LOCATION",
        "android.permission.ACCESS_NETWORK_STATE",
        "android.permission.ACCESS_WIFI_STATE",
        "android.permission.INTERNET"
      ]
    }
  ],
  "meta": {
    "generated": "2020-08-27T18:05:03.227910",
    "generatedBy": [
      "/home/hc/code/trackingthetrackers/scripts/make-clean-apk-set.py"
    ],
    "generatedByCommitId": "3839559c80042252d3b947fb61c86a18e8b31114",
    "sourceDataCommitId": "888bb8f8c77ff55105fcab2ad84c263561eb1169",
    "ver": "0.3.0"
  }
}