{
  "apks": [
    {
      "applicationId": "org.cocos2d.fishingjoy3",
      "broadcastReceiverIntentFilterActionNames": [
        "UT.FoundIT",
        "UT.QueryWhoHasOne"
      ],
      "dependencies": [],
      "domainNamesFilteredByExodus": [
        ".facebook.com"
      ],
      "metaDataNames": [
        "EGAME_CHANNEL",
        "android.app.lib_name",
        "app_name",
        "app_package",
        "chukong_publisherid",
        "com.taobao.android.ski.NODERIVATION"
      ],
      "sha256": "72ab56507e21f08a0e99e1eedd16aaccdaffc9cc7c5dfdbbdc40d648ae54553e",
      "usesPermissions": [
        "android.permission.ACCESS_COARSE_LOCATION",
        "android.permission.ACCESS_COARSE_LOCATION",
        "android.permission.ACCESS_FINE_LOCATION",
        "android.permission.ACCESS_NETWORK_STATE",
        "android.permission.ACCESS_NETWORK_STATE",
        "android.permission.ACCESS_NETWORK_STATE",
        "android.permission.ACCESS_NETWORK_STATE",
        "android.permission.ACCESS_NETWORK_STATE",
        "android.permission.ACCESS_NETWORK_STATE",
        "android.permission.ACCESS_NETWORK_STATE",
        "android.permission.ACCESS_NETWORK_STATE",
        "android.permission.ACCESS_WIFI_STATE",
        "android.permission.ACCESS_WIFI_STATE",
        "android.permission.ACCESS_WIFI_STATE",
        "android.permission.ACCESS_WIFI_STATE",
        "android.permission.ACCESS_WIFI_STATE",
        "android.permission.ACCESS_WIFI_STATE",
        "android.permission.ACCESS_WIFI_STATE",
        "android.permission.ACCESS_WIFI_STATE",
        "android.permission.ACCESS_WIFI_STATE",
        "android.permission.CHANGE_WIFI_STATE",
        "android.permission.CHANGE_WIFI_STATE",
        "android.permission.DISABLE_KEYGUARD",
        "android.permission.GET_ACCOUNTS",
        "android.permission.GET_TASKS",
        "android.permission.GET_TASKS",
        "android.permission.INTERNET",
        "android.permission.INTERNET",
        "android.permission.INTERNET",
        "android.permission.INTERNET",
        "android.permission.INTERNET",
        "android.permission.INTERNET",
        "android.permission.INTERNET",
        "android.permission.INTERNET",
        "android.permission.INTERNET",
        "android.permission.MANAGE_ACCOUNTS",
        "android.permission.MOUNT_UNMOUNT_FILESYSTEMS",
        "android.permission.MOUNT_UNMOUNT_FILESYSTEMS",
        "android.permission.MOUNT_UNMOUNT_FILESYSTEMS",
        "android.permission.READ_LOGS",
        "android.permission.READ_PHONE_STATE",
        "android.permission.READ_PHONE_STATE",
        "android.permission.READ_PHONE_STATE",
        "android.permission.READ_PHONE_STATE",
        "android.permission.READ_PHONE_STATE",
        "android.permission.READ_PHONE_STATE",
        "android.permission.READ_PHONE_STATE",
        "android.permission.READ_PHONE_STATE",
        "android.permission.READ_SETTINGS",
        "android.permission.READ_SMS",
        "android.permission.RECEIVE_BOOT_COMPLETED",
        "android.permission.SEND_SMS",
        "android.permission.SEND_SMS",
        "android.permission.SEND_SMS",
        "android.permission.SEND_SMS",
        "android.permission.SEND_SMS",
        "android.permission.VIBRATE",
        "android.permission.VIBRATE",
        "android.permission.WRITE_EXTERNAL_STORAGE",
        "android.permission.WRITE_EXTERNAL_STORAGE",
        "android.permission.WRITE_EXTERNAL_STORAGE",
        "android.permission.WRITE_EXTERNAL_STORAGE",
        "android.permission.WRITE_EXTERNAL_STORAGE",
        "android.permission.WRITE_EXTERNAL_STORAGE",
        "android.permission.WRITE_EXTERNAL_STORAGE",
        "android.permission.WRITE_SETTINGS",
        "com.alipay.mobile.command.trigger.permission",
        "com.ut.permission.DEVICE_STATE"
      ]
    }
  ],
  "meta": {
    "generated": "2020-08-27T14:51:24.454364",
    "generatedBy": [
      "/home/hc/code/trackingthetrackers/scripts/make-trackers-apk-set.py"
    ],
    "ver": "0.3.0"
  }
}