{
  "apks": [
    {
      "applicationId": "com.lithium.leona.openstud",
      "broadcastReceiverIntentFilterActionNames": [
        "android.appwidget.action.APPWIDGET_UPDATE"
      ],
      "dependencies": [],
      "domainNamesFilteredByExodus": [
        ".facebook.com",
        ".google.com",
        "firebase.com",
        "hockeyapp.net",
        "mixpanel.com"
      ],
      "metaDataNames": [
        "android.appwidget.provider",
        "android.support.FILE_PROVIDER_PATHS",
        "firebase_analytics_collection_deactivated",
        "firebase_crashlytics_collection_enabled",
        "google_analytics_adid_collection_enabled"
      ],
      "sha256": "9df7776929d5c382dcb2d793de4bce9d001e68b48d1ca3809631ce71152a2db1",
      "usesPermissions": [
        "android.permission.ACCESS_NETWORK_STATE",
        "android.permission.INTERNET",
        "android.permission.USE_BIOMETRIC",
        "android.permission.USE_FINGERPRINT"
      ]
    }
  ],
  "meta": {
    "generated": "2020-08-27T17:36:21.895835",
    "generatedBy": [
      "/home/hc/code/trackingthetrackers/scripts/make-clean-apk-set.py"
    ],
    "generatedByCommitId": "40519285d6f404593fa655fa89b433743c25289e",
    "sourceDataCommitId": "888bb8f8c77ff55105fcab2ad84c263561eb1169",
    "ver": "0.3.0"
  }
}