{
  "apks": [
    {
      "applicationId": "me.kavishhukmani.watwitchstickers",
      "broadcastReceiverIntentFilterActionNames": [],
      "dependencies": [],
      "domainNamesFilteredByExodus": [
        ".google.com"
      ],
      "metaDataNames": [
        "android.support.PARENT_ACTIVITY"
      ],
      "sha256": "39e0e23f2be6dcc562d3f9e1e47aee2ce6fdf3774122921bb6308df44e9c74be",
      "usesPermissions": []
    }
  ],
  "meta": {
    "generated": "2020-08-27T18:16:11.420715",
    "generatedBy": [
      "/home/hc/code/trackingthetrackers/scripts/make-clean-apk-set.py"
    ],
    "generatedByCommitId": "3839559c80042252d3b947fb61c86a18e8b31114",
    "sourceDataCommitId": "888bb8f8c77ff55105fcab2ad84c263561eb1169",
    "ver": "0.3.0"
  }
}