{
  "apks": [
    {
      "applicationId": "com.zl.game.petrescue",
      "broadcastReceiverIntentFilterActionNames": [
        "action.cust.downloaded",
        "action.cust.point.process_main",
        "action.cust.point.process_vip"
      ],
      "dependencies": [],
      "domainNamesFilteredByExodus": [],
      "metaDataNames": [
        "APP_PID",
        "BaiduMobAd_APP_ID",
        "BaiduMobAd_APP_SEC",
        "UMENG_APPKEY",
        "UMENG_CHANNEL"
      ],
      "sha256": "13fd5ddf7b1a483ff813170bf7704bea3039fbc989bf0999bac61018672690a7",
      "usesPermissions": [
        "android.permission.ACCESS_COARSE_LOCATION",
        "android.permission.ACCESS_NETWORK_STATE",
        "android.permission.ACCESS_WIFI_STATE",
        "android.permission.GET_TASKS",
        "android.permission.INTERNET",
        "android.permission.READ_PHONE_STATE",
        "android.permission.SYSTEM_ALERT_WINDOW",
        "android.permission.WAKE_LOCK",
        "android.permission.WRITE_EXTERNAL_STORAGE"
      ]
    }
  ],
  "meta": {
    "generated": "2020-08-27T15:12:01.007362",
    "generatedBy": [
      "/home/hc/code/trackingthetrackers/scripts/make-trackers-apk-set.py"
    ],
    "ver": "0.3.0"
  }
}