{
  "apks": [
    {
      "applicationId": "rkr.simplekeyboard.inputmethod",
      "broadcastReceiverIntentFilterActionNames": [
        "android.intent.action.LOCALE_CHANGED"
      ],
      "dependencies": [],
      "domainNamesFilteredByExodus": [],
      "metaDataNames": [
        "android.view.im"
      ],
      "sha256": "fe13e9502d3d924449dae36a67407d226d89182c3676b968670530271169ee75",
      "usesPermissions": [
        "android.permission.VIBRATE"
      ]
    }
  ],
  "meta": {
    "generated": "2020-08-27T18:43:11.068225",
    "generatedBy": [
      "/home/hc/code/trackingthetrackers/scripts/make-clean-apk-set.py"
    ],
    "generatedByCommitId": "3839559c80042252d3b947fb61c86a18e8b31114",
    "sourceDataCommitId": "888bb8f8c77ff55105fcab2ad84c263561eb1169",
    "ver": "0.3.0"
  }
}