{
  "apks": [
    {
      "applicationId": "ca.rmen.android.frenchcalendar",
      "broadcastReceiverIntentFilterActionNames": [
        "android.appwidget.action.APPWIDGET_UPDATE",
        "ca.rmen.android.frcwidget.UPDATE_WIDGET"
      ],
      "dependencies": [],
      "domainNamesFilteredByExodus": [],
      "metaDataNames": [
        "android.appwidget.provider"
      ],
      "sha256": "40b6fbd8e5ff7c83b559724089fab597670589326e4d4d33d4475fd685ec9e7a",
      "usesPermissions": []
    }
  ],
  "meta": {
    "generated": "2020-08-27T17:12:25.311969",
    "generatedBy": [
      "/home/hc/code/trackingthetrackers/scripts/make-clean-apk-set.py"
    ],
    "generatedByCommitId": "40519285d6f404593fa655fa89b433743c25289e",
    "sourceDataCommitId": "888bb8f8c77ff55105fcab2ad84c263561eb1169",
    "ver": "0.3.0"
  }
}