{
  "apks": [
    {
      "applicationId": "com.mobincube.android.sc_3SBR1K",
      "broadcastReceiverIntentFilterActionNames": [
        "android.intent.action.PACKAGE_ADDED",
        "com.android.vending.INSTALL_REFERRER",
        "com.google.android.c2dm.intent.REGISTRATION",
        "com.inmobi.share.id"
      ],
      "dependencies": [
        "com$amazon$device$ads",
        "com$clevertap$",
        "com$mopub$mobileads$",
        "com$startapp$android$publish",
        "com.amazon.device.ads",
        "com.applovin",
        "com.appodeal.ads.",
        "com.chartboost.sdk.",
        "com.clevertap.",
        "com.facebook.ads",
        "com.flurry.",
        "com.google.ads.",
        "com.google.android.gms.ads.",
        "com.google.android.gms.analytics.",
        "com.google.android.gms.tagmanager",
        "com.inmobi",
        "com.mopub.mobileads.",
        "com.my.target.",
        "com.startapp.android.publish",
        "com.unity3d.ads",
        "com.yandex.mobile.ads",
        "org.nexage."
      ],
      "domainNamesFilteredByExodus": [
        ".avocarrot.com",
        ".facebook.com",
        ".google.com",
        "adcolony.com",
        "ads.rubiconproject.com",
        "androidads21.adcolony.com",
        "androidads23.adcolony.com",
        "api.vungle.com",
        "applovin.com",
        "appodeal.com",
        "appodealx.com",
        "config.inmobi.com",
        "doubleclick.net",
        "flurry.com",
        "google-analytics.com",
        "i.l.inmobicdn.net",
        "i.w.inmobi.com",
        "ingest.vungle.com",
        "inmobi.com",
        "inmobicdn.net",
        "mopub.com",
        "pubnative.net",
        "sdkm.w.inmobi.com",
        "w.inmobi.com",
        "www.googletagmanager.com",
        "wzrkt.com"
      ],
      "metaDataNames": [
        "CLEVERTAP_INAPP_EXCLUDE",
        "com.appodeal.framework",
        "com.google.android.gms.version",
        "metrica:api:level"
      ],
      "sha256": "3ec2bfaca7f13fe5d63eede03a5693be798c959f0ac558e2f8a40b04c0e9114b",
      "usesPermissions": [
        "android.permission.ACCESS_COARSE_LOCATION",
        "android.permission.ACCESS_FINE_LOCATION",
        "android.permission.ACCESS_NETWORK_STATE",
        "android.permission.ACCESS_WIFI_STATE",
        "android.permission.INTERNET",
        "android.permission.READ_PHONE_STATE",
        "android.permission.WRITE_EXTERNAL_STORAGE"
      ]
    }
  ],
  "meta": {
    "generated": "2020-08-27T15:16:59.948652",
    "generatedBy": [
      "/home/hc/code/trackingthetrackers/scripts/make-trackers-apk-set.py"
    ],
    "ver": "0.3.0"
  }
}