{
  "apks": [
    {
      "applicationId": "info.guardianproject.lildebi",
      "broadcastReceiverIntentFilterActionNames": [
        "android.intent.action.ACTION_SHUTDOWN",
        "android.intent.action.BOOT_COMPLETED",
        "android.intent.action.MEDIA_BUTTON",
        "android.intent.action.MEDIA_EJECT",
        "android.intent.action.MEDIA_MOUNTED",
        "android.intent.action.MEDIA_SHARED",
        "android.intent.action.MEDIA_UNMOUNTED"
      ],
      "dependencies": [],
      "domainNamesFilteredByExodus": [],
      "metaDataNames": [],
      "sha256": "af62172973b69b894084742c8fa8f0f61cef9de5124becc696c5a6a04d3fde5c",
      "usesPermissions": [
        "android.permission.ACCESS_NETWORK_STATE",
        "android.permission.ACCESS_SUPERUSER",
        "android.permission.INTERNET",
        "android.permission.READ_EXTERNAL_STORAGE",
        "android.permission.RECEIVE_BOOT_COMPLETED",
        "android.permission.WAKE_LOCK",
        "android.permission.WRITE_EXTERNAL_STORAGE",
        "jackpal.androidterm.permission.RUN_SCRIPT"
      ]
    }
  ],
  "meta": {
    "generated": "2020-08-27T18:12:37.427359",
    "generatedBy": [
      "/home/hc/code/trackingthetrackers/scripts/make-clean-apk-set.py"
    ],
    "generatedByCommitId": "3839559c80042252d3b947fb61c86a18e8b31114",
    "sourceDataCommitId": "888bb8f8c77ff55105fcab2ad84c263561eb1169",
    "ver": "0.3.0"
  }
}