{
  "apks": [
    {
      "applicationId": "com.mobi.screensaver.xq10",
      "broadcastReceiverIntentFilterActionNames": [
        "action_application_launch",
        "action_settings_refresh",
        "action_systerm_alarm",
        "android.intent.action.BOOT_COMPLETED",
        "android.intent.action.PACKAGE_REMOVED",
        "android.intent.action.USER_PRESENT",
        "android.net.conn.CONNECTIVITY_CHANGE",
        "com.mobi.entrance.ad_download.notification.click",
        "define_weather_updatetime_action_on"
      ],
      "dependencies": [
        "com.tendcloud.tenddata."
      ],
      "domainNamesFilteredByExodus": [],
      "metaDataNames": [
        "BOBO_ID",
        "BOBO_PID",
        "FIRST_DA_TYPE",
        "TD_APP_ID",
        "TD_CHANNEL_ID",
        "accountname",
        "core",
        "keyword",
        "lenovo:applicationToken",
        "lenovo:channel",
        "market",
        "template",
        "update",
        "versiontype"
      ],
      "sha256": "13188896ccfe209f561088387bdda3fefad47e4b2100671f844d604a68917e77",
      "usesPermissions": [
        "android.permission.ACCESS_COARSE_LOCATION",
        "android.permission.ACCESS_FINE_LOCATION",
        "android.permission.ACCESS_NETWORK_STATE",
        "android.permission.ACCESS_WIFI_STATE",
        "android.permission.CAMERA",
        "android.permission.CHANGE_NETWORK_STATE",
        "android.permission.CHANGE_WIFI_STATE",
        "android.permission.DISABLE_KEYGUARD",
        "android.permission.EXPAND_STATUS_BAR",
        "android.permission.FLASHLIGHT",
        "android.permission.GET_TASKS",
        "android.permission.INTERNET",
        "android.permission.KILL_BACKGROUND_PROCESSES",
        "android.permission.MOUNT_UNMOUNT_FILESYSTEMS",
        "android.permission.READ_CONTACTS",
        "android.permission.READ_LOGS",
        "android.permission.READ_PHONE_STATE",
        "android.permission.READ_SMS",
        "android.permission.RECEIVE_SMS",
        "android.permission.RESTART_PACKAGES",
        "android.permission.SYSTEM_ALERT_WINDOW",
        "android.permission.VIBRATE",
        "android.permission.WRITE_EXTERNAL_STORAGE",
        "android.permission.WRITE_SETTINGS",
        "com.android.launcher.permission.INSTALL_SHORTCUT"
      ]
    }
  ],
  "meta": {
    "generated": "2020-08-27T15:11:34.632632",
    "generatedBy": [
      "/home/hc/code/trackingthetrackers/scripts/make-trackers-apk-set.py"
    ],
    "ver": "0.3.0"
  }
}