{
  "apks": [
    {
      "applicationId": "com.sevenstar.jewelsminer",
      "broadcastReceiverIntentFilterActionNames": [
        "android.net.conn.CONNECTIVITY_CHANGE"
      ],
      "dependencies": [
        "com$google$ads$",
        "com$inmobi",
        "com.chartboost.sdk.",
        "com.google.ads.",
        "com.inmobi",
        "com.umeng.analytics",
        "org.cocos2dx"
      ],
      "domainNamesFilteredByExodus": [
        ".chartboost.com",
        ".facebook.com",
        ".google.com",
        "alog.umeng.com",
        "api.airpush.com",
        "doubleclick.net",
        "i.w.inmobi.com",
        "inmobi.com",
        "inmobisdk-a.akamaihd.net",
        "oc.umeng.com",
        "umeng.com"
      ],
      "metaDataNames": [
        "UMENG_APPKEY",
        "UMENG_CHANNEL",
        "com.foxki.hxgdh170409.APIKEY",
        "com.foxki.hxgdh170409.APPID",
        "com.google.android.gms.appstate.APP_ID",
        "com.google.android.gms.games.APP_ID"
      ],
      "sha256": "2bd43ebfe59bf7f759c440e761c649fb911e1452eef23d5cd4d57af5ab219f06",
      "usesPermissions": [
        "android.permission.ACCESS_COARSE_LOCATION",
        "android.permission.ACCESS_COARSE_UPDATES",
        "android.permission.ACCESS_NETWORK_STATE",
        "android.permission.ACCESS_WIFI_STATE",
        "android.permission.INTERNET",
        "android.permission.INTERNET",
        "android.permission.READ_PHONE_STATE",
        "android.permission.VIBRATE",
        "android.permission.WAKE_LOCK",
        "android.permission.WRITE_EXTERNAL_STORAGE"
      ]
    }
  ],
  "meta": {
    "generated": "2020-08-27T15:11:32.125441",
    "generatedBy": [
      "/home/hc/code/trackingthetrackers/scripts/make-trackers-apk-set.py"
    ],
    "ver": "0.3.0"
  }
}