{
  "apks": [
    {
      "applicationId": "org.projectmaxs.module.smssend",
      "broadcastReceiverIntentFilterActionNames": [
        "org.projectmaxs.EXPORT_SETTINGS",
        "org.projectmaxs.IMPORT_SETTINGS",
        "org.projectmaxs.PURGE_OLD_COMMANDS",
        "org.projectmaxs.REGISTER",
        "org.projectmaxs.module.smssend.SMS_DELIVERED",
        "org.projectmaxs.module.smssend.SMS_SENT"
      ],
      "dependencies": [],
      "domainNamesFilteredByExodus": [],
      "metaDataNames": [],
      "sha256": "18f05d86b55b849b027cdaa3f273299d9b35a0ecd6fed3cf195399fa1968ae03",
      "usesPermissions": [
        "android.permission.SEND_SMS",
        "org.projectmaxs.permission.READ_CONTACTS",
        "org.projectmaxs.permission.USE_MAIN",
        "org.projectmaxs.permission.USE_MAIN_AS_MODULE",
        "org.projectmaxs.permission.WRITE_SMS"
      ]
    }
  ],
  "meta": {
    "generated": "2020-08-27T18:34:57.491675",
    "generatedBy": [
      "/home/hc/code/trackingthetrackers/scripts/make-clean-apk-set.py"
    ],
    "generatedByCommitId": "3839559c80042252d3b947fb61c86a18e8b31114",
    "sourceDataCommitId": "888bb8f8c77ff55105fcab2ad84c263561eb1169",
    "ver": "0.3.0"
  }
}