{
  "apks": [
    {
      "applicationId": "org.secuso.privacyfriendlyyahtzeedicer",
      "broadcastReceiverIntentFilterActionNames": [],
      "dependencies": [],
      "domainNamesFilteredByExodus": [],
      "metaDataNames": [
        "android.support.VERSION"
      ],
      "sha256": "3913cb1abadd5bb81ea367ff3ff9c2523058a23b0ea852af681915d4d7375e0b",
      "usesPermissions": []
    }
  ],
  "meta": {
    "generated": "2020-08-27T17:06:52.660660",
    "generatedBy": [
      "/home/hc/code/trackingthetrackers/scripts/make-clean-apk-set.py"
    ],
    "generatedByCommitId": "40519285d6f404593fa655fa89b433743c25289e",
    "sourceDataCommitId": "888bb8f8c77ff55105fcab2ad84c263561eb1169",
    "ver": "0.3.0"
  }
}