{
  "apks": [
    {
      "applicationId": "app.fedilab.lite",
      "broadcastReceiverIntentFilterActionNames": [
        "StopLiveNotificationReceiver",
        "android.intent.action.BOOT_COMPLETED",
        "android.intent.action.MY_PACKAGE_REPLACED",
        "android.intent.action.QUICKBOOT_POWERON",
        "app.fedilab.lite.uploadservice.broadcast.status",
        "com.evernote.android.job.v14.RUN_JOB",
        "com.htc.intent.action.QUICKBOOT_POWERON",
        "com.tonyodev.fetch2.action.NOTIFICATION_ACTION",
        "com.tonyodev.fetch2.action.NOTIFICATION_CHECK",
        "net.vrallev.android.job.v14.RUN_JOB"
      ],
      "dependencies": [],
      "domainNamesFilteredByExodus": [
        ".google.com"
      ],
      "metaDataNames": [
        "android.support.FILE_PROVIDER_PATHS"
      ],
      "sha256": "582e0b81c03471e3c38e595aca84e306c3b3060616d19ef8d64f8a74d1f8aa61",
      "usesPermissions": [
        "android.permission.ACCESS_NETWORK_STATE",
        "android.permission.ACCESS_WIFI_STATE",
        "android.permission.FOREGROUND_SERVICE",
        "android.permission.INTERNET",
        "android.permission.READ_EXTERNAL_STORAGE",
        "android.permission.RECEIVE_BOOT_COMPLETED",
        "android.permission.RECORD_AUDIO",
        "android.permission.WAKE_LOCK",
        "android.permission.WRITE_EXTERNAL_STORAGE"
      ]
    }
  ],
  "meta": {
    "generated": "2020-08-27T16:51:38.484078",
    "generatedBy": [
      "/home/hc/code/trackingthetrackers/scripts/make-clean-apk-set.py"
    ],
    "generatedByCommitId": "40519285d6f404593fa655fa89b433743c25289e",
    "sourceDataCommitId": "888bb8f8c77ff55105fcab2ad84c263561eb1169",
    "ver": "0.3.0"
  }
}