{
  "apks": [
    {
      "applicationId": "com.anysoftkeyboard.languagepack.italian",
      "broadcastReceiverIntentFilterActionNames": [
        "com.menny.android.anysoftkeyboard.DICTIONARY",
        "com.menny.android.anysoftkeyboard.KEYBOARD"
      ],
      "dependencies": [],
      "domainNamesFilteredByExodus": [],
      "metaDataNames": [
        "com.menny.android.anysoftkeyboard.dictionaries",
        "com.menny.android.anysoftkeyboard.keyboards"
      ],
      "sha256": "5b10c8a48f5b0dcec8eccec92a50da5445feaf245f683d6c4f7208449c70e9d3",
      "usesPermissions": []
    }
  ],
  "meta": {
    "generated": "2020-08-27T16:52:56.423243",
    "generatedBy": [
      "/home/hc/code/trackingthetrackers/scripts/make-clean-apk-set.py"
    ],
    "generatedByCommitId": "40519285d6f404593fa655fa89b433743c25289e",
    "sourceDataCommitId": "888bb8f8c77ff55105fcab2ad84c263561eb1169",
    "ver": "0.3.0"
  }
}