{
  "apks": [
    {
      "applicationId": "com.looongame.lostruntwo",
      "broadcastReceiverIntentFilterActionNames": [
        "android.intent.action.BOOT_COMPLETED"
      ],
      "dependencies": [
        "com.airpush.",
        "com.google.ads.",
        "com.google.android.gms.ads."
      ],
      "domainNamesFilteredByExodus": [
        ".google.com",
        "doubleclick.net",
        "stats.unity3d.com"
      ],
      "metaDataNames": [
        "com.google.android.gms.version",
        "com.yrkfgo.assxqx4.APIKEY",
        "com.yrkfgo.assxqx4.APPID",
        "unityplayer.ForwardNativeEventsToDalvik"
      ],
      "sha256": "ca82a2556ec59fdf9a86e2b2088df4dc27ce5e89cf43e9e06edb7c4112997321",
      "usesPermissions": [
        "android.permission.ACCESS_COARSE_LOCATION",
        "android.permission.ACCESS_FINE_LOCATION",
        "android.permission.ACCESS_NETWORK_STATE",
        "android.permission.GET_ACCOUNTS",
        "android.permission.INTERNET",
        "android.permission.READ_PHONE_STATE",
        "android.permission.RECEIVE_BOOT_COMPLETED",
        "android.permission.WRITE_EXTERNAL_STORAGE",
        "com.android.browser.permission.READ_HISTORY_BOOKMARKS"
      ]
    }
  ],
  "meta": {
    "generated": "2020-08-27T15:17:25.466481",
    "generatedBy": [
      "/home/hc/code/trackingthetrackers/scripts/make-trackers-apk-set.py"
    ],
    "ver": "0.3.0"
  }
}