{
  "apks": [
    {
      "applicationId": "com.tedrasoft.cartoonquiz",
      "broadcastReceiverIntentFilterActionNames": [
        "com.amazon.inapp.purchasing.NOTIFY"
      ],
      "dependencies": [
        "com$amazon$device$ads",
        "com.amazon.device.ads",
        "com.applovin",
        "com.chartboost.sdk.",
        "com.revmob.ads.",
        "com_facebook_login"
      ],
      "domainNamesFilteredByExodus": [
        ".chartboost.com",
        ".facebook.com",
        ".google.com",
        "applovin.com"
      ],
      "metaDataNames": [
        "applovin.sdk.key",
        "com.facebook.sdk.ApplicationId"
      ],
      "sha256": "2683ddc256c4f7cc789558554848386885874ac4d1041b292abe7f796efecc51",
      "usesPermissions": [
        "android.permission.ACCESS_NETWORK_STATE",
        "android.permission.ACCESS_WIFI_STATE",
        "android.permission.INTERNET",
        "android.permission.READ_PHONE_STATE",
        "android.permission.WRITE_EXTERNAL_STORAGE"
      ]
    }
  ],
  "meta": {
    "generated": "2020-08-27T15:06:58.042865",
    "generatedBy": [
      "/home/hc/code/trackingthetrackers/scripts/make-trackers-apk-set.py"
    ],
    "ver": "0.3.0"
  }
}