{
  "apks": [
    {
      "applicationId": "com.nicolasbrailo.vlcfreemote",
      "broadcastReceiverIntentFilterActionNames": [
        "android.appwidget.action.APPWIDGET_UPDATE"
      ],
      "dependencies": [],
      "domainNamesFilteredByExodus": [],
      "metaDataNames": [
        "android.appwidget.provider"
      ],
      "sha256": "52a5ea395295acdffa1d0600bb7e7d1ba7bffacffe0b46cbadbbf8224fbd7f04",
      "usesPermissions": [
        "android.permission.ACCESS_NETWORK_STATE",
        "android.permission.INTERNET"
      ]
    }
  ],
  "meta": {
    "generated": "2020-08-27T17:43:08.658912",
    "generatedBy": [
      "/home/hc/code/trackingthetrackers/scripts/make-clean-apk-set.py"
    ],
    "generatedByCommitId": "40519285d6f404593fa655fa89b433743c25289e",
    "sourceDataCommitId": "888bb8f8c77ff55105fcab2ad84c263561eb1169",
    "ver": "0.3.0"
  }
}