{
  "apks": [
    {
      "applicationId": "org.pacien.tincapp",
      "broadcastReceiverIntentFilterActionNames": [],
      "dependencies": [],
      "domainNamesFilteredByExodus": [],
      "metaDataNames": [],
      "sha256": "5530d76cfd57f2e8298d31c9b69aa6c5104cfc6a31b5eb496c938349bc8a61e3",
      "usesPermissions": [
        "android.permission.CAMERA",
        "android.permission.INTERNET"
      ]
    }
  ],
  "meta": {
    "generated": "2020-08-27T18:33:48.453363",
    "generatedBy": [
      "/home/hc/code/trackingthetrackers/scripts/make-clean-apk-set.py"
    ],
    "generatedByCommitId": "3839559c80042252d3b947fb61c86a18e8b31114",
    "sourceDataCommitId": "888bb8f8c77ff55105fcab2ad84c263561eb1169",
    "ver": "0.3.0"
  }
}