{
  "apks": [
    {
      "applicationId": "fr.free.nrw.commons",
      "broadcastReceiverIntentFilterActionNames": [
        "android.appwidget.action.APPWIDGET_UPDATE"
      ],
      "dependencies": [
        "com.mapbox.mapboxsdk."
      ],
      "domainNamesFilteredByExodus": [
        ".facebook.com",
        ".google.com"
      ],
      "metaDataNames": [
        "android.accounts.AccountAuthenticator",
        "android.appwidget.provider",
        "android.content.SyncAdapter",
        "android.support.FILE_PROVIDER_PATHS"
      ],
      "sha256": "c43638fa9ade06ed967a3308aff58e1e8de5d4ecb78fb26534318037b5721723",
      "usesPermissions": [
        "android.permission.ACCESS_FINE_LOCATION",
        "android.permission.ACCESS_NETWORK_STATE",
        "android.permission.ACCESS_WIFI_STATE",
        "android.permission.AUTHENTICATE_ACCOUNTS",
        "android.permission.GET_ACCOUNTS",
        "android.permission.INTERNET",
        "android.permission.MANAGE_ACCOUNTS",
        "android.permission.MANAGE_DOCUMENTS",
        "android.permission.READ_EXTERNAL_STORAGE",
        "android.permission.READ_LOGS",
        "android.permission.READ_SYNC_SETTINGS",
        "android.permission.READ_SYNC_STATS",
        "android.permission.SET_WALLPAPER",
        "android.permission.USE_CREDENTIALS",
        "android.permission.WRITE_EXTERNAL_STORAGE",
        "android.permission.WRITE_SYNC_SETTINGS",
        "com.google.android.apps.photos.permission.GOOGLE_PHOTOS"
      ]
    }
  ],
  "meta": {
    "generated": "2020-08-27T18:08:58.256875",
    "generatedBy": [
      "/home/hc/code/trackingthetrackers/scripts/make-clean-apk-set.py"
    ],
    "generatedByCommitId": "3839559c80042252d3b947fb61c86a18e8b31114",
    "sourceDataCommitId": "888bb8f8c77ff55105fcab2ad84c263561eb1169",
    "ver": "0.3.0"
  }
}