{
  "apks": [
    {
      "applicationId": "au.com.wallaceit.reddinator",
      "broadcastReceiverIntentFilterActionNames": [
        "android.appwidget.action.APPWIDGET_DELETED",
        "android.appwidget.action.APPWIDGET_ENABLED",
        "android.appwidget.action.APPWIDGET_UPDATE",
        "android.appwidget.action.APPWIDGET_UPDATE_OPTIONS",
        "android.intent.action.BOOT_COMPLETED",
        "android.intent.action.PACKAGE_FIRST_LAUNCH",
        "android.intent.action.PACKAGE_REPLACED",
        "android.intent.action.PACKAGE_RESTARTED",
        "au.com.wallaceit.redinator.WidgetProvider.APPWIDGET_AUTO_UPDATE",
        "au.com.wallaceit.redinator.WidgetProvider.APPWIDGET_UPDATE_FEED",
        "au.com.wallaceit.redinator.WidgetProvider.ITEM_CLICK"
      ],
      "dependencies": [],
      "domainNamesFilteredByExodus": [
        ".google.com"
      ],
      "metaDataNames": [
        "android.appwidget.provider",
        "suppressChangelog"
      ],
      "sha256": "b10cbfda51b0d9a7cb9271dd6998fb203c76961023deaceb57c4d471ee03111f",
      "usesPermissions": [
        "android.permission.ACCESS_NETWORK_STATE",
        "android.permission.INTERNET",
        "android.permission.RECEIVE_BOOT_COMPLETED"
      ]
    }
  ],
  "meta": {
    "generated": "2020-08-27T17:11:52.919519",
    "generatedBy": [
      "/home/hc/code/trackingthetrackers/scripts/make-clean-apk-set.py"
    ],
    "generatedByCommitId": "40519285d6f404593fa655fa89b433743c25289e",
    "sourceDataCommitId": "888bb8f8c77ff55105fcab2ad84c263561eb1169",
    "ver": "0.3.0"
  }
}