{
  "apks": [
    {
      "applicationId": "org.fitchfamily.android.wifi_backend",
      "broadcastReceiverIntentFilterActionNames": [],
      "dependencies": [],
      "domainNamesFilteredByExodus": [
        ".facebook.com",
        ".google.com"
      ],
      "metaDataNames": [
        "android.support.PARENT_ACTIVITY",
        "org.microg.nlp.API_VERSION",
        "org.microg.nlp.BACKEND_SETTINGS_ACTIVITY",
        "org.microg.nlp.BACKEND_SUMMARY"
      ],
      "sha256": "e3cd324ac1ba45b0fb91cce2e12d6952d49fbfa8f25042fd4ebe338e1910531a",
      "usesPermissions": [
        "android.permission.ACCESS_FINE_LOCATION",
        "android.permission.ACCESS_WIFI_STATE",
        "android.permission.CHANGE_WIFI_STATE"
      ]
    }
  ],
  "meta": {
    "generated": "2020-08-27T18:26:38.366732",
    "generatedBy": [
      "/home/hc/code/trackingthetrackers/scripts/make-clean-apk-set.py"
    ],
    "generatedByCommitId": "3839559c80042252d3b947fb61c86a18e8b31114",
    "sourceDataCommitId": "888bb8f8c77ff55105fcab2ad84c263561eb1169",
    "ver": "0.3.0"
  }
}