{
  "apks": [
    {
      "applicationId": "app.com.superwifi",
      "broadcastReceiverIntentFilterActionNames": [
        "android.appwidget.action.APPWIDGET_UPDATE",
        "android.forceupdate",
        "android.intent.action.BOOT_COMPLETED",
        "android.intent.action.NEW_OUTGOING_CALL",
        "android.intent.action.PACKAGE_ADDED",
        "android.intent.action.PACKAGE_REMOVED",
        "android.intent.action.PHONE_STATE",
        "android.net.wifi.STATE_CHANGE",
        "android.net.wifi.WIFI_STATE_CHANGED",
        "cmc_image_delegate",
        "com.amazon.inapp.purchasing.NOTIFY",
        "com.google.android.c2dm.intent.RECEIVE",
        "com.google.android.c2dm.intent.REGISTRATION",
        "com.google.android.gms.measurement.UPLOAD",
        "com.inmobi.share.id"
      ],
      "dependencies": [
        "com$cmcm$",
        "com$facebook$login",
        "com$facebook$share",
        "com$smaato$soma$",
        "com.cmcm.",
        "com.crashlytics.",
        "com.facebook.appevents",
        "com.facebook.login",
        "com.facebook.share",
        "com.google.ads.",
        "com.google.android.gms.ads.",
        "com.google.android.gms.analytics.",
        "com.google.android.gms.measurement.",
        "com.google.android.gms.tagmanager",
        "com.inmobi",
        "com.millennialmedia.",
        "com.mopub.mobileads.",
        "com.smaato.soma.",
        "com_crashlytics_",
        "com_facebook_login",
        "com_facebook_share",
        "com_inneractive_api_ads",
        "io$fabric$",
        "io.fabric."
      ],
      "domainNamesFilteredByExodus": [
        ".facebook.com",
        ".google.com",
        "c.w.inmobi.com",
        "cmcm.com",
        "config.inmobi.com",
        "crashlytics.com",
        "doubleclick.net",
        "et.w.inmobi.com",
        "google-analytics.com",
        "i.l.inmobicdn.net",
        "i.w.inmobi.com",
        "inmobi.com",
        "inmobicdn.net",
        "openx.com",
        "sdkm.w.inmobi.com",
        "smaato.net",
        "soma.smaato.net",
        "w.inmobi.com",
        "www.googletagmanager.com"
      ],
      "metaDataNames": [
        "android.appwidget.provider",
        "com.facebook.sdk.ApplicationId",
        "com.google.android.gms.version",
        "com.google.android.maps.v2.API_KEY",
        "io.fabric.ApiKey"
      ],
      "sha256": "9b29f96dc994c01f7f894011a0b78d226976dfb21eaf1bd3f0bfbe169b083c16",
      "usesPermissions": [
        "android.permission.ACCESS_COARSE_LOCATION",
        "android.permission.ACCESS_FINE_LOCATION",
        "android.permission.ACCESS_NETWORK_STATE",
        "android.permission.ACCESS_WIFI_STATE",
        "android.permission.BLUETOOTH",
        "android.permission.BROADCAST_STICKY",
        "android.permission.CALL_PHONE",
        "android.permission.CHANGE_NETWORK_STATE",
        "android.permission.CHANGE_WIFI_STATE",
        "android.permission.GET_ACCOUNTS",
        "android.permission.GET_TASKS",
        "android.permission.INTERNET",
        "android.permission.READ_PHONE_STATE",
        "android.permission.RECEIVE_BOOT_COMPLETED",
        "android.permission.WAKE_LOCK",
        "android.permission.WRITE_EXTERNAL_STORAGE",
        "android.permission.WRITE_SETTINGS",
        "app.com.superwifi.googlemapsv2.permission.MAPS_RECEIVE",
        "app.com.superwifi.permission.C2D_MESSAGE",
        "com.android.launcher.permission.INSTALL_SHORTCUT",
        "com.android.vending.BILLING",
        "com.google.android.c2dm.permission.RECEIVE",
        "com.google.android.providers.gsf.permission.READ_GSERVICES",
        "com.nokia.payment.BILLING",
        "com.sec.android.iap.permission.BILLING",
        "true",
        "true",
        "true"
      ]
    }
  ],
  "meta": {
    "generated": "2020-08-27T15:39:36.810531",
    "generatedBy": [
      "/home/hc/code/trackingthetrackers/scripts/make-trackers-apk-set.py"
    ],
    "ver": "0.3.0"
  }
}