{
  "apks": [
    {
      "applicationId": "com.qcplay.mama.uc",
      "broadcastReceiverIntentFilterActionNames": [],
      "dependencies": [
        "org.cocos2dx"
      ],
      "domainNamesFilteredByExodus": [
        ".facebook.com"
      ],
      "metaDataNames": [
        "Addition_CheckAppEnv",
        "Addition_Config",
        "Addition_UC",
        "Addition_sharesdk",
        "CHANNELNAME",
        "ERRORMODE",
        "FORMALSERVER",
        "JAILBREAK",
        "OPENSTOREDIAMOND",
        "PurchaseInfoFile",
        "PurchasePreURL",
        "PurchaseVerifyURL",
        "RECORDSAVETIME",
        "SERVER_URL",
        "SHARE_URL",
        "SHIELDWECHAT",
        "SHOWUSERCENTER",
        "TESTMODE",
        "TIMETEST",
        "UC_CPID",
        "UC_GAMEID",
        "UC_NOTIFYURL",
        "UC_ORIENTATION",
        "android.app.lib_name",
        "debug"
      ],
      "sha256": "fb3a3ff50a6a56118ea9efb8bc9aea27f1d2b9595f47da1ce53d5550e1c047c0",
      "usesPermissions": [
        "android.permission.ACCESS_DOWNLOAD_MANAGER",
        "android.permission.ACCESS_NETWORK_STATE",
        "android.permission.ACCESS_WIFI_STATE",
        "android.permission.AUTHENTICATE_ACCOUNTS",
        "android.permission.BLUETOOTH",
        "android.permission.BLUETOOTH_ADMIN",
        "android.permission.CHANGE_NETWORK_STATE",
        "android.permission.CHANGE_WIFI_STATE",
        "android.permission.DEVICE_POWER",
        "android.permission.GET_ACCOUNTS",
        "android.permission.GET_TASKS",
        "android.permission.INTERNET",
        "android.permission.MANAGE_ACCOUNTS",
        "android.permission.MOUNT_UNMOUNT_FILESYSTEMS",
        "android.permission.READ_PHONE_STATE",
        "android.permission.SEND_SMS",
        "android.permission.SYSTEM_ALERT_WINDOW",
        "android.permission.SYSTEM_OVERLAY_WINDOW",
        "android.permission.USE_CREDENTIALS",
        "android.permission.VIBRATE",
        "android.permission.WAKE_LOCK",
        "android.permission.WRITE_EXTERNAL_STORAGE"
      ]
    }
  ],
  "meta": {
    "generated": "2020-08-27T15:36:34.599085",
    "generatedBy": [
      "/home/hc/code/trackingthetrackers/scripts/make-trackers-apk-set.py"
    ],
    "ver": "0.3.0"
  }
}