{
  "apks": [
    {
      "applicationId": "org.projectmaxs.module.smsnotify",
      "broadcastReceiverIntentFilterActionNames": [
        "android.provider.Telephony.SMS_RECEIVED",
        "org.projectmaxs.EXPORT_SETTINGS",
        "org.projectmaxs.IMPORT_SETTINGS",
        "org.projectmaxs.REGISTER"
      ],
      "dependencies": [],
      "domainNamesFilteredByExodus": [],
      "metaDataNames": [],
      "sha256": "7370c627d6f6aba7e503f0516356686cb62ad138becb3f49e4bf1f426033c7c5",
      "usesPermissions": [
        "android.permission.RECEIVE_SMS",
        "org.projectmaxs.permission.READ_CONTACTS",
        "org.projectmaxs.permission.USE_MAIN",
        "org.projectmaxs.permission.USE_MAIN_AS_MODULE"
      ]
    }
  ],
  "meta": {
    "generated": "2020-08-27T18:34:49.533086",
    "generatedBy": [
      "/home/hc/code/trackingthetrackers/scripts/make-clean-apk-set.py"
    ],
    "generatedByCommitId": "3839559c80042252d3b947fb61c86a18e8b31114",
    "sourceDataCommitId": "888bb8f8c77ff55105fcab2ad84c263561eb1169",
    "ver": "0.3.0"
  }
}