{
  "apks": [
    {
      "applicationId": "com.greenhat.thsfishing.baidu",
      "broadcastReceiverIntentFilterActionNames": [
        "android.intent.action.PACKAGE_ADDED",
        "android.intent.action.PACKAGE_REMOVED",
        "android.intent.action.PACKAGE_REPLACED",
        "android.net.conn.CONNECTIVITY_CHANGE",
        "cn.play.dservice",
        "safiap.GET_SHARED_DATA",
        "safiap.framework.ACTION_CANCEL_NOTIFICATION",
        "safiap.framework.ACTION_SET_TIMER"
      ],
      "dependencies": [],
      "domainNamesFilteredByExodus": [],
      "metaDataNames": [
        "EGAME_CHANNEL",
        "UMENG_APPKEY",
        "wostore_billing_chinaunicom",
        "wostore_billing_otherpay"
      ],
      "sha256": "01842f6c7711c5b135224a10f68f5032fc844b83608b91db58ff026dbc4c550e",
      "usesPermissions": [
        "android.permission.ACCESS_NETWORK_STATE",
        "android.permission.ACCESS_WIFI_STATE",
        "android.permission.CALL_PHONE",
        "android.permission.CHANGE_WIFI_STATE",
        "android.permission.DISABLE_KEYGUARD",
        "android.permission.GET_TASKS",
        "android.permission.INTERNET",
        "android.permission.MOUNT_UNMOUNT_FILESYSTEMS",
        "android.permission.READ_EXTERNAL_STORAGE",
        "android.permission.READ_LOGS",
        "android.permission.READ_PHONE_STATE",
        "android.permission.SEND_SMS",
        "android.permission.WRITE_EXTERNAL_STORAGE"
      ]
    }
  ],
  "meta": {
    "generated": "2020-08-27T15:27:41.020430",
    "generatedBy": [
      "/home/hc/code/trackingthetrackers/scripts/make-trackers-apk-set.py"
    ],
    "ver": "0.3.0"
  }
}