{
  "apks": [
    {
      "applicationId": "de.baumann.sieben",
      "broadcastReceiverIntentFilterActionNames": [],
      "dependencies": [],
      "domainNamesFilteredByExodus": [],
      "metaDataNames": [],
      "sha256": "e9720a2fee8bfad265f35121600277204075b05be4c6bc020fbb30cd63f39483",
      "usesPermissions": []
    }
  ],
  "meta": {
    "generated": "2020-08-27T17:56:44.846530",
    "generatedBy": [
      "/home/hc/code/trackingthetrackers/scripts/make-clean-apk-set.py"
    ],
    "generatedByCommitId": "3839559c80042252d3b947fb61c86a18e8b31114",
    "sourceDataCommitId": "888bb8f8c77ff55105fcab2ad84c263561eb1169",
    "ver": "0.3.0"
  }
}