{
  "apks": [
    {
      "applicationId": "org.billthefarmer.accordion",
      "broadcastReceiverIntentFilterActionNames": [],
      "dependencies": [],
      "domainNamesFilteredByExodus": [],
      "metaDataNames": [],
      "sha256": "333cc9c191df906c1a691de8ef675fdda80b2da6d944caf0a7b12fb56ff6e37f",
      "usesPermissions": []
    }
  ],
  "meta": {
    "generated": "2020-08-27T18:23:09.242536",
    "generatedBy": [
      "/home/hc/code/trackingthetrackers/scripts/make-clean-apk-set.py"
    ],
    "generatedByCommitId": "3839559c80042252d3b947fb61c86a18e8b31114",
    "sourceDataCommitId": "888bb8f8c77ff55105fcab2ad84c263561eb1169",
    "ver": "0.3.0"
  }
}