{
  "apks": [
    {
      "applicationId": "mr.midlet.newfishing.sina",
      "broadcastReceiverIntentFilterActionNames": [
        "safiap.GET_SHARED_DATA",
        "safiap.framework.ACTION_CANCEL_NOTIFICATION",
        "safiap.framework.ACTION_SET_TIMER"
      ],
      "dependencies": [],
      "domainNamesFilteredByExodus": [],
      "metaDataNames": [],
      "sha256": "10eb5b7bc1fa93483c1a7b715b485f9515aa0b2212df629440d3af50cebd4b11",
      "usesPermissions": [
        "android.permission.ACCESS_NETWORK_STATE",
        "android.permission.ACCESS_WIFI_STATE",
        "android.permission.DISABLE_KEYGUARD",
        "android.permission.INTERNET",
        "android.permission.MOUNT_UNMOUNT_FILESYSTEMS",
        "android.permission.READ_PHONE_STATE",
        "android.permission.READ_SMS",
        "android.permission.SEND_SMS",
        "android.permission.VIBRATE",
        "android.permission.WRITE_EXTERNAL_STORAGE"
      ]
    }
  ],
  "meta": {
    "generated": "2020-08-27T14:50:35.123819",
    "generatedBy": [
      "/home/hc/code/trackingthetrackers/scripts/make-trackers-apk-set.py"
    ],
    "ver": "0.3.0"
  }
}