{
  "apks": [
    {
      "applicationId": "eu.siebeck.sipswitch",
      "broadcastReceiverIntentFilterActionNames": [
        "android.appwidget.action.APPWIDGET_UPDATE"
      ],
      "dependencies": [],
      "domainNamesFilteredByExodus": [],
      "metaDataNames": [
        "android.appwidget.provider"
      ],
      "sha256": "cfb7b3a176e60a9c5c70bd898a3006bda3629c5bdd45a95491e5e25b3da083f1",
      "usesPermissions": [
        "android.permission.WRITE_SETTINGS",
        "cyanogenmod.permission.PUBLISH_CUSTOM_TILE"
      ]
    }
  ],
  "meta": {
    "generated": "2020-08-27T17:02:47.940845",
    "generatedBy": [
      "/home/hc/code/trackingthetrackers/scripts/make-clean-apk-set.py"
    ],
    "generatedByCommitId": "40519285d6f404593fa655fa89b433743c25289e",
    "sourceDataCommitId": "888bb8f8c77ff55105fcab2ad84c263561eb1169",
    "ver": "0.3.0"
  }
}