{
  "apks": [
    {
      "applicationId": "me.guillaumin.android.osmtracker",
      "broadcastReceiverIntentFilterActionNames": [
        "android.intent.action.MEDIA_BUTTON"
      ],
      "dependencies": [],
      "domainNamesFilteredByExodus": [
        "a.tiles.mapbox.com"
      ],
      "metaDataNames": [],
      "sha256": "61d3d33f96be6772620e9567cbcdd7fa29288f07a9df95171a06a14b68b24d5c",
      "usesPermissions": [
        "android.permission.ACCESS_FINE_LOCATION",
        "android.permission.ACCESS_NETWORK_STATE",
        "android.permission.ACCESS_WIFI_STATE",
        "android.permission.INTERNET",
        "android.permission.RECORD_AUDIO",
        "android.permission.WRITE_EXTERNAL_STORAGE"
      ]
    }
  ],
  "meta": {
    "generated": "2020-08-27T18:16:06.672053",
    "generatedBy": [
      "/home/hc/code/trackingthetrackers/scripts/make-clean-apk-set.py"
    ],
    "generatedByCommitId": "3839559c80042252d3b947fb61c86a18e8b31114",
    "sourceDataCommitId": "888bb8f8c77ff55105fcab2ad84c263561eb1169",
    "ver": "0.3.0"
  }
}