{
  "apks": [
    {
      "applicationId": "com.zxcvb.hurytueuefx",
      "broadcastReceiverIntentFilterActionNames": [
        "android.intent.action.PACKAGE_ADDED",
        "android.net.conn.CONNECTIVITY_CHANGE"
      ],
      "dependencies": [
        "org.cocos2dx"
      ],
      "domainNamesFilteredByExodus": [],
      "metaDataNames": [
        "Greetings",
        "Person"
      ],
      "sha256": "5658c8f807035fa7a70c908f57c9f0fc4e5b7049d7c6cc81cc0420348a3f74ec",
      "usesPermissions": [
        "android.permission.ACCESS_NETWORK_STATE",
        "android.permission.ACCESS_NETWORK_STATE",
        "android.permission.ACCESS_WIFI_STATE",
        "android.permission.ACCESS_WIFI_STATE",
        "android.permission.GET_TASKS",
        "android.permission.GET_TASKS",
        "android.permission.INTERNET",
        "android.permission.INTERNET",
        "android.permission.READ_PHONE_STATE",
        "android.permission.READ_PHONE_STATE",
        "android.permission.SYSTEM_ALERT_WINDOW",
        "android.permission.SYSTEM_ALERT_WINDOW",
        "android.permission.WAKE_LOCK",
        "android.permission.WRITE_EXTERNAL_STORAGE",
        "android.permission.WRITE_EXTERNAL_STORAGE",
        "com.android.launcher.permission.INSTALL_SHORTCUT"
      ]
    }
  ],
  "meta": {
    "generated": "2020-08-27T15:44:55.041591",
    "generatedBy": [
      "/home/hc/code/trackingthetrackers/scripts/make-trackers-apk-set.py"
    ],
    "ver": "0.3.0"
  }
}