{
  "apks": [
    {
      "applicationId": "org.smc.inputmethod.indic",
      "dependencies": [],
      "domainNamesFilteredByExodus": [],
      "sha256": "175c59d25078f4489ae8eb15a190d3e85d0db786a46ef113ace33ead029a1410",
      "usesPermissions": [
        "android.permission.GET_ACCOUNTS",
        "android.permission.READ_CONTACTS",
        "android.permission.READ_PROFILE",
        "android.permission.READ_USER_DICTIONARY",
        "android.permission.RECEIVE_BOOT_COMPLETED",
        "android.permission.VIBRATE",
        "android.permission.WRITE_EXTERNAL_STORAGE",
        "android.permission.WRITE_USER_DICTIONARY"
      ]
    }
  ],
  "meta": {
    "ver": "0.2.0"
  }
}