{
  "apks": [
    {
      "applicationId": "link.standen.michael.fatesheets",
      "broadcastReceiverIntentFilterActionNames": [],
      "dependencies": [],
      "domainNamesFilteredByExodus": [],
      "metaDataNames": [
        "android.support.PARENT_ACTIVITY",
        "android.support.VERSION"
      ],
      "sha256": "96cd96794c206ebda5ab3e86e626c114b0e94858ef187c00851b0699ad8ef1e1",
      "usesPermissions": []
    }
  ],
  "meta": {
    "generated": "2020-08-27T17:04:00.340814",
    "generatedBy": [
      "/home/hc/code/trackingthetrackers/scripts/make-clean-apk-set.py"
    ],
    "generatedByCommitId": "40519285d6f404593fa655fa89b433743c25289e",
    "sourceDataCommitId": "888bb8f8c77ff55105fcab2ad84c263561eb1169",
    "ver": "0.3.0"
  }
}