{
  "apks": [
    {
      "applicationId": "com.symapp.christmasclcok2",
      "broadcastReceiverIntentFilterActionNames": [
        "android.appwidget.action.APPWIDGET_UPDATE",
        "com.android.vending.INSTALL_REFERRER"
      ],
      "dependencies": [
        "com.appbrain.",
        "com.google.ads."
      ],
      "domainNamesFilteredByExodus": [
        ".google.com",
        "alog.umeng.com",
        "api.airpush.com",
        "oc.umeng.com",
        "sdk.appbrain.com",
        "umeng.com"
      ],
      "metaDataNames": [
        "UMENG_APPKEY",
        "UMENG_CHANNEL",
        "android.appwidget.provider",
        "android.service.wallpaper",
        "com.utkngr.lrckcg113751.APIKEY",
        "com.utkngr.lrckcg113751.APPID"
      ],
      "sha256": "d8153d581efd0083d2fdf938d001aa202165ccbb1dd379d1ef59cd70d02b1ea0",
      "usesPermissions": [
        "android.permission.ACCESS_COARSE_LOCATION",
        "android.permission.ACCESS_FINE_LOCATION",
        "android.permission.ACCESS_NETWORK_STATE",
        "android.permission.ACCESS_WIFI_STATE",
        "android.permission.INTERNET",
        "android.permission.MOUNT_UNMOUNT_FILESYSTEMS",
        "android.permission.READ_PHONE_STATE",
        "android.permission.SET_WALLPAPER",
        "android.permission.WRITE_EXTERNAL_STORAGE"
      ]
    }
  ],
  "meta": {
    "generated": "2020-08-27T15:05:56.367606",
    "generatedBy": [
      "/home/hc/code/trackingthetrackers/scripts/make-trackers-apk-set.py"
    ],
    "ver": "0.3.0"
  }
}