{
  "apks": [
    {
      "applicationId": "org.billthefarmer.accordion",
      "broadcastReceiverIntentFilterActionNames": [],
      "dependencies": [],
      "domainNamesFilteredByExodus": [],
      "metaDataNames": [],
      "sha256": "609b21affe34b6683639337e9b8aef1a346df1b7f5c7d7832d450bbf7088b441",
      "usesPermissions": []
    }
  ],
  "meta": {
    "generated": "2020-08-27T17:04:57.440019",
    "generatedBy": [
      "/home/hc/code/trackingthetrackers/scripts/make-clean-apk-set.py"
    ],
    "generatedByCommitId": "40519285d6f404593fa655fa89b433743c25289e",
    "sourceDataCommitId": "888bb8f8c77ff55105fcab2ad84c263561eb1169",
    "ver": "0.3.0"
  }
}