{
  "apks": [
    {
      "applicationId": "com.grupoheron.whatcountryisthis.slideme",
      "broadcastReceiverIntentFilterActionNames": [
        "com.android.vending.INSTALL_REFERRER"
      ],
      "dependencies": [
        "com$mopub$mobileads$",
        "com.appbrain.",
        "com.chartboost.sdk.",
        "com.flurry.",
        "com.google.ads.",
        "com.millennialmedia.",
        "com.mopub.mobileads.",
        "com.revmob.ads."
      ],
      "domainNamesFilteredByExodus": [
        ".chartboost.com",
        ".google.com",
        "doubleclick.net",
        "flurry.com",
        "millennialmedia.com",
        "mopub.com",
        "sdk.appbrain.com"
      ],
      "metaDataNames": [
        "com.google.android.maps.v2.API_KEY"
      ],
      "sha256": "f2ac1ed690e4c735c9ebffe9731b10f54119785140d1638a968dee04815d15b7",
      "usesPermissions": [
        "android.permission.ACCESS_COARSE_LOCATION",
        "android.permission.ACCESS_FINE_LOCATION",
        "android.permission.ACCESS_NETWORK_STATE",
        "android.permission.ACCESS_WIFI_STATE",
        "android.permission.DELETE_PACKAGES",
        "android.permission.INSTALL_PACKAGES",
        "android.permission.INTERNET",
        "android.permission.READ_PHONE_STATE",
        "android.permission.WRITE_EXTERNAL_STORAGE",
        "com.google.android.providers.gsf.permission.READ_GSERVICES",
        "com.grupoheron.whatcountryisthis.permission.MAPS_RECEIVE"
      ]
    }
  ],
  "meta": {
    "generated": "2020-08-27T15:03:27.386581",
    "generatedBy": [
      "/home/hc/code/trackingthetrackers/scripts/make-trackers-apk-set.py"
    ],
    "ver": "0.3.0"
  }
}