{
  "apks": [
    {
      "applicationId": "at.bitfire.davdroid",
      "broadcastReceiverIntentFilterActionNames": [
        "android.accounts.LOGIN_ACCOUNTS_CHANGED",
        "at.bitfire.davdroid.REINIT_LOGGER"
      ],
      "dependencies": [],
      "domainNamesFilteredByExodus": [],
      "metaDataNames": [
        "android.accounts.AccountAuthenticator",
        "android.content.SyncAdapter",
        "android.provider.CONTACTS_STRUCTURE"
      ],
      "sha256": "b773bdba98325cf4ea1e1b793f84820347788916b256ba87a44eecaf4e5cb3e2",
      "usesPermissions": [
        "18",
        "18",
        "android.permission.AUTHENTICATE_ACCOUNTS",
        "android.permission.GET_ACCOUNTS",
        "android.permission.INTERNET",
        "android.permission.MANAGE_ACCOUNTS",
        "android.permission.READ_CALENDAR",
        "android.permission.READ_CONTACTS",
        "android.permission.READ_EXTERNAL_STORAGE",
        "android.permission.READ_SYNC_SETTINGS",
        "android.permission.WRITE_CALENDAR",
        "android.permission.WRITE_CONTACTS",
        "android.permission.WRITE_EXTERNAL_STORAGE",
        "android.permission.WRITE_SYNC_SETTINGS",
        "org.dmfs.permission.READ_TASKS",
        "org.dmfs.permission.WRITE_TASKS"
      ]
    }
  ],
  "meta": {
    "generated": "2020-08-27T17:11:14.835391",
    "generatedBy": [
      "/home/hc/code/trackingthetrackers/scripts/make-clean-apk-set.py"
    ],
    "generatedByCommitId": "40519285d6f404593fa655fa89b433743c25289e",
    "sourceDataCommitId": "888bb8f8c77ff55105fcab2ad84c263561eb1169",
    "ver": "0.3.0"
  }
}