{
  "apks": [
    {
      "applicationId": "com.hispanamic.game.speed_on_racer_lite",
      "broadcastReceiverIntentFilterActionNames": [
        "android.intent.action.PACKAGE_ADDED",
        "android.net.conn.CONNECTIVITY_CHANGE"
      ],
      "dependencies": [
        "com.tapjoy."
      ],
      "domainNamesFilteredByExodus": [
        "tapjoyads.com"
      ],
      "metaDataNames": [
        "android.app.lib_name",
        "channelId",
        "cooId",
        "tapjoy.store_name",
        "unityplayer.ForwardNativeEventsToDalvik"
      ],
      "sha256": "251b5ecf91f3bbc3ddcdd53a6a328114aa40ed96a4ca8504f0344e01d576a43e",
      "usesPermissions": [
        "android.permission.ACCESS_COARSE_LOCATION",
        "android.permission.ACCESS_FINE_LOCATION",
        "android.permission.ACCESS_NETWORK_STATE",
        "android.permission.ACCESS_WIFI_STATE",
        "android.permission.INTERNET",
        "android.permission.READ_PHONE_STATE",
        "android.permission.WAKE_LOCK",
        "android.permission.WRITE_EXTERNAL_STORAGE"
      ]
    }
  ],
  "meta": {
    "generated": "2020-08-27T15:03:03.602125",
    "generatedBy": [
      "/home/hc/code/trackingthetrackers/scripts/make-trackers-apk-set.py"
    ],
    "ver": "0.3.0"
  }
}