{
  "apks": [
    {
      "applicationId": "com.simplemobiletools.contacts.pro",
      "broadcastReceiverIntentFilterActionNames": [
        "com.simplemobiletools.commons.SHARED_THEME_ACTIVATED",
        "com.simplemobiletools.commons.SHARED_THEME_UPDATED"
      ],
      "dependencies": [],
      "domainNamesFilteredByExodus": [
        ".facebook.com",
        ".google.com"
      ],
      "metaDataNames": [
        "android.app.default_searchable",
        "android.support.FILE_PROVIDER_PATHS"
      ],
      "sha256": "68525c10b301224f48ef6c45df74ff8ff018ddd1a59baeb0cf500ff881a9f2e0",
      "usesPermissions": [
        "android.permission.ANSWER_PHONE_CALLS",
        "android.permission.CALL_PHONE",
        "android.permission.FOREGROUND_SERVICE",
        "android.permission.GET_ACCOUNTS",
        "android.permission.MANAGE_OWN_CALLS",
        "android.permission.READ_CONTACTS",
        "android.permission.READ_PHONE_STATE",
        "android.permission.READ_SYNC_SETTINGS",
        "android.permission.WAKE_LOCK",
        "android.permission.WRITE_CONTACTS",
        "android.permission.WRITE_EXTERNAL_STORAGE"
      ]
    }
  ],
  "meta": {
    "generated": "2020-08-27T17:48:06.119652",
    "generatedBy": [
      "/home/hc/code/trackingthetrackers/scripts/make-clean-apk-set.py"
    ],
    "generatedByCommitId": "40519285d6f404593fa655fa89b433743c25289e",
    "sourceDataCommitId": "888bb8f8c77ff55105fcab2ad84c263561eb1169",
    "ver": "0.3.0"
  }
}