{
  "apks": [
    {
      "applicationId": "com.eamobile.themepark_row1459869626",
      "broadcastReceiverIntentFilterActionNames": [
        "android.intent.action.ACTION_SHUTDOWN",
        "android.intent.action.QUICKBOOT_POWEROFF",
        "android.net.conn.CONNECTIVITY_CHANGE",
        "com.android.vending.INSTALL_REFERRER",
        "com.android.vending.billing.IN_APP_NOTIFY",
        "com.android.vending.billing.PURCHASE_STATE_CHANGED",
        "com.android.vending.billing.RESPONSE_CODE"
      ],
      "dependencies": [
        "com$millennialmedia$",
        "com.crashlytics.",
        "com.google.ads.",
        "com.google.android.gms.analytics.",
        "com.inmobi",
        "com.millennialmedia."
      ],
      "domainNamesFilteredByExodus": [
        ".facebook.com",
        ".google.com",
        "crashlytics.com",
        "doubleclick.net",
        "et.w.inmobi.com",
        "google-analytics.com",
        "i.w.inmobi.com",
        "inmobi.com",
        "inmobisdk-a.akamaihd.net",
        "millennialmedia.com",
        "w.inmobi.com"
      ],
      "metaDataNames": [
        "DeviceLogEnabled",
        "GameLogEnabled",
        "MayhemHTTPLogEnabled",
        "android.service.wallpaper",
        "com.crashlytics.ApiKey",
        "contains_manual",
        "easp_environment",
        "enable_coppa",
        "enable_fastbuild",
        "enable_iapcheats",
        "enable_offline",
        "enable_playhaven",
        "game_display_description",
        "game_display_name",
        "game_icon",
        "game_publisher_name",
        "parental_rating",
        "region_type",
        "xperiaplay_content"
      ],
      "sha256": "5a2f6ff67097072cf3332b1667fef41326b87aecc3d18c262a78599e82ed84c6",
      "usesPermissions": [
        "android.permission.ACCESS_COARSE_LOCATION",
        "android.permission.ACCESS_NETWORK_STATE",
        "android.permission.ACCESS_WIFI_STATE",
        "android.permission.INTERNET",
        "android.permission.READ_PHONE_STATE",
        "android.permission.VIBRATE",
        "android.permission.WAKE_LOCK",
        "android.permission.WRITE_EXTERNAL_STORAGE",
        "com.android.vending.BILLING",
        "com.android.vending.CHECK_LICENSE"
      ]
    }
  ],
  "meta": {
    "generated": "2020-08-27T15:50:58.148714",
    "generatedBy": [
      "/home/hc/code/trackingthetrackers/scripts/make-trackers-apk-set.py"
    ],
    "ver": "0.3.0"
  }
}