{
  "apks": [
    {
      "applicationId": "com.forrestguice.suntimeswidget",
      "broadcastReceiverIntentFilterActionNames": [
        "SUNTIMES_WIDGET_UPDATE",
        "SUNTIMES_WIDGET_UPDATE2",
        "android.appwidget.action.APPWIDGET_UPDATE"
      ],
      "dependencies": [],
      "domainNamesFilteredByExodus": [],
      "metaDataNames": [
        "android.appwidget.provider",
        "android.support.VERSION"
      ],
      "sha256": "0d3c8d21afa2647cf4d5c2463f32f260756114d683f30f6631b5f743e2d8db12",
      "usesPermissions": [
        "18",
        "android.permission.ACCESS_COARSE_LOCATION",
        "android.permission.ACCESS_FINE_LOCATION",
        "android.permission.WRITE_EXTERNAL_STORAGE",
        "com.android.alarm.permission.SET_ALARM"
      ]
    }
  ],
  "meta": {
    "generated": "2020-08-27T17:22:18.989658",
    "generatedBy": [
      "/home/hc/code/trackingthetrackers/scripts/make-clean-apk-set.py"
    ],
    "generatedByCommitId": "40519285d6f404593fa655fa89b433743c25289e",
    "sourceDataCommitId": "888bb8f8c77ff55105fcab2ad84c263561eb1169",
    "ver": "0.3.0"
  }
}