{
  "apks": [
    {
      "applicationId": "DnNE.ijHl.gntYpW",
      "broadcastReceiverIntentFilterActionNames": [
        "android.intent.action.ACTION_POWER_CONNECTED",
        "android.intent.action.ACTION_POWER_DISCONNECTED",
        "android.intent.action.ANY_DATA_STATE",
        "android.intent.action.BOOT_COMPLETED",
        "android.intent.action.DATE_CHANGED",
        "android.intent.action.DOWNLOAD_COMPLETE",
        "android.intent.action.MAIN",
        "android.intent.action.PACKAGE_ADDED",
        "android.intent.action.PHONE_STATE",
        "android.intent.action.SIM_STATE_CHANGED",
        "android.intent.action.TIMEZONE_CHANGED",
        "android.intent.action.USER_PRESENT",
        "android.net.conn.CONNECTIVITY_CHANGE",
        "android.net.wifi.STATE_CHANGE",
        "android.net.wifi.WIFI_STATE_CHANGED",
        "android.provider.Telephony.SMS_RECEIVED",
        "android.provider.Telephony.WAP_PUSH_RECEIVED",
        "com.ehoo.action.SEND",
        "com.silib.basic",
        "com.skymobi.pay.action.plugin",
        "com.skymobi.pay.plugin.advert",
        "com.skymobi.pay.plugin.push",
        "com.skymobi.pay.plugin.recordupload"
      ],
      "dependencies": [],
      "domainNamesFilteredByExodus": [],
      "metaDataNames": [
        "HFT_APP_ID",
        "HFT_APP_KEY",
        "PZ_CNO",
        "UMENG_APPKEY",
        "UMENG_CHANNEL",
        "ZMAppId",
        "ZMMerchantId",
        "ZMOtherEnv",
        "hFxVfor",
        "hKey",
        "subchannelid"
      ],
      "sha256": "87068dc8c8d01600aa49663b0126bc2314427f8ce3de5b30eaa489896b14c6a3",
      "usesPermissions": [
        "android.permission.ACCESS_COARSE_LOCATION",
        "android.permission.ACCESS_FINE_LOCATION",
        "android.permission.ACCESS_NETWORK_STATE",
        "android.permission.ACCESS_WIFI_STATE",
        "android.permission.BLUETOOTH",
        "android.permission.CALL_PHONE",
        "android.permission.CHANGE_CONFIGURATION",
        "android.permission.CHANGE_NETWORK_STATE",
        "android.permission.CHANGE_WIFI_STATE",
        "android.permission.DISABLE_KEYGUARD",
        "android.permission.DOWNLOAD_WITHOUT_NOTIFICATION",
        "android.permission.GET_ACCOUNTS",
        "android.permission.GET_TASKS",
        "android.permission.GET_TASKS",
        "android.permission.INTERNET",
        "android.permission.MOUNT_UNMOUNT_FILESYSTEMS",
        "android.permission.READ_CALL_LOG",
        "android.permission.READ_CONTACTS",
        "android.permission.READ_CONTACTS",
        "android.permission.READ_EXTERNAL_STORAGE",
        "android.permission.READ_LOGS",
        "android.permission.READ_PHONE_STATE",
        "android.permission.READ_SMS",
        "android.permission.RECEIVE_BOOT_COMPLETED",
        "android.permission.RECEIVE_SMS",
        "android.permission.RECEIVE_WAP_PUSH",
        "android.permission.REQUEST_INSTALL_PACKAGES",
        "android.permission.RESTART_PACKAGES",
        "android.permission.RUN_INSTRUMENTATION",
        "android.permission.SEND_SMS",
        "android.permission.SYSTEM_ALERT_WINDOW",
        "android.permission.SYSTEM_ALERT_WINDOW",
        "android.permission.VIBRATE",
        "android.permission.WAKE_LOCK",
        "android.permission.WAKE_LOCK",
        "android.permission.WRITE_APN_SETTINGS",
        "android.permission.WRITE_EXTERNAL_STORAGE",
        "android.permission.WRITE_SETTINGS",
        "android.permission.WRITE_SMS",
        "android.webkit.permission.PLUGIN",
        "com.anddoes.launcher.permission.READ_SETTINGS",
        "com.anddoes.launcher.permission.WRITE_SETTINGS",
        "com.android.launcher.permission.INSTALL_SHORTCUT",
        "com.android.launcher.permission.READ_SETTINGS",
        "com.android.launcher.permission.READ_SETTINGS",
        "com.android.launcher.permission.WRITE_SETTINGS",
        "com.android.launcher2.permission.READ_SETTINGS",
        "com.android.launcher2.permission.WRITE_SETTINGS",
        "com.android.launcher3.permission.READ_SETTINGS",
        "com.android.launcher3.permission.WRITE_SETTINGS",
        "com.android.mylauncher.permission.READ_SETTINGS",
        "com.android.mylauncher.permission.WRITE_SETTINGS",
        "com.ebproductions.android.launcher.permission.READ_SETTINGS",
        "com.ebproductions.android.launcher.permission.WRITE_SETTINGS",
        "com.fede.launcher.permission.READ_SETTINGS",
        "com.fede.launcher.permission.WRITE_SETTINGS",
        "com.htc.launcher.permission.READ_SETTINGS",
        "com.htc.launcher.permission.WRITE_SETTINGS",
        "com.huawei.android.launcher.permission.READ_SETTINGS",
        "com.huawei.android.launcher.permission.WRITE_SETTINGS",
        "com.huawei.launcher2.permission.READ_SETTINGS",
        "com.huawei.launcher2.permission.WRITE_SETTINGS",
        "com.huawei.launcher3.permission.READ_SETTINGS",
        "com.huawei.launcher3.permission.WRITE_SETTINGS",
        "com.lenovo.launcher.permission.READ_SETTINGS",
        "com.lenovo.launcher.permission.WRITE_SETTINGS",
        "com.lge.launcher.permission.READ_SETTINGS",
        "com.lge.launcher.permission.WRITE_SETTINGS",
        "com.oppo.launcher.permission.READ_SETTINGS",
        "com.oppo.launcher.permission.WRITE_SETTINGS",
        "com.qihoo360.launcher.permission.READ_SETTINGS",
        "com.qihoo360.launcher.permission.WRITE_SETTINGS",
        "com.sec.android.app.twlauncher.settings.READ_SETTINGS",
        "com.sec.android.app.twlauncher.settings.WRITE_SETTINGS",
        "com.tencent.qqlauncher.permission.READ_SETTINGS",
        "com.tencent.qqlauncher.permission.WRITE_SETTINGS",
        "dianxin.permission.ACCESS_LAUNCHER_DATA",
        "net.qihoo.launcher.permission.READ_SETTINGS",
        "net.qihoo.launcher.permission.WRITE_SETTINGS",
        "org.adw.launcher.permission.READ_SETTINGS",
        "org.adw.launcher.permission.WRITE_SETTINGS",
        "org.adw.launcher_donut.permission.READ_SETTINGS",
        "org.adw.launcher_donut.permission.WRITE_SETTINGS",
        "org.adwfreak.launcher.permission.READ_SETTINGS",
        "org.adwfreak.launcher.permission.WRITE_SETTINGS",
        "telecom.mdesk.permission.READ_SETTINGS",
        "telecom.mdesk.permission.WRITE_SETTINGS"
      ]
    }
  ],
  "meta": {
    "generated": "2020-08-27T14:54:49.507188",
    "generatedBy": [
      "/home/hc/code/trackingthetrackers/scripts/make-trackers-apk-set.py"
    ],
    "ver": "0.3.0"
  }
}