{
  "apks": [
    {
      "applicationId": "com.google.android.apps.chrometophone",
      "broadcastReceiverIntentFilterActionNames": [
        "android.intent.action.MY_PACKAGE_REPLACED",
        "android.intent.action.USER_PRESENT",
        "android.net.conn.CONNECTIVITY_CHANGE",
        "com.android.vending.INSTALL_REFERRER",
        "com.google.android.c2dm.intent.RECEIVE",
        "com.google.android.c2dm.intent.REGISTRATION"
      ],
      "dependencies": [
        "com.google.ads.",
        "com.google.android.gms.ads.",
        "com.google.android.gms.analytics.",
        "com.google.android.gms.tagmanager",
        "com.mobileapptracker",
        "ly$count$android$",
        "ly.count.android."
      ],
      "domainNamesFilteredByExodus": [
        ".google.com",
        "doubleclick.net",
        "google-analytics.com",
        "www.googletagmanager.com"
      ],
      "metaDataNames": [
        "com.google.android.gms.version"
      ],
      "sha256": "065ab87ae54847d3d51d1957fe6d00ebe5de428419092413196a2e9483c1248a",
      "usesPermissions": [
        "android.permission.ACCESS_COARSE_LOCATION",
        "android.permission.ACCESS_NETWORK_STATE",
        "android.permission.GET_ACCOUNTS",
        "android.permission.INTERNET",
        "android.permission.USE_CREDENTIALS",
        "android.permission.WAKE_LOCK",
        "android.permission.WRITE_EXTERNAL_STORAGE",
        "com.google.android.apps.chrometophone.permission.C2D_MESSAGE",
        "com.google.android.c2dm.permission.RECEIVE"
      ]
    }
  ],
  "meta": {
    "generated": "2020-08-27T14:55:55.748343",
    "generatedBy": [
      "/home/hc/code/trackingthetrackers/scripts/make-trackers-apk-set.py"
    ],
    "ver": "0.3.0"
  }
}