{
  "apks": [
    {
      "applicationId": "com.islamicdailydua",
      "broadcastReceiverIntentFilterActionNames": [
        "android.intent.action.BOOT_COMPLETED"
      ],
      "dependencies": [
        "com.google.ads.",
        "com.google.android.apps.analytics.",
        "com.google.android.gms.ads.",
        "com.google.android.gms.analytics.",
        "com.google.android.gms.tagmanager"
      ],
      "domainNamesFilteredByExodus": [
        ".google.com",
        "doubleclick.net",
        "google-analytics.com",
        "www.googletagmanager.com"
      ],
      "metaDataNames": [
        "com.google.android.gms.version"
      ],
      "sha256": "767f32dd827cecdd4cb737d7b2ba54bb90cbf44872f5f68e5b778332a1a953f0",
      "usesPermissions": [
        "android.permission.ACCESS_COARSE_LOCATION",
        "android.permission.ACCESS_FINE_LOCATION",
        "android.permission.ACCESS_NETWORK_STATE",
        "android.permission.GET_ACCOUNTS",
        "android.permission.INTERNET",
        "android.permission.READ_PHONE_STATE",
        "android.permission.RECEIVE_BOOT_COMPLETED",
        "android.permission.WRITE_EXTERNAL_STORAGE",
        "com.android.browser.permission.READ_HISTORY_BOOKMARKS"
      ]
    }
  ],
  "meta": {
    "generated": "2020-08-27T15:35:13.677412",
    "generatedBy": [
      "/home/hc/code/trackingthetrackers/scripts/make-trackers-apk-set.py"
    ],
    "ver": "0.3.0"
  }
}