{
  "apks": [
    {
      "applicationId": "com.killtime.mermaid",
      "broadcastReceiverIntentFilterActionNames": [
        "android.intent.action.BOOT_COMPLETED"
      ],
      "dependencies": [
        "com.mobclix.android.sdk"
      ],
      "domainNamesFilteredByExodus": [
        ".facebook.com",
        ".google.com",
        "ads.mobclix.com",
        "api.airpush.com",
        "apistaging.airpush.com",
        "beta.airpush.com",
        "data.mobclix.com",
        "m.airpush.com",
        "mobclix.com"
      ],
      "metaDataNames": [
        "android.support.PARENT_ACTIVITY",
        "com.GINbEsVI.VcqBYmvC87539.APIKEY",
        "com.GINbEsVI.VcqBYmvC87539.APPID",
        "com.mobclix.APPLICATION_ID"
      ],
      "sha256": "25cee62ac31ebd803700f06f848901ff5a77113f1f4d7e734e4afee8eff0d76c",
      "usesPermissions": [
        "android.permission.ACCESS_COARSE_LOCATION",
        "android.permission.ACCESS_FINE_LOCATION",
        "android.permission.ACCESS_LOCATION_EXTRA_COMMANDS",
        "android.permission.ACCESS_NETWORK_STATE",
        "android.permission.ACCESS_WIFI_STATE",
        "android.permission.GET_ACCOUNTS",
        "android.permission.GET_TASKS",
        "android.permission.INTERNET",
        "android.permission.READ_PHONE_STATE",
        "android.permission.RECEIVE_BOOT_COMPLETED",
        "android.permission.VIBRATE",
        "android.permission.WAKE_LOCK",
        "com.android.launcher.permission.INSTALL_SHORTCUT"
      ]
    }
  ],
  "meta": {
    "generated": "2020-08-27T14:59:09.994971",
    "generatedBy": [
      "/home/hc/code/trackingthetrackers/scripts/make-trackers-apk-set.py"
    ],
    "ver": "0.3.0"
  }
}