{
  "apks": [
    {
      "applicationId": "com.game.mms",
      "broadcastReceiverIntentFilterActionNames": [
        "android.intent.action.BOOT_COMPLETED",
        "android.intent.action.USER_PRESENT"
      ],
      "dependencies": [
        "com.google.ads."
      ],
      "domainNamesFilteredByExodus": [],
      "metaDataNames": [],
      "sha256": "fc9423d98ade99d201015d7ad83cf50f624c497f0cbeb29770dcfe0d1756453d",
      "usesPermissions": [
        "android.permission.ACCESS_NETWORK_STATE",
        "android.permission.ACCESS_WIFI_STATE",
        "android.permission.GET_TASKS",
        "android.permission.INTERNET",
        "android.permission.READ_PHONE_STATE",
        "android.permission.WRITE_EXTERNAL_STORAGE"
      ]
    }
  ],
  "meta": {
    "generated": "2020-08-27T15:21:55.625007",
    "generatedBy": [
      "/home/hc/code/trackingthetrackers/scripts/make-trackers-apk-set.py"
    ],
    "ver": "0.3.0"
  }
}