{
  "apks": [
    {
      "applicationId": "com.duoku.coolreader.onebook.lianzai.b201305044212218",
      "broadcastReceiverIntentFilterActionNames": [
        "android.intent.action.BOOT_COMPLETED",
        "android.intent.action.PACKAGE_REMOVED",
        "android.net.conn.CONNECTIVITY_CHANGE",
        "com.baidu.android.pushservice.action.BIND_SYNC",
        "com.baidu.android.pushservice.action.MESSAGE",
        "com.baidu.android.pushservice.action.METHOD",
        "com.baidu.android.pushservice.action.RECEIVE",
        "com.baidu.android.pushservice.action.media.CLICK",
        "com.baidu.android.pushservice.action.notification.CLICK",
        "com.baidu.android.pushservice.action.notification.SHOW"
      ],
      "dependencies": [
        "com.baidu.mobstat"
      ],
      "domainNamesFilteredByExodus": [],
      "metaDataNames": [
        "BaiduMobAd_CELL_LOCATION",
        "BaiduMobAd_CHANNEL",
        "BaiduMobAd_EXCEPTION_LOG",
        "BaiduMobAd_ONLY_WIFI",
        "BaiduMobAd_SEND_STRATEGY",
        "BaiduMobAd_STAT_ID",
        "DuokuMobAd_CHANNEL",
        "OneBook_SIMPLENAME"
      ],
      "sha256": "b72fbc24273b90306126ac53f21a2069de88bf689c3ae4c8cb9ca4b252c0892c",
      "usesPermissions": [
        "android.permission.ACCESS_DOWNLOAD_MANAGER",
        "android.permission.ACCESS_NETWORK_STATE",
        "android.permission.ACCESS_WIFI_STATE",
        "android.permission.BROADCAST_STICKY",
        "android.permission.DISABLE_KEYGUARD",
        "android.permission.DOWNLOAD_WITHOUT_NOTIFICATION",
        "android.permission.EXPAND_STATUS_BAR",
        "android.permission.INTERNET",
        "android.permission.MOUNT_UNMOUNT_FILESYSTEMS",
        "android.permission.READ_LOGS",
        "android.permission.READ_PHONE_STATE",
        "android.permission.RECEIVE_BOOT_COMPLETED",
        "android.permission.SEND_SMS",
        "android.permission.STATUS_BAR",
        "android.permission.SYSTEM_ALERT_WINDOW",
        "android.permission.USE_CREDENTIALS",
        "android.permission.VIBRATE",
        "android.permission.WAKE_LOCK",
        "android.permission.WRITE_EXTERNAL_STORAGE",
        "android.permission.WRITE_SETTINGS"
      ]
    }
  ],
  "meta": {
    "generated": "2020-08-27T15:35:13.078665",
    "generatedBy": [
      "/home/hc/code/trackingthetrackers/scripts/make-trackers-apk-set.py"
    ],
    "ver": "0.3.0"
  }
}