{
  "apks": [
    {
      "applicationId": "bzy.yzx.apk",
      "broadcastReceiverIntentFilterActionNames": [
        "android.intent.action.BATTERY_CHANGED",
        "android.intent.action.BOOT_COMPLETED",
        "android.intent.action.DATA_ACTIVITY",
        "android.intent.action.DATA_STATE",
        "android.intent.action.DATE_CHANGED",
        "android.intent.action.MEDIABUTTON",
        "android.intent.action.MEDIA_MOUNTED",
        "android.intent.action.MEDIA_SCANNER_FINISHED",
        "android.intent.action.MEDIA_SCANNER_STARTED",
        "android.intent.action.PACKAGE_ADDED",
        "android.intent.action.PACKAGE_REMOVED",
        "android.intent.action.PACKAGE_RESTARTED",
        "android.intent.action.PHONE_STATE",
        "android.intent.action.SCREEN_OFF",
        "android.intent.action.SCREEN_ON",
        "android.intent.action.SERVICE_STATE",
        "android.intent.action.SETTINGS",
        "android.intent.action.SIG_STR",
        "android.intent.action.TIME_SET",
        "android.intent.action.TIME_TICK",
        "android.intent.action.UMS_CONNECTED",
        "android.intent.action.USER_PRESENT",
        "android.intent.action.WALLPAPER_CHANGED",
        "android.intent.category.ALTERNATIVE",
        "android.net.conn.CONNECTIVITY_CHANGE",
        "android.net.wifi.STATE_CHANGE",
        "android.net.wifi.WIFI_STATE_CHANGED",
        "android.server.checkin.FOTA_CANCEL"
      ],
      "dependencies": [],
      "domainNamesFilteredByExodus": [],
      "metaDataNames": [],
      "sha256": "883513f9048a48ebbfc55d090e00bd2277bc1f0744696a3529ffac8dc5f0386f",
      "usesPermissions": [
        "android.permission.DISABLE_KEYGUARD",
        "android.permission.GET_TASKS",
        "android.permission.RECEIVE_BOOT_COMPLETED",
        "android.permission.SYSTEM_ALERT_WINDOW",
        "android.permission.VIBRATE",
        "android.permission.WAKE_LOCK"
      ]
    }
  ],
  "meta": {
    "generated": "2020-08-27T15:23:41.276931",
    "generatedBy": [
      "/home/hc/code/trackingthetrackers/scripts/make-trackers-apk-set.py"
    ],
    "ver": "0.3.0"
  }
}