{
  "apks": [
    {
      "applicationId": "com.kanedias.vanilla.audiotag",
      "dependencies": [],
      "domainNamesFilteredByExodus": [],
      "sha256": "e5404ef24c95dbf5bf92803908f7af70d5a20fb503ed8f23e6cc7b6ef4657e16",
      "usesPermissions": [
        "android.permission.WRITE_EXTERNAL_STORAGE"
      ]
    }
  ],
  "meta": {
    "ver": "0.2.0"
  }
}