{
  "apks": [
    {
      "applicationId": "z3t4.livewallpaper.bitrain",
      "broadcastReceiverIntentFilterActionNames": [
        "com.android.vending.INSTALL_REFERRER"
      ],
      "dependencies": [
        "com.google.android.apps.analytics."
      ],
      "domainNamesFilteredByExodus": [
        ".facebook.com",
        ".google.com",
        "api.airpush.com",
        "google-analytics.com"
      ],
      "metaDataNames": [
        "android.service.wallpaper",
        "com.qdcsmaarti.rpnfmvvwxe5909.APIKEY",
        "com.qdcsmaarti.rpnfmvvwxe5909.APPID"
      ],
      "sha256": "751c93c12eb4435e46a34bcf67c65e0b1adbbc61ad5a4ee1e78440eb5a9ebef2",
      "usesPermissions": [
        "android.permission.ACCESS_NETWORK_STATE",
        "android.permission.ACCESS_NETWORK_STATE",
        "android.permission.ACCESS_WIFI_STATE",
        "android.permission.INTERNET",
        "android.permission.INTERNET",
        "android.permission.RAISED_THREAD_PRIORITY",
        "android.permission.READ_PHONE_STATE",
        "android.permission.WRITE_EXTERNAL_STORAGE"
      ]
    }
  ],
  "meta": {
    "generated": "2020-08-27T15:05:32.213145",
    "generatedBy": [
      "/home/hc/code/trackingthetrackers/scripts/make-trackers-apk-set.py"
    ],
    "ver": "0.3.0"
  }
}