{
  "apks": [
    {
      "applicationId": "tv.pps.mobile",
      "broadcastReceiverIntentFilterActionNames": [
        "android.appwidget.action.APPWIDGET_UPDATE",
        "android.intent.action.BOOT_COMPLETED",
        "android.intent.action.PACKAGE_ADDED",
        "android.intent.action.PACKAGE_REMOVED",
        "android.intent.action.PACKAGE_REPLACED",
        "android.intent.action.USER_PRESENT",
        "android.net.conn.CONNECTIVITY_CHANGE",
        "com.baidu.android.moplus.action.START",
        "com.baidu.android.pushservice.action.BIND_SYNC",
        "com.baidu.android.pushservice.action.MESSAGE",
        "com.baidu.android.pushservice.action.METHOD",
        "com.baidu.android.pushservice.action.RECEIVE",
        "com.baidu.android.pushservice.action.media.CLICK",
        "com.baidu.android.pushservice.action.notification.CLICK",
        "com.baidu.android.pushservice.action.notification.SHOW",
        "com.pps.cloudpush.action.DELAY",
        "tv.pps.alarmReceiver",
        "tv.pps.mobile.action.widget.click.currentimage",
        "tv.pps.mobile.action.widget.click.intoapp",
        "tv.pps.mobile.action.widget.click.nextimage",
        "tv.pps.mobile.action.widget.click.preimage",
        "tv.pps.mobile.action.widget.restartservice",
        "tv.pps.mobile.action.widget.updateimage",
        "tv.pps.mobile.widget.SearchWidget.INPUT",
        "tv.pps.mobile.widget.SearchWidget.SEARCH",
        "tv.pps.mobile.widget.SearchWidget.SOURCE"
      ],
      "dependencies": [
        "com.baidu.location",
        "com.google.ads."
      ],
      "domainNamesFilteredByExodus": [
        ".google.com",
        "map.baidu.com"
      ],
      "metaDataNames": [
        "APPKEY",
        "APPSECRET",
        "PPSkey",
        "PublishChannel",
        "android.appwidget.provider",
        "api_key",
        "managerUrl",
        "uploadUrl"
      ],
      "sha256": "16fdc442cab9f5eb6ff819d093edfcaaf3b3c87dd51b8b87032a3fdc737aecd6",
      "usesPermissions": [
        "android.permission.ACCESS_COARSE_LOCATION",
        "android.permission.ACCESS_COARSE_UPDATES",
        "android.permission.ACCESS_DOWNLOAD_MANAGER",
        "android.permission.ACCESS_FINE_LOCATION",
        "android.permission.ACCESS_NETWORK_STATE",
        "android.permission.ACCESS_WIFI_STATE",
        "android.permission.BROADCAST_STICKY",
        "android.permission.CAMERA",
        "android.permission.CHANGE_NETWORK_STATE",
        "android.permission.DISABLE_KEYGUARD",
        "android.permission.DOWNLOAD_WITHOUT_NOTIFICATION",
        "android.permission.GET_TASKS",
        "android.permission.INTERNET",
        "android.permission.MOUNT_UNMOUNT_FILESYSTEMS",
        "android.permission.READ_PHONE_STATE",
        "android.permission.RECEIVE_BOOT_COMPLETED",
        "android.permission.RECORD_AUDIO",
        "android.permission.SET_ACTIVITY_WATCHER",
        "android.permission.SYSTEM_ALERT_WINDOW",
        "android.permission.VIBRATE",
        "android.permission.WAKE_LOCK",
        "android.permission.WRITE_EXTERNAL_STORAGE",
        "android.permission.WRITE_SETTINGS",
        "com.anddoes.launcher.permission.READ_SETTINGS",
        "com.android.browser.permission.READ_HISTORY_BOOKMARKS",
        "com.android.launcher.permission.INSTALL_SHORTCUT",
        "com.android.launcher.permission.READ_SETTINGS",
        "com.android.launcher2.permission.READ_SETTINGS",
        "com.android.launcher3.permission.READ_SETTINGS",
        "com.aspire.mm.permission.READ_SETTINGS",
        "com.bbk.launcher2.permission.READ_SETTINGS",
        "com.fede.launcher.permission.READ_SETTINGS",
        "com.htc.launcher.permission.READ_SETTINGS",
        "com.huawei.android.launcher.permission.READ_SETTINGS",
        "com.huawei.launcher2.permission.READ_SETTINGS",
        "com.huawei.launcher3.permission.READ_SETTINGS",
        "com.lge.launcher.permission.READ_SETTINGS",
        "com.qihoo360.launcher.permission.READ_SETTINGS",
        "org.adw.launcher.permission.READ_SETTINGS"
      ]
    }
  ],
  "meta": {
    "generated": "2020-08-27T14:50:53.844817",
    "generatedBy": [
      "/home/hc/code/trackingthetrackers/scripts/make-trackers-apk-set.py"
    ],
    "ver": "0.3.0"
  }
}