{
  "apks": [
    {
      "applicationId": "com.appiphanyinc.PicTag",
      "broadcastReceiverIntentFilterActionNames": [],
      "dependencies": [
        "com.facebook.login",
        "com.facebook.share",
        "com.flurry.",
        "com.google.android.gms.ads.",
        "com.google.android.gms.analytics.",
        "com.revmob.ads.",
        "com_facebook_login",
        "com_facebook_share",
        "net.hockeyapp."
      ],
      "domainNamesFilteredByExodus": [
        ".facebook.com",
        ".google.com",
        "doubleclick.net",
        "flurry.com",
        "google-analytics.com",
        "hockeyapp.net",
        "www.googletagmanager.com"
      ],
      "metaDataNames": [
        "AA_DB_NAME",
        "AA_DB_VERSION",
        "AA_SQL_PARSER",
        "com.facebook.sdk.ApplicationId",
        "com.facebook.sdk.ApplicationName",
        "com.google.android.gms.version",
        "com.revmob.app.id"
      ],
      "sha256": "b800429d2af1f848ebb2da7d562741ed135877ebb986a0e94e19910204f66002",
      "usesPermissions": [
        "android.permission.ACCESS_FINE_LOCATION",
        "android.permission.ACCESS_NETWORK_STATE",
        "android.permission.INTERNET",
        "android.permission.INTERNET",
        "android.permission.READ_EXTERNAL_STORAGE",
        "android.permission.WRITE_EXTERNAL_STORAGE",
        "com.android.vending.BILLING"
      ]
    }
  ],
  "meta": {
    "generated": "2020-08-27T14:51:01.946353",
    "generatedBy": [
      "/home/hc/code/trackingthetrackers/scripts/make-trackers-apk-set.py"
    ],
    "ver": "0.3.0"
  }
}