{
  "apks": [
    {
      "applicationId": "com.byagowi.persiancalendar",
      "broadcastReceiverIntentFilterActionNames": [
        "android.appwidget.action.APPWIDGET_UPDATE"
      ],
      "dependencies": [],
      "domainNamesFilteredByExodus": [
        ".google.com"
      ],
      "metaDataNames": [
        "android.appwidget.provider"
      ],
      "sha256": "0c69bcfa196b007e228da6cd1323e107c44c93675486f8e521d07d3ce7f7fc1c",
      "usesPermissions": []
    }
  ],
  "meta": {
    "generated": "2020-08-27T17:16:24.641639",
    "generatedBy": [
      "/home/hc/code/trackingthetrackers/scripts/make-clean-apk-set.py"
    ],
    "generatedByCommitId": "40519285d6f404593fa655fa89b433743c25289e",
    "sourceDataCommitId": "888bb8f8c77ff55105fcab2ad84c263561eb1169",
    "ver": "0.3.0"
  }
}