{
  "apks": [
    {
      "applicationId": "io.toutiao.java",
      "broadcastReceiverIntentFilterActionNames": [
        "android.intent.action.USER_PRESENT",
        "android.net.conn.CONNECTIVITY_CHANGE",
        "cn.jpush.android.intent.ACTION_RICHPUSH_CALLBACK",
        "cn.jpush.android.intent.CONNECTION",
        "cn.jpush.android.intent.MESSAGE_RECEIVED",
        "cn.jpush.android.intent.NOTIFICATION_OPENED",
        "cn.jpush.android.intent.NOTIFICATION_RECEIVED",
        "cn.jpush.android.intent.NOTIFICATION_RECEIVED_PROXY",
        "cn.jpush.android.intent.REGISTRATION",
        "cn.jpush.android.intent.UNREGISTRATION"
      ],
      "dependencies": [
        "com.umeng.analytics"
      ],
      "domainNamesFilteredByExodus": [
        "alog.umeng.com",
        "umeng.com"
      ],
      "metaDataNames": [
        "AA_DB_NAME",
        "AA_DB_VERSION",
        "AA_MODELS",
        "APP_CLASS",
        "AuthorizeAdapter",
        "JPUSH_APPKEY",
        "JPUSH_CHANNEL",
        "TESTIN_APPKEY",
        "TESTIN_CHANNEL",
        "UMENG_APPKEY",
        "UMENG_CHANNEL"
      ],
      "sha256": "f86590bcf9416c5d2d1a5dc71052883c6c1a55ae1b089ad0c7448447b16dc6ca",
      "usesPermissions": [
        "android.permission.ACCESS_NETWORK_STATE",
        "android.permission.ACCESS_WIFI_STATE",
        "android.permission.CHANGE_WIFI_STATE",
        "android.permission.GET_ACCOUNTS",
        "android.permission.GET_TASKS",
        "android.permission.INTERNET",
        "android.permission.MANAGE_ACCOUNTS",
        "android.permission.MOUNT_UNMOUNT_FILESYSTEMS",
        "android.permission.READ_EXTERNAL_STORAGE",
        "android.permission.READ_LOGS",
        "android.permission.READ_PHONE_STATE",
        "android.permission.RECEIVE_USER_PRESENT",
        "android.permission.VIBRATE",
        "android.permission.WAKE_LOCK",
        "android.permission.WRITE_EXTERNAL_STORAGE",
        "android.permission.WRITE_SETTINGS",
        "io.toutiao.java.permission.JPUSH_MESSAGE"
      ]
    }
  ],
  "meta": {
    "generated": "2020-08-27T15:44:42.634881",
    "generatedBy": [
      "/home/hc/code/trackingthetrackers/scripts/make-trackers-apk-set.py"
    ],
    "ver": "0.3.0"
  }
}