{
  "apks": [
    {
      "applicationId": "com.plusonelabs.calendar",
      "broadcastReceiverIntentFilterActionNames": [
        "android.appwidget.action.APPWIDGET_UPDATE",
        "android.intent.action.BOOT_COMPLETED",
        "android.intent.action.DATE_CHANGED",
        "android.intent.action.LOCALE_CHANGED",
        "android.intent.action.PROVIDER_CHANGED",
        "android.intent.action.TIMEZONE_CHANGED",
        "android.intent.action.TIME_SET",
        "com.plusonelabs.calendar.action.REFRESH"
      ],
      "dependencies": [],
      "domainNamesFilteredByExodus": [
        ".google.com"
      ],
      "metaDataNames": [
        "android.appwidget.provider"
      ],
      "sha256": "2440f6b9519f95a106ce1903face6e6f3a0e34d695e7ebc58128bd0ff39a3f63",
      "usesPermissions": [
        "android.permission.READ_CALENDAR"
      ]
    }
  ],
  "meta": {
    "generated": "2020-08-27T17:46:11.495430",
    "generatedBy": [
      "/home/hc/code/trackingthetrackers/scripts/make-clean-apk-set.py"
    ],
    "generatedByCommitId": "40519285d6f404593fa655fa89b433743c25289e",
    "sourceDataCommitId": "888bb8f8c77ff55105fcab2ad84c263561eb1169",
    "ver": "0.3.0"
  }
}