{
  "apks": [
    {
      "applicationId": "click.dummer.UartSmartwatch",
      "broadcastReceiverIntentFilterActionNames": [],
      "dependencies": [],
      "domainNamesFilteredByExodus": [],
      "metaDataNames": [],
      "sha256": "846581e674b2e7e8b27af6129c25a93eb4352bbad7567c6ff92b24377d0a48ed",
      "usesPermissions": [
        "android.permission.ACCESS_FINE_LOCATION",
        "android.permission.BLUETOOTH",
        "android.permission.BLUETOOTH_ADMIN"
      ]
    }
  ],
  "meta": {
    "generated": "2020-08-27T16:52:07.955211",
    "generatedBy": [
      "/home/hc/code/trackingthetrackers/scripts/make-clean-apk-set.py"
    ],
    "generatedByCommitId": "40519285d6f404593fa655fa89b433743c25289e",
    "sourceDataCommitId": "888bb8f8c77ff55105fcab2ad84c263561eb1169",
    "ver": "0.3.0"
  }
}