{
  "apks": [
    {
      "applicationId": "com.wireguard.android",
      "broadcastReceiverIntentFilterActionNames": [
        "android.intent.action.ACTION_SHUTDOWN",
        "android.intent.action.BOOT_COMPLETED",
        "com.wireguard.android.action.REFRESH_TUNNEL_STATES",
        "com.wireguard.android.action.SET_TUNNEL_DOWN",
        "com.wireguard.android.action.SET_TUNNEL_UP"
      ],
      "dependencies": [],
      "domainNamesFilteredByExodus": [],
      "metaDataNames": [
        "android.service.quicksettings.ACTIVE_TILE"
      ],
      "sha256": "b0255b28aa1be9dc87fa3bcbb5daf5a2dba855a3ca830b32ed9c31f2582a4889",
      "usesPermissions": [
        "25",
        "android.permission.CAMERA",
        "android.permission.INTERNET",
        "android.permission.RECEIVE_BOOT_COMPLETED",
        "android.permission.WAKE_LOCK",
        "android.permission.WRITE_EXTERNAL_STORAGE"
      ]
    }
  ],
  "meta": {
    "generated": "2020-08-27T17:52:54.295597",
    "generatedBy": [
      "/home/hc/code/trackingthetrackers/scripts/make-clean-apk-set.py"
    ],
    "generatedByCommitId": "3839559c80042252d3b947fb61c86a18e8b31114",
    "sourceDataCommitId": "888bb8f8c77ff55105fcab2ad84c263561eb1169",
    "ver": "0.3.0"
  }
}