{
  "apks": [
    {
      "applicationId": "com.yongrun.app.sxmn",
      "broadcastReceiverIntentFilterActionNames": [
        "LOCATION_SERVICE",
        "android.bluetooth.adapter.action.STATE_CHANGED",
        "android.intent.action.ACTION_SHUTDOWN",
        "android.intent.action.ANY_DATA_STATE",
        "android.intent.action.DOWNLOAD_COMPLETE",
        "android.intent.action.MEDIA_EJECT",
        "android.intent.action.MEDIA_MOUNTED",
        "android.intent.action.SERVICE_STATE",
        "android.intent.action.SIM_STATE_CHANGED",
        "android.intent.action.USER_PRESENT",
        "android.net.conn.CONNECTIVITY_CHANGE",
        "android.net.wifi.STATE_CHANGE",
        "android.net.wifi.WIFI_STATE_CHANGED",
        "android.provider.Telephony.SMS_RECEIVED"
      ],
      "dependencies": [
        "com.baidu.mobads",
        "com.baidu.mobstat"
      ],
      "domainNamesFilteredByExodus": [],
      "metaDataNames": [
        "BaiduMobAd_APP_ID",
        "BaiduMobAd_APP_SEC",
        "BaiduMobAd_CHANNEL",
        "BaiduMobAd_EXCEPTION_LOG",
        "BaiduMobAd_ONLY_WIFI",
        "BaiduMobAd_SEND_STRATEGY",
        "BaiduMobAd_STAT_ID",
        "com.snowfish.appid",
        "com.snowfish.channel",
        "com.snowfish.customer",
        "com.snowfish.sdk.version"
      ],
      "sha256": "1b9eb94daedd9de893f1e04e9d6370733150185f46766e60cfd670e0bf32ac08",
      "usesPermissions": [
        "android.permission.ACCESS_COARSE_LOCATION",
        "android.permission.ACCESS_FINE_LOCATION",
        "android.permission.ACCESS_FINE_LOCATION",
        "android.permission.ACCESS_MOCK_LOCATION",
        "android.permission.ACCESS_NETWORK_STATE",
        "android.permission.ACCESS_WIFI_STATE",
        "android.permission.CHANGE_CONFIGURATION",
        "android.permission.CHANGE_NETWORK_STATE",
        "android.permission.CHANGE_WIFI_STATE",
        "android.permission.GET_TASKS",
        "android.permission.INTERNET",
        "android.permission.MOUNT_UNMOUNT_FILESYSTEMS",
        "android.permission.READ_EXTERNAL_STORAGE",
        "android.permission.READ_PHONE_STATE",
        "android.permission.READ_SMS",
        "android.permission.RECEIVE_BOOT_COMPLETED",
        "android.permission.RECEIVE_MMS",
        "android.permission.RECEIVE_SMS",
        "android.permission.SEND_SMS",
        "android.permission.SYSTEM_ALERT_WINDOW",
        "android.permission.VIBRATE",
        "android.permission.WAKE_LOCK",
        "android.permission.WRITE_EXTERNAL_STORAGE",
        "android.permission.WRITE_SETTINGS",
        "android.permission.WRITE_SMS"
      ]
    }
  ],
  "meta": {
    "generated": "2020-08-27T15:46:30.871567",
    "generatedBy": [
      "/home/hc/code/trackingthetrackers/scripts/make-trackers-apk-set.py"
    ],
    "ver": "0.3.0"
  }
}