{
  "apks": [
    {
      "applicationId": "com.pigoutgame.shadowbiker",
      "broadcastReceiverIntentFilterActionNames": [
        "android.intent.action.PACKAGE_ADDED",
        "android.intent.action.PACKAGE_REMOVED",
        "android.intent.action.USER_PRESENT",
        "android.net.conn.CONNECTIVITY_CHANGE",
        "com.dev.float.ALARM_ACTION",
        "com.lseiei.downloadManager",
        "com.zdt.action.ALARM_ACTION"
      ],
      "dependencies": [
        "com.flurry.",
        "com.google.android.apps.analytics."
      ],
      "domainNamesFilteredByExodus": [
        "flurry.com",
        "google-analytics.com"
      ],
      "metaDataNames": [
        "UN_KEY",
        "zan_appid",
        "zdt_appkey"
      ],
      "sha256": "f74dbe5b98f1205c8b3215a0fef0c071c31855e36021b667a93e6231e23549fb",
      "usesPermissions": [
        "android.permission.ACCESS_NETWORK_STATE",
        "android.permission.GET_TASKS",
        "android.permission.INTERNET",
        "android.permission.READ_PHONE_STATE",
        "android.permission.SYSTEM_ALERT_WINDOW",
        "android.permission.WRITE_EXTERNAL_STORAGE"
      ]
    }
  ],
  "meta": {
    "generated": "2020-08-27T15:03:43.282692",
    "generatedBy": [
      "/home/hc/code/trackingthetrackers/scripts/make-trackers-apk-set.py"
    ],
    "ver": "0.3.0"
  }
}