{
  "apks": [
    {
      "applicationId": "com.mobincube.android.sc_C1T7Q",
      "broadcastReceiverIntentFilterActionNames": [
        "android.intent.action.PACKAGE_ADDED",
        "com.android.vending.INSTALL_REFERRER",
        "com.google.android.c2dm.intent.RECEIVE",
        "com.google.android.c2dm.intent.REGISTRATION",
        "com.inmobi.share.id"
      ],
      "dependencies": [
        "com$amazon$device$ads",
        "com$clevertap$",
        "com$facebook$ads",
        "com$mopub$mobileads$",
        "com$startapp$android$publish",
        "com.amazon.device.ads",
        "com.applovin",
        "com.appodeal.ads.",
        "com.chartboost.sdk.",
        "com.clevertap.",
        "com.facebook.ads",
        "com.flurry.",
        "com.google.ads.",
        "com.google.android.gms.ads.",
        "com.google.android.gms.analytics.",
        "com.google.android.gms.tagmanager",
        "com.inmobi",
        "com.mopub.mobileads.",
        "com.startapp.android.publish",
        "com.unity3d.ads",
        "com.yandex.metrica.",
        "com.yandex.mobile.ads",
        "org.nexage."
      ],
      "domainNamesFilteredByExodus": [
        ".avocarrot.com",
        ".chartboost.com",
        ".facebook.com",
        ".google.com",
        "adcolony.com",
        "ads.rubiconproject.com",
        "androidads21.adcolony.com",
        "androidads23.adcolony.com",
        "api.vungle.com",
        "applovin.com",
        "appodeal.com",
        "appodealx.com",
        "config.inmobi.com",
        "doubleclick.net",
        "flurry.com",
        "google-analytics.com",
        "i.w.inmobi.com",
        "ingest.vungle.com",
        "inmobi.com",
        "inmobisdk-a.akamaihd.net",
        "mopub.com",
        "pubnative.net",
        "sdkm.w.inmobi.com",
        "startup.mobile.yandex.net",
        "w.inmobi.com",
        "www.googletagmanager.com",
        "wzrkt.com"
      ],
      "metaDataNames": [
        "CLEVERTAP_INAPP_EXCLUDE",
        "com.appodeal.framework",
        "com.google.android.gms.version",
        "metrica:api:level"
      ],
      "sha256": "8bc79a4a439642aa2e536176af191c388722670c11df2f1da805aca6ed5d4154",
      "usesPermissions": [
        "android.permission.ACCESS_COARSE_LOCATION",
        "android.permission.ACCESS_FINE_LOCATION",
        "android.permission.ACCESS_NETWORK_STATE",
        "android.permission.ACCESS_WIFI_STATE",
        "android.permission.GET_ACCOUNTS",
        "android.permission.INTERNET",
        "android.permission.READ_PHONE_STATE",
        "android.permission.WAKE_LOCK",
        "android.permission.WRITE_EXTERNAL_STORAGE",
        "com.google.android.c2dm.permission.RECEIVE",
        "com.mobincube.android.sc_C1T7Q.permission.C2D_MESSAGE"
      ]
    }
  ],
  "meta": {
    "generated": "2020-08-27T15:02:26.650926",
    "generatedBy": [
      "/home/hc/code/trackingthetrackers/scripts/make-trackers-apk-set.py"
    ],
    "ver": "0.3.0"
  }
}