{
  "apks": [
    {
      "applicationId": "treeart.candypop",
      "broadcastReceiverIntentFilterActionNames": [
        "android.intent.action.BATTERY_LOW",
        "android.intent.action.BOOT_COMPLETED",
        "android.intent.action.MY_PACKAGE_REPLACED",
        "android.intent.action.PACKAGE_ADDED",
        "android.intent.action.PACKAGE_REPLACED"
      ],
      "dependencies": [
        "com.airpush.",
        "com.apsalar.sdk.",
        "com.google.ads.",
        "com.scoreloop.client.android",
        "com_facebook_login"
      ],
      "domainNamesFilteredByExodus": [
        ".facebook.com",
        ".google.com",
        "api.airpush.com",
        "beta.airpush.com",
        "doubleclick.net",
        "e.apsalar.com",
        "m.airpush.com"
      ],
      "metaDataNames": [
        "com.tapcontext.DEVELOPERKEY"
      ],
      "sha256": "2a96892efed22ba03067f7be3f53b7abef8660707f7f485a013979c40e3a285f",
      "usesPermissions": [
        "android.permission.INTERNET",
        "android.permission.READ_CONTACTS",
        "android.permission.READ_PHONE_STATE",
        "android.permission.RECEIVE_BOOT_COMPLETED",
        "android.permission.VIBRATE",
        "android.permission.WAKE_LOCK",
        "android.permission.WRITE_EXTERNAL_STORAGE",
        "com.android.vending.BILLING"
      ]
    }
  ],
  "meta": {
    "generated": "2020-08-27T15:41:33.430633",
    "generatedBy": [
      "/home/hc/code/trackingthetrackers/scripts/make-trackers-apk-set.py"
    ],
    "ver": "0.3.0"
  }
}