{
  "apks": [
    {
      "applicationId": "org.ppsspp.ppsspp",
      "broadcastReceiverIntentFilterActionNames": [],
      "dependencies": [
        "com.google.android.apps.analytics."
      ],
      "domainNamesFilteredByExodus": [],
      "metaDataNames": [
        "xperiaplayoptimized_content"
      ],
      "sha256": "74c2bdc957f7aec2500029c959db1238a6b73c86feea3c4966ac18aba5a73839",
      "usesPermissions": [
        "android.permission.ACCESS_NETWORK_STATE",
        "android.permission.INTERNET",
        "android.permission.READ_EXTERNAL_STORAGE",
        "android.permission.WRITE_EXTERNAL_STORAGE",
        "archos.permission.FULLSCREEN.FULL"
      ]
    }
  ],
  "meta": {
    "generated": "2020-08-27T18:33:58.438701",
    "generatedBy": [
      "/home/hc/code/trackingthetrackers/scripts/make-clean-apk-set.py"
    ],
    "generatedByCommitId": "3839559c80042252d3b947fb61c86a18e8b31114",
    "sourceDataCommitId": "888bb8f8c77ff55105fcab2ad84c263561eb1169",
    "ver": "0.3.0"
  }
}