{
  "apks": [
    {
      "applicationId": "com.zhiqupk.root.global",
      "broadcastReceiverIntentFilterActionNames": [
        "android.intent.action.ACTION_POWER_CONNECTED",
        "android.intent.action.PACKAGE_ADDED",
        "android.intent.action.PACKAGE_REMOVED",
        "android.intent.action.USER_PRESENT",
        "android.net.conn.CONNECTIVITY_CHANGE",
        "com.android.vending.INSTALL_REFERRER",
        "com.secneo.plugin.action.APP_STARTED",
        "com.secneo.plugin.action.DAILY",
        "com.secneo.plugin.action.HOURLY",
        "com.secneo.proxy.action.CUSTOM",
        "com.zhiqupk.root_vorbose.event"
      ],
      "dependencies": [
        "com.google.android.gms.analytics."
      ],
      "domainNamesFilteredByExodus": [
        "ads.mobclix.com",
        "aos.wall.youmi.net",
        "api.airpush.com",
        "data.mobclix.com",
        "doubleclick.net",
        "flurry.com",
        "i.w.inmobi.com",
        "inmobi.com",
        "mobclix.com",
        "nexage.com",
        "s.mobclix.com",
        "smaato.net",
        "youmi.net"
      ],
      "metaDataNames": [
        "BANGCLE_APP_KEY",
        "BANGCLE_SDK_VERSION",
        "UMENG_APPKEY",
        "UMENG_CHANNEL"
      ],
      "sha256": "028e12e82bca2091059a55c0cd3e01f6aeaca7d474aa6a65884538b9d9aca484",
      "usesPermissions": [
        "android.permission.ACCESS_MTK_MMHW",
        "android.permission.ACCESS_NETWORK_STATE",
        "android.permission.ACCESS_WIFI_STATE",
        "android.permission.BROADCAST_STICKY",
        "android.permission.CAMERA",
        "android.permission.DISABLE_KEYGUARD",
        "android.permission.GET_TASKS",
        "android.permission.INTERACT_ACROSS_USERS_FULL",
        "android.permission.INTERNET",
        "android.permission.MOUNT_UNMOUNT_FILESYSTEMS",
        "android.permission.READ_PHONE_STATE",
        "android.permission.RECEIVE_USER_PRESENT",
        "android.permission.SYSTEM_ALERT_WINDOW",
        "android.permission.VIBRATE",
        "android.permission.WAKE_LOCK",
        "android.permission.WAKE_LOCK",
        "android.permission.WRITE_EXTERNAL_STORAGE",
        "android.permission.WRITE_SETTINGS",
        "com.android.launcher.permission.INSTALL_SHORTCUT"
      ]
    }
  ],
  "meta": {
    "generated": "2020-08-27T15:27:49.519467",
    "generatedBy": [
      "/home/hc/code/trackingthetrackers/scripts/make-trackers-apk-set.py"
    ],
    "ver": "0.3.0"
  }
}