{
  "apks": [
    {
      "applicationId": "com.jarsilio.android.waveup",
      "broadcastReceiverIntentFilterActionNames": [
        "android.app.action.DEVICE_ADMIN_ENABLED",
        "android.intent.action.BOOT_COMPLETED",
        "android.intent.action.HEADSET_PLUG",
        "android.intent.action.MY_PACKAGE_REPLACED",
        "android.intent.action.PHONE_STATE"
      ],
      "dependencies": [],
      "domainNamesFilteredByExodus": [
        ".facebook.com",
        ".google.com",
        "hockeyapp.net",
        "mixpanel.com"
      ],
      "metaDataNames": [
        "android.accessibilityservice",
        "android.app.device_admin",
        "android.support.FILE_PROVIDER_PATHS"
      ],
      "sha256": "5552c73395167ae8350428577daaf5e1f56d6803fc8681d4c8086533e5d9fd40",
      "usesPermissions": [
        "android.permission.BLUETOOTH",
        "android.permission.FOREGROUND_SERVICE",
        "android.permission.PACKAGE_USAGE_STATS",
        "android.permission.READ_PHONE_STATE",
        "android.permission.RECEIVE_BOOT_COMPLETED",
        "android.permission.REQUEST_DELETE_PACKAGES",
        "android.permission.REQUEST_IGNORE_BATTERY_OPTIMIZATIONS",
        "android.permission.USES_POLICY_FORCE_LOCK",
        "android.permission.VIBRATE",
        "android.permission.WAKE_LOCK"
      ]
    }
  ],
  "meta": {
    "generated": "2020-08-27T17:33:36.455133",
    "generatedBy": [
      "/home/hc/code/trackingthetrackers/scripts/make-clean-apk-set.py"
    ],
    "generatedByCommitId": "40519285d6f404593fa655fa89b433743c25289e",
    "sourceDataCommitId": "888bb8f8c77ff55105fcab2ad84c263561eb1169",
    "ver": "0.3.0"
  }
}