{
  "apks": [
    {
      "applicationId": "de.trier.infsec.koch.droidsheep",
      "broadcastReceiverIntentFilterActionNames": [],
      "dependencies": [],
      "domainNamesFilteredByExodus": [],
      "metaDataNames": [],
      "sha256": "061acc975fcc9b2f0c9cadca9b44b33158b68be10888b6f272aa8fad85ae3a8c",
      "usesPermissions": [
        "android.permission.ACCESS_WIFI_STATE",
        "android.permission.INTERNET",
        "android.permission.WAKE_LOCK",
        "com.google.android.gm.permission.WRITE_GMAIL"
      ]
    }
  ],
  "meta": {
    "generated": "2020-08-27T14:59:09.068467",
    "generatedBy": [
      "/home/hc/code/trackingthetrackers/scripts/make-trackers-apk-set.py"
    ],
    "ver": "0.3.0"
  }
}