{
  "apks": [
    {
      "applicationId": "me.kavishhukmani.watwitchstickers",
      "broadcastReceiverIntentFilterActionNames": [],
      "dependencies": [],
      "domainNamesFilteredByExodus": [
        ".google.com"
      ],
      "metaDataNames": [
        "android.support.PARENT_ACTIVITY"
      ],
      "sha256": "553fbf87747bbeac78fe798bec7f00b988310feb98a1cf872a2a83246dd91215",
      "usesPermissions": []
    }
  ],
  "meta": {
    "generated": "2020-08-27T17:04:05.699186",
    "generatedBy": [
      "/home/hc/code/trackingthetrackers/scripts/make-clean-apk-set.py"
    ],
    "generatedByCommitId": "40519285d6f404593fa655fa89b433743c25289e",
    "sourceDataCommitId": "888bb8f8c77ff55105fcab2ad84c263561eb1169",
    "ver": "0.3.0"
  }
}