{
  "apks": [
    {
      "applicationId": "com.pip.android.mcgame.vn",
      "broadcastReceiverIntentFilterActionNames": [
        "android.intent.action.PACKAGE_ADDED"
      ],
      "dependencies": [],
      "domainNamesFilteredByExodus": [],
      "metaDataNames": [],
      "sha256": "ecfc3a16db8f14d21bc52853d0e4462506a40c16da9606a918a07c593b1c2a75",
      "usesPermissions": [
        "android.permission.ACCESS_NETWORK_STATE",
        "android.permission.ACCESS_WIFI_STATE",
        "android.permission.CHANGE_NETWORK_STATE",
        "android.permission.CHANGE_WIFI_STATE",
        "android.permission.INTERNET",
        "android.permission.READ_PHONE_STATE",
        "android.permission.SEND_SMS",
        "android.permission.VIBRATE"
      ]
    }
  ],
  "meta": {
    "generated": "2020-08-27T15:38:00.658264",
    "generatedBy": [
      "/home/hc/code/trackingthetrackers/scripts/make-trackers-apk-set.py"
    ],
    "ver": "0.3.0"
  }
}