{
  "apks": [
    {
      "applicationId": "ga.al.liwtue",
      "broadcastReceiverIntentFilterActionNames": [],
      "dependencies": [],
      "domainNamesFilteredByExodus": [],
      "metaDataNames": [],
      "sha256": "f5a35583f5bcb6723b02440ef02ecbc443b643e618636fb23dc1f1582f0ac27e",
      "usesPermissions": []
    }
  ],
  "meta": {
    "generated": "2020-08-27T15:00:23.740311",
    "generatedBy": [
      "/home/hc/code/trackingthetrackers/scripts/make-trackers-apk-set.py"
    ],
    "ver": "0.3.0"
  }
}