{
  "apks": [
    {
      "applicationId": "com.Ahmad.VoiceChangerAR",
      "broadcastReceiverIntentFilterActionNames": [],
      "dependencies": [
        "com.google.ads.",
        "com.mobvista.",
        "com.noqoush.adfalcon.android.sdk"
      ],
      "domainNamesFilteredByExodus": [
        ".google.com",
        "api.airpush.com",
        "doubleclick.net",
        "net.rayjump.com",
        "rayjump.com"
      ],
      "metaDataNames": [
        "com.cqgs.uwcc110700.APIKEY",
        "com.cqgs.uwcc110700.APPID",
        "mobvista.ads.sdk.apikey",
        "mobvista.ads.sdk.appid"
      ],
      "sha256": "6d3983d98c5d3325b9c6c9b3dce5c9cf06e8e16b72fe8acd447cdcac94f121a7",
      "usesPermissions": [
        "android.permission.ACCESS_COARSE_LOCATION",
        "android.permission.ACCESS_FINE_LOCATION",
        "android.permission.ACCESS_NETWORK_STATE",
        "android.permission.ACCESS_WIFI_STATE",
        "android.permission.INTERNET",
        "android.permission.READ_CALENDAR",
        "android.permission.READ_PHONE_STATE",
        "android.permission.RECORD_AUDIO",
        "android.permission.SYSTEM_ALERT_WINDOW",
        "android.permission.VIBRATE",
        "android.permission.WAKE_LOCK",
        "android.permission.WRITE_CALENDAR",
        "android.permission.WRITE_EXTERNAL_STORAGE",
        "android.permission.WRITE_SETTINGS",
        "com.android.launcher.permission.INSTALL_SHORTCUT"
      ]
    }
  ],
  "meta": {
    "generated": "2020-08-27T15:06:44.142318",
    "generatedBy": [
      "/home/hc/code/trackingthetrackers/scripts/make-trackers-apk-set.py"
    ],
    "ver": "0.3.0"
  }
}