{
  "apks": [
    {
      "applicationId": "com.dream112",
      "broadcastReceiverIntentFilterActionNames": [],
      "dependencies": [],
      "domainNamesFilteredByExodus": [
        ".google.com"
      ],
      "metaDataNames": [
        "Market_ID",
        "Telead_PID"
      ],
      "sha256": "6a90718f4dde6b7971ec509a9e809e07e1ba02400937a4b32f3fc7c398549f99",
      "usesPermissions": [
        "android.permission.INTERNET",
        "android.permission.READ_PHONE_STATE"
      ]
    }
  ],
  "meta": {
    "generated": "2020-08-27T15:01:14.649238",
    "generatedBy": [
      "/home/hc/code/trackingthetrackers/scripts/make-trackers-apk-set.py"
    ],
    "ver": "0.3.0"
  }
}