{
  "apks": [
    {
      "applicationId": "net.xbound.saadghamidien",
      "broadcastReceiverIntentFilterActionNames": [],
      "dependencies": [
        "com.crittercism.app.Crittercism"
      ],
      "domainNamesFilteredByExodus": [
        ".google.com",
        "api.airpush.com",
        "api.crittercism.com"
      ],
      "metaDataNames": [
        "com.hkzp.xjtb161642.APIKEY",
        "com.hkzp.xjtb161642.APPID"
      ],
      "sha256": "c8edd79e39a1a0e1b005e6475bcb60b5f785092bf566c0992b53cf014e78ae64",
      "usesPermissions": [
        "android.permission.ACCESS_NETWORK_STATE",
        "android.permission.CHANGE_CONFIGURATION",
        "android.permission.INTERNET",
        "android.permission.MOUNT_UNMOUNT_FILESYSTEMS",
        "android.permission.READ_EXTERNAL_STORAGE",
        "android.permission.READ_PHONE_STATE",
        "android.permission.WAKE_LOCK",
        "android.permission.WRITE_EXTERNAL_STORAGE",
        "android.permission.WRITE_SETTINGS",
        "com.android.alarm.permission.SET_ALARM"
      ]
    }
  ],
  "meta": {
    "generated": "2020-08-27T15:05:02.931285",
    "generatedBy": [
      "/home/hc/code/trackingthetrackers/scripts/make-trackers-apk-set.py"
    ],
    "ver": "0.3.0"
  }
}