{
  "apks": [
    {
      "applicationId": "de.baumann.weather",
      "broadcastReceiverIntentFilterActionNames": [],
      "dependencies": [],
      "domainNamesFilteredByExodus": [
        "ultimedia.com"
      ],
      "metaDataNames": [
        "android.app.shortcuts",
        "android.support.VERSION"
      ],
      "sha256": "4994dae5ead67559c9f6cc4f1c71720bc0ec234474e51b1e2fb2c340009185ec",
      "usesPermissions": [
        "android.permission.ACCESS_NETWORK_STATE",
        "android.permission.INTERNET",
        "android.permission.WRITE_EXTERNAL_STORAGE",
        "android.permisson.ACCESS_WIFI_STATE",
        "com.android.launcher.permission.INSTALL_SHORTCUT"
      ]
    }
  ],
  "meta": {
    "generated": "2020-08-27T17:56:53.213564",
    "generatedBy": [
      "/home/hc/code/trackingthetrackers/scripts/make-clean-apk-set.py"
    ],
    "generatedByCommitId": "3839559c80042252d3b947fb61c86a18e8b31114",
    "sourceDataCommitId": "888bb8f8c77ff55105fcab2ad84c263561eb1169",
    "ver": "0.3.0"
  }
}