{
  "apks": [
    {
      "applicationId": "com.aixinsuopinglxh.cn",
      "broadcastReceiverIntentFilterActionNames": [
        "android.intent.action.DOWNLOAD_COMPLETE",
        "android.intent.action.DOWNLOAD_NOTIFICATION_CLICKED",
        "android.intent.action.PACKAGE_ADDED",
        "android.net.conn.CONNECTIVITY_CHANGE",
        "com.baidu.autoupdatesdk.ACTION_AS_DOWNLOAD_COMPLETE",
        "com.baidu.autoupdatesdk.ACTION_DOWNLOAD_COMPLETE",
        "com.baidu.autoupdatesdk.ACTION_NEW_AS",
        "com.baidu.autoupdatesdk.ACTION_NEW_UPDATE"
      ],
      "dependencies": [
        "com.baidu.appx",
        "com.baidu.mobstat"
      ],
      "domainNamesFilteredByExodus": [],
      "metaDataNames": [
        "BDAPPID",
        "BDAPPKEY"
      ],
      "sha256": "16b5e2101b5c2beee24d4a0dc1451b6d516015c7bd7264f07d569c7155d1de50",
      "usesPermissions": [
        "android.permission.ACCESS_COARSE_LOCATION",
        "android.permission.ACCESS_NETWORK_STATE",
        "android.permission.ACCESS_NETWORK_STATE",
        "android.permission.ACCESS_WIFI_STATE",
        "android.permission.ACCESS_WIFI_STATE",
        "android.permission.DELETE_PACKAGES",
        "android.permission.EXPAND_STATUS_BAR",
        "android.permission.GET_TASKS",
        "android.permission.INTERNET",
        "android.permission.INTERNET",
        "android.permission.MOUNT_UNMOUNT_FILESYSTEMS",
        "android.permission.READ_PHONE_STATE",
        "android.permission.READ_PHONE_STATE",
        "android.permission.STATUS_BAR",
        "android.permission.SYSTEM_ALERT_WINDOW",
        "android.permission.SYSTEM_ALERT_WINDOW",
        "android.permission.WRITE_EXTERNAL_STORAGE",
        "android.permission.WRITE_EXTERNAL_STORAGE",
        "com.android.launcher.permission.INSTALL_SHORTCUT"
      ]
    }
  ],
  "meta": {
    "generated": "2020-08-27T14:56:20.963039",
    "generatedBy": [
      "/home/hc/code/trackingthetrackers/scripts/make-trackers-apk-set.py"
    ],
    "ver": "0.3.0"
  }
}