{
  "apks": [
    {
      "applicationId": "com.todaybook.xijuan",
      "broadcastReceiverIntentFilterActionNames": [
        "android.intent.action.BOOT_COMPLETED"
      ],
      "dependencies": [
        "com.apsalar.sdk."
      ],
      "domainNamesFilteredByExodus": [
        "api.airpush.com",
        "beta.airpush.com",
        "e.apsalar.com",
        "m.airpush.com"
      ],
      "metaDataNames": [
        "com.mjikb.fbamk117015.APIKEY",
        "com.mjikb.fbamk117015.APPID"
      ],
      "sha256": "0e1efe3f72795defc4f0e038d17574c7f7e7d19454128f4547cc549e0ccaab7a",
      "usesPermissions": [
        "android.permission.ACCESS_NETWORK_STATE",
        "android.permission.ACCESS_WIFI_STATE",
        "android.permission.INTERNET",
        "android.permission.READ_PHONE_STATE",
        "android.permission.WAKE_LOCK",
        "android.permission.WRITE_EXTERNAL_STORAGE"
      ]
    }
  ],
  "meta": {
    "generated": "2020-08-27T14:49:41.759915",
    "generatedBy": [
      "/home/hc/code/trackingthetrackers/scripts/make-trackers-apk-set.py"
    ],
    "ver": "0.3.0"
  }
}