{
  "apks": [
    {
      "applicationId": "com.adrenalinecrew.RSF2full22",
      "broadcastReceiverIntentFilterActionNames": [
        "android.intent.action.BOOT_COMPLETED",
        "android.intent.action.QUICKBOOT_POWERON",
        "android.net.wifi.STATE_CHANGE",
        "android.net.wifi.supplicant.CONNECTION_CHANGE",
        "com.amazon.inapp.purchasing.NOTIFY",
        "com.android.vending.INSTALL_REFERRER",
        "com.google.android.c2dm.intent.RECEIVE",
        "com.google.android.c2dm.intent.REGISTRATION",
        "mobi.dash.extras.FORCE_START"
      ],
      "dependencies": [
        "com$mopub$mobileads$",
        "com.chartboost.sdk.",
        "com.flurry.",
        "com.google.ads.",
        "com.google.android.gms.ads.",
        "com.inmobi",
        "com.millennialmedia.",
        "com.mobclix.android.sdk",
        "com.mobileapptracker",
        "com.mopub.mobileads."
      ],
      "domainNamesFilteredByExodus": [
        ".chartboost.com",
        ".facebook.com",
        ".google.com",
        "ads.mobclix.com",
        "data.mobclix.com",
        "doubleclick.net",
        "flurry.com",
        "millennialmedia.com",
        "mobclix.com",
        "mobileapptracking.com",
        "mopub.com"
      ],
      "metaDataNames": [
        "android.app.lib_name",
        "com.adrenalinecrew.RSF2full.ADMOB_PUBLISHER_ID",
        "com.mobclix.APPLICATION_ID",
        "com.mobclix.LOG_LEVEL",
        "unityplayer.ForwardNativeEventsToDalvik"
      ],
      "sha256": "bcbde8bcbdc98fd51b946b0be0d26ed3bd5e6f6437a7313bd890bcb076428845",
      "usesPermissions": [
        "android.permission.ACCESS_COARSE_LOCATION",
        "android.permission.ACCESS_FINE_LOCATION",
        "android.permission.ACCESS_NETWORK_STATE",
        "android.permission.ACCESS_NETWORK_STATE",
        "android.permission.ACCESS_WIFI_STATE",
        "android.permission.BROADCAST_STICKY",
        "android.permission.GET_ACCOUNTS",
        "android.permission.GET_TASKS",
        "android.permission.INTERNET",
        "android.permission.INTERNET",
        "android.permission.INTERNET",
        "android.permission.READ_CONTACTS",
        "android.permission.READ_LOGS",
        "android.permission.READ_PHONE_STATE",
        "android.permission.READ_PHONE_STATE",
        "android.permission.RECEIVE_BOOT_COMPLETED",
        "android.permission.SYSTEM_ALERT_WINDOW",
        "android.permission.VIBRATE",
        "android.permission.WAKE_LOCK",
        "android.permission.WRITE_EXTERNAL_STORAGE",
        "android.permission.WRITE_EXTERNAL_STORAGE",
        "android.permission.WRITE_EXTERNAL_STORAGE",
        "android.permission.WRITE_SETTINGS",
        "com.adrenalinecrew.RSF2full2.permission.C2D_MESSAGE",
        "com.android.launcher.permission.INSTALL_SHORTCUT",
        "com.android.launcher.permission.UNINSTALL_SHORTCUT",
        "com.android.vending.BILLING",
        "com.google.android.c2dm.permission.RECEIVE"
      ]
    }
  ],
  "meta": {
    "generated": "2020-08-27T15:33:57.733727",
    "generatedBy": [
      "/home/hc/code/trackingthetrackers/scripts/make-trackers-apk-set.py"
    ],
    "ver": "0.3.0"
  }
}