{
  "apks": [
    {
      "applicationId": "org.fedorahosted.freeotp",
      "broadcastReceiverIntentFilterActionNames": [],
      "dependencies": [],
      "domainNamesFilteredByExodus": [],
      "metaDataNames": [],
      "sha256": "46aae2641db0d377766d11a7b74908491966168aac45352d624820a264bf1d6e",
      "usesPermissions": [
        "android.permission.CAMERA"
      ]
    }
  ],
  "meta": {
    "generated": "2020-08-27T18:26:20.261989",
    "generatedBy": [
      "/home/hc/code/trackingthetrackers/scripts/make-clean-apk-set.py"
    ],
    "generatedByCommitId": "3839559c80042252d3b947fb61c86a18e8b31114",
    "sourceDataCommitId": "888bb8f8c77ff55105fcab2ad84c263561eb1169",
    "ver": "0.3.0"
  }
}