{
  "apks": [
    {
      "applicationId": "com.droidcorp.fantasypuzzles",
      "broadcastReceiverIntentFilterActionNames": [],
      "dependencies": [
        "com$millennialmedia$",
        "com.google.ads.",
        "com.google.android.gms.ads.",
        "com.google.android.gms.analytics.",
        "com.google.android.gms.tagmanager",
        "com.millennialmedia.",
        "com.revmob.ads.",
        "org.cocos2dx"
      ],
      "domainNamesFilteredByExodus": [
        ".google.com",
        "doubleclick.net",
        "google-analytics.com",
        "millennialmedia.com",
        "www.googletagmanager.com"
      ],
      "metaDataNames": [
        "com.google.android.gms.appstate.APP_ID",
        "com.google.android.gms.games.APP_ID",
        "com.google.android.gms.version"
      ],
      "sha256": "c60205985d85b79fa841686cb2c4ccc51e552c51db079f64bc2209cc27267de5",
      "usesPermissions": [
        "android.permission.ACCESS_NETWORK_STATE",
        "android.permission.ACCESS_WIFI_STATE",
        "android.permission.INTERNET",
        "android.permission.WAKE_LOCK",
        "android.permission.WRITE_EXTERNAL_STORAGE"
      ]
    }
  ],
  "meta": {
    "generated": "2020-08-27T15:15:50.136274",
    "generatedBy": [
      "/home/hc/code/trackingthetrackers/scripts/make-trackers-apk-set.py"
    ],
    "ver": "0.3.0"
  }
}