{
  "apks": [
    {
      "applicationId": "com.yubico.yubioath",
      "broadcastReceiverIntentFilterActionNames": [],
      "dependencies": [],
      "domainNamesFilteredByExodus": [],
      "metaDataNames": [],
      "sha256": "f51598da15d80cec4267806a9ff807be69923a9f7d9084df4a4c1c1667fe5da1",
      "usesPermissions": [
        "android.permission.NFC"
      ]
    }
  ],
  "meta": {
    "generated": "2020-08-27T17:53:25.622617",
    "generatedBy": [
      "/home/hc/code/trackingthetrackers/scripts/make-clean-apk-set.py"
    ],
    "generatedByCommitId": "3839559c80042252d3b947fb61c86a18e8b31114",
    "sourceDataCommitId": "888bb8f8c77ff55105fcab2ad84c263561eb1169",
    "ver": "0.3.0"
  }
}