{
  "apks": [
    {
      "applicationId": "com.wonders.37netmonito2sanqi",
      "broadcastReceiverIntentFilterActionNames": [
        "android.intent.action.ACTION_SHUTDOWN",
        "android.intent.action.BOOT_COMPLETED",
        "android.intent.action.PACKAGE_ADDED",
        "android.intent.action.PACKAGE_REMOVED",
        "android.net.conn.CONNECTIVITY_CHANGE"
      ],
      "dependencies": [],
      "domainNamesFilteredByExodus": [
        "umeng.com"
      ],
      "metaDataNames": [
        "R_ID",
        "R_IDC",
        "R_IDP",
        "UMENG_APPKEY",
        "UMENG_CHANNEL"
      ],
      "sha256": "f02381690254762cf2d60bc21097d3debdb61bbfd59887613efca277064d621d",
      "usesPermissions": [
        "android.permission.ACCESS_COARSE_LOCATION",
        "android.permission.ACCESS_DOWNLOAD_MANAGER",
        "android.permission.ACCESS_NETWORK_STATE",
        "android.permission.ACCESS_WIFI_STATE",
        "android.permission.CHANGE_NETWORK_STATE",
        "android.permission.CHANGE_WIFI_STATE",
        "android.permission.GET_TASKS",
        "android.permission.INTERNET",
        "android.permission.KILL_BACKGROUND_PROCESSES",
        "android.permission.MODIFY_PHONE_STATE",
        "android.permission.PROCESS_OUTGOING_CALLS",
        "android.permission.READ_LOGS",
        "android.permission.READ_LOGS",
        "android.permission.READ_PHONE_STATE",
        "android.permission.RECEIVE_BOOT_COMPLETED",
        "android.permission.RECEIVE_BOOT_COMPLETED",
        "android.permission.SEND_SMS",
        "android.permission.SYSTEM_ALERT_WINDOW",
        "android.permission.SYSTEM_ALERT_WINDOW",
        "android.permission.VIBRATE",
        "android.permission.WAKE_LOCK",
        "android.permission.WAKE_LOCK",
        "android.permission.WRITE_EXTERNAL_STORAGE",
        "com.android.browser.permission.READ_HISTORY_BOOKMARKS",
        "com.android.browser.permission.READ_HISTORY_BOOKMARKS",
        "com.android.browser.permission.WRITE_HISTORY_BOOKMARKS",
        "com.android.browser.permission.WRITE_HISTORY_BOOKMARKS",
        "com.android.launcher.permission.INSTALL_SHORTCUT",
        "com.android.launcher.permission.READ_SETTINGS"
      ]
    }
  ],
  "meta": {
    "generated": "2020-08-27T15:05:18.709626",
    "generatedBy": [
      "/home/hc/code/trackingthetrackers/scripts/make-trackers-apk-set.py"
    ],
    "ver": "0.3.0"
  }
}