{
  "apks": [
    {
      "applicationId": "org.wahtod.wififixer",
      "broadcastReceiverIntentFilterActionNames": [
        "android.appwidget.action.APPWIDGET_UPDATE",
        "android.intent.action.BOOT_COMPLETED",
        "org.wahtod.wififixer.AUTH",
        "org.wahtod.wififixer.WIDGET",
        "org.wahtod.wififixer.WIFI_ACTION_OFF",
        "org.wahtod.wififixer.WIFI_ACTION_ON",
        "org.wahtod.wififixer.WIFI_ACTION_SERVICE_DISABLE",
        "org.wahtod.wififixer.WIFI_ACTION_SERVICE_ENABLE",
        "org.wahtod.wififixer.WIFI_ACTION_TOGGLE",
        "org.wahtod.wififixer.WidgetHandler.WIFI_OFF",
        "org.wahtod.wififixer.WidgetHandler.WIFI_ON",
        "org.wahtod.wififixer.WidgetHandler.WIFI_REASSOCIATE",
        "org.wahtod.wififixer.WidgetHandler.WIFI_TOGGLE"
      ],
      "dependencies": [],
      "domainNamesFilteredByExodus": [
        ".google.com"
      ],
      "metaDataNames": [
        "android.appwidget.provider",
        "com.google.android.backup.api_key"
      ],
      "sha256": "72dd86659bda5a4fc3eba99f113e1f7311a727108ead672efdc932fb2540ca24",
      "usesPermissions": [
        "android.permission.ACCESS_NETWORK_STATE",
        "android.permission.ACCESS_WIFI_STATE",
        "android.permission.CHANGE_WIFI_STATE",
        "android.permission.INTERNET",
        "android.permission.RECEIVE_BOOT_COMPLETED",
        "android.permission.WAKE_LOCK",
        "android.permission.WRITE_EXTERNAL_STORAGE",
        "android.permission.WRITE_SETTINGS"
      ]
    }
  ],
  "meta": {
    "generated": "2020-08-27T18:40:46.879408",
    "generatedBy": [
      "/home/hc/code/trackingthetrackers/scripts/make-clean-apk-set.py"
    ],
    "generatedByCommitId": "3839559c80042252d3b947fb61c86a18e8b31114",
    "sourceDataCommitId": "888bb8f8c77ff55105fcab2ad84c263561eb1169",
    "ver": "0.3.0"
  }
}