{
  "apks": [
    {
      "applicationId": "com.zwenyu.moto11",
      "broadcastReceiverIntentFilterActionNames": [
        "android.provider.Telephony.SECRET_CODE",
        "com.zwenyu.car.action.reload",
        "safiap.GET_SHARED_DATA",
        "safiap.framework.ACTION_CANCEL_NOTIFICATION",
        "safiap.framework.ACTION_SET_TIMER"
      ],
      "dependencies": [
        "com.tendcloud.tenddata."
      ],
      "domainNamesFilteredByExodus": [],
      "metaDataNames": [
        "UMENG_APPKEY",
        "UMENG_CHANNEL",
        "wostore_billing_chinamobile",
        "wostore_billing_chinatele",
        "wostore_billing_chinaunicom",
        "wostore_billing_otherpay"
      ],
      "sha256": "6784f3801de2d6a76545c465a03d49df089c165a0730cd7a54953bdd5c458beb",
      "usesPermissions": [
        "android.permission.ACCESS_NETWORK_STATE",
        "android.permission.ACCESS_WIFI_STATE",
        "android.permission.DISABLE_KEYGUARD",
        "android.permission.INTERNET",
        "android.permission.MOUNT_UNMOUNT_FILESYSTEMS",
        "android.permission.READ_PHONE_STATE",
        "android.permission.SEND_SMS",
        "android.permission.SYSTEM_ALERT_WINDOW",
        "android.permission.VIBRATE",
        "android.permission.WRITE_EXTERNAL_STORAGE",
        "com.android.launcher.permission.INSTALL_SHORTCUT"
      ]
    }
  ],
  "meta": {
    "generated": "2020-08-27T15:36:55.622053",
    "generatedBy": [
      "/home/hc/code/trackingthetrackers/scripts/make-trackers-apk-set.py"
    ],
    "ver": "0.3.0"
  }
}