{
  "apks": [
    {
      "applicationId": "com.lyhtgh.pay.ltplugin",
      "broadcastReceiverIntentFilterActionNames": [],
      "dependencies": [],
      "domainNamesFilteredByExodus": [],
      "metaDataNames": [],
      "sha256": "90909b05f4feafd17a10577758a0c55df3665658878a7d02489a0cb8728a3d5f",
      "usesPermissions": []
    }
  ],
  "meta": {
    "generated": "2020-08-27T15:40:18.453103",
    "generatedBy": [
      "/home/hc/code/trackingthetrackers/scripts/make-trackers-apk-set.py"
    ],
    "ver": "0.3.0"
  }
}