{
  "apks": [
    {
      "applicationId": "com.cong.chinalong",
      "broadcastReceiverIntentFilterActionNames": [
        "android.intent.action.PACKAGE_ADDED",
        "android.intent.action.PACKAGE_INSTALL"
      ],
      "dependencies": [
        "net.youmi",
        "net_youmi"
      ],
      "domainNamesFilteredByExodus": [
        ".google.com",
        "youmi.net"
      ],
      "metaDataNames": [
        "YOUMI_CHANNEL"
      ],
      "sha256": "1ee183d11579645cb1bd6268719c1dae0e3d9bbb6f8e02e3bfee3ca96efdd8ba",
      "usesPermissions": [
        "android.permission.ACCESS_COARSE_LOCATION",
        "android.permission.ACCESS_NETWORK_STATE",
        "android.permission.INTERNET",
        "android.permission.READ_PHONE_STATE",
        "android.permission.WRITE_EXTERNAL_STORAGE",
        "com.android.launcher.permission.INSTALL_SHORTCUT"
      ]
    }
  ],
  "meta": {
    "generated": "2020-08-27T14:50:17.680175",
    "generatedBy": [
      "/home/hc/code/trackingthetrackers/scripts/make-trackers-apk-set.py"
    ],
    "ver": "0.3.0"
  }
}