{
  "apks": [
    {
      "applicationId": "rkr.simplekeyboard.inputmethod",
      "broadcastReceiverIntentFilterActionNames": [
        "android.intent.action.LOCALE_CHANGED"
      ],
      "dependencies": [],
      "domainNamesFilteredByExodus": [],
      "metaDataNames": [
        "android.view.im"
      ],
      "sha256": "541dcad247f126819daf5b018d0369474936262ece4eda2d15b786f3c8f63c86",
      "usesPermissions": [
        "android.permission.VIBRATE"
      ]
    }
  ],
  "meta": {
    "generated": "2020-08-27T18:43:09.893012",
    "generatedBy": [
      "/home/hc/code/trackingthetrackers/scripts/make-clean-apk-set.py"
    ],
    "generatedByCommitId": "3839559c80042252d3b947fb61c86a18e8b31114",
    "sourceDataCommitId": "888bb8f8c77ff55105fcab2ad84c263561eb1169",
    "ver": "0.3.0"
  }
}