{
  "apks": [
    {
      "applicationId": "org.gdroid.gdroid",
      "broadcastReceiverIntentFilterActionNames": [
        "com.tonyodev.fetch2.action.NOTIFICATION_ACTION",
        "com.tonyodev.fetch2.action.NOTIFICATION_CHECK"
      ],
      "dependencies": [],
      "domainNamesFilteredByExodus": [
        ".google.com"
      ],
      "metaDataNames": [
        "android.support.PARENT_ACTIVITY",
        "com.bumptech.glide.integration.okhttp3.OkHttpGlideModule"
      ],
      "sha256": "c1209e0e2bf8747394b3f52da90a434001839bf13bdffd73028cd41271b8c69b",
      "usesPermissions": [
        "23",
        "android.permission.ACCESS_NETWORK_STATE",
        "android.permission.ACCESS_WIFI_STATE",
        "android.permission.INTERNET",
        "android.permission.REQUEST_INSTALL_PACKAGES",
        "android.permission.WRITE_EXTERNAL_STORAGE"
      ]
    }
  ],
  "meta": {
    "generated": "2020-08-27T18:27:04.268807",
    "generatedBy": [
      "/home/hc/code/trackingthetrackers/scripts/make-clean-apk-set.py"
    ],
    "generatedByCommitId": "3839559c80042252d3b947fb61c86a18e8b31114",
    "sourceDataCommitId": "888bb8f8c77ff55105fcab2ad84c263561eb1169",
    "ver": "0.3.0"
  }
}