{
  "apks": [
    {
      "applicationId": "com.simplemobiletools.camera",
      "broadcastReceiverIntentFilterActionNames": [
        "android.intent.action.CAMERA_BUTTON"
      ],
      "dependencies": [],
      "domainNamesFilteredByExodus": [
        ".facebook.com",
        ".google.com"
      ],
      "metaDataNames": [],
      "sha256": "5f660e1dd3eae481a7d21d3a9ba9f3b6eca3f1b7c9a165c471f7787f542153e5",
      "usesPermissions": [
        "android.permission.CAMERA",
        "android.permission.RECORD_AUDIO",
        "android.permission.WRITE_EXTERNAL_STORAGE"
      ]
    }
  ],
  "meta": {
    "generated": "2020-08-27T17:47:58.895416",
    "generatedBy": [
      "/home/hc/code/trackingthetrackers/scripts/make-clean-apk-set.py"
    ],
    "generatedByCommitId": "40519285d6f404593fa655fa89b433743c25289e",
    "sourceDataCommitId": "888bb8f8c77ff55105fcab2ad84c263561eb1169",
    "ver": "0.3.0"
  }
}