{
  "apks": [
    {
      "applicationId": "com.simplemobiletools.gallery",
      "broadcastReceiverIntentFilterActionNames": [
        "com.android.vending.INSTALL_REFERRER",
        "com.simplemobiletools.REFRESH_MEDIA",
        "com.simplemobiletools.commons.SHARED_THEME_ACTIVATED",
        "com.simplemobiletools.commons.SHARED_THEME_UPDATED"
      ],
      "dependencies": [],
      "domainNamesFilteredByExodus": [
        ".facebook.com",
        ".google.com"
      ],
      "metaDataNames": [
        "android.app.default_searchable",
        "android.support.FILE_PROVIDER_PATHS"
      ],
      "sha256": "b08c1a0bcd3bf4276fe4a643c21a6cb825adb204433b51bea34273b1bfbf87b0",
      "usesPermissions": [
        "android.permission.SET_WALLPAPER",
        "android.permission.USE_FINGERPRINT",
        "android.permission.WRITE_EXTERNAL_STORAGE"
      ]
    }
  ],
  "meta": {
    "generated": "2020-08-27T17:48:27.700300",
    "generatedBy": [
      "/home/hc/code/trackingthetrackers/scripts/make-clean-apk-set.py"
    ],
    "generatedByCommitId": "40519285d6f404593fa655fa89b433743c25289e",
    "sourceDataCommitId": "888bb8f8c77ff55105fcab2ad84c263561eb1169",
    "ver": "0.3.0"
  }
}