{
  "apks": [
    {
      "applicationId": "io.timelimit.android.open",
      "broadcastReceiverIntentFilterActionNames": [
        "android.app.action.DEVICE_ADMIN_ENABLED",
        "android.intent.action.BOOT_COMPLETED",
        "android.intent.action.MY_PACKAGE_REPLACED"
      ],
      "dependencies": [],
      "domainNamesFilteredByExodus": [
        ".google.com"
      ],
      "metaDataNames": [
        "android.accessibilityservice",
        "android.app.device_admin"
      ],
      "sha256": "c052ff150700d1c4c1ff9cf798fb89dd2093f371b8acc2ac5162eb7f4d50717d",
      "usesPermissions": [
        "20",
        "android.permission.CALL_PHONE",
        "android.permission.FOREGROUND_SERVICE",
        "android.permission.GET_TASKS",
        "android.permission.PACKAGE_USAGE_STATS",
        "android.permission.RECEIVE_BOOT_COMPLETED",
        "android.permission.SYSTEM_ALERT_WINDOW",
        "android.permission.VIBRATE",
        "android.permission.WAKE_LOCK"
      ]
    }
  ],
  "meta": {
    "generated": "2020-08-27T18:14:02.365972",
    "generatedBy": [
      "/home/hc/code/trackingthetrackers/scripts/make-clean-apk-set.py"
    ],
    "generatedByCommitId": "3839559c80042252d3b947fb61c86a18e8b31114",
    "sourceDataCommitId": "888bb8f8c77ff55105fcab2ad84c263561eb1169",
    "ver": "0.3.0"
  }
}