{
  "apks": [
    {
      "applicationId": "org.mcxa.vortaro",
      "broadcastReceiverIntentFilterActionNames": [],
      "dependencies": [],
      "domainNamesFilteredByExodus": [],
      "metaDataNames": [
        "android.support.VERSION"
      ],
      "sha256": "67ff9e1fc1d8c0b5b1292852b02bc2b5f2e7cc10d3cd72e6728d5b818bb5dd2e",
      "usesPermissions": []
    }
  ],
  "meta": {
    "generated": "2020-08-27T17:06:05.166935",
    "generatedBy": [
      "/home/hc/code/trackingthetrackers/scripts/make-clean-apk-set.py"
    ],
    "generatedByCommitId": "40519285d6f404593fa655fa89b433743c25289e",
    "sourceDataCommitId": "888bb8f8c77ff55105fcab2ad84c263561eb1169",
    "ver": "0.3.0"
  }
}