{
  "apks": [
    {
      "applicationId": "com.tencent.mobileqq",
      "broadcastReceiverIntentFilterActionNames": [
        "android.intent.action.BOOT_COMPLETED",
        "android.intent.action.DATE_CHANGED",
        "android.intent.action.MEDIA_BAD_REMOVAL",
        "android.intent.action.MEDIA_EJECT",
        "android.intent.action.MEDIA_MOUNTED",
        "android.intent.action.MEDIA_REMOVED",
        "android.intent.action.MEDIA_SCANNER_FINISHED",
        "android.intent.action.MEDIA_SCANNER_STARTED",
        "android.intent.action.MEDIA_SHARED",
        "android.intent.action.MEDIA_UNMOUNTED",
        "android.intent.action.TIMEZONE_CHANGED",
        "android.intent.action.TIME_SET",
        "android.net.conn.CONNECTIVITY_CHANGE",
        "com.photoedit.intent.action.START_PROCESS",
        "com.qqreader.aioback2reader",
        "com.qzone.intent.action.START_PROCESS",
        "com.tencent.mobileqq.ACTION_PLUGIN_CRASH",
        "com.tencent.mobileqq.UniformDownloadNfn.BEDEL",
        "com.tencent.mobileqq.UniformDownloadNfn.DO_DOWNLOAD",
        "com.tencent.mobileqq.UniformDownloadNfn.INSTALL",
        "com.tencent.mobileqq.UniformDownloadNfn.PAUSE",
        "com.tencent.mobileqq.UniformDownloadNfn.TRY_DOWNLOAD",
        "com.tencent.mobileqq.action.REPORT",
        "com.tencent.mobileqq.action.REPORT_RUNTIME",
        "com.tencent.mobileqq.broadcast.qq",
        "com.tencent.mobileqq.msf.offlinepushclearall",
        "com.tencent.mobileqq.msf.receiveofflinepush",
        "com.tencent.mobileqq.rdm.report",
        "com.tencent.open.download.complete",
        "com.tencent.open.download.open",
        "com.tencent.open.download.pause",
        "com.tencent.open.download.restart",
        "com.tencent.open.download.start",
        "com.tencent.open.download.yyb",
        "com.tencent.qzone.action.OperateQZonePermission",
        "tencent.notify.background",
        "tencent.notify.foreground",
        "tencent.notify.friend.message",
        "tencent.notify.friend.status",
        "tencent.notify.qc.background",
        "tencent.notify.troop.message",
        "tencent.video.q2v.AccountChanged",
        "tencent.video.q2v.RecvMultiVideoCall",
        "tencent.video.q2v.RecvSharpVideoCall",
        "tencent.video.q2v.RecvVideoCall",
        "tencent.video.q2v.RecvVideoConfig",
        "tencent.video.q2v.SendVideoRequest",
        "tencent.video.q2v.UpdateConfig",
        "tencent.video.q2v.WakeUp"
      ],
      "dependencies": [
        "com.tencent.lbs"
      ],
      "domainNamesFilteredByExodus": [
        ".google.com"
      ],
      "metaDataNames": [
        "APPKEY_DENGTA",
        "DBVersion",
        "InstallChannel",
        "SC_DBVersion",
        "SERVICE_ID",
        "SERVICE_NAME",
        "SERVICE_VERSION",
        "TA_APPKEY",
        "com.tencent.rdm.uuid"
      ],
      "sha256": "5b62d7c412263935683f7a34aa47ae0176643628445e92c39de9f0fb1289f2c4",
      "usesPermissions": [
        "android.permission.ACCESS_COARSE_LOCATION",
        "android.permission.ACCESS_FINE_LOCATION",
        "android.permission.ACCESS_NETWORK_STATE",
        "android.permission.ACCESS_NETWORK_STATE",
        "android.permission.ACCESS_WIFI_STATE",
        "android.permission.ACCESS_WIFI_STATE",
        "android.permission.BLUETOOTH",
        "android.permission.BLUETOOTH_ADMIN",
        "android.permission.BROADCAST_STICKY",
        "android.permission.CALL_PHONE",
        "android.permission.CAMERA",
        "android.permission.CAMERA",
        "android.permission.CHANGE_CONFIGURATION",
        "android.permission.CHANGE_WIFI_STATE",
        "android.permission.CHANGE_WIFI_STATE",
        "android.permission.DISABLE_KEYGUARD",
        "android.permission.FLASHLIGHT",
        "android.permission.GET_TASKS",
        "android.permission.INTERNET",
        "android.permission.INTERNET",
        "android.permission.KILL_BACKGROUND_PROCESSES",
        "android.permission.MODIFY_AUDIO_SETTINGS",
        "android.permission.PERSISTENT_ACTIVITY",
        "android.permission.READ_CONTACTS",
        "android.permission.READ_LOGS",
        "android.permission.READ_PHONE_STATE",
        "android.permission.READ_PHONE_STATE",
        "android.permission.READ_SMS",
        "android.permission.RECEIVE_BOOT_COMPLETED",
        "android.permission.RECEIVE_BOOT_COMPLETED",
        "android.permission.RECORD_AUDIO",
        "android.permission.SEND_SMS",
        "android.permission.SYSTEM_ALERT_WINDOW",
        "android.permission.SYSTEM_OVERLAY_WINDOW",
        "android.permission.VIBRATE",
        "android.permission.WAKE_LOCK",
        "android.permission.WAKE_LOCK",
        "android.permission.WRITE_CONTACTS",
        "android.permission.WRITE_EXTERNAL_STORAGE",
        "android.permission.WRITE_OWNER_DATA",
        "android.permission.WRITE_SETTINGS",
        "android.permission.WRITE_SMS",
        "com.android.launcher.permission.INSTALL_SHORTCUT",
        "com.android.launcher.permission.INSTALL_SHORTCUT",
        "com.android.launcher.permission.READ_SETTINGS",
        "com.android.launcher.permission.UNINSTALL_SHORTCUT",
        "com.tencent.mobileqq.activity.starterreceiver.permission.OWNER",
        "com.tencent.msf.permission.ACCOUNT_NOTICE",
        "com.tencent.msf.permission.account.sync",
        "com.tencent.msf.permission.account.sync",
        "com.tencent.msf.permission.account.sync",
        "com.tencent.msg.permission.pushnotify",
        "com.tencent.permission.VIRUS_SCAN",
        "com.tencent.photo.permission.selectphoto",
        "com.tencent.photos.permission.DATA"
      ]
    }
  ],
  "meta": {
    "generated": "2020-08-27T14:53:10.257072",
    "generatedBy": [
      "/home/hc/code/trackingthetrackers/scripts/make-trackers-apk-set.py"
    ],
    "ver": "0.3.0"
  }
}