{
  "apks": [
    {
      "applicationId": "com.ruesga.android.wallpapers.photophase",
      "broadcastReceiverIntentFilterActionNames": [
        "android.net.wifi.STATE_CHANGE",
        "android.net.wifi.supplicant.CONNECTION_CHANGE"
      ],
      "dependencies": [],
      "domainNamesFilteredByExodus": [
        ".facebook.com",
        ".google.com",
        "hockeyapp.net",
        "mixpanel.com"
      ],
      "metaDataNames": [
        "android.service.wallpaper"
      ],
      "sha256": "9b6cb33e642db88741a7b02b66e9c895720d5528ab262bec2a9ddcc2482d92f9",
      "usesPermissions": [
        "19",
        "android.permission.ACCESS_NETWORK_STATE",
        "android.permission.CHANGE_NETWORK_STATE",
        "android.permission.CHANGE_WIFI_STATE",
        "android.permission.GET_TASKS",
        "android.permission.INTERNET",
        "android.permission.NFC",
        "android.permission.READ_EXTERNAL_STORAGE",
        "android.permission.WAKE_LOCK",
        "com.ruesga.android.wallpapers.photophase.BIND_PERMISSION",
        "com.ruesga.android.wallpapers.photophase.WRITE_CONTENT_PERMISSION"
      ]
    }
  ],
  "meta": {
    "generated": "2020-08-27T17:00:35.061370",
    "generatedBy": [
      "/home/hc/code/trackingthetrackers/scripts/make-clean-apk-set.py"
    ],
    "generatedByCommitId": "40519285d6f404593fa655fa89b433743c25289e",
    "sourceDataCommitId": "888bb8f8c77ff55105fcab2ad84c263561eb1169",
    "ver": "0.3.0"
  }
}