{
  "apks": [
    {
      "applicationId": "net.sourceforge.solitaire_cg",
      "broadcastReceiverIntentFilterActionNames": [],
      "dependencies": [],
      "domainNamesFilteredByExodus": [
        ".google.com"
      ],
      "metaDataNames": [],
      "sha256": "0106efd35be4277ab0a6e0463fa316dcbfaa6f968162503d7f5b459b1e85932f",
      "usesPermissions": []
    }
  ],
  "meta": {
    "generated": "2020-08-27T18:19:28.747949",
    "generatedBy": [
      "/home/hc/code/trackingthetrackers/scripts/make-clean-apk-set.py"
    ],
    "generatedByCommitId": "3839559c80042252d3b947fb61c86a18e8b31114",
    "sourceDataCommitId": "888bb8f8c77ff55105fcab2ad84c263561eb1169",
    "ver": "0.3.0"
  }
}