{
  "apks": [
    {
      "applicationId": "com.soft.mortalskies2",
      "broadcastReceiverIntentFilterActionNames": [
        "android.intent.action.PACKAGE_ADDED",
        "android.intent.action.USER_PRESENT",
        "android.net.conn.CONNECTIVITY_CHANGE",
        "com.android.vending.INSTALL_REFERRER"
      ],
      "dependencies": [
        "com.tapjoy."
      ],
      "domainNamesFilteredByExodus": [
        "tapjoyads.com"
      ],
      "metaDataNames": [
        "nl.ejsoft.mortalskies2.APP_ID",
        "nl.ejsoft.mortalskies2.CLIENT_PACKAGE"
      ],
      "sha256": "b35760b660fda31f779ab9602a8b61377e1870adec71bfc863fb8cb99e258d44",
      "usesPermissions": [
        "android.permission.ACCESS_NETWORK_STATE",
        "android.permission.ACCESS_WIFI_STATE",
        "android.permission.GET_TASKS",
        "android.permission.INTERNET",
        "android.permission.READ_PHONE_STATE",
        "android.permission.RESTART_PACKAGES",
        "android.permission.SYSTEM_ALERT_WINDOW",
        "android.permission.VIBRATE",
        "android.permission.WAKE_LOCK",
        "android.permission.WRITE_EXTERNAL_STORAGE",
        "com.android.launcher.permission.INSTALL_SHORTCUT"
      ]
    }
  ],
  "meta": {
    "generated": "2020-08-27T15:09:06.450702",
    "generatedBy": [
      "/home/hc/code/trackingthetrackers/scripts/make-trackers-apk-set.py"
    ],
    "ver": "0.3.0"
  }
}