{
  "apks": [
    {
      "applicationId": "com.gamesarcade.nightsatcubemoonpizzeria",
      "broadcastReceiverIntentFilterActionNames": [
        "ACTION.TAPCORE.MESSAGE",
        "ACTION.TAPCORE.SYNC",
        "android.intent.action.PACKAGE_ADDED",
        "android.intent.action.TIMEZONE_CHANGED",
        "android.intent.action.TIME_SET",
        "android.net.conn.CONNECTIVITY_CHANGE",
        "com.android.vending.INSTALL_REFERRER",
        "com.google.android.c2dm.intent.RECEIVE",
        "com.google.android.c2dm.intent.REGISTRATION",
        "com.inmobi.share.id"
      ],
      "dependencies": [
        "com$chartboost$sdk$",
        "com$inmobi",
        "com$unity3d$ads",
        "com.applovin",
        "com.chartboost.sdk.",
        "com.cuebiq.cuebiqsdk.model.Collector",
        "com.cuebiq.cuebiqsdk.receiver.CoverageReceiver",
        "com.facebook.ads",
        "com.flurry.",
        "com.google.ads.",
        "com.google.android.gms.ads.",
        "com.google.android.gms.analytics.",
        "com.google.android.gms.measurement.",
        "com.google.android.gms.tagmanager",
        "com.heyzap.sdk.ads.",
        "com.hyprmx.android.sdk.",
        "com.inmobi",
        "com.mopub.mobileads.",
        "com.unity3d.ads",
        "com.vungle.publisher."
      ],
      "domainNamesFilteredByExodus": [
        ".chartboost.com",
        ".facebook.com",
        ".google.com",
        "adcolony.com",
        "ads.heyzap.com",
        "androidads23.adcolony.com",
        "api.vungle.com",
        "applovin.com",
        "config.inmobi.com",
        "cuebiq.com",
        "doubleclick.net",
        "flurry.com",
        "google-analytics.com",
        "i.w.inmobi.com",
        "ingest.vungle.com",
        "inmobi.com",
        "inmobisdk-a.akamaihd.net",
        "med.heyzap.com",
        "sdkm.w.inmobi.com",
        "stats.unity3d.com",
        "w.inmobi.com",
        "www.googletagmanager.com",
        "x.heyzap.com"
      ],
      "metaDataNames": [
        "PW_PUSH_SERVICE",
        "com.google.android.gms.version",
        "unityplayer.ForwardNativeEventsToDalvik"
      ],
      "sha256": "94cc600711499d1b9c869c74ae4072b68acbf896c4ad4e9854f5f7db897d0070",
      "usesPermissions": [
        "18",
        "20",
        "android.permission.ACCESS_COARSE_LOCATION",
        "android.permission.ACCESS_FINE_LOCATION",
        "android.permission.ACCESS_NETWORK_STATE",
        "android.permission.ACCESS_WIFI_STATE",
        "android.permission.BROADCAST_STICKY",
        "android.permission.CHANGE_WIFI_STATE",
        "android.permission.GET_TASKS",
        "android.permission.INTERNET",
        "android.permission.READ_EXTERNAL_STORAGE",
        "android.permission.READ_PHONE_STATE",
        "android.permission.SYSTEM_ALERT_WINDOW",
        "android.permission.WAKE_LOCK",
        "android.permission.WRITE_EXTERNAL_STORAGE",
        "com.gamesarcade.nightsatcubemoonpizzeria.permission.C2D_MESSAGE",
        "com.google.android.c2dm.permission.RECEIVE",
        "com.google.android.gms.permission.ACTIVITY_RECOGNITION",
        "com.google.android.providers.gsf.permission.READ_GSERVICES"
      ]
    }
  ],
  "meta": {
    "generated": "2020-08-27T15:51:41.323999",
    "generatedBy": [
      "/home/hc/code/trackingthetrackers/scripts/make-trackers-apk-set.py"
    ],
    "ver": "0.3.0"
  }
}