{
  "apks": [
    {
      "applicationId": "be.mygod.vpnhotspot",
      "broadcastReceiverIntentFilterActionNames": [
        "android.intent.action.BOOT_COMPLETED",
        "android.intent.action.LOCKED_BOOT_COMPLETED"
      ],
      "dependencies": [],
      "domainNamesFilteredByExodus": [
        ".google.com"
      ],
      "metaDataNames": [
        "android.support.FILE_PROVIDER_PATHS",
        "com.google.android.play.billingclient.version"
      ],
      "sha256": "53847ce91c65e6e7c274a4634c79baf4ed42bbb80f46671959378aaa97861d43",
      "usesPermissions": [
        "android.permission.ACCESS_NETWORK_STATE",
        "android.permission.ACCESS_WIFI_STATE",
        "android.permission.BLUETOOTH",
        "android.permission.BLUETOOTH_ADMIN",
        "android.permission.CHANGE_NETWORK_STATE",
        "android.permission.CHANGE_WIFI_STATE",
        "android.permission.FOREGROUND_SERVICE",
        "android.permission.INTERNET",
        "android.permission.MANAGE_USB",
        "android.permission.OVERRIDE_WIFI_CONFIG",
        "android.permission.RECEIVE_BOOT_COMPLETED",
        "android.permission.TETHER_PRIVILEGED",
        "android.permission.WAKE_LOCK",
        "android.permission.WRITE_SETTINGS",
        "com.android.vending.BILLING"
      ]
    }
  ],
  "meta": {
    "generated": "2020-08-27T17:12:04.902092",
    "generatedBy": [
      "/home/hc/code/trackingthetrackers/scripts/make-clean-apk-set.py"
    ],
    "generatedByCommitId": "40519285d6f404593fa655fa89b433743c25289e",
    "sourceDataCommitId": "888bb8f8c77ff55105fcab2ad84c263561eb1169",
    "ver": "0.3.0"
  }
}