{
  "apks": [
    {
      "applicationId": "me.zeeroooo.materialfb",
      "broadcastReceiverIntentFilterActionNames": [
        "android.intent.action.BOOT_COMPLETED"
      ],
      "dependencies": [],
      "domainNamesFilteredByExodus": [
        ".facebook.com",
        "doubleclick.net"
      ],
      "metaDataNames": [
        "android.support.PARENT_ACTIVITY"
      ],
      "sha256": "f431ea1dc2e98b37d70ffd4cf24f364b3ab669adf0ca77e36563f3542019fd1e",
      "usesPermissions": [
        "android.permission.ACCESS_FINE_LOCATION",
        "android.permission.ACCESS_NETWORK_STATE",
        "android.permission.INTERNET",
        "android.permission.READ_EXTERNAL_STORAGE",
        "android.permission.RECEIVE_BOOT_COMPLETED",
        "android.permission.VIBRATE",
        "android.permission.WAKE_LOCK",
        "android.permission.WRITE_EXTERNAL_STORAGE"
      ]
    }
  ],
  "meta": {
    "generated": "2020-08-27T18:16:22.027705",
    "generatedBy": [
      "/home/hc/code/trackingthetrackers/scripts/make-clean-apk-set.py"
    ],
    "generatedByCommitId": "3839559c80042252d3b947fb61c86a18e8b31114",
    "sourceDataCommitId": "888bb8f8c77ff55105fcab2ad84c263561eb1169",
    "ver": "0.3.0"
  }
}