{
  "apks": [
    {
      "applicationId": "com.android.keychain",
      "broadcastReceiverIntentFilterActionNames": [],
      "dependencies": [],
      "domainNamesFilteredByExodus": [],
      "metaDataNames": [],
      "sha256": "1339bc09f073f453942f1d01dfc45be92e3156ad96cc5411ecf190b68964421d",
      "usesPermissions": []
    }
  ],
  "meta": {
    "generated": "2020-08-27T15:36:41.778115",
    "generatedBy": [
      "/home/hc/code/trackingthetrackers/scripts/make-trackers-apk-set.py"
    ],
    "ver": "0.3.0"
  }
}