{
  "apks": [
    {
      "applicationId": "com.android.keychain",
      "broadcastReceiverIntentFilterActionNames": [],
      "dependencies": [],
      "domainNamesFilteredByExodus": [],
      "metaDataNames": [],
      "sha256": "80a49a28d313bdc0165541b13abd52930e4199397cfc635e8b584f794dbf6acb",
      "usesPermissions": []
    }
  ],
  "meta": {
    "generated": "2020-08-27T15:36:41.742694",
    "generatedBy": [
      "/home/hc/code/trackingthetrackers/scripts/make-trackers-apk-set.py"
    ],
    "ver": "0.3.0"
  }
}