{
  "apks": [
    {
      "applicationId": "com.android.keychain",
      "broadcastReceiverIntentFilterActionNames": [],
      "dependencies": [],
      "domainNamesFilteredByExodus": [],
      "metaDataNames": [],
      "sha256": "d79ec8c2a08664958b7d88c1ac1ded9c2944e9bbbd6c3e774af1d4fe39d1f89c",
      "usesPermissions": []
    }
  ],
  "meta": {
    "generated": "2020-08-27T15:36:41.712660",
    "generatedBy": [
      "/home/hc/code/trackingthetrackers/scripts/make-trackers-apk-set.py"
    ],
    "ver": "0.3.0"
  }
}