{
  "apks": [
    {
      "applicationId": "com.android.keychain",
      "broadcastReceiverIntentFilterActionNames": [],
      "dependencies": [],
      "domainNamesFilteredByExodus": [],
      "metaDataNames": [],
      "sha256": "dd206db13526986bd6d43ce245b61dd5773d8b4dd79571004a2af9e5d5e6c69a",
      "usesPermissions": []
    }
  ],
  "meta": {
    "generated": "2020-08-27T15:36:41.723826",
    "generatedBy": [
      "/home/hc/code/trackingthetrackers/scripts/make-trackers-apk-set.py"
    ],
    "ver": "0.3.0"
  }
}