{
  "apks": [
    {
      "applicationId": "org.mozilla.klar",
      "broadcastReceiverIntentFilterActionNames": [],
      "dependencies": [
        "org.mozilla.telemetry"
      ],
      "domainNamesFilteredByExodus": [
        ".chartboost.com",
        ".facebook.com",
        ".google.com",
        "ad4game.com",
        "adform.com",
        "adjust.com",
        "adzerk.com",
        "amobee.com",
        "applovin.com",
        "appnexus.com",
        "cedexis.com",
        "comscore.com",
        "conversantmedia.com",
        "criteo.com",
        "eulerian.com",
        "flurry.com",
        "inmobi.com",
        "marketo.com",
        "media.net",
        "millennialmedia.com",
        "mixpanel.com",
        "moat.com",
        "mopub.com",
        "newrelic.com",
        "nexage.com",
        "ooyala.com",
        "openx.com",
        "optimizely.com",
        "outbrain.com",
        "qualtrics.com",
        "quantcast.com",
        "taboola.com",
        "teads.tv",
        "w.inmobi.com",
        "webtrends.com",
        "www.supersonicads.com",
        "yoc.com"
      ],
      "metaDataNames": [
        "android.app.shortcuts",
        "android.support.FILE_PROVIDER_PATHS",
        "android.webkit.WebView.MetricsOptOut"
      ],
      "sha256": "294c60f1d2e37e3323cf7f706c4d20e1c183d5bfeadd0ee9006d7deae0765633",
      "usesPermissions": [
        "android.permission.ACCESS_NETWORK_STATE",
        "android.permission.INTERNET",
        "android.permission.RECEIVE_BOOT_COMPLETED",
        "android.permission.WRITE_EXTERNAL_STORAGE",
        "com.android.launcher.permission.INSTALL_SHORTCUT"
      ]
    }
  ],
  "meta": {
    "generated": "2020-08-27T18:32:14.195102",
    "generatedBy": [
      "/home/hc/code/trackingthetrackers/scripts/make-clean-apk-set.py"
    ],
    "generatedByCommitId": "3839559c80042252d3b947fb61c86a18e8b31114",
    "sourceDataCommitId": "888bb8f8c77ff55105fcab2ad84c263561eb1169",
    "ver": "0.3.0"
  }
}