{
  "apks": [
    {
      "applicationId": "com.simplemobiletools.applauncher",
      "broadcastReceiverIntentFilterActionNames": [
        "com.simplemobiletools.commons.SHARED_THEME_ACTIVATED",
        "com.simplemobiletools.commons.SHARED_THEME_UPDATED"
      ],
      "dependencies": [],
      "domainNamesFilteredByExodus": [
        ".facebook.com",
        ".google.com"
      ],
      "metaDataNames": [],
      "sha256": "310f3d1c5075c00b0d3df2d6b4d7ae8d87c5815428a794503fda569a7ec194cd",
      "usesPermissions": []
    }
  ],
  "meta": {
    "generated": "2020-08-27T17:47:32.695351",
    "generatedBy": [
      "/home/hc/code/trackingthetrackers/scripts/make-clean-apk-set.py"
    ],
    "generatedByCommitId": "40519285d6f404593fa655fa89b433743c25289e",
    "sourceDataCommitId": "888bb8f8c77ff55105fcab2ad84c263561eb1169",
    "ver": "0.3.0"
  }
}