{
  "apks": [
    {
      "applicationId": "com.ktgame.jigsawpuzzle",
      "broadcastReceiverIntentFilterActionNames": [
        "android.intent.action.PACKAGE_ADDED"
      ],
      "dependencies": [],
      "domainNamesFilteredByExodus": [
        "au.youmi.net",
        "youmi.net"
      ],
      "metaDataNames": [
        "APP_ID",
        "APP_PID",
        "WAPS_PID",
        "YOUMI_CHANNEL"
      ],
      "sha256": "63a34ca11efa46e1a149c4f74c574290e585cde73fb32d632c04b5088ec48836",
      "usesPermissions": [
        "android.permission.ACCESS_NETWORK_STATE",
        "android.permission.ACCESS_WIFI_STATE",
        "android.permission.GET_TASKS",
        "android.permission.INTERNET",
        "android.permission.READ_PHONE_STATE",
        "android.permission.SET_WALLPAPER",
        "android.permission.SYSTEM_ALERT_WINDOW",
        "android.permission.WRITE_EXTERNAL_STORAGE",
        "com.android.launcher.permission.INSTALL_SHORTCUT"
      ]
    }
  ],
  "meta": {
    "generated": "2020-08-27T15:15:05.268223",
    "generatedBy": [
      "/home/hc/code/trackingthetrackers/scripts/make-trackers-apk-set.py"
    ],
    "ver": "0.3.0"
  }
}