{
  "apks": [
    {
      "applicationId": "io.github.subhamtyagi.openinwhatsapp",
      "broadcastReceiverIntentFilterActionNames": [],
      "dependencies": [],
      "domainNamesFilteredByExodus": [],
      "metaDataNames": [],
      "sha256": "7d271b07a612b6e88b5dc0f513c0f22c51ec99f4f8246213b0ffb10334bd678f",
      "usesPermissions": []
    }
  ],
  "meta": {
    "generated": "2020-08-27T17:03:34.990563",
    "generatedBy": [
      "/home/hc/code/trackingthetrackers/scripts/make-clean-apk-set.py"
    ],
    "generatedByCommitId": "40519285d6f404593fa655fa89b433743c25289e",
    "sourceDataCommitId": "888bb8f8c77ff55105fcab2ad84c263561eb1169",
    "ver": "0.3.0"
  }
}