{
  "apks": [
    {
      "applicationId": "ru.gelin.android.weather.notification",
      "broadcastReceiverIntentFilterActionNames": [
        "android.intent.action.BOOT_COMPLETED",
        "android.intent.action.EXTERNAL_APPLICATIONS_AVAILABLE",
        "android.net.conn.CONNECTIVITY_CHANGE",
        "ru.gelin.android.weather.notification.ACTION_WEATHER_UPDATE_2"
      ],
      "dependencies": [],
      "domainNamesFilteredByExodus": [
        ".google.com"
      ],
      "metaDataNames": [],
      "sha256": "a67d3d04ce26d1e5b74a895b1c779e9ed57b42f931effba5011fc693515b1ff0",
      "usesPermissions": [
        "android.permission.ACCESS_COARSE_LOCATION",
        "android.permission.ACCESS_NETWORK_STATE",
        "android.permission.INTERNET",
        "android.permission.RECEIVE_BOOT_COMPLETED",
        "ru.gelin.android.weather.notification.START_UPDATE_SERVICE"
      ]
    }
  ],
  "meta": {
    "generated": "2020-08-27T18:43:13.449736",
    "generatedBy": [
      "/home/hc/code/trackingthetrackers/scripts/make-clean-apk-set.py"
    ],
    "generatedByCommitId": "3839559c80042252d3b947fb61c86a18e8b31114",
    "sourceDataCommitId": "888bb8f8c77ff55105fcab2ad84c263561eb1169",
    "ver": "0.3.0"
  }
}