{
  "apks": [
    {
      "applicationId": "com.nizuar.brazilfootballworldcup.free",
      "broadcastReceiverIntentFilterActionNames": [],
      "dependencies": [
        "com.google.ads.",
        "com.purplebrain.adbuddiz.sdk."
      ],
      "domainNamesFilteredByExodus": [
        ".google.com",
        "api.airpush.com",
        "doubleclick.net",
        "sdk.adbuddiz.com",
        "stats.unity3d.com"
      ],
      "metaDataNames": [
        "android.app.lib_name",
        "com.inapp.sdk.APIKEY",
        "com.inapp.sdk.APPID",
        "unityplayer.ForwardNativeEventsToDalvik"
      ],
      "sha256": "45eebc911048491351b42c7ba4e34d8b6c200c26375265dcfce63c539a4dce86",
      "usesPermissions": [
        "android.permission.ACCESS_NETWORK_STATE",
        "android.permission.ACCESS_WIFI_STATE",
        "android.permission.INTERNET",
        "android.permission.READ_PHONE_STATE",
        "android.permission.WAKE_LOCK",
        "android.permission.WRITE_EXTERNAL_STORAGE"
      ]
    }
  ],
  "meta": {
    "generated": "2020-08-27T15:16:38.146593",
    "generatedBy": [
      "/home/hc/code/trackingthetrackers/scripts/make-trackers-apk-set.py"
    ],
    "ver": "0.3.0"
  }
}