{
  "apks": [
    {
      "applicationId": "com.johnnyfox.minionrushcheats",
      "broadcastReceiverIntentFilterActionNames": [
        "android.intent.action.NEW_OUTGOING_CALL",
        "android.intent.action.PACKAGE_ADDED",
        "android.intent.action.PACKAGE_REMOVED",
        "android.intent.action.PHONE_STATE"
      ],
      "dependencies": [
        "com.applovin",
        "com.google.android.gms.analytics.",
        "com.ironsource.",
        "com.localytics.android."
      ],
      "domainNamesFilteredByExodus": [
        ".facebook.com",
        ".google.com",
        "analytics.localytics.com",
        "applovin.com",
        "google-analytics.com"
      ],
      "metaDataNames": [
        "applovin.sdk.key",
        "com.startapp.android.APP_ID",
        "com.startapp.android.DEV_ID"
      ],
      "sha256": "eac08d1815fb0e021871c0f7348a3719059d421eec68fad801bf188696d2340a",
      "usesPermissions": [
        "android.permission.ACCESS_NETWORK_STATE",
        "android.permission.ACCESS_WIFI_STATE",
        "android.permission.ACCESS_WIFI_STATE",
        "android.permission.DISABLE_KEYGUARD",
        "android.permission.GET_ACCOUNTS",
        "android.permission.INTERNET",
        "android.permission.PROCESS_OUTGOING_CALLS",
        "android.permission.READ_CONTACTS",
        "android.permission.READ_PHONE_STATE",
        "android.permission.READ_PHONE_STATE",
        "android.permission.WAKE_LOCK",
        "android.permission.WRITE_EXTERNAL_STORAGE"
      ]
    }
  ],
  "meta": {
    "generated": "2020-08-27T15:19:51.939183",
    "generatedBy": [
      "/home/hc/code/trackingthetrackers/scripts/make-trackers-apk-set.py"
    ],
    "ver": "0.3.0"
  }
}