{
  "apks": [
    {
      "applicationId": "com.ghostsq.commander.samba",
      "broadcastReceiverIntentFilterActionNames": [],
      "dependencies": [],
      "domainNamesFilteredByExodus": [],
      "metaDataNames": [],
      "sha256": "5442d4ec2c64a7ed7835ff60a3c6315a3ef7a775d3862b9badde7c3f26968b76",
      "usesPermissions": [
        "android.permission.ACCESS_WIFI_STATE"
      ]
    }
  ],
  "meta": {
    "generated": "2020-08-27T17:23:20.032797",
    "generatedBy": [
      "/home/hc/code/trackingthetrackers/scripts/make-clean-apk-set.py"
    ],
    "generatedByCommitId": "40519285d6f404593fa655fa89b433743c25289e",
    "sourceDataCommitId": "888bb8f8c77ff55105fcab2ad84c263561eb1169",
    "ver": "0.3.0"
  }
}