{
  "apks": [
    {
      "applicationId": "com.downloadgoodmusic",
      "broadcastReceiverIntentFilterActionNames": [],
      "dependencies": [
        "com$google$ads$",
        "com$mopub$mobileads$",
        "com.google.ads.",
        "com.millennialmedia.",
        "com.mopub.mobileads.",
        "com.newrelic.agent."
      ],
      "domainNamesFilteredByExodus": [
        ".google.com",
        "millennialmedia.com",
        "mobile-collector.newrelic.com",
        "mopub.com",
        "newrelic.com"
      ],
      "metaDataNames": [],
      "sha256": "c98b58afe91bc2a3b696e4044bea1726762e07f8d685ae86308ecdfc2669a878",
      "usesPermissions": [
        "android.permission.ACCESS_COARSE_LOCATION",
        "android.permission.ACCESS_NETWORK_STATE",
        "android.permission.INTERNET",
        "android.permission.READ_PHONE_STATE",
        "android.permission.WAKE_LOCK",
        "android.permission.WRITE_EXTERNAL_STORAGE",
        "android.permission.WRITE_SETTINGS",
        "com.downloadgoodmusic.permission.C2D_MESSAGE",
        "com.google.android.c2dm.permission.RECEIVE"
      ]
    }
  ],
  "meta": {
    "generated": "2020-08-27T15:43:54.924826",
    "generatedBy": [
      "/home/hc/code/trackingthetrackers/scripts/make-trackers-apk-set.py"
    ],
    "ver": "0.3.0"
  }
}