{
  "apks": [
    {
      "applicationId": "com.xz.ydls.sjlszs",
      "broadcastReceiverIntentFilterActionNames": [
        "android.intent.action.USER_PRESENT",
        "android.net.conn.CONNECTIVITY_CHANGE",
        "cn.jpush.android.intent.ACTION_RICHPUSH_CALLBACK",
        "cn.jpush.android.intent.CONNECTION",
        "cn.jpush.android.intent.MESSAGE_RECEIVED",
        "cn.jpush.android.intent.NOTIFICATION_OPENED",
        "cn.jpush.android.intent.NOTIFICATION_RECEIVED",
        "cn.jpush.android.intent.NOTIFICATION_RECEIVED_PROXY",
        "cn.jpush.android.intent.REGISTRATION",
        "cn.jpush.android.intent.UNREGISTRATION",
        "com.google.android.c2dm.intent.RECEIVE",
        "com.google.android.c2dm.intent.REGISTRATION",
        "com.google.android.gms.measurement.UPLOAD"
      ],
      "dependencies": [],
      "domainNamesFilteredByExodus": [],
      "metaDataNames": [
        "JPUSH_APPKEY",
        "JPUSH_CHANNEL",
        "UMENG_APPKEY",
        "UMENG_CHANNEL",
        "api_key",
        "api_secret",
        "com.google.android.gms.version",
        "product_desc"
      ],
      "sha256": "17aad784b536e33ba09c8c16c6441e132e34e3d4497ce7192351b6fd9acd0fc4",
      "usesPermissions": [
        "android.permission.ACCESS_COARSE_LOCATION",
        "android.permission.ACCESS_COARSE_UPDATES",
        "android.permission.ACCESS_FINE_LOCATION",
        "android.permission.ACCESS_NETWORK_STATE",
        "android.permission.ACCESS_WIFI_STATE",
        "android.permission.CALL_PHONE",
        "android.permission.CHANGE_NETWORK_STATE",
        "android.permission.CHANGE_WIFI_STATE",
        "android.permission.DISABLE_KEYGUARD",
        "android.permission.GET_ACCOUNTS",
        "android.permission.GET_TASKS",
        "android.permission.INTERNET",
        "android.permission.MANAGE_ACCOUNTS",
        "android.permission.MOUNT_UNMOUNT_FILESYSTEMS",
        "android.permission.READ_CONTACTS",
        "android.permission.READ_EXTERNAL_STORAGE",
        "android.permission.READ_LOGS",
        "android.permission.READ_PHONE_STATE",
        "android.permission.READ_SMS",
        "android.permission.RECEIVE_BOOT_COMPLETED",
        "android.permission.RECEIVE_SMS",
        "android.permission.RECEIVE_USER_PRESENT",
        "android.permission.SEND_SMS",
        "android.permission.SYSTEM_ALERT_WINDOW",
        "android.permission.VIBRATE",
        "android.permission.WAKE_LOCK",
        "android.permission.WRITE_EXTERNAL_STORAGE",
        "android.permission.WRITE_SETTINGS",
        "com.google.android.c2dm.permission.RECEIVE",
        "com.xz.ydls.sjlszs.permission.C2D_MESSAGE",
        "com.xz.ydls.sjlszs.permission.JPUSH_MESSAGE"
      ]
    }
  ],
  "meta": {
    "generated": "2020-08-27T15:47:41.405393",
    "generatedBy": [
      "/home/hc/code/trackingthetrackers/scripts/make-trackers-apk-set.py"
    ],
    "ver": "0.3.0"
  }
}