{
  "apks": [
    {
      "applicationId": "com.pilot51.voicenotify",
      "broadcastReceiverIntentFilterActionNames": [
        "android.appwidget.action.APPWIDGET_UPDATE",
        "voicenotify.widget.TOGGLE",
        "voicenotify.widget.UPDATE"
      ],
      "dependencies": [],
      "domainNamesFilteredByExodus": [
        ".google.com"
      ],
      "metaDataNames": [
        "android.accessibilityservice",
        "android.appwidget.provider"
      ],
      "sha256": "fa4a6a6982bc4d9fcdd3fcb49d618e0f6229a227ce64ac8b7041c0df823c9826",
      "usesPermissions": [
        "android.permission.BLUETOOTH",
        "android.permission.VIBRATE"
      ]
    }
  ],
  "meta": {
    "generated": "2020-08-27T17:46:06.819002",
    "generatedBy": [
      "/home/hc/code/trackingthetrackers/scripts/make-clean-apk-set.py"
    ],
    "generatedByCommitId": "40519285d6f404593fa655fa89b433743c25289e",
    "sourceDataCommitId": "888bb8f8c77ff55105fcab2ad84c263561eb1169",
    "ver": "0.3.0"
  }
}