{
  "apks": [
    {
      "applicationId": "com.github.yeriomin.yalpstore",
      "broadcastReceiverIntentFilterActionNames": [
        "android.intent.action.DOWNLOAD_COMPLETE"
      ],
      "dependencies": [],
      "domainNamesFilteredByExodus": [
        ".google.com"
      ],
      "metaDataNames": [
        "android.app.default_searchable",
        "android.app.searchable",
        "android.support.FILE_PROVIDER_PATHS"
      ],
      "sha256": "c35ffa61e8df70db8f72ccdc8d8b8e4159aba7ffeb6a8a78c4df8b191c57cc02",
      "usesPermissions": [
        "android.permission.INTERNET",
        "android.permission.WRITE_EXTERNAL_STORAGE"
      ]
    }
  ],
  "meta": {
    "generated": "2020-08-27T17:31:30.769966",
    "generatedBy": [
      "/home/hc/code/trackingthetrackers/scripts/make-clean-apk-set.py"
    ],
    "generatedByCommitId": "40519285d6f404593fa655fa89b433743c25289e",
    "sourceDataCommitId": "888bb8f8c77ff55105fcab2ad84c263561eb1169",
    "ver": "0.3.0"
  }
}