{
  "apks": [
    {
      "applicationId": "it.niedermann.nextcloud.deck",
      "broadcastReceiverIntentFilterActionNames": [],
      "dependencies": [],
      "domainNamesFilteredByExodus": [
        ".google.com"
      ],
      "metaDataNames": [
        "android.app.default_searchable",
        "android.app.searchable",
        "android.app.shortcuts"
      ],
      "sha256": "0560799b3728c95e2e314bab8b3b422c8fb748c3d9dd6d905279147d5c85fae8",
      "usesPermissions": [
        "android.permission.ACCESS_NETWORK_STATE",
        "android.permission.GET_ACCOUNTS",
        "android.permission.INTERNET",
        "com.nextcloud.android.sso"
      ]
    }
  ],
  "meta": {
    "generated": "2020-08-27T18:14:19.727909",
    "generatedBy": [
      "/home/hc/code/trackingthetrackers/scripts/make-clean-apk-set.py"
    ],
    "generatedByCommitId": "3839559c80042252d3b947fb61c86a18e8b31114",
    "sourceDataCommitId": "888bb8f8c77ff55105fcab2ad84c263561eb1169",
    "ver": "0.3.0"
  }
}