{
  "apks": [
    {
      "applicationId": "de.jl.notificationlog",
      "broadcastReceiverIntentFilterActionNames": [],
      "dependencies": [],
      "domainNamesFilteredByExodus": [],
      "metaDataNames": [
        "android.accessibilityservice",
        "android.support.PARENT_ACTIVITY"
      ],
      "sha256": "20828241412dbacbb3cbc6cccea3d220b3888d2cfcd76bf6d0175a780546b105",
      "usesPermissions": []
    }
  ],
  "meta": {
    "generated": "2020-08-27T18:00:54.589517",
    "generatedBy": [
      "/home/hc/code/trackingthetrackers/scripts/make-clean-apk-set.py"
    ],
    "generatedByCommitId": "3839559c80042252d3b947fb61c86a18e8b31114",
    "sourceDataCommitId": "888bb8f8c77ff55105fcab2ad84c263561eb1169",
    "ver": "0.3.0"
  }
}