{
  "apks": [
    {
      "applicationId": "com.willemstoker.PasswordDelayAd",
      "broadcastReceiverIntentFilterActionNames": [
        "android.app.action.DEVICE_ADMIN_ENABLED",
        "android.intent.action.ACTION_SHUTDOWN",
        "android.intent.action.BOOT_COMPLETED"
      ],
      "dependencies": [
        "com.google.ads."
      ],
      "domainNamesFilteredByExodus": [
        ".google.com",
        "api.airpush.com",
        "apistaging.airpush.com",
        "beta.airpush.com",
        "m.airpush.com"
      ],
      "metaDataNames": [
        "android.app.device_admin",
        "com.wNdmDFyu.TEdWROCX2214.APIKEY",
        "com.wNdmDFyu.TEdWROCX2214.APPID"
      ],
      "sha256": "2513c70d9f3c9b90b2bc99d45164d9f8cb3156f79c3182758cf7309a236a62b3",
      "usesPermissions": [
        "android.permission.ACCESS_COARSE_LOCATION",
        "android.permission.ACCESS_FINE_LOCATION",
        "android.permission.ACCESS_NETWORK_STATE",
        "android.permission.BIND_DEVICE_ADMIN",
        "android.permission.INTERNET",
        "android.permission.READ_PHONE_STATE",
        "android.permission.RECEIVE_BOOT_COMPLETED",
        "android.permission.VIBRATE",
        "com.android.browser.permission.READ_HISTORY_BOOKMARKS",
        "com.android.browser.permission.WRITE_HISTORY_BOOKMARKS",
        "com.android.launcher.permission.INSTALL_SHORTCUT"
      ]
    }
  ],
  "meta": {
    "generated": "2020-08-27T14:59:19.654560",
    "generatedBy": [
      "/home/hc/code/trackingthetrackers/scripts/make-trackers-apk-set.py"
    ],
    "ver": "0.3.0"
  }
}