{
  "apks": [
    {
      "applicationId": "com.gitlab.ardash.appleflinger.android",
      "broadcastReceiverIntentFilterActionNames": [],
      "dependencies": [],
      "domainNamesFilteredByExodus": [
        ".facebook.com",
        ".google.com"
      ],
      "metaDataNames": [
        "com.google.android.gms.games.APP_ID"
      ],
      "sha256": "0eb9f29eaffbc5afeb8d46fe9c8e9d0d13094c0bab7e787371dcb6f457d0300d",
      "usesPermissions": []
    }
  ],
  "meta": {
    "generated": "2020-08-27T17:31:31.489671",
    "generatedBy": [
      "/home/hc/code/trackingthetrackers/scripts/make-clean-apk-set.py"
    ],
    "generatedByCommitId": "40519285d6f404593fa655fa89b433743c25289e",
    "sourceDataCommitId": "888bb8f8c77ff55105fcab2ad84c263561eb1169",
    "ver": "0.3.0"
  }
}