{
  "apks": [
    {
      "applicationId": "com.shkmishra.lyrically",
      "broadcastReceiverIntentFilterActionNames": [
        "com.android.music.playstatechanged",
        "com.jrtstudio.AnotherMusicPlayer.playstatechanged",
        "com.spotify.music.playbackstatechanged"
      ],
      "dependencies": [],
      "domainNamesFilteredByExodus": [
        ".google.com"
      ],
      "metaDataNames": [],
      "sha256": "818deaf96191dcbf370f506a5a5e81b0717892c3c44329a676432104155c8606",
      "usesPermissions": [
        "android.permission.INTERNET",
        "android.permission.READ_EXTERNAL_STORAGE",
        "android.permission.SYSTEM_ALERT_WINDOW",
        "android.permission.VIBRATE",
        "android.permission.WRITE_EXTERNAL_STORAGE"
      ]
    }
  ],
  "meta": {
    "generated": "2020-08-27T17:47:31.000779",
    "generatedBy": [
      "/home/hc/code/trackingthetrackers/scripts/make-clean-apk-set.py"
    ],
    "generatedByCommitId": "40519285d6f404593fa655fa89b433743c25289e",
    "sourceDataCommitId": "888bb8f8c77ff55105fcab2ad84c263561eb1169",
    "ver": "0.3.0"
  }
}