{
  "apks": [
    {
      "applicationId": "com.vdowall.abwheelrollout",
      "broadcastReceiverIntentFilterActionNames": [],
      "dependencies": [
        "com.google.ads.",
        "com.revmob.ads."
      ],
      "domainNamesFilteredByExodus": [
        ".google.com"
      ],
      "metaDataNames": [],
      "sha256": "d107f404f6a7e18d447c805a7f33c7bc39e89ba5da7a055eed81476bd70d6e14",
      "usesPermissions": [
        "android.permission.ACCESS_NETWORK_STATE",
        "android.permission.ACCESS_WIFI_STATE",
        "android.permission.INTERNET",
        "android.permission.READ_PHONE_STATE"
      ]
    }
  ],
  "meta": {
    "generated": "2020-08-27T15:02:55.014278",
    "generatedBy": [
      "/home/hc/code/trackingthetrackers/scripts/make-trackers-apk-set.py"
    ],
    "ver": "0.3.0"
  }
}