{
  "apks": [
    {
      "applicationId": "org.flyve.inventory.agent",
      "broadcastReceiverIntentFilterActionNames": [
        "android.intent.action.BOOT_COMPLETED",
        "org.flyve.inventory.agent.ALARM"
      ],
      "dependencies": [
        "com$bugsnag$",
        "com.bugsnag."
      ],
      "domainNamesFilteredByExodus": [],
      "metaDataNames": [
        "com.bugsnag.android.API_KEY"
      ],
      "sha256": "9f9f2fca302515e1ffff323843299e8d63f69621d9203cf82e3cf32b049c3e2d",
      "usesPermissions": [
        "android.permission.ACCESS_COARSE_LOCATION",
        "android.permission.ACCESS_FINE_LOCATION",
        "android.permission.ACCESS_LOCATION_EXTRA_COMMANDS",
        "android.permission.ACCESS_MOCK_LOCATION",
        "android.permission.ACCESS_NETWORK_STATE",
        "android.permission.ACCESS_WIFI_STATE",
        "android.permission.BLUETOOTH",
        "android.permission.CAMERA",
        "android.permission.CHANGE_CONFIGURATION",
        "android.permission.CHANGE_WIFI_MULTICAST_STATE",
        "android.permission.CHANGE_WIFI_STATE",
        "android.permission.DISABLE_KEYGUARD",
        "android.permission.GET_PACKAGE_SIZE",
        "android.permission.INTERNET",
        "android.permission.READ_EXTERNAL_STORAGE",
        "android.permission.READ_PHONE_STATE",
        "android.permission.READ_PHONE_STATE",
        "android.permission.RECEIVE_BOOT_COMPLETED",
        "android.permission.WAKE_LOCK",
        "android.permission.WRITE_EXTERNAL_STORAGE"
      ]
    }
  ],
  "meta": {
    "generated": "2020-08-27T17:05:26.456043",
    "generatedBy": [
      "/home/hc/code/trackingthetrackers/scripts/make-clean-apk-set.py"
    ],
    "generatedByCommitId": "40519285d6f404593fa655fa89b433743c25289e",
    "sourceDataCommitId": "888bb8f8c77ff55105fcab2ad84c263561eb1169",
    "ver": "0.3.0"
  }
}