{
  "apks": [
    {
      "applicationId": "com.tencent.qqlive",
      "broadcastReceiverIntentFilterActionNames": [
        "android.intent.action.HEADSET_PLUG"
      ],
      "dependencies": [
        "com.tencent.stat",
        "com.tencent.weiyun"
      ],
      "domainNamesFilteredByExodus": [],
      "metaDataNames": [
        "TA_APPKEY",
        "TencentMapSDK",
        "com.samsung.android.sdk.multiwindow.enable",
        "com.samsung.android.sdk.multiwindow.multiinstance.enable",
        "com.samsung.android.sdk.multiwindow.style",
        "com.tencent.rdm.uuid"
      ],
      "sha256": "608579eab49320a5bd82005e01d05fffc85f7103e74920b1e81ee226b3326bcd",
      "usesPermissions": [
        "android.permission.ACCESS_NETWORK_STATE",
        "android.permission.ACCESS_WIFI_STATE",
        "android.permission.BATTERY_STATS",
        "android.permission.BROADCAST_STICKY",
        "android.permission.CHANGE_WIFI_MULTICAST_STATE",
        "android.permission.DISABLE_KEYGUARD",
        "android.permission.FLASHLIGHT",
        "android.permission.GET_TASKS",
        "android.permission.INTERNET",
        "android.permission.MODIFY_AUDIO_SETTINGS",
        "android.permission.MOUNT_UNMOUNT_FILESYSTEMS",
        "android.permission.READ_EXTERNAL_STORAGE",
        "android.permission.READ_LOGS",
        "android.permission.READ_PHONE_STATE",
        "android.permission.REORDER_TASKS",
        "android.permission.RESTART_PACKAGES",
        "android.permission.SYSTEM_ALERT_WINDOW",
        "android.permission.VIBRATE",
        "android.permission.WAKE_LOCK",
        "android.permission.WRITE_EXTERNAL_STORAGE",
        "com.tencent.qqlive.permisson.SEND_ACTION"
      ]
    }
  ],
  "meta": {
    "generated": "2020-08-27T15:48:59.875080",
    "generatedBy": [
      "/home/hc/code/trackingthetrackers/scripts/make-trackers-apk-set.py"
    ],
    "ver": "0.3.0"
  }
}