{
  "apks": [
    {
      "applicationId": "com.UC.imusic",
      "broadcastReceiverIntentFilterActionNames": [
        "android.intent.action.PACKAGE_ADDED",
        "android.intent.action.USER_PRESENT",
        "android.net.conn.CONNECTIVITY_CHANGE",
        "com.android.vending.INSTALL_REFERRER"
      ],
      "dependencies": [
        "com.baidu.mobstat",
        "com.google.android.apps.analytics.",
        "net_youmi"
      ],
      "domainNamesFilteredByExodus": [
        "google-analytics.com"
      ],
      "metaDataNames": [
        "BaiduMobAd_CHANNEL",
        "BaiduMobAd_EXCEPTION_LOG",
        "BaiduMobAd_ONLY_WIFI",
        "BaiduMobAd_SEND_STRATEGY",
        "BaiduMobAd_STAT_ID"
      ],
      "sha256": "3594e824d3a230058be6e9a197322ac4efe189f5ed61d37cb6f207d2e4459dd5",
      "usesPermissions": [
        "android.permission.ACCESS_COARSE_LOCATION",
        "android.permission.ACCESS_FINE_LOCATION",
        "android.permission.ACCESS_NETWORK_STATE",
        "android.permission.ACCESS_WIFI_STATE",
        "android.permission.CHANGE_WIFI_STATE",
        "android.permission.GET_TASKS",
        "android.permission.INTERNET",
        "android.permission.MOUNT_UNMOUNT_FILESYSTEMS",
        "android.permission.READ_LOGS",
        "android.permission.READ_PHONE_STATE",
        "android.permission.RECEIVE_BOOT_COMPLETED",
        "android.permission.RECORD_AUDIO",
        "android.permission.SYSTEM_ALERT_WINDOW",
        "android.permission.VIBRATE",
        "android.permission.WAKE_LOCK",
        "android.permission.WRITE_EXTERNAL_STORAGE",
        "android.permission.WRITE_SETTINGS",
        "com.android.browser.permission.READ_HISTORY_BOOKMARKS",
        "com.android.browser.permission.WRITE_HISTORY_BOOKMARKS",
        "com.android.launcher.permission.INSTALL_SHORTCUT"
      ]
    }
  ],
  "meta": {
    "generated": "2020-08-27T15:07:36.900167",
    "generatedBy": [
      "/home/hc/code/trackingthetrackers/scripts/make-trackers-apk-set.py"
    ],
    "ver": "0.3.0"
  }
}