{
  "apks": [
    {
      "applicationId": "com.snda.wifilocating",
      "broadcastReceiverIntentFilterActionNames": [
        "android.appwidget.action.APPWIDGET_UPDATE",
        "android.intent.action.AIRPLANE_MODE",
        "android.intent.action.BOOT_COMPLETED",
        "android.intent.action.USER_PRESENT",
        "android.net.conn.BACKGROUND_DATA_SETTING_CHANGED",
        "android.net.conn.CONNECTIVITY_CHANGE",
        "android.net.wifi.STATE_CHANGE",
        "android.net.wifi.WIFI_STATE_CHANGED",
        "com.snda.wifilocating.action.WidgetApConnected",
        "com.snda.wifilocating.action.WidgetGPRSSwitch",
        "com.snda.wifilocating.action.WidgetHotKeys",
        "com.snda.wifilocating.action.WidgetInternetEnabled",
        "com.snda.wifilocating.action.WidgetKeySearch",
        "com.snda.wifilocating.action.WidgetNextPageWords",
        "com.snda.wifilocating.action.WidgetSwitchUpdate",
        "com.snda.wifilocating.action.WidgetUpdateData",
        "com.snda.wifilocating.action.WidgetWiFiSwitch",
        "com.snda.wifilocating.action.widget.NOTIFY_IN_UPDATE",
        "com.snda.wifilocating.action.widget.NOTIFY_OUT_UPDATE",
        "com.snda.wifilocating.action.widget.REGISTER_IN_UPDATE",
        "com.snda.wifilocating.action.widget.refresh_click",
        "com.snda.wifilocating.action.widget.search_click",
        "com.snda.wifilocating.action.widget.text10_click",
        "com.snda.wifilocating.action.widget.text1_click",
        "com.snda.wifilocating.action.widget.text2_click",
        "com.snda.wifilocating.action.widget.text3_click",
        "com.snda.wifilocating.action.widget.text4_click",
        "com.snda.wifilocating.action.widget.text5_click",
        "com.snda.wifilocating.action.widget.text6_click",
        "com.snda.wifilocating.action.widget.text7_click",
        "com.snda.wifilocating.action.widget.text8_click",
        "com.snda.wifilocating.action.widget.text9_click"
      ],
      "dependencies": [
        "com.baidu.mapapi",
        "com.baidu.mobads",
        "com.google.ads.",
        "com.mdotm.android",
        "com.millennialmedia.",
        "com.tencent.lbs",
        "com.tencent.mobwin",
        "net.youmi"
      ],
      "domainNamesFilteredByExodus": [
        ".google.com",
        "inmobi.com",
        "map.baidu.com",
        "media.net",
        "smaato.net",
        "soma.smaato.net",
        "w.inmobi.com"
      ],
      "metaDataNames": [
        "ADUU_SDK_APP_CHANEL",
        "ADUU_SDK_APP_ID",
        "ADUU_SDK_APP_SEC",
        "ADUU_SDK_CHANGE_MODE",
        "ADUU_SDK_INTERVAL",
        "ADUU_SDK_SPOT_TM",
        "APPLICATION_CHANNEL",
        "APPLICATION_KEY",
        "android.appwidget.provider",
        "woa_key_appid",
        "woa_key_channelid"
      ],
      "sha256": "abadf550fa9ea831d1c23a293d5daea603aca213e134798a02b4204598894876",
      "usesPermissions": [
        "android.permission.ACCESS_COARSE_LOCATION",
        "android.permission.ACCESS_FINE_LOCATION",
        "android.permission.ACCESS_LOCATION_EXTRA_COMMANDS",
        "android.permission.ACCESS_NETWORK_STATE",
        "android.permission.ACCESS_WIFI_STATE",
        "android.permission.BROADCAST_STICKY",
        "android.permission.CAMERA",
        "android.permission.CHANGE_NETWORK_STATE",
        "android.permission.CHANGE_WIFI_STATE",
        "android.permission.GET_TASKS",
        "android.permission.INTERNET",
        "android.permission.READ_EXTERNAL_STORAGE",
        "android.permission.READ_LOGS",
        "android.permission.READ_PHONE_STATE",
        "android.permission.READ_PHONE_STATE",
        "android.permission.READ_SETTINGS",
        "android.permission.RECEIVE_BOOT_COMPLETED",
        "android.permission.SEND_SMS",
        "android.permission.WRITE_EXTERNAL_STORAGE",
        "android.permission.WRITE_SECURE_SETTINGS",
        "android.permission.WRITE_SETTINGS",
        "com.android.launcher.permission.INSTALL_SHORTCUT"
      ]
    }
  ],
  "meta": {
    "generated": "2020-08-27T15:53:28.588552",
    "generatedBy": [
      "/home/hc/code/trackingthetrackers/scripts/make-trackers-apk-set.py"
    ],
    "ver": "0.3.0"
  }
}