{
  "apks": [
    {
      "applicationId": "com.samebits.beacon.locator",
      "broadcastReceiverIntentFilterActionNames": [
        "android.intent.action.ACTION_POWER_CONNECTED",
        "android.intent.action.ACTION_POWER_DISCONNECTED",
        "android.intent.action.BOOT_COMPLETED",
        "com.samebits.beacon.locator.action.ALARM_NOTIFICATION_SHOW",
        "com.samebits.beacon.locator.action.GET_CURRENT_LOCATION",
        "com.samebits.beacon.locator.action.NOTIFY_BEACON_ENTERS_REGION",
        "com.samebits.beacon.locator.action.NOTIFY_BEACON_LEAVES_REGION",
        "com.samebits.beacon.locator.action.NOTIFY_BEACON_NEAR_YOU_REGION"
      ],
      "dependencies": [
        "org.altbeacon.beacon."
      ],
      "domainNamesFilteredByExodus": [],
      "metaDataNames": [
        "android.arch.lifecycle.VERSION"
      ],
      "sha256": "8a63338028ce7c915a69e898f5c223439e95a2133e23b2965540371e07fb2dd2",
      "usesPermissions": [
        "android.permission.ACCESS_COARSE_LOCATION",
        "android.permission.ACCESS_FINE_LOCATION",
        "android.permission.BLUETOOTH",
        "android.permission.BLUETOOTH_ADMIN",
        "android.permission.INTERNET",
        "android.permission.RECEIVE_BOOT_COMPLETED",
        "false",
        "false",
        "net.dinglisch.android.tasker.PERMISSION_RUN_TASKS"
      ]
    }
  ],
  "meta": {
    "generated": "2020-08-27T17:46:58.489964",
    "generatedBy": [
      "/home/hc/code/trackingthetrackers/scripts/make-clean-apk-set.py"
    ],
    "generatedByCommitId": "40519285d6f404593fa655fa89b433743c25289e",
    "sourceDataCommitId": "888bb8f8c77ff55105fcab2ad84c263561eb1169",
    "ver": "0.3.0"
  }
}