{
  "apks": [
    {
      "applicationId": "org.opengemara.shiurim",
      "broadcastReceiverIntentFilterActionNames": [],
      "dependencies": [],
      "domainNamesFilteredByExodus": [],
      "metaDataNames": [],
      "sha256": "d1044f0a95ae7fc1458485c73c824d362762272c7943db72aebc7b7eeafd3e79",
      "usesPermissions": []
    }
  ],
  "meta": {
    "generated": "2020-08-27T17:06:18.879748",
    "generatedBy": [
      "/home/hc/code/trackingthetrackers/scripts/make-clean-apk-set.py"
    ],
    "generatedByCommitId": "40519285d6f404593fa655fa89b433743c25289e",
    "sourceDataCommitId": "888bb8f8c77ff55105fcab2ad84c263561eb1169",
    "ver": "0.3.0"
  }
}