{
  "apks": [
    {
      "applicationId": "com.nishantboro.splititeasy",
      "broadcastReceiverIntentFilterActionNames": [],
      "dependencies": [],
      "domainNamesFilteredByExodus": [
        ".google.com"
      ],
      "metaDataNames": [],
      "sha256": "e0965a354b9112636759379883f078e5bd20f00142af39ab1569693e47ff5991",
      "usesPermissions": []
    }
  ],
  "meta": {
    "generated": "2020-08-27T17:00:06.527929",
    "generatedBy": [
      "/home/hc/code/trackingthetrackers/scripts/make-clean-apk-set.py"
    ],
    "generatedByCommitId": "40519285d6f404593fa655fa89b433743c25289e",
    "sourceDataCommitId": "888bb8f8c77ff55105fcab2ad84c263561eb1169",
    "ver": "0.3.0"
  }
}