{
  "apks": [
    {
      "applicationId": "eu.e43.impeller",
      "broadcastReceiverIntentFilterActionNames": [],
      "dependencies": [],
      "domainNamesFilteredByExodus": [],
      "metaDataNames": [
        "android.accounts.AccountAuthenticator",
        "android.content.SyncAdapter",
        "android.provider.CONTACTS_STRUCTURE",
        "android.support.PARENT_ACTIVITY"
      ],
      "sha256": "9663f3812d2aa8e5d5572431719008b5c487fc6d206ce2544bed7f3c9a850f41",
      "usesPermissions": [
        "android.permission.AUTHENTICATE_ACCOUNTS",
        "android.permission.GET_ACCOUNTS",
        "android.permission.INTERNET",
        "android.permission.MANAGE_ACCOUNTS",
        "android.permission.READ_CONTACTS",
        "android.permission.READ_SOCIAL_STREAM",
        "android.permission.READ_SYNC_SETTINGS",
        "android.permission.READ_SYNC_STATS",
        "android.permission.USE_CREDENTIALS",
        "android.permission.WRITE_CONTACTS",
        "android.permission.WRITE_SOCIAL_STREAM",
        "android.permission.WRITE_SYNC_SETTINGS"
      ]
    }
  ],
  "meta": {
    "generated": "2020-08-27T18:06:13.845897",
    "generatedBy": [
      "/home/hc/code/trackingthetrackers/scripts/make-clean-apk-set.py"
    ],
    "generatedByCommitId": "3839559c80042252d3b947fb61c86a18e8b31114",
    "sourceDataCommitId": "888bb8f8c77ff55105fcab2ad84c263561eb1169",
    "ver": "0.3.0"
  }
}