{
  "apks": [
    {
      "applicationId": "org.cocos2dx.lemicosoft.ct",
      "broadcastReceiverIntentFilterActionNames": [],
      "dependencies": [
        "com.chartboost.sdk.",
        "com.flurry.",
        "com.google.ads.",
        "com.inmobi",
        "com.millennialmedia.",
        "com.mobclix.android.sdk",
        "com.revmob.ads.",
        "org.cocos2dx"
      ],
      "domainNamesFilteredByExodus": [
        ".chartboost.com",
        ".facebook.com",
        ".google.com",
        "doubleclick.net",
        "flurry.com"
      ],
      "metaDataNames": [
        "com.flurry.admob.MY_AD_UNIT_ID",
        "com.revmob.app.id"
      ],
      "sha256": "a7f5f9e05998b75bc9d3c7422fdc3b801469536df344bf313a581bc304097d8a",
      "usesPermissions": [
        "android.permission.ACCESS_COARSE_LOCATION",
        "android.permission.ACCESS_NETWORK_STATE",
        "android.permission.ACCESS_WIFI_STATE",
        "android.permission.INTERNET",
        "android.permission.READ_PHONE_STATE",
        "android.permission.WRITE_EXTERNAL_STORAGE",
        "com.android.vending.BILLING"
      ]
    }
  ],
  "meta": {
    "generated": "2020-08-27T15:05:25.082489",
    "generatedBy": [
      "/home/hc/code/trackingthetrackers/scripts/make-trackers-apk-set.py"
    ],
    "ver": "0.3.0"
  }
}