{
  "apks": [
    {
      "applicationId": "com.SecUpwN.AIMSICD",
      "broadcastReceiverIntentFilterActionNames": [
        "android.intent.action.BOOT_COMPLETED",
        "android.provider.Telephony.SMS_RECEIVED"
      ],
      "dependencies": [],
      "domainNamesFilteredByExodus": [
        ".google.com",
        "a.tiles.mapbox.com"
      ],
      "metaDataNames": [
        "android.support.PARENT_ACTIVITY"
      ],
      "sha256": "879bfe544daade6b1458e066b9f4a0351bdfe186bbe7f6d7aa9004ab7f1132d8",
      "usesPermissions": [
        "android.permission.ACCESS_COARSE_LOCATION",
        "android.permission.ACCESS_COARSE_UPDATES",
        "android.permission.ACCESS_FINE_LOCATION",
        "android.permission.ACCESS_LOCATION_EXTRA_COMMANDS",
        "android.permission.ACCESS_NETWORK_STATE",
        "android.permission.ACCESS_SUPERUSER",
        "android.permission.ACCESS_WIFI_STATE",
        "android.permission.BLUETOOTH_PRIVILEGED",
        "android.permission.CHANGE_NETWORK_STATE",
        "android.permission.CHANGE_WIFI_STATE",
        "android.permission.CONTROL_LOCATION_UPDATES",
        "android.permission.DEVICE_POWER",
        "android.permission.DIAGNOSTIC",
        "android.permission.DUMP",
        "android.permission.FACTORY_TEST",
        "android.permission.HARDWARE_TEST",
        "android.permission.INJECT_EVENTS",
        "android.permission.INTERACT_ACROSS_USERS_FULL",
        "android.permission.INTERNAL_SYSTEM_WINDOW",
        "android.permission.INTERNET",
        "android.permission.KILL_BACKGROUND_PROCESSES",
        "android.permission.LOCATION_HARDWARE",
        "android.permission.MODIFY_PHONE_STATE",
        "android.permission.NFC",
        "android.permission.READ_CONTACTS",
        "android.permission.READ_EXTERNAL_STORAGE",
        "android.permission.READ_LOGS",
        "android.permission.READ_NETWORK_USAGE_HISTORY",
        "android.permission.READ_PHONE_STATE",
        "android.permission.READ_SMS",
        "android.permission.RECEIVE_BOOT_COMPLETED",
        "android.permission.RECEIVE_EMERGENCY_BROADCAST",
        "android.permission.RECEIVE_MMS",
        "android.permission.RECEIVE_SMS",
        "android.permission.RECEIVE_WAP_PUSH",
        "android.permission.SET_PROCESS_LIMIT",
        "android.permission.SYSTEM_ALERT_WINDOW",
        "android.permission.USE_SIP",
        "android.permission.VIBRATE",
        "android.permission.WAKE_LOCK",
        "android.permission.WRITE_APN_SETTINGS",
        "android.permission.WRITE_EXTERNAL_STORAGE",
        "android.permission.WRITE_SECURE_SETTINGS",
        "android.permission.WRITE_SETTINGS",
        "android.phone.receiveDetailedCallState",
        "com.android.permission.HANDOVER_STATUS",
        "com.sec.android.app.cm.permission.PERMISSION_MANAGEMENT",
        "com.sec.android.app.controlpanel.permission.PRIVATE",
        "com.sec.android.app.factorymode.permission.KEYSTRING",
        "com.sec.android.app.phoneutil.permission.KEYSTRING",
        "com.sec.android.app.servicemodeapp.permission.KEYSTRING",
        "com.sec.android.phone.permission.DATA_ROAMING_SETTINGS_ENHANCED",
        "com.sec.android.phone.permission.READ_CALL_SETTINGS",
        "com.sec.android.phone.permission.WRITE_CALL_SETTINGS",
        "com.sec.factory.permission.KEYSTRING",
        "com.sec.modem.settings.permission.KEYSTRING",
        "org.simalliance.openmobileapi.SMARTCARD"
      ]
    }
  ],
  "meta": {
    "generated": "2020-08-27T17:13:40.507599",
    "generatedBy": [
      "/home/hc/code/trackingthetrackers/scripts/make-clean-apk-set.py"
    ],
    "generatedByCommitId": "40519285d6f404593fa655fa89b433743c25289e",
    "sourceDataCommitId": "888bb8f8c77ff55105fcab2ad84c263561eb1169",
    "ver": "0.3.0"
  }
}