{
  "apks": [
    {
      "applicationId": "edu.ycdmhmpypajh.singlegirlsonlinedatingapp",
      "broadcastReceiverIntentFilterActionNames": [],
      "dependencies": [],
      "domainNamesFilteredByExodus": [],
      "metaDataNames": [],
      "sha256": "6cbf9f32ce8523e0deff41990b361626a6630a3b055f14d35aebfeccf0c0b5cc",
      "usesPermissions": [
        "android.permission.INTERNET"
      ]
    }
  ],
  "meta": {
    "generated": "2020-08-27T15:16:26.925945",
    "generatedBy": [
      "/home/hc/code/trackingthetrackers/scripts/make-trackers-apk-set.py"
    ],
    "ver": "0.3.0"
  }
}