{
  "apks": [
    {
      "applicationId": "com.ozitech.labyrinth.vvs",
      "broadcastReceiverIntentFilterActionNames": [
        "android.appwidget.action.APPWIDGET_UPDATE",
        "android.intent.action.ACTION_POWER_CONNECTED",
        "android.intent.action.ACTION_POWER_DISCONNECTED",
        "com.android.vending.INSTALL_REFERRER"
      ],
      "dependencies": [
        "com.google.ads.",
        "com.inmobi",
        "mediba.ad.sdk.android.openx",
        "net$nend$android",
        "net.nend.android",
        "org.cocos2dx"
      ],
      "domainNamesFilteredByExodus": [
        ".facebook.com",
        ".google.com",
        "i.w.inmobi.com",
        "inmobi.com",
        "m.airpush.com",
        "w.inmobi.com"
      ],
      "metaDataNames": [
        "Adlantis_Publisher_ID",
        "NOWIS_AD_PUBLISHER",
        "NOWIS_CHANNEL_ID",
        "NOWIS_GAME_COPY",
        "NOWIS_GAME_ID",
        "NOWIS_MATURITY",
        "NOWIS_SHOW_AD",
        "NOWIS_SHOW_PROMPT",
        "NOWIS_WAIT_TIME",
        "NendDebuggable",
        "airDownloadURL",
        "android.appwidget.provider",
        "android.dock_home",
        "android.service.wallpaper",
        "autoOrients",
        "fullScreen",
        "i-mobile_Publisher_ID",
        "initialcontent",
        "uniqueappversionid"
      ],
      "sha256": "789a37e1f14f8e4047fe4fe9cafd3022cfafed878c7be2dea222afcbe39868b0",
      "usesPermissions": [
        "android.permission.ACCESS_NETWORK_STATE",
        "android.permission.ACCESS_WIFI_STATE",
        "android.permission.GET_TASKS",
        "android.permission.INTERNET",
        "android.permission.READ_PHONE_STATE",
        "android.permission.WAKE_LOCK",
        "android.permission.WRITE_EXTERNAL_STORAGE"
      ]
    }
  ],
  "meta": {
    "generated": "2020-08-27T15:00:37.093037",
    "generatedBy": [
      "/home/hc/code/trackingthetrackers/scripts/make-trackers-apk-set.py"
    ],
    "ver": "0.3.0"
  }
}