{
  "apks": [
    {
      "applicationId": "org.projectmaxs.module.ringermode",
      "broadcastReceiverIntentFilterActionNames": [
        "org.projectmaxs.EXPORT_SETTINGS",
        "org.projectmaxs.IMPORT_SETTINGS",
        "org.projectmaxs.REGISTER"
      ],
      "dependencies": [],
      "domainNamesFilteredByExodus": [],
      "metaDataNames": [],
      "sha256": "a2c93ee64cc4f3415dfc1c6194cc721253a48b53ab46d5784540aa521c092fd5",
      "usesPermissions": [
        "org.projectmaxs.permission.USE_MAIN",
        "org.projectmaxs.permission.USE_MAIN_AS_MODULE"
      ]
    }
  ],
  "meta": {
    "generated": "2020-08-27T18:34:45.059455",
    "generatedBy": [
      "/home/hc/code/trackingthetrackers/scripts/make-clean-apk-set.py"
    ],
    "generatedByCommitId": "3839559c80042252d3b947fb61c86a18e8b31114",
    "sourceDataCommitId": "888bb8f8c77ff55105fcab2ad84c263561eb1169",
    "ver": "0.3.0"
  }
}