{
  "apks": [
    {
      "applicationId": "com.jereksel.libresubstratum",
      "broadcastReceiverIntentFilterActionNames": [],
      "dependencies": [],
      "domainNamesFilteredByExodus": [],
      "metaDataNames": [
        "android.support.VERSION",
        "io.fabric.ApiKey"
      ],
      "sha256": "b56fa79264ab5096a7b4ac37c34e9f93e8c3e99c9cfcf77cc6d2f00f603c02c2",
      "usesPermissions": [
        "android.permission.INTERNET",
        "android.permission.WRITE_EXTERNAL_STORAGE",
        "projekt.interfacer.permission.ACCESS_SERVICE",
        "projekt.interfacer.permission.ACCESS_SERVICE_INNER"
      ]
    }
  ],
  "meta": {
    "generated": "2020-08-27T16:56:18.588024",
    "generatedBy": [
      "/home/hc/code/trackingthetrackers/scripts/make-clean-apk-set.py"
    ],
    "generatedByCommitId": "40519285d6f404593fa655fa89b433743c25289e",
    "sourceDataCommitId": "888bb8f8c77ff55105fcab2ad84c263561eb1169",
    "ver": "0.3.0"
  }
}