{
  "apks": [
    {
      "applicationId": "github.daneren2005.dsub",
      "broadcastReceiverIntentFilterActionNames": [
        "android.appwidget.action.APPWIDGET_UPDATE",
        "android.bluetooth.a2dp.action.SINK_STATE_CHANGED",
        "android.bluetooth.device.action.ACL_CONNECTED",
        "android.bluetooth.device.action.ACL_DISCONNECTED",
        "android.bluetooth.headset.profile.action.CONNECTION_STATE_CHANGED",
        "android.intent.action.MEDIA_BUTTON",
        "android.music.playstatusrequest"
      ],
      "dependencies": [],
      "domainNamesFilteredByExodus": [],
      "metaDataNames": [
        "android.app.default_searchable",
        "android.app.searchable",
        "android.appwidget.provider"
      ],
      "sha256": "0f9cb52b4e1bdf1ca59ac8d05d2dbc7bebdd37019e72d4138df50e655e2c5b33",
      "usesPermissions": [
        "android.permission.ACCESS_NETWORK_STATE",
        "android.permission.BLUETOOTH",
        "android.permission.INTERNET",
        "android.permission.MODIFY_AUDIO_SETTINGS",
        "android.permission.READ_EXTERNAL_STORAGE",
        "android.permission.READ_LOGS",
        "android.permission.READ_PHONE_STATE",
        "android.permission.RECORD_AUDIO",
        "android.permission.WAKE_LOCK",
        "android.permission.WRITE_EXTERNAL_STORAGE"
      ]
    }
  ],
  "meta": {
    "generated": "2020-08-27T18:11:57.182427",
    "generatedBy": [
      "/home/hc/code/trackingthetrackers/scripts/make-clean-apk-set.py"
    ],
    "generatedByCommitId": "3839559c80042252d3b947fb61c86a18e8b31114",
    "sourceDataCommitId": "888bb8f8c77ff55105fcab2ad84c263561eb1169",
    "ver": "0.3.0"
  }
}