{
  "apks": [
    {
      "applicationId": "com.addi",
      "broadcastReceiverIntentFilterActionNames": [],
      "dependencies": [],
      "domainNamesFilteredByExodus": [
        ".google.com"
      ],
      "metaDataNames": [],
      "sha256": "a3962edd3aec854206f131169a6b891b0d13180a33389e2132f9756a4650bb4d",
      "usesPermissions": []
    }
  ],
  "meta": {
    "generated": "2020-08-27T16:52:16.595219",
    "generatedBy": [
      "/home/hc/code/trackingthetrackers/scripts/make-clean-apk-set.py"
    ],
    "generatedByCommitId": "40519285d6f404593fa655fa89b433743c25289e",
    "sourceDataCommitId": "888bb8f8c77ff55105fcab2ad84c263561eb1169",
    "ver": "0.3.0"
  }
}