{
  "apks": [
    {
      "applicationId": "com.minecraftpe.wrjburyb",
      "broadcastReceiverIntentFilterActionNames": [
        "android.app.action.DEVICE_ADMIN_ENABLED",
        "android.net.conn.CONNECTIVITY_CHANGE",
        "com.android.vending.INSTALL_REFERRER"
      ],
      "dependencies": [
        "com.google.ads.",
        "com.google.android.gms.ads.",
        "com.google.android.gms.analytics.",
        "com.google.android.gms.measurement.",
        "com.google.android.gms.tagmanager",
        "com.yandex.metrica."
      ],
      "domainNamesFilteredByExodus": [
        ".facebook.com",
        ".google.com",
        "doubleclick.net",
        "google-analytics.com",
        "startup.mobile.yandex.net",
        "www.googletagmanager.com"
      ],
      "metaDataNames": [
        "android.app.device_admin",
        "com.google.android.gms.version",
        "metrica:api:level"
      ],
      "sha256": "2df85596151af1498d34949d28b6149046ef031d46cc4f32e3cb92c576de9047",
      "usesPermissions": [
        "android.permission.ACCESS_FINE_LOCATION",
        "android.permission.ACCESS_NETWORK_STATE",
        "android.permission.ACCESS_WIFI_STATE",
        "android.permission.INTERNET",
        "android.permission.READ_PHONE_STATE",
        "android.permission.WRITE_EXTERNAL_STORAGE",
        "com.google.android.providers.gsf.permission.READ_GSERVICES"
      ]
    }
  ],
  "meta": {
    "generated": "2020-08-27T15:49:02.437627",
    "generatedBy": [
      "/home/hc/code/trackingthetrackers/scripts/make-trackers-apk-set.py"
    ],
    "ver": "0.3.0"
  }
}