{
  "apks": [
    {
      "applicationId": "de.baumann.weather",
      "broadcastReceiverIntentFilterActionNames": [],
      "dependencies": [],
      "domainNamesFilteredByExodus": [
        ".google.com",
        "ultimedia.com"
      ],
      "metaDataNames": [],
      "sha256": "5944f9d5af6f821e818d047ce405a15d66941adb4c18fa0605bafb9cf6aa7144",
      "usesPermissions": [
        "android.permission.ACCESS_NETWORK_STATE",
        "android.permission.INTERNET",
        "android.permission.WRITE_EXTERNAL_STORAGE",
        "android.permisson.ACCESS_WIFI_STATE"
      ]
    }
  ],
  "meta": {
    "generated": "2020-08-27T17:56:56.394656",
    "generatedBy": [
      "/home/hc/code/trackingthetrackers/scripts/make-clean-apk-set.py"
    ],
    "generatedByCommitId": "3839559c80042252d3b947fb61c86a18e8b31114",
    "sourceDataCommitId": "888bb8f8c77ff55105fcab2ad84c263561eb1169",
    "ver": "0.3.0"
  }
}