{
  "apks": [
    {
      "applicationId": "br.odb.knights",
      "broadcastReceiverIntentFilterActionNames": [],
      "dependencies": [],
      "domainNamesFilteredByExodus": [],
      "metaDataNames": [
        "android.support.PARENT_ACTIVITY"
      ],
      "sha256": "12a4c95ef388f4a178581670b0e338f30e463b6f4049431fb4ff676ccf1b902c",
      "usesPermissions": []
    }
  ],
  "meta": {
    "generated": "2020-08-27T16:51:52.743063",
    "generatedBy": [
      "/home/hc/code/trackingthetrackers/scripts/make-clean-apk-set.py"
    ],
    "generatedByCommitId": "40519285d6f404593fa655fa89b433743c25289e",
    "sourceDataCommitId": "888bb8f8c77ff55105fcab2ad84c263561eb1169",
    "ver": "0.3.0"
  }
}