{
  "apks": [
    {
      "applicationId": "com.hewanim.HightechArchitectureVideo",
      "broadcastReceiverIntentFilterActionNames": [
        "android.intent.action.BOOT_COMPLETED",
        "android.intent.action.QUICKBOOT_POWERON"
      ],
      "dependencies": [
        "com.google.ads.",
        "com.revmob.ads.",
        "com.startapp.android.publish"
      ],
      "domainNamesFilteredByExodus": [
        ".google.com",
        "api.airpush.com",
        "beta.airpush.com",
        "m.airpush.com"
      ],
      "metaDataNames": [
        "android.support.PARENT_ACTIVITY",
        "appwiz_app_id",
        "com.startapp.android.APP_ID",
        "com.startapp.android.DEV_ID",
        "com.uxaass.ymdkdt155654.APIKEY",
        "com.uxaass.ymdkdt155654.APPID"
      ],
      "sha256": "d04a67b602f418a6dbbb5390aa59dda9d2b8a94dfb495f74896ff14ad9ecb757",
      "usesPermissions": [
        "android.permission.ACCESS_COARSE_LOCATION",
        "android.permission.ACCESS_FINE_LOCATION",
        "android.permission.ACCESS_LOCATION_EXTRA_COMMANDS",
        "android.permission.ACCESS_NETWORK_STATE",
        "android.permission.ACCESS_WIFI_STATE",
        "android.permission.GET_ACCOUNTS",
        "android.permission.GET_TASKS",
        "android.permission.INTERNET",
        "android.permission.READ_PHONE_STATE",
        "android.permission.RECEIVE_BOOT_COMPLETED",
        "android.permission.SET_WALLPAPER",
        "android.permission.SYSTEM_ALERT_WINDOW",
        "android.permission.VIBRATE",
        "android.permission.WAKE_LOCK",
        "android.permission.WRITE_EXTERNAL_STORAGE",
        "com.android.browser.permission.READ_HISTORY_BOOKMARKS",
        "com.android.browser.permission.WRITE_HISTORY_BOOKMARKS",
        "com.android.launcher.permission.INSTALL_SHORTCUT",
        "com.android.launcher.permission.READ_SETTINGS",
        "com.android.launcher.permission.UNINSTALL_SHORTCUT",
        "com.fede.launcher.permission.READ_SETTINGS",
        "com.htc.launcher.permission.READ_SETTINGS",
        "com.lge.launcher.permission.INSTALL_SHORTCUT",
        "com.lge.launcher.permission.READ_SETTINGS",
        "com.motorola.dlauncher.permission.INSTALL_SHORTCUT",
        "com.motorola.dlauncher.permission.READ_SETTINGS",
        "com.motorola.launcher.permission.INSTALL_SHORTCUT",
        "com.motorola.launcher.permission.READ_SETTINGS",
        "org.adw.launcher.permission.READ_SETTINGS"
      ]
    }
  ],
  "meta": {
    "generated": "2020-08-27T15:01:27.236458",
    "generatedBy": [
      "/home/hc/code/trackingthetrackers/scripts/make-trackers-apk-set.py"
    ],
    "ver": "0.3.0"
  }
}