{
  "apks": [
    {
      "applicationId": "com.okwei.mobile",
      "broadcastReceiverIntentFilterActionNames": [
        "action.im.check.live",
        "action.okwei.im.mainapp.logout",
        "action_okwei_im_web_login",
        "android.intent.action.ACTION_POWER_CONNECTED",
        "android.intent.action.ACTION_POWER_DISCONNECTED",
        "android.intent.action.ACTION_SHUTDOWN",
        "android.intent.action.BATTERY_CHANGED",
        "android.intent.action.BOOT_COMPLETED",
        "android.intent.action.MEDIA_MOUNTED",
        "android.intent.action.PACKAGE_ADDED",
        "android.intent.action.PACKAGE_REMOVED",
        "android.intent.action.SCREEN_ON",
        "android.intent.action.USER_PRESENT",
        "android.media.RINGER_MODE_CHANGED",
        "android.net.conn.CONNECTIVITY_CHANGE",
        "com.huawei.android.push.PLUGIN",
        "com.huawei.android.push.intent.CLICK",
        "com.huawei.android.push.intent.RECEIVE",
        "com.huawei.android.push.intent.REFRESH_PUSH_CHANNEL",
        "com.huawei.android.push.intent.REGISTER",
        "com.huawei.android.push.intent.REGISTRATION",
        "com.huawei.android.push.plugin.RESPONSE",
        "com.huawei.intent.action.PUSH",
        "com.huawei.intent.action.PUSH_ON",
        "com.huawei.intent.action.PUSH_STATE",
        "com.igexin.sdk.action.7fjUl2Z3LH6xYy7NQK4ni4",
        "com.igexin.sdk.action.pushmanager",
        "com.igexin.sdk.action.q3M7bwdvbJ8aqWdjz2oyT",
        "com.igexin.sdk.action.refreshls",
        "com.okwei.mobile.action.CLOSE_SCAN",
        "com.okwei.mobile.action.PARSE_QRCODE",
        "com.okwei.mobile.action.PARSE_URL",
        "com.okwei.mobile.action.SCAN_QRCODE",
        "com.okwei.mobile.action.im.goto.MyStoreActivity",
        "com.okwei.mobile.action.messageCenter.newChatMessage",
        "com.okwei.xmpp.action.from_other_app_login",
        "com.xiaomi.mipush.ERROR",
        "com.xiaomi.mipush.RECEIVE_MESSAGE",
        "com.xiaomi.push.PING_TIMER"
      ],
      "dependencies": [],
      "domainNamesFilteredByExodus": [
        ".facebook.com"
      ],
      "metaDataNames": [
        "APPKEY",
        "AuthorizeAdapter",
        "CHANNEL",
        "CS_cloud_version",
        "PUSH_APPID",
        "PUSH_APPKEY",
        "PUSH_APPSECRET",
        "PUSH_GROUPID",
        "QZoneWebShareAdapter",
        "TD_APP_ID",
        "TD_CHANNEL_ID",
        "com.crashlytics.ApiKey"
      ],
      "sha256": "6d01d51ac6977ba00da6cc318a29312784c9138788f01812d8b55bf459278409",
      "usesPermissions": [
        "android.permission.ACCESS_COARSE_LOCATION",
        "android.permission.ACCESS_FINE_LOCATION",
        "android.permission.ACCESS_NETWORK_STATE",
        "android.permission.ACCESS_WIFI_STATE",
        "android.permission.BLUETOOTH",
        "android.permission.BLUETOOTH_ADMIN",
        "android.permission.CALL_PHONE",
        "android.permission.CAMERA",
        "android.permission.CHANGE_WIFI_STATE",
        "android.permission.FLASHLIGHT",
        "android.permission.GET_ACCOUNTS",
        "android.permission.GET_TASKS",
        "android.permission.INTERNET",
        "android.permission.MANAGE_ACCOUNTS",
        "android.permission.MODIFY_AUDIO_SETTINGS",
        "android.permission.MOUNT_UNMOUNT_FILESYSTEMS",
        "android.permission.READ_CONTACTS",
        "android.permission.READ_EXTERNAL_STORAGE",
        "android.permission.READ_LOGS",
        "android.permission.READ_PHONE_STATE",
        "android.permission.READ_SMS",
        "android.permission.RECEIVE_BOOT_COMPLETED",
        "android.permission.RECORD_AUDIO",
        "android.permission.REORDER_TASKS",
        "android.permission.RESTART_PACKAGES",
        "android.permission.SEND_SMS",
        "android.permission.SYSTEM_ALERT_WINDOW",
        "android.permission.VIBRATE",
        "android.permission.WAKE_LOCK",
        "android.permission.WRITE_EXTERNAL_STORAGE",
        "android.permission.WRITE_SETTINGS",
        "com.android.launcher.permission.INSTALL_SHORTCUT",
        "getui.permission.GetuiService.com.okwei.mobile"
      ]
    }
  ],
  "meta": {
    "generated": "2020-08-27T15:36:21.756087",
    "generatedBy": [
      "/home/hc/code/trackingthetrackers/scripts/make-trackers-apk-set.py"
    ],
    "ver": "0.3.0"
  }
}