{
  "apks": [
    {
      "applicationId": "org.xphnx.ameixamonochrome",
      "broadcastReceiverIntentFilterActionNames": [],
      "dependencies": [],
      "domainNamesFilteredByExodus": [],
      "metaDataNames": [],
      "sha256": "401da0f98aacba476b947140729a6a22ddcf735541eb28a23771e7fe3f2e5611",
      "usesPermissions": []
    }
  ],
  "meta": {
    "generated": "2020-08-27T18:42:05.698344",
    "generatedBy": [
      "/home/hc/code/trackingthetrackers/scripts/make-clean-apk-set.py"
    ],
    "generatedByCommitId": "3839559c80042252d3b947fb61c86a18e8b31114",
    "sourceDataCommitId": "888bb8f8c77ff55105fcab2ad84c263561eb1169",
    "ver": "0.3.0"
  }
}