{
  "apks": [
    {
      "applicationId": "com.wjb.srv",
      "broadcastReceiverIntentFilterActionNames": [
        "android.intent.action.PACKAGE_ADDED",
        "android.intent.action.PACKAGE_REMOVED",
        "android.intent.action.USER_PRESENT",
        "android.net.conn.CONNECTIVITY_CHANGE"
      ],
      "dependencies": [
        "com.umeng.analytics"
      ],
      "domainNamesFilteredByExodus": [
        "alog.umeng.com",
        "oc.umeng.com",
        "umeng.com"
      ],
      "metaDataNames": [
        "UMENG_APPKEY",
        "UMENG_CHANNEL",
        "cEnd",
        "cStart",
        "com.wjb.srv",
        "idp"
      ],
      "sha256": "186ed20b61d6b4627f03e6ed6ecf07b5b9b3f604651771d710552d1748752e53",
      "usesPermissions": [
        "android.permission.ACCESS_COARSE_LOCATION",
        "android.permission.ACCESS_NETWORK_STATE",
        "android.permission.ACCESS_NETWORK_STATE",
        "android.permission.ACCESS_WIFI_STATE",
        "android.permission.ACCESS_WIFI_STATE",
        "android.permission.EXPAND_STATUS_BAR",
        "android.permission.GET_PACKAGE_SIZE",
        "android.permission.GET_TASKS",
        "android.permission.GET_TASKS",
        "android.permission.INTERNET",
        "android.permission.INTERNET",
        "android.permission.KILL_BACKGROUND_PROCESSES",
        "android.permission.MODIFY_AUDIO_SETTINGS",
        "android.permission.MOUNT_UNMOUNT_FILESYSTEMS",
        "android.permission.READ_PHONE_STATE",
        "android.permission.RESTART_PACKAGES",
        "android.permission.SET_WALLPAPER",
        "android.permission.SYSTEM_ALERT_WINDOW",
        "android.permission.SYSTEM_OVERLAY_WINDOW",
        "android.permission.VIBRATE",
        "android.permission.WAKE_LOCK",
        "android.permission.WRITE_EXTERNAL_STORAGE",
        "android.permission.WRITE_EXTERNAL_STORAGE",
        "com.android.launcher.permission.INSTALL_SHORTCUT",
        "com.fteam.openmaster.broadcast"
      ]
    }
  ],
  "meta": {
    "generated": "2020-08-27T15:32:56.156472",
    "generatedBy": [
      "/home/hc/code/trackingthetrackers/scripts/make-trackers-apk-set.py"
    ],
    "ver": "0.3.0"
  }
}