{
  "apks": [
    {
      "applicationId": "com.chaoliu.ngbz",
      "broadcastReceiverIntentFilterActionNames": [],
      "dependencies": [
        "net.youmi",
        "net_youmi"
      ],
      "domainNamesFilteredByExodus": [],
      "metaDataNames": [],
      "sha256": "0f54f40f205d60857864bd0c67fa435d352b0cea7ccdad5b7c34946bcabad00a",
      "usesPermissions": [
        "android.permission.ACCESS_NETWORK_STATE",
        "android.permission.INTERNET",
        "android.permission.READ_PHONE_STATE",
        "android.permission.SET_WALLPAPER",
        "android.permission.WRITE_EXTERNAL_STORAGE"
      ]
    }
  ],
  "meta": {
    "generated": "2020-08-27T15:04:23.467415",
    "generatedBy": [
      "/home/hc/code/trackingthetrackers/scripts/make-trackers-apk-set.py"
    ],
    "ver": "0.3.0"
  }
}