{
  "apks": [
    {
      "applicationId": "mobile.com.supercell.clashofclans",
      "broadcastReceiverIntentFilterActionNames": [
        "android.intent.action.BOOT_COMPLETED",
        "com.android.vending.INSTALL_REFERRER",
        "com.google.android.c2dm.intent.RECEIVE",
        "com.google.android.c2dm.intent.REGISTRATION",
        "mobile.com.supercell.clashofclans.NOTIFICATION_EXPIRED",
        "mobile.com.supercell.clashofclans.PUSHIOPUSH"
      ],
      "dependencies": [
        "com$millennialmedia$",
        "com$startapp$android$publish",
        "com.flurry.",
        "com.google.ads.",
        "com.inmobi",
        "com.kochava.android.tracker.",
        "com.millennialmedia.",
        "com.mobclix.android.sdk",
        "com.revmob.ads.",
        "com.startapp.android.publish"
      ],
      "domainNamesFilteredByExodus": [
        ".google.com",
        "api.airpush.com",
        "control.kochava.com",
        "flurry.com",
        "millennialmedia.com",
        "www.supersonicads.com"
      ],
      "metaDataNames": [
        "com.adeco.adsdk.BANNER_AFF",
        "com.adeco.adsdk.BANNER_APP",
        "com.adeco.adsdk.BANNER_PLACEMENT",
        "com.adeco.adsdk.BANNER_PUB",
        "com.adeco.adsdk.FULLSCREEN_AFF",
        "com.adeco.adsdk.FULLSCREEN_APP",
        "com.adeco.adsdk.FULLSCREEN_PLACEMENT",
        "com.adeco.adsdk.FULLSCREEN_PUB",
        "com.adeco.analytics.FLURRY_KEY",
        "com.adeco.analytics.KOCHAVA_KEY",
        "com.rfvy.xwci111157.APIKEY",
        "com.rfvy.xwci111157.APPID",
        "com.startapp.android.APP_ID",
        "com.startapp.android.DEV_ID"
      ],
      "sha256": "e0017c49d83d782ea121b459a38b83b3d66d90bf11626182e0ae5eb4b1a2932f",
      "usesPermissions": [
        "android.permission.ACCESS_COARSE_LOCATION",
        "android.permission.ACCESS_FINE_LOCATION",
        "android.permission.ACCESS_LOCATION_EXTRA_COMMANDS",
        "android.permission.ACCESS_LOCATION_EXTRA_COMMANDS",
        "android.permission.ACCESS_NETWORK_STATE",
        "android.permission.ACCESS_WIFI_STATE",
        "android.permission.GET_ACCOUNTS",
        "android.permission.GET_TASKS",
        "android.permission.INTERNET",
        "android.permission.READ_EXTERNAL_STORAGE",
        "android.permission.READ_PHONE_STATE",
        "android.permission.RECEIVE_BOOT_COMPLETED",
        "android.permission.SYSTEM_ALERT_WINDOW",
        "android.permission.WAKE_LOCK",
        "android.permission.WRITE_EXTERNAL_STORAGE",
        "com.google.android.c2dm.permission.RECEIVE",
        "mobile.com.supercell.clashofclans.permission.C2D_MESSAGE"
      ]
    }
  ],
  "meta": {
    "generated": "2020-08-27T14:49:31.202097",
    "generatedBy": [
      "/home/hc/code/trackingthetrackers/scripts/make-trackers-apk-set.py"
    ],
    "ver": "0.3.0"
  }
}