{
  "apks": [
    {
      "applicationId": "pl.kuben.progressapp",
      "broadcastReceiverIntentFilterActionNames": [],
      "dependencies": [],
      "domainNamesFilteredByExodus": [],
      "metaDataNames": [],
      "sha256": "7c4eeecff15927eec73c54d6e49ad9b3064c11eb9cbba1e7d8ec80268f51945a",
      "usesPermissions": []
    }
  ],
  "meta": {
    "generated": "2020-08-27T18:42:33.734835",
    "generatedBy": [
      "/home/hc/code/trackingthetrackers/scripts/make-clean-apk-set.py"
    ],
    "generatedByCommitId": "3839559c80042252d3b947fb61c86a18e8b31114",
    "sourceDataCommitId": "888bb8f8c77ff55105fcab2ad84c263561eb1169",
    "ver": "0.3.0"
  }
}