{
  "apks": [
    {
      "applicationId": "com.pingan.pinganwifi",
      "broadcastReceiverIntentFilterActionNames": [
        "android.intent.action.ACTION_POWER_CONNECTED",
        "android.intent.action.ACTION_POWER_DISCONNECTED",
        "android.intent.action.ACTION_SHUTDOWN",
        "android.intent.action.BOOT_COMPLETED",
        "android.intent.action.CMD",
        "android.intent.action.MEDIA_MOUNTED",
        "android.intent.action.PACKAGE_ADDED",
        "android.intent.action.PACKAGE_REMOVED",
        "android.intent.action.USER_PRESENT",
        "android.mpushservice.action.media.CLICK",
        "android.mpushservice.action.media.MESSAGE",
        "android.mpushservice.action.notification.SHOW",
        "android.net.conn.CONNECTIVITY_CHANGE",
        "android.net.wifi.STATE_CHANGE",
        "android.net.wifi.WIFI_STATE_CHANGED",
        "com.igexin.sdk.action.5UZ0faw3AH9EjIhVIfqy29",
        "com.igexin.sdk.action.7fjUl2Z3LH6xYy7NQK4ni4",
        "com.igexin.sdk.action.pushmanager",
        "com.igexin.sdk.action.refreshls",
        "com.pawf.ssapi.MYVPNSTOPED",
        "com.pawf.ssapi.action_vpn_remoteerr",
        "com.pawf.ssapi.myvpn",
        "com.pingan.pinganwifi.notify.action"
      ],
      "dependencies": [
        "com.tendcloud.tenddata."
      ],
      "domainNamesFilteredByExodus": [
        ".google.com"
      ],
      "metaDataNames": [
        "MPUSH_APPID",
        "MPUSH_CHANNEL",
        "MPUSH_GATEWAY",
        "PUSH_APPID",
        "PUSH_APPKEY",
        "PUSH_APPSECRET",
        "TD_APP_ID",
        "TD_CHANNEL_ID",
        "android.support.PARENT_ACTIVITY",
        "com.amap.api.v2.apikey",
        "com.baidu.lbsapi.API_KEY"
      ],
      "sha256": "b6d9af14a2370d75a7fb726b53ec19a75f31e88520336cccb48654fd0aa629e9",
      "usesPermissions": [
        "android.permission.ACCESS_COARSE_LOCATION",
        "android.permission.ACCESS_FINE_LOCATION",
        "android.permission.ACCESS_LOCATION_EXTRA_COMMANDS",
        "android.permission.ACCESS_NETWORK_STATE",
        "android.permission.ACCESS_WIFI_STATE",
        "android.permission.BLUETOOTH",
        "android.permission.BLUETOOTH_ADMIN",
        "android.permission.BROADCAST_STICKY",
        "android.permission.CALL_PHONE",
        "android.permission.CHANGE_NETWORK_STATE",
        "android.permission.CHANGE_WIFI_STATE",
        "android.permission.DOWNLOAD_WITHOUT_NOTIFICATION",
        "android.permission.EXPAND_STATUS_BAR",
        "android.permission.GET_TASKS",
        "android.permission.INTERNET",
        "android.permission.MOUNT_UNMOUNT_FILESYSTEMS",
        "android.permission.READ_EXTERNAL_STORAGE",
        "android.permission.READ_LOGS",
        "android.permission.READ_PHONE_STATE",
        "android.permission.READ_SMS",
        "android.permission.RECEIVE_BOOT_COMPLETED",
        "android.permission.RECEIVE_USER_PRESENT",
        "android.permission.SEND_SMS",
        "android.permission.SYSTEM_ALERT_WINDOW",
        "android.permission.VIBRATE",
        "android.permission.WAKE_LOCK",
        "android.permission.WRITE_EXTERNAL_STORAGE",
        "android.permission.WRITE_SETTINGS",
        "com.pingan.pinganwifi.permission.JPUSH_MESSAGE",
        "com.pingan.pinganwifi.permission.MIPUSH_RECEIVE",
        "getui.permission.GetuiService."
      ]
    }
  ],
  "meta": {
    "generated": "2020-08-27T15:32:03.257765",
    "generatedBy": [
      "/home/hc/code/trackingthetrackers/scripts/make-trackers-apk-set.py"
    ],
    "ver": "0.3.0"
  }
}