{
  "apks": [
    {
      "applicationId": "com.calendar.UI",
      "broadcastReceiverIntentFilterActionNames": [
        "android.appwidget.action.APPWIDGET_UPDATE",
        "android.intent.action.BOOT_COMPLETED",
        "android.intent.action.DATE_CHANGED",
        "android.intent.action.TIMEZONE_CHANGED",
        "android.intent.action.TIME_SET",
        "android.intent.action.USER_PRESENT",
        "android.net.conn.CONNECTIVITY_CHANGE",
        "com.calendar.service.holidays",
        "com.nd.android.pandahome.THEME_INFO",
        "nd.pandahome.external.request.skin.apply",
        "nd.pandahome.external.response.theme.apt.install",
        "nd.pandahome.request.theme.delete.downlog",
        "nd.pandahome.theme.THEME_91CALENDAR_IMPORT",
        "nd.pandahome.weather.request"
      ],
      "dependencies": [
        "com.baidu.location",
        "com.flurry."
      ],
      "domainNamesFilteredByExodus": [
        "flurry.com",
        "map.baidu.com"
      ],
      "metaDataNames": [
        "91SMARTUPDATE_CHANNEL",
        "NDPROMOT_APPKEY",
        "android.appwidget.provider"
      ],
      "sha256": "847e63230fc27195602cd75a5b07102491928e5c684f27bcd21222baf714124a",
      "usesPermissions": [
        "android.permission.ACCESS_COARSE_LOCATION",
        "android.permission.ACCESS_FINE_LOCATION",
        "android.permission.ACCESS_NETWORK_STATE",
        "android.permission.ACCESS_WIFI_STATE",
        "android.permission.BAIDU_LOCATION_SERVICE",
        "android.permission.CHANGE_WIFI_STATE",
        "android.permission.GET_TASKS",
        "android.permission.INTERNET",
        "android.permission.MOUNT_UNMOUNT_FILESYSTEMS",
        "android.permission.READ_CONTACTS",
        "android.permission.READ_LOGS",
        "android.permission.READ_PHONE_STATE",
        "android.permission.RECEIVE_BOOT_COMPLETED",
        "android.permission.RECEIVE_USER_PRESENT",
        "android.permission.SYSTEM_ALERT_WINDOW",
        "android.permission.UPDATE_APP_OPS_STATS",
        "android.permission.VIBRATE",
        "android.permission.WAKE_LOCK",
        "android.permission.WRITE_EXTERNAL_STORAGE",
        "android.permission.WRITE_SETTINGS",
        "com.android.alarm.permission.SET_ALARM",
        "com.android.launcher.permission.INSTALL_SHORTCUT",
        "com.android.launcher.permission.READ_SETTINGS"
      ]
    }
  ],
  "meta": {
    "generated": "2020-08-27T15:17:32.770068",
    "generatedBy": [
      "/home/hc/code/trackingthetrackers/scripts/make-trackers-apk-set.py"
    ],
    "ver": "0.3.0"
  }
}