{
  "apks": [
    {
      "applicationId": "net.chilon.matt.teacup",
      "broadcastReceiverIntentFilterActionNames": [
        "android.appwidget.action.APPWIDGET_UPDATE",
        "android.intent.action.BOOT_COMPLETED",
        "net.chilon.matt.teacup.TeaCup.BTN_ALBUM_ART",
        "net.chilon.matt.teacup.TeaCup.BTN_JUMP_NEXT",
        "net.chilon.matt.teacup.TeaCup.BTN_JUMP_PREV",
        "net.chilon.matt.teacup.TeaCup.BTN_PLAY_PAUSE"
      ],
      "dependencies": [],
      "domainNamesFilteredByExodus": [],
      "metaDataNames": [
        "android.appwidget.provider"
      ],
      "sha256": "f0c274c3d3e3e01f8e42dbf53206b96209281f7835e7be438396059fa94c8db0",
      "usesPermissions": [
        "android.permission.ACCESS_NETWORK_STATE",
        "android.permission.INTERNET",
        "android.permission.RECEIVE_BOOT_COMPLETED",
        "android.permission.WRITE_EXTERNAL_STORAGE"
      ]
    }
  ],
  "meta": {
    "generated": "2020-08-27T18:16:48.157590",
    "generatedBy": [
      "/home/hc/code/trackingthetrackers/scripts/make-clean-apk-set.py"
    ],
    "generatedByCommitId": "3839559c80042252d3b947fb61c86a18e8b31114",
    "sourceDataCommitId": "888bb8f8c77ff55105fcab2ad84c263561eb1169",
    "ver": "0.3.0"
  }
}