{
  "apks": [
    {
      "applicationId": "it.niedermann.owncloud.notes",
      "broadcastReceiverIntentFilterActionNames": [],
      "dependencies": [],
      "domainNamesFilteredByExodus": [],
      "metaDataNames": [],
      "sha256": "9f4a185e861854aa1158c24e494c8baa147925f3d1b994b4c119e11673e5f63c",
      "usesPermissions": [
        "android.permission.ACCESS_NETWORK_STATE",
        "android.permission.INTERNET",
        "android.permission.USE_CREDENTIALS"
      ]
    }
  ],
  "meta": {
    "generated": "2020-08-27T18:14:34.184622",
    "generatedBy": [
      "/home/hc/code/trackingthetrackers/scripts/make-clean-apk-set.py"
    ],
    "generatedByCommitId": "3839559c80042252d3b947fb61c86a18e8b31114",
    "sourceDataCommitId": "888bb8f8c77ff55105fcab2ad84c263561eb1169",
    "ver": "0.3.0"
  }
}