{
  "apks": [
    {
      "applicationId": "com.roguetemple.hyperroid",
      "broadcastReceiverIntentFilterActionNames": [],
      "dependencies": [],
      "domainNamesFilteredByExodus": [],
      "metaDataNames": [],
      "sha256": "1e6ea989517956dea9e1dc6bce11162502e05ca12543c44ad94c2653e6d7643f",
      "usesPermissions": []
    }
  ],
  "meta": {
    "generated": "2020-08-27T17:00:33.943024",
    "generatedBy": [
      "/home/hc/code/trackingthetrackers/scripts/make-clean-apk-set.py"
    ],
    "generatedByCommitId": "40519285d6f404593fa655fa89b433743c25289e",
    "sourceDataCommitId": "888bb8f8c77ff55105fcab2ad84c263561eb1169",
    "ver": "0.3.0"
  }
}