{
  "apks": [
    {
      "applicationId": "org.ligi.fast",
      "broadcastReceiverIntentFilterActionNames": [
        "android.intent.action.PACKAGE_ADDED",
        "android.intent.action.PACKAGE_CHANGED",
        "android.intent.action.PACKAGE_FULLY_REMOVED",
        "android.intent.action.PACKAGE_INSTALL",
        "android.intent.action.PACKAGE_REMOVED",
        "android.intent.action.PACKAGE_REPLACED"
      ],
      "dependencies": [],
      "domainNamesFilteredByExodus": [
        ".google.com"
      ],
      "metaDataNames": [
        "com.android.systemui.action_assist_icon"
      ],
      "sha256": "abc0c351167953c1c0a23c0dd06ab9fbd6e7fb8f936a7ab0cba7ba5d98a0cfa9",
      "usesPermissions": []
    }
  ],
  "meta": {
    "generated": "2020-08-27T18:29:59.070254",
    "generatedBy": [
      "/home/hc/code/trackingthetrackers/scripts/make-clean-apk-set.py"
    ],
    "generatedByCommitId": "3839559c80042252d3b947fb61c86a18e8b31114",
    "sourceDataCommitId": "888bb8f8c77ff55105fcab2ad84c263561eb1169",
    "ver": "0.3.0"
  }
}