{
  "apks": [
    {
      "applicationId": "com.eroticsite.story",
      "broadcastReceiverIntentFilterActionNames": [
        "android.intent.action.BOOT_COMPLETED"
      ],
      "dependencies": [
        "com.apsalar.sdk.",
        "com.pollfish"
      ],
      "domainNamesFilteredByExodus": [
        "api.airpush.com",
        "beta.airpush.com",
        "e.apsalar.com",
        "m.airpush.com"
      ],
      "metaDataNames": [
        "com.isnlrxkmu.bznxflzii102519.APIKEY",
        "com.isnlrxkmu.bznxflzii102519.APPID",
        "com.tapcontext.DEVELOPERKEY"
      ],
      "sha256": "e70dc49f1cfe04f91f967e0be750fdfaefe1e07e165d49af6b9a05247b93153d",
      "usesPermissions": [
        "android.permission.ACCESS_CHECKIN_PROPERTIES",
        "android.permission.ACCESS_COARSE_LOCATION",
        "android.permission.ACCESS_FINE_LOCATION",
        "android.permission.ACCESS_NETWORK_STATE",
        "android.permission.ACCESS_WIFI_STATE",
        "android.permission.GET_ACCOUNTS",
        "android.permission.INTERNET",
        "android.permission.READ_PHONE_STATE",
        "android.permission.RECEIVE_BOOT_COMPLETED",
        "android.permission.VIBRATE",
        "android.permission.WAKE_LOCK",
        "android.permission.WRITE_EXTERNAL_STORAGE",
        "com.android.browser.permission.READ_HISTORY_BOOKMARKS",
        "com.android.launcher.permission.INSTALL_SHORTCUT"
      ]
    }
  ],
  "meta": {
    "generated": "2020-08-27T15:01:34.152391",
    "generatedBy": [
      "/home/hc/code/trackingthetrackers/scripts/make-trackers-apk-set.py"
    ],
    "ver": "0.3.0"
  }
}