{
  "apks": [
    {
      "applicationId": "org.epstudios.epmobile",
      "broadcastReceiverIntentFilterActionNames": [],
      "dependencies": [],
      "domainNamesFilteredByExodus": [],
      "metaDataNames": [],
      "sha256": "4a240659373da19a198a9c69058d1f56068b9378e8bffae048b960664a06d0e0",
      "usesPermissions": []
    }
  ],
  "meta": {
    "generated": "2020-08-27T18:24:56.320813",
    "generatedBy": [
      "/home/hc/code/trackingthetrackers/scripts/make-clean-apk-set.py"
    ],
    "generatedByCommitId": "3839559c80042252d3b947fb61c86a18e8b31114",
    "sourceDataCommitId": "888bb8f8c77ff55105fcab2ad84c263561eb1169",
    "ver": "0.3.0"
  }
}