{
  "apks": [
    {
      "applicationId": "com.mobi.screensaver.fzlstiphone2",
      "broadcastReceiverIntentFilterActionNames": [
        "android.intent.action.ACTION_CLOSE_SYSTEM_DIALOGS",
        "android.intent.action.NEW_OUTGOING_CALL",
        "android.intent.action.PHONE_STATE",
        "android.intent.action.SCREEN_OFF",
        "android.intent.action.SCREEN_ON",
        "android.intent.action.USER_PRESENT"
      ],
      "dependencies": [],
      "domainNamesFilteredByExodus": [
        "umeng.com"
      ],
      "metaDataNames": [
        "Mobi_ID",
        "Mobi_PID"
      ],
      "sha256": "90de18089b2270c8e38e8f23ea803043d2a1a0175ed41ef4d2d5039c447e6318",
      "usesPermissions": [
        "android.permission.ACCESS_NETWORK_STATE",
        "android.permission.ACCESS_WIFI_STATE",
        "android.permission.DEVICE_POWER",
        "android.permission.DISABLE_KEYGUARD",
        "android.permission.GET_TASKS",
        "android.permission.INTERNAL_SYSTEM_WINDOW",
        "android.permission.INTERNET",
        "android.permission.MOUNT_UNMOUNT_FILESYSTEMS",
        "android.permission.PROCESS_OUTGOING_CALLS",
        "android.permission.READ_PHONE_STATE",
        "android.permission.SYSTEM_ALERT_WINDOW",
        "android.permission.VIBRATE",
        "android.permission.WRITE_EXTERNAL_STORAGE"
      ]
    }
  ],
  "meta": {
    "generated": "2020-08-27T15:15:06.665877",
    "generatedBy": [
      "/home/hc/code/trackingthetrackers/scripts/make-trackers-apk-set.py"
    ],
    "ver": "0.3.0"
  }
}