{
  "apks": [
    {
      "applicationId": "com.sungame.iiipkes",
      "broadcastReceiverIntentFilterActionNames": [
        "android.intent.action.BOOT_COMPLETED",
        "android.intent.action.DOWNLOAD_COMPLETE",
        "android.intent.action.DOWNLOAD_NOTIFICATION_CLICKED",
        "android.intent.action.EXTERNAL_APPLICATIONS_AVAILABLE",
        "android.intent.action.PACKAGE_ADDED",
        "android.intent.action.USER_PRESENT",
        "android.net.conn.CONNECTIVITY_CHANGE",
        "com.example.easynotification.DAILY_NOTIFICATION"
      ],
      "dependencies": [
        "com.baidu.appx",
        "com.google.ads.",
        "com.google.android.gms.ads.",
        "com.google.android.gms.analytics.",
        "com.google.android.gms.tagmanager",
        "com.inmobi",
        "com.umeng.analytics",
        "org.cocos2dx"
      ],
      "domainNamesFilteredByExodus": [
        ".facebook.com",
        ".google.com",
        "adcolony.com",
        "alog.umeng.com",
        "androidads20.adcolony.com",
        "doubleclick.net",
        "google-analytics.com",
        "i.w.inmobi.com",
        "inmobi.com",
        "inmobisdk-a.akamaihd.net",
        "oc.umeng.com",
        "sdkm.w.inmobi.com",
        "umeng.com",
        "www.googletagmanager.com"
      ],
      "metaDataNames": [
        "UMENG_APPKEY",
        "UMENG_CHANNEL",
        "cEnd",
        "cStart",
        "com.google.android.gms.version",
        "idp"
      ],
      "sha256": "4760756442c70013f4a64892ef377b2d2c2edcfc1ce8f392ef85b8a4ec231a04",
      "usesPermissions": [
        "android.permission.ACCESS_NETWORK_STATE",
        "android.permission.ACCESS_NETWORK_STATE",
        "android.permission.ACCESS_NETWORK_STATE",
        "android.permission.ACCESS_WIFI_STATE",
        "android.permission.ACCESS_WIFI_STATE",
        "android.permission.CAMERA",
        "android.permission.GET_TASKS",
        "android.permission.GET_TASKS",
        "android.permission.INTERNET",
        "android.permission.INTERNET",
        "android.permission.INTERNET",
        "android.permission.KILL_BACKGROUND_PROCESSES",
        "android.permission.MOUNT_UNMOUNT_FILESYSTEMS",
        "android.permission.READ_PHONE_STATE",
        "android.permission.READ_PHONE_STATE",
        "android.permission.SYSTEM_ALERT_WINDOW",
        "android.permission.WRITE_EXTERNAL_STORAGE",
        "android.permission.WRITE_EXTERNAL_STORAGE",
        "android.permission.WRITE_EXTERNAL_STORAGE",
        "android.permission.WRITE_SETTINGS",
        "com.android.launcher.permission.INSTALL_SHORTCUT"
      ]
    }
  ],
  "meta": {
    "generated": "2020-08-27T14:59:43.242900",
    "generatedBy": [
      "/home/hc/code/trackingthetrackers/scripts/make-trackers-apk-set.py"
    ],
    "ver": "0.3.0"
  }
}