{
  "apks": [
    {
      "applicationId": "net.ipr.classicwedding",
      "broadcastReceiverIntentFilterActionNames": [
        "android.intent.action.DOWNLOAD_COMPLETE",
        "android.intent.action.DOWNLOAD_NOTIFICATION_CLICKED",
        "android.intent.action.PACKAGE_ADDED"
      ],
      "dependencies": [
        "com$amazon$device$ads",
        "com$mopub$mobileads$",
        "com.amazon.device.ads",
        "com.baidu.appx",
        "com.chartboost.sdk.",
        "com.flurry.",
        "com.google.ads.",
        "com.google.android.gms.ads.",
        "com.google.android.gms.analytics.",
        "com.google.android.gms.tagmanager",
        "com.inmobi",
        "com.mopub.mobileads.",
        "org.cocos2dx"
      ],
      "domainNamesFilteredByExodus": [
        ".chartboost.com",
        ".facebook.com",
        ".google.com",
        "doubleclick.net",
        "flurry.com",
        "google-analytics.com",
        "i.w.inmobi.com",
        "inmobi.com",
        "inmobi.net",
        "inmobisdk-a.akamaihd.net",
        "mopub.com",
        "sdkm.w.inmobi.com",
        "www.googletagmanager.com"
      ],
      "metaDataNames": [
        "BDAPPUNIONSDK_APIKEY",
        "Bundle_Id",
        "Flurry_Key",
        "MoPub_banner_position",
        "MoPub_phone_banner",
        "MoPub_phone_crosspromo",
        "MoPub_phone_fullscreen",
        "MoPub_tablet_banner",
        "MoPub_tablet_crosspromo",
        "MoPub_tablet_fullscreen",
        "appXbid",
        "appXbkey",
        "appXsid",
        "appXskey",
        "com.google.android.gms.version",
        "dir",
        "dirx",
        "js"
      ],
      "sha256": "37b83a9bb55486f7ed966781a321ffa607e571b594f6f1eb4251fc64df167607",
      "usesPermissions": [
        "android.permission.ACCESS_COARSE_LOCATION",
        "android.permission.ACCESS_NETWORK_STATE",
        "android.permission.ACCESS_NETWORK_STATE",
        "android.permission.ACCESS_NETWORK_STATE",
        "android.permission.ACCESS_NETWORK_STATE",
        "android.permission.ACCESS_WIFI_STATE",
        "android.permission.ACCESS_WIFI_STATE",
        "android.permission.ACCESS_WIFI_STATE",
        "android.permission.ACCESS_WIFI_STATE",
        "android.permission.GET_PACKAGE_SIZE",
        "android.permission.GET_PACKAGE_SIZE",
        "android.permission.GET_TASKS",
        "android.permission.GET_TASKS",
        "android.permission.GET_TASKS",
        "android.permission.INTERNET",
        "android.permission.INTERNET",
        "android.permission.INTERNET",
        "android.permission.INTERNET",
        "android.permission.READ_PHONE_STATE",
        "android.permission.READ_PHONE_STATE",
        "android.permission.READ_PHONE_STATE",
        "android.permission.SYSTEM_ALERT_WINDOW",
        "android.permission.WAKE_LOCK",
        "android.permission.WRITE_EXTERNAL_STORAGE",
        "android.permission.WRITE_EXTERNAL_STORAGE",
        "android.permission.WRITE_EXTERNAL_STORAGE",
        "android.permission.WRITE_EXTERNAL_STORAGE",
        "android.permission.WRITE_SETTINGS",
        "android.permission.WRITE_SETTINGS"
      ]
    }
  ],
  "meta": {
    "generated": "2020-08-27T14:50:30.332830",
    "generatedBy": [
      "/home/hc/code/trackingthetrackers/scripts/make-trackers-apk-set.py"
    ],
    "ver": "0.3.0"
  }
}