{
  "apks": [
    {
      "applicationId": "nitezh.ministock",
      "broadcastReceiverIntentFilterActionNames": [
        "android.appwidget.action.APPWIDGET_UPDATE",
        "nitezh.ministock.ALARM_UPDATE",
        "nitezh.ministock.ASYNC_UPDATE",
        "nitezh.ministocks.ALARM_UPDATE"
      ],
      "dependencies": [],
      "domainNamesFilteredByExodus": [
        ".google.com"
      ],
      "metaDataNames": [
        "android.app.searchable",
        "android.appwidget.provider"
      ],
      "sha256": "8f3fc6d6d235ea738c381402f5c710f9fb950630ce802dee15b0bf65b1d88fe7",
      "usesPermissions": [
        "android.permission.INTERNET"
      ]
    }
  ],
  "meta": {
    "generated": "2020-08-27T17:04:44.187386",
    "generatedBy": [
      "/home/hc/code/trackingthetrackers/scripts/make-clean-apk-set.py"
    ],
    "generatedByCommitId": "40519285d6f404593fa655fa89b433743c25289e",
    "sourceDataCommitId": "888bb8f8c77ff55105fcab2ad84c263561eb1169",
    "ver": "0.3.0"
  }
}