{
  "apks": [
    {
      "applicationId": "com.sinyee.babybus.fruitmatch",
      "broadcastReceiverIntentFilterActionNames": [
        "android.intent.action.PACKAGE_ADDED"
      ],
      "dependencies": [
        "com.baidu.mobads",
        "com.google.ads.",
        "com.inmobi",
        "com.mdotm.android",
        "com.millennialmedia.",
        "com.tendcloud.tenddata.",
        "com.umeng.analytics",
        "com.umeng.fb",
        "net.youmi"
      ],
      "domainNamesFilteredByExodus": [
        ".google.com",
        "alog.umeng.com",
        "i.w.inmobi.com",
        "inmobi.com",
        "oc.umeng.com",
        "umeng.com",
        "w.inmobi.com"
      ],
      "metaDataNames": [
        "TD_APP_ID",
        "UMENG_APPKEY"
      ],
      "sha256": "ab7a1cab22a0fc9dbaedafda34ed2121ac9a112de50c407d692dad3b168a5272",
      "usesPermissions": [
        "android.permission.ACCESS_COARSE_LOCATION",
        "android.permission.ACCESS_FINE_LOCATION",
        "android.permission.ACCESS_NETWORK_STATE",
        "android.permission.ACCESS_NETWORK_STATE",
        "android.permission.ACCESS_WIFI_STATE",
        "android.permission.GET_TASKS",
        "android.permission.INTERNET",
        "android.permission.READ_LOGS",
        "android.permission.READ_PHONE_STATE",
        "android.permission.VIBRATE",
        "android.permission.WAKE_LOCK",
        "android.permission.WRITE_EXTERNAL_STORAGE"
      ]
    }
  ],
  "meta": {
    "generated": "2020-08-27T15:19:29.407974",
    "generatedBy": [
      "/home/hc/code/trackingthetrackers/scripts/make-trackers-apk-set.py"
    ],
    "ver": "0.3.0"
  }
}