{
  "apks": [
    {
      "applicationId": "sh.core.speedgame",
      "broadcastReceiverIntentFilterActionNames": [],
      "dependencies": [
        "com$fsn$cauly",
        "com.fsn.cauly",
        "com.trid.tridad",
        "com_fsn_cauly"
      ],
      "domainNamesFilteredByExodus": [],
      "metaDataNames": [],
      "sha256": "083f82c03df8d6aef59a2cd3e02fc41760796c90317837f3d38d1f1c3393fcfa",
      "usesPermissions": [
        "android.permission.ACCESS_FINE_LOCATION",
        "android.permission.ACCESS_NETWORK_STATE",
        "android.permission.CALL_PHONE",
        "android.permission.INTERNET",
        "android.permission.VIBRATE"
      ]
    }
  ],
  "meta": {
    "generated": "2020-08-27T14:52:54.236942",
    "generatedBy": [
      "/home/hc/code/trackingthetrackers/scripts/make-trackers-apk-set.py"
    ],
    "ver": "0.3.0"
  }
}