{
  "apks": [
    {
      "applicationId": "com.hiapk.marketpho",
      "broadcastReceiverIntentFilterActionNames": [
        "android.appwidget.action.APPWIDGET_UPDATE",
        "android.intent.action.BOOT_COMPLETED",
        "android.intent.action.PACKAGE_ADDED",
        "android.intent.action.PACKAGE_REMOVED",
        "android.net.conn.CONNECTIVITY_CHANGE",
        "baidu.intent.action.NEWSHARE",
        "baidu.intent.action.SHARE",
        "baidu.intent.action.SHARE_V6",
        "com.baidu.android.moplus.action.START",
        "com.baidu.android.pushservice.action.BIND_SYNC",
        "com.baidu.android.pushservice.action.MESSAGE",
        "com.baidu.android.pushservice.action.RECEIVE",
        "com.baidu.android.pushservice.action.SDK_MESSAGE",
        "com.baidu.android.pushservice.action.sdk.RECEIVE",
        "com.baidu.intent.action.RECEIVED_ACCOUNT",
        "com.baidu.tiebasdk.broadcast.extraLogin",
        "com.baidu.tiebasdk.broadcast.service",
        "com.baidu.tiebasdk.broadcast.sync",
        "com.baidu.tiebasdk.broadcast.syncLoginFromAS",
        "com.baidu.tiebasdk.broadcast.syncLogoutFromAS",
        "com.hiapk.marketmob.ACTION_PUSH_CLIENT_STATE",
        "com.hiapk.marketmob.ACTION_REPORT_DOWNLOAD_RECORDS_NOTIFY",
        "com.hiapk.marketmob.ACTION_UPDATE_CANDIDATE_ADDRESS_INFO",
        "com.hiapk.marketpho.ACTION_ANALYSE_APPS_USAGE_NOTIFY",
        "com.hiapk.marketpho.ACTION_CHECK_AND_REPAIR_RECEIVER_NOTIFY",
        "com.hiapk.marketpho.ACTION_CHECK_FIX_UPDATE_NOTIFY",
        "com.hiapk.marketpho.ACTION_CHECK_PUSH_AD_NOTIFY",
        "com.hiapk.marketpho.ACTION_CHECK_USER_DESIRE_GIFTS_NOTIFY",
        "com.hiapk.marketpho.ACTION_GARBAGE_CLEANER_DATABASE_UPDATE_NOTIFY",
        "com.hiapk.marketpho.ACTION_MARKET_BATCH_REDOWNLOAD_NOTIFY",
        "com.hiapk.marketpho.ACTION_MARKET_INSTALL_APP_NOTIFY",
        "com.hiapk.marketpho.ACTION_MARKET_QUICK_UPDATE_NOTIFY",
        "com.hiapk.marketpho.ACTION_MARKET_SELF_UPDATE_DETAIL_NOTIFY",
        "com.hiapk.marketpho.ACTION_MARKET_UPDATE_NOTIFY",
        "com.hiapk.marketpho.ACTION_SILENT_RESTART_MARKET_NOTIFY",
        "com.hiapk.marketpho.ACTION_STATIC_AD_CHECK_NOTIFY",
        "com.hiapk.marketpho.ACTION_UPDATE_CHECK_NOTIFY",
        "com.hiapk.marketpho.ACTION_WIDGET_UPDATE_SOFT_COUNT"
      ],
      "dependencies": [
        "com.baidu.location",
        "com.baidu.mobstat"
      ],
      "domainNamesFilteredByExodus": [
        ".google.com",
        "map.baidu.com"
      ],
      "metaDataNames": [
        "BaiduMobAd_STAT_ID",
        "android.appwidget.provider"
      ],
      "sha256": "048c640de83ed556b9e99e2ce9a4217600d1b963200ba0bd74a1d6b638c48899",
      "usesPermissions": [
        "android.permission.ACCESS_COARSE_LOCATION",
        "android.permission.ACCESS_FINE_LOCATION",
        "android.permission.ACCESS_NETWORK_STATE",
        "android.permission.ACCESS_WIFI_STATE",
        "android.permission.ADD_SYSTEM_SERVICE",
        "android.permission.BIND_DEVICE_ADMIN",
        "android.permission.BROADCAST_STICKY",
        "android.permission.CALL_PHONE",
        "android.permission.CAMERA",
        "android.permission.CHANGE_COMPONENT_ENABLED_STATE",
        "android.permission.CHANGE_NETWORK_STATE",
        "android.permission.CHANGE_WIFI_STATE",
        "android.permission.CLEAR_APP_CACHE",
        "android.permission.CLEAR_APP_CACHE",
        "android.permission.DELETE_PACKAGES",
        "android.permission.DISABLE_KEYGUARD",
        "android.permission.EXPAND_STATUS_BAR",
        "android.permission.FLASHLIGHT",
        "android.permission.GET_PACKAGE_SIZE",
        "android.permission.GET_PACKAGE_SIZE",
        "android.permission.GET_TASKS",
        "android.permission.INSTALL_PACKAGES",
        "android.permission.INTERNET",
        "android.permission.KILL_BACKGROUND_PROCESSES",
        "android.permission.MOUNT_UNMOUNT_FILESYSTEMS",
        "android.permission.READ_LOGS",
        "android.permission.READ_LOGS",
        "android.permission.READ_PHONE_STATE",
        "android.permission.RECEIVE_BOOT_COMPLETED",
        "android.permission.RECORD_AUDIO",
        "android.permission.RESTART_PACKAGES",
        "android.permission.SET_ACTIVITY_WATCHER",
        "android.permission.SYSTEM_ALERT_WINDOW",
        "android.permission.VIBRATE",
        "android.permission.WAKE_LOCK",
        "android.permission.WRITE_CONTACTS",
        "android.permission.WRITE_EXTERNAL_STORAGE",
        "android.permission.WRITE_MEDIA_STORAGE",
        "android.permission.WRITE_SETTINGS",
        "com.anddoes.launcher.permission.READ_SETTINGS",
        "com.anddoes.launcher.permission.WRITE_SETTINGS",
        "com.android.launcher.permission.CREATE_SHORTCUT",
        "com.android.launcher.permission.INSTALL_SHORTCUT",
        "com.android.launcher.permission.INSTALL_SHORTCUT",
        "com.android.launcher.permission.READ_SETTINGS",
        "com.android.launcher.permission.READ_SETTINGS",
        "com.android.launcher.permission.UNINSTALL_SHORTCUT",
        "com.android.launcher.permission.WRITE_SETTINGS",
        "com.android.launcher3.permission.READ_SETTINGS",
        "com.android.launcher3.permission.WRITE_SETTINGS",
        "com.baidu.permission.SHARE",
        "com.baoruan.launcher.permission.READ_SETTINGS",
        "com.baoruan.launcher.permission.WRITE_SETTINGS",
        "com.fede.launcher.permission.READ_SETTINGS",
        "com.fede.launcher.permission.WRITE_SETTINGS",
        "com.htc.launcher.permission.READ_APP_WIDGET_DATA",
        "com.htc.launcher.permission.WRITE_APP_WIDGET_DATA",
        "com.huawei.launcher3.permission.READ_SETTINGS",
        "com.huawei.launcher3.permission.WRITE_SETTINGS",
        "com.lge.launcher.permission.READ_SETTINGS",
        "com.lge.launcher.permission.WRITE_SETTINGS",
        "com.nd.android.launcher.permission.READ_SETTINGS",
        "com.nd.android.launcher.permission.WRITE_SETTINGS",
        "com.qihoo360.launcher.permission.READ_SETTINGS",
        "com.qihoo360.launcher.permission.WRITE_SETTINGS",
        "com.sec.android.app.twlauncher.settings.READ_SETTINGS",
        "com.sec.android.app.twlauncher.settings.WRITE_SETTINGS",
        "com.teslacoilsw.launcher.permission.READ_SETTINGS",
        "com.teslacoilsw.launcher.permission.READ_SETTINGS",
        "com.teslacoilsw.launcher.permission.WRITE_SETTINGS",
        "com.teslacoilsw.launcher.permission.WRITE_SETTINGS"
      ]
    }
  ],
  "meta": {
    "generated": "2020-08-27T15:23:04.685003",
    "generatedBy": [
      "/home/hc/code/trackingthetrackers/scripts/make-trackers-apk-set.py"
    ],
    "ver": "0.3.0"
  }
}