{
  "apks": [
    {
      "applicationId": "com.nd.desktopcontacts",
      "broadcastReceiverIntentFilterActionNames": [
        "DXCoreAlarmReceiver",
        "android.intent.action.BOOT_COMPLETED",
        "android.intent.action.CONTENT_CHANGED",
        "android.intent.action.DUAL_PHONE_STATE",
        "android.intent.action.NEW_OUTGOING_CALL",
        "android.intent.action.PACKAGE_ADDED",
        "android.intent.action.PACKAGE_CHANGED",
        "android.intent.action.PACKAGE_REMOVED",
        "android.intent.action.PACKAGE_REPLACED",
        "android.intent.action.PHONE_STATE",
        "android.intent.action.PHONE_STATE_2",
        "android.intent.action.SEND_MESSAGE",
        "android.media.RINGER_MODE_CHANGED",
        "android.net.conn.CONNECTIVITY_CHANGE",
        "android.provider.Telephony.GSM_SMS_RECEIVED",
        "android.provider.Telephony.SMS_DELIVER",
        "android.provider.Telephony.SMS_RECEIVED",
        "android.provider.Telephony.SMS_REJECTED",
        "android.provider.Telephony.WAP_PUSH_DELIVER",
        "android.provider.Telephony.WAP_PUSH_RECEIVED",
        "com.dianxinos.acomponent.CANCEL_SP",
        "com.dianxinos.acomponent.CHECK_",
        "com.dianxinos.acomponent.NOTIFICATION_CHECK",
        "com.dianxinos.dxhome.THEME_INFO",
        "com.dianxinos.optimizer.engine.action.ANTISPAM_PROCESS_SMS",
        "com.dianxinos.optimizer.engine.action.ANTISPAM_PROCESS_SMS_RESULT",
        "com.nd.android.pandahome.THEME_INFO",
        "com.nd.mms.transaction.MESSAGE_SEND_TIMEOUT",
        "com.nd.mms.transaction.MESSAGE_SENT",
        "com.nd.mms.transaction.MessageStatusReceiver.MESSAGE_STATUS_RECEIVED"
      ],
      "dependencies": [
        "com.baidu.location"
      ],
      "domainNamesFilteredByExodus": [
        ".google.com",
        "map.baidu.com"
      ],
      "metaDataNames": [
        "91SMARTUPDATE_CHANNEL",
        "com.baidu.lbsapi.API_KEY"
      ],
      "sha256": "3122f6c0d66e195005591073d7dd2b1987e7b42fcce7083eafffdf8075bd9b3e",
      "usesPermissions": [
        "android.permission.ACCESS_COARSE_LOCATION",
        "android.permission.ACCESS_DOWNLOAD_MANAGER",
        "android.permission.ACCESS_FINE_LOCATION",
        "android.permission.ACCESS_GPS",
        "android.permission.ACCESS_NETWORK_STATE",
        "android.permission.ACCESS_WIFI_STATE",
        "android.permission.AUTHENTICATE_ACCOUNTS",
        "android.permission.BROADCAST_STICKY",
        "android.permission.CALL_PHONE",
        "android.permission.CHANGE_NETWORK_STATE",
        "android.permission.CHANGE_WIFI_STATE",
        "android.permission.DISABLE_KEYGUARD",
        "android.permission.GET_ACCOUNTS",
        "android.permission.GET_TASKS",
        "android.permission.INSTALL_DRM",
        "android.permission.INTERACT_ACROSS_USERS_FULL",
        "android.permission.INTERNET",
        "android.permission.KILL_BACKGROUND_PROCESSES",
        "android.permission.MANAGE_ACCOUNTS",
        "android.permission.MODIFY_AUDIO_SETTINGS",
        "android.permission.MOUNT_UNMOUNT_FILESYSTEMS",
        "android.permission.PROCESS_OUTGOING_CALLS",
        "android.permission.READ_CONTACTS",
        "android.permission.READ_LOGS",
        "android.permission.READ_PHONE_STATE",
        "android.permission.READ_PROFILE",
        "android.permission.READ_SMS",
        "android.permission.RECEIVE_BOOT_COMPLETED",
        "android.permission.RECEIVE_MMS",
        "android.permission.RECEIVE_SMS",
        "android.permission.RESTART_PACKAGES",
        "android.permission.SEND_SMS",
        "android.permission.SYSTEM_ALERT_WINDOW",
        "android.permission.USE_CREDENTIALS",
        "android.permission.VIBRATE",
        "android.permission.WAKE_LOCK",
        "android.permission.WRITE_CONTACTS",
        "android.permission.WRITE_EXTERNAL_STORAGE",
        "android.permission.WRITE_PROFILE",
        "android.permission.WRITE_SETTINGS",
        "android.permission.WRITE_SMS",
        "com.android.browser.permission.READ_HISTORY_BOOKMARKS",
        "com.android.browser.permission.WRITE_HISTORY_BOOKMARKS",
        "com.android.launcher.permission.INSTALL_SHORTCUT",
        "com.android.launcher.permission.READ_SETTINGS",
        "com.android.launcher.permission.UNINSTALL_SHORTCUT",
        "com.sec.android.provider.logsprovider.permission.READ_LOGS",
        "com.sec.android.provider.logsprovider.permission.WRITE_LOGS"
      ]
    }
  ],
  "meta": {
    "generated": "2020-08-27T14:56:33.550035",
    "generatedBy": [
      "/home/hc/code/trackingthetrackers/scripts/make-trackers-apk-set.py"
    ],
    "ver": "0.3.0"
  }
}