{
  "apks": [
    {
      "applicationId": "com.einmalfel.podlisten",
      "broadcastReceiverIntentFilterActionNames": [
        "android.appwidget.action.APPWIDGET_UPDATE",
        "android.intent.action.ACTION_POWER_CONNECTED",
        "android.intent.action.ACTION_POWER_DISCONNECTED",
        "android.intent.action.DOWNLOAD_COMPLETE",
        "android.intent.action.DOWNLOAD_NOTIFICATION_CLICKED",
        "android.intent.action.MEDIA_BUTTON",
        "com.einmalfel.podlisten.DOWNLOAD_EPISODE",
        "com.einmalfel.podlisten.DOWNLOAD_HEARTBEAT",
        "com.einmalfel.podlisten.NEW_EPISODE",
        "com.einmalfel.podlisten.UPDATE_QUEUE"
      ],
      "dependencies": [],
      "domainNamesFilteredByExodus": [],
      "metaDataNames": [
        "android.accounts.AccountAuthenticator",
        "android.appwidget.provider",
        "android.content.SyncAdapter"
      ],
      "sha256": "fa4a0baf080f9a25c7640435827fc511429718df6f07e2abc20e7ac1d03ecb3f",
      "usesPermissions": [
        "android.permission.AUTHENTICATE_ACCOUNTS",
        "android.permission.INTERNET",
        "android.permission.WRITE_EXTERNAL_STORAGE",
        "android.permission.WRITE_SYNC_SETTINGS"
      ]
    }
  ],
  "meta": {
    "generated": "2020-08-27T17:20:58.241674",
    "generatedBy": [
      "/home/hc/code/trackingthetrackers/scripts/make-clean-apk-set.py"
    ],
    "generatedByCommitId": "40519285d6f404593fa655fa89b433743c25289e",
    "sourceDataCommitId": "888bb8f8c77ff55105fcab2ad84c263561eb1169",
    "ver": "0.3.0"
  }
}