{
  "apks": [
    {
      "applicationId": "com.tp.android.baby3d",
      "broadcastReceiverIntentFilterActionNames": [
        "com.google.android.c2dm.intent.RECEIVE",
        "com.google.android.c2dm.intent.REGISTRATION"
      ],
      "dependencies": [
        "com$google$ads$",
        "com$inmobi",
        "com.chartboost.sdk.",
        "com.flurry.",
        "com.google.ads.",
        "com.google.android.gms.ads.",
        "com.google.android.gms.analytics.",
        "com.google.android.gms.tagmanager",
        "com.inmobi",
        "com_facebook_login"
      ],
      "domainNamesFilteredByExodus": [
        ".chartboost.com",
        ".facebook.com",
        ".google.com",
        "doubleclick.net",
        "flurry.com",
        "google-analytics.com",
        "i.w.inmobi.com",
        "inmobi.com",
        "inmobi.net",
        "inmobisdk-a.akamaihd.net",
        "sdkm.w.inmobi.com",
        "stats.unity3d.com",
        "www.googletagmanager.com"
      ],
      "metaDataNames": [
        "com.facebook.sdk.ApplicationId",
        "com.google.android.gms.version",
        "unityplayer.ForwardNativeEventsToDalvik"
      ],
      "sha256": "7ffa0f9435ae33bf4f0cf0432ab1ecb4a4ba54b23084be7f8da5b8e95d915b13",
      "usesPermissions": [
        "android.permission.ACCESS_COARSE",
        "android.permission.ACCESS_NETWORK_STATE",
        "android.permission.ACCESS_WIFI_STATE",
        "android.permission.FINE_LOCATION",
        "android.permission.INTERNET",
        "android.permission.MOUNT_UNMOUNT_FILESYSTEMS",
        "android.permission.READ_PHONE_STATE",
        "android.permission.RECORD_AUDIO",
        "android.permission.WRITE_EXTERNAL_STORAGE",
        "com.tp.android.baby3d.permission.C2D_MESSAGE"
      ]
    }
  ],
  "meta": {
    "generated": "2020-08-27T15:28:05.266422",
    "generatedBy": [
      "/home/hc/code/trackingthetrackers/scripts/make-trackers-apk-set.py"
    ],
    "ver": "0.3.0"
  }
}