{
  "apks": [
    {
      "applicationId": "com.andrudis.wallpaper.thesnowman",
      "broadcastReceiverIntentFilterActionNames": [
        "CLICK",
        "android.appwidget.action.APPWIDGET_UPDATE",
        "com.android.vending.INSTALL_REFERRER"
      ],
      "dependencies": [
        "com.appbrain.",
        "com.applovin"
      ],
      "domainNamesFilteredByExodus": [
        ".google.com",
        "api.airpush.com",
        "applovin.com"
      ],
      "metaDataNames": [
        "android.appwidget.provider",
        "android.service.wallpaper",
        "applovin.sdk.key",
        "com.pawub.ffkux101904.APIKEY",
        "com.pawub.ffkux101904.APPID"
      ],
      "sha256": "60e8ac01f1c7f1c69dc3815d4626798621b35a2cb5fd1edf8ca0442aeed8ea75",
      "usesPermissions": [
        "android.permission.ACCESS_COARSE_LOCATION",
        "android.permission.ACCESS_FINE_LOCATION",
        "android.permission.ACCESS_NETWORK_STATE",
        "android.permission.ACCESS_WIFI_STATE",
        "android.permission.INTERNET",
        "android.permission.READ_PHONE_STATE",
        "android.permission.WRITE_EXTERNAL_STORAGE"
      ]
    }
  ],
  "meta": {
    "generated": "2020-08-27T15:32:17.756968",
    "generatedBy": [
      "/home/hc/code/trackingthetrackers/scripts/make-trackers-apk-set.py"
    ],
    "ver": "0.3.0"
  }
}