{
  "apks": [
    {
      "applicationId": "org.sufficientlysecure.keychain",
      "broadcastReceiverIntentFilterActionNames": [],
      "dependencies": [],
      "domainNamesFilteredByExodus": [
        ".google.com"
      ],
      "metaDataNames": [
        "api_version"
      ],
      "sha256": "fc0cfdce48b114cc3037e236099ab15ddabaa86b9224d6fb0c226778e7cd1aec",
      "usesPermissions": [
        "android.permission.INTERNET",
        "android.permission.NFC",
        "android.permission.WRITE_EXTERNAL_STORAGE",
        "com.fsck.k9.permission.READ_ATTACHMENT"
      ]
    }
  ],
  "meta": {
    "generated": "2020-08-27T18:37:21.418311",
    "generatedBy": [
      "/home/hc/code/trackingthetrackers/scripts/make-clean-apk-set.py"
    ],
    "generatedByCommitId": "3839559c80042252d3b947fb61c86a18e8b31114",
    "sourceDataCommitId": "888bb8f8c77ff55105fcab2ad84c263561eb1169",
    "ver": "0.3.0"
  }
}