{
  "apks": [
    {
      "applicationId": "com.naturalhealing.naturalhealing",
      "broadcastReceiverIntentFilterActionNames": [
        "com.google.android.c2dm.intent.RECEIVE"
      ],
      "dependencies": [
        "com.google.ads.",
        "com.google.android.gms.analytics.",
        "com.revmob.ads."
      ],
      "domainNamesFilteredByExodus": [
        ".facebook.com",
        ".google.com",
        "google-analytics.com",
        "smaato.net",
        "soma.smaato.net"
      ],
      "metaDataNames": [
        "android.app.default_searchable",
        "android.app.searchable",
        "com.google.android.maps.v2.API_KEY"
      ],
      "sha256": "7680374caa8639241743d37280ca7f68c8412d16d2d7affd04e43ef9a465f23c",
      "usesPermissions": [
        "android.permission.ACCESS_COARSE_LOCATION",
        "android.permission.ACCESS_FINE_LOCATION",
        "android.permission.ACCESS_NETWORK_STATE",
        "android.permission.CAMERA",
        "android.permission.INTERNET",
        "android.permission.READ_PHONE_STATE",
        "android.permission.RECORD_AUDIO",
        "android.permission.WRITE_EXTERNAL_STORAGE"
      ]
    }
  ],
  "meta": {
    "generated": "2020-08-27T15:13:38.408469",
    "generatedBy": [
      "/home/hc/code/trackingthetrackers/scripts/make-trackers-apk-set.py"
    ],
    "ver": "0.3.0"
  }
}