{
  "apks": [
    {
      "applicationId": "com.vxtnjg.ovnpivy.dvduchqr",
      "broadcastReceiverIntentFilterActionNames": [],
      "dependencies": [],
      "domainNamesFilteredByExodus": [],
      "metaDataNames": [
        "SYSKKEY",
        "SYSKNAME"
      ],
      "sha256": "17b2863cfa402c2e88aada6626590cc53c12e58be5669358376cfab2cdb72abb",
      "usesPermissions": [
        "android.permission.ACCESS_COARSE_LOCATION",
        "android.permission.ACCESS_NETWORK_STATE",
        "android.permission.ACCESS_WIFI_STATE",
        "android.permission.CAMERA",
        "android.permission.CHANGE_WIFI_STATE",
        "android.permission.FLASHLIGHT",
        "android.permission.GET_TASKS",
        "android.permission.INTERNET",
        "android.permission.INTERNET",
        "android.permission.READ_PHONE_STATE",
        "android.permission.SYSTEM_ALERT_WINDOW",
        "android.permission.SYSTEM_OVERLAY_WINDOW",
        "android.permission.VIBRATE",
        "android.permission.WAKE_LOCK",
        "android.permission.WRITE_EXTERNAL_STORAGE",
        "cn.swiftpass.wxpay.permission.MMOAUTH_CALLBACK",
        "cn.swiftpass.wxpay.permission.MM_MESSAGE",
        "xvtian.gai.receiver"
      ]
    }
  ],
  "meta": {
    "generated": "2020-08-27T15:47:08.282400",
    "generatedBy": [
      "/home/hc/code/trackingthetrackers/scripts/make-trackers-apk-set.py"
    ],
    "ver": "0.3.0"
  }
}