{
  "apks": [
    {
      "applicationId": "com.tinylabproductions.safarikidracing",
      "broadcastReceiverIntentFilterActionNames": [
        "android.net.conn.CONNECTIVITY_CHANGE",
        "com.amazon.inapp.purchasing.NOTIFY",
        "com.android.vending.INSTALL_REFERRER",
        "com.inmobi.share.id"
      ],
      "dependencies": [
        "com$batch$android$",
        "com$mopub$mobileads$",
        "com$smaato$soma$",
        "com$startapp$android$publish",
        "com$supersonicads$sdk",
        "com.applovin",
        "com.batch.android.",
        "com.chartboost.sdk.",
        "com.google.ads.",
        "com.google.android.gms.ads.",
        "com.google.android.gms.analytics.",
        "com.google.android.gms.tagmanager",
        "com.inmobi",
        "com.mopub.mobileads.",
        "com.purplebrain.adbuddiz.sdk.",
        "com.smaato.soma.",
        "com.startapp.android.publish",
        "com.supersonic.adapters.supersonicads",
        "com.supersonicads.sdk",
        "com.unity3d.ads",
        "com.vungle.publisher.",
        "com_batch_android_"
      ],
      "domainNamesFilteredByExodus": [
        ".chartboost.com",
        ".facebook.com",
        ".google.com",
        "adcolony.com",
        "androidads21.adcolony.com",
        "api.vungle.com",
        "applovin.com",
        "batch.com",
        "doubleclick.net",
        "google-analytics.com",
        "i.w.inmobi.com",
        "init.supersonicads.com",
        "inmobi.com",
        "inmobisdk-a.akamaihd.net",
        "mopub.com",
        "openx.com",
        "sdk.adbuddiz.com",
        "sdkm.w.inmobi.com",
        "smaato.net",
        "soma.smaato.net",
        "stats.unity3d.com",
        "www.googletagmanager.com",
        "www.supersonicads.com"
      ],
      "metaDataNames": [
        "applovin.sdk.key",
        "applovin.sdk.verbose_logging",
        "com.batch.android.unity.BatchUnity",
        "com.google.android.gms.version",
        "unityplayer.ForwardNativeEventsToDalvik"
      ],
      "sha256": "787dda7ae81bd464d99d3ac69d1a7284fc9a71b8f064cbb901fd83bc8c2128fe",
      "usesPermissions": [
        "android.permission.ACCESS_COARSE_LOCATION",
        "android.permission.ACCESS_NETWORK_STATE",
        "android.permission.ACCESS_WIFI_STATE",
        "android.permission.INTERNET",
        "android.permission.READ_EXTERNAL_STORAGE",
        "android.permission.READ_PHONE_STATE",
        "android.permission.VIBRATE",
        "android.permission.WAKE_LOCK",
        "android.permission.WRITE_EXTERNAL_STORAGE",
        "com.android.vending.BILLING",
        "com.nokia.payment.BILLING",
        "com.sec.android.iap.permission.BILLING",
        "com.slideme.sam.manager.inapp.permission.BILLING",
        "org.onepf.openiab.permission.BILLING"
      ]
    }
  ],
  "meta": {
    "generated": "2020-08-27T14:49:37.574715",
    "generatedBy": [
      "/home/hc/code/trackingthetrackers/scripts/make-trackers-apk-set.py"
    ],
    "ver": "0.3.0"
  }
}