{
  "apks": [
    {
      "applicationId": "com.github.ruleant.getback_gps",
      "broadcastReceiverIntentFilterActionNames": [],
      "dependencies": [],
      "domainNamesFilteredByExodus": [],
      "metaDataNames": [
        "android.support.PARENT_ACTIVITY"
      ],
      "sha256": "4bcda44765d4213c3026a310fbf153d99aa8b10c3d9ba49cc92c5d5781810812",
      "usesPermissions": [
        "android.permission.ACCESS_FINE_LOCATION"
      ]
    }
  ],
  "meta": {
    "generated": "2020-08-27T17:31:20.915563",
    "generatedBy": [
      "/home/hc/code/trackingthetrackers/scripts/make-clean-apk-set.py"
    ],
    "generatedByCommitId": "40519285d6f404593fa655fa89b433743c25289e",
    "sourceDataCommitId": "888bb8f8c77ff55105fcab2ad84c263561eb1169",
    "ver": "0.3.0"
  }
}