{
  "apks": [
    {
      "applicationId": "com.jb.gosms.theme.richthemes_green_life",
      "broadcastReceiverIntentFilterActionNames": [
        "android.intent.action.BOOT_COMPLETED",
        "android.intent.action.USER_PRESENT",
        "com.google.android.c2dm.intent.RECEIVE",
        "com.google.android.c2dm.intent.REGISTRATION",
        "com.parse.push.intent.DELETE",
        "com.parse.push.intent.OPEN",
        "com.parse.push.intent.RECEIVE"
      ],
      "dependencies": [
        "com$appnext$",
        "com.appnext.",
        "com.facebook.login",
        "com.google.android.gms.ads.",
        "com.ironsource."
      ],
      "domainNamesFilteredByExodus": [
        ".google.com",
        "doubleclick.net"
      ],
      "metaDataNames": [
        "com.google.android.gms.version",
        "com.parse.push.notification_channel",
        "com.parse.push.notification_icon"
      ],
      "sha256": "65c866b13c6b1c1317484d812295b56a019ef78963339c411807705ce198256b",
      "usesPermissions": [
        "android.permission.ACCESS_NETWORK_STATE",
        "android.permission.ACCESS_WIFI_STATE",
        "android.permission.GET_ACCOUNTS",
        "android.permission.INTERNET",
        "android.permission.READ_PHONE_STATE",
        "android.permission.RECEIVE_BOOT_COMPLETED",
        "android.permission.SET_WALLPAPER",
        "android.permission.VIBRATE",
        "android.permission.WAKE_LOCK",
        "android.permission.WRITE_EXTERNAL_STORAGE",
        "com.google.android.c2dm.permission.RECEIVE",
        "com.jb.gosms.theme.richthemes_green_life.permission.C2D_MESSAGE"
      ]
    }
  ],
  "meta": {
    "generated": "2020-08-27T15:46:47.316738",
    "generatedBy": [
      "/home/hc/code/trackingthetrackers/scripts/make-trackers-apk-set.py"
    ],
    "ver": "0.3.0"
  }
}