{
  "apks": [
    {
      "applicationId": "com.mnsoft.mappyobn",
      "broadcastReceiverIntentFilterActionNames": [
        "android.appwidget.action.APPWIDGET_UPDATE",
        "android.intent.action.BOOT_COMPLETED",
        "android.intent.action.NEW_OUTGOING_CALL",
        "android.intent.action.PHONE_STATE",
        "android.provider.Telephony.SMS_RECEIVED",
        "com.android.vending.INSTALL_REFERRER",
        "com.google.android.c2dm.intent.RECEIVE",
        "com.kia.kr.qfriends.receiver.islogin",
        "com.kia.kr.qfriends.receiver.login.info.request",
        "com.kia.kr.qfriends.receiver.login.info.request.fail",
        "com.kia.kr.qfriends.receiver.logout",
        "com.kia.kr.qfriends.receiver.new.login.info.request",
        "com.lge.launcher2.smartbulletin.action.ENABLED",
        "com.lge.launcher2.smartbulletin.action.RESUMED",
        "com.mnsoft.mappyobn.EVENT_NEXT_BTN_CLICKED",
        "com.mnsoft.mappyobn.EVENT_PREV_BTN_CLICKED",
        "com.mnsoft.mappyobn.EVENT_SB_NEXT_BTN_CLICKED",
        "com.mnsoft.mappyobn.EVENT_SB_PREV_BTN_CLICKED",
        "com.mnsoft.mappyobn.EVENT_UPDATE_EXPIRED",
        "com.mnsoft.mappyobn.EVENT_UPDATE_TRAFFIC_WIDGET",
        "com.mnsoft.mappyobn.EVENT_UPDATE_VIEW"
      ],
      "dependencies": [
        "com.crashlytics.",
        "com.facebook.appevents",
        "com.facebook.login",
        "com.facebook.share",
        "com.fsn.cauly",
        "com.google.android.gms.ads.",
        "com.google.android.gms.analytics.",
        "com.google.android.gms.tagmanager",
        "com.igaworks.adbrix",
        "com_facebook_login",
        "com_facebook_share",
        "io.fabric."
      ],
      "domainNamesFilteredByExodus": [
        ".facebook.com",
        ".google.com",
        "ad-brix.com",
        "ad.cauly.co.kr",
        "crashlytics.com",
        "doubleclick.net",
        "google-analytics.com",
        "www.googletagmanager.com"
      ],
      "metaDataNames": [
        "android.appwidget.provider",
        "com.facebook.sdk.ApplicationId",
        "com.google.android.gms.version",
        "com.google.android.wearable.beta.app",
        "com.kakao.sdk.AppKey",
        "igaworks_app_key",
        "igaworks_hash_key",
        "igaworks_market_info",
        "igaworks_reward_server_type",
        "io.fabric.ApiKey"
      ],
      "sha256": "13ecff04452a20f564f5f61459d432c01ed8abe7d6f5aee2269e7467cb9f923e",
      "usesPermissions": [
        "android.permission.ACCESS_ALL_DOWNLOADS",
        "android.permission.ACCESS_COARSE_LOCATION",
        "android.permission.ACCESS_FINE_LOCATION",
        "android.permission.ACCESS_LOCATION_EXTRA_COMMANDS",
        "android.permission.ACCESS_NETWORK_STATE",
        "android.permission.ACCESS_WIFI_STATE",
        "android.permission.BLUETOOTH",
        "android.permission.BLUETOOTH_ADMIN",
        "android.permission.BROADCAST_STICKY",
        "android.permission.CHANGE_NETWORK_STATE",
        "android.permission.CHANGE_WIFI_STATE",
        "android.permission.GET_ACCOUNTS",
        "android.permission.GET_TASKS",
        "android.permission.INTERNET",
        "android.permission.MODIFY_AUDIO_SETTINGS",
        "android.permission.READ_EXTERNAL_STORAGE",
        "android.permission.READ_PHONE_STATE",
        "android.permission.RECEIVE_BOOT_COMPLETED",
        "android.permission.RECEIVE_SMS",
        "android.permission.REORDER_TASKS",
        "android.permission.RESTART_PACKAGES",
        "android.permission.SYSTEM_ALERT_WINDOW",
        "android.permission.VIBRATE",
        "android.permission.WAKE_LOCK",
        "android.permission.WRITE_EXTERNAL_STORAGE",
        "android.permission.WRITE_SETTINGS",
        "com.android.launcher.permission.INSTALL_SHORTCUT",
        "com.android.launcher.permission.UNINSTALL_SHORTCUT",
        "com.google.android.c2dm.permission.RECEIVE",
        "com.mnsoft.offboardnavi.permission.C2D_MESSAGE"
      ]
    }
  ],
  "meta": {
    "generated": "2020-08-27T15:47:22.672086",
    "generatedBy": [
      "/home/hc/code/trackingthetrackers/scripts/make-trackers-apk-set.py"
    ],
    "ver": "0.3.0"
  }
}