{
  "apks": [
    {
      "applicationId": "com.tengu.sharetoclipboard",
      "broadcastReceiverIntentFilterActionNames": [],
      "dependencies": [],
      "domainNamesFilteredByExodus": [
        ".google.com"
      ],
      "metaDataNames": [],
      "sha256": "845e11cbfd237356c150ea875a7b6503a17cc2554e6a5055ffdcdafa1b4c3b68",
      "usesPermissions": []
    }
  ],
  "meta": {
    "generated": "2020-08-27T17:51:14.721541",
    "generatedBy": [
      "/home/hc/code/trackingthetrackers/scripts/make-clean-apk-set.py"
    ],
    "generatedByCommitId": "40519285d6f404593fa655fa89b433743c25289e",
    "sourceDataCommitId": "888bb8f8c77ff55105fcab2ad84c263561eb1169",
    "ver": "0.3.0"
  }
}