{
  "apks": [
    {
      "applicationId": "com.tencent.qqmusic",
      "broadcastReceiverIntentFilterActionNames": [
        "android.appwidget.action.APPWIDGET_UPDATE",
        "android.bluetooth.adapter.action.STATE_CHANGED",
        "android.bluetooth.device.action.ACL_CONNECTED",
        "android.bluetooth.device.action.ACL_DISCONNECTED",
        "android.intent.action.BOOT_COMPLETED",
        "android.intent.action.HEADSET_PLUG",
        "android.intent.action.MEDIA_BUTTON",
        "android.media.AUDIO_BECOMING_NOISY",
        "com.tencent.qqmusic.ACTION_GOTO_LOCAL",
        "com.tencent.qqmusic.forthird.activity.ALBUM_PAGE",
        "com.tencent.qqmusic.forthird.activity.APP_LIST",
        "com.tencent.qqmusic.forthird.activity.ASSORT_FRAGMENT",
        "com.tencent.qqmusic.forthird.activity.ASSORT_LIST",
        "com.tencent.qqmusic.forthird.activity.BILL",
        "com.tencent.qqmusic.forthird.activity.HTML_PAGE",
        "com.tencent.qqmusic.forthird.activity.MVPLAYER",
        "com.tencent.qqmusic.forthird.activity.MV_THEME",
        "com.tencent.qqmusic.forthird.activity.MV_THEME_DETAIL",
        "com.tencent.qqmusic.forthird.activity.NEW_SONG_PAGE",
        "com.tencent.qqmusic.forthird.activity.PLAYER",
        "com.tencent.qqmusic.forthird.activity.PLAYER2",
        "com.tencent.qqmusic.forthird.activity.PROFILE",
        "com.tencent.qqmusic.forthird.activity.PUSH",
        "com.tencent.qqmusic.forthird.activity.PUSH_2",
        "com.tencent.qqmusic.forthird.activity.RADIO_PAGE",
        "com.tencent.qqmusic.forthird.activity.RANK_PAGE",
        "com.tencent.qqmusic.forthird.activity.RECOGNIZER",
        "com.tencent.qqmusic.forthird.activity.SINGER_PAGE",
        "com.tencent.qqmusic.forthird.activity.SINGLE_NEW_SONG",
        "com.tencent.qqmusic.forthird.activity.THEME_DETAIL",
        "com.tencent.qqmusic.forthird.activity.THEME_PAGE",
        "com.tencent.qqpimsecure.ACTION_MEDIA_CACHE_CHANGE",
        "wns.heartbeat",
        "wns.push.to.com.tencent.qqmusic"
      ],
      "dependencies": [
        "com.tencent.stat"
      ],
      "domainNamesFilteredByExodus": [],
      "metaDataNames": [
        "QBSDKAppKey",
        "android.appwidget.provider",
        "com.tencent.rdm.uuid"
      ],
      "sha256": "049f6f9714b2a6e9f614d74a0064e9ae9294359ef8c20723e7ffba4938814390",
      "usesPermissions": [
        "android.permission.ACCESS_COARSE_LOCATION",
        "android.permission.ACCESS_FINE_LOCATION",
        "android.permission.ACCESS_LOCATION_EXTRA_COMMANDS",
        "android.permission.ACCESS_NETWORK_STATE",
        "android.permission.ACCESS_WIFI_STATE",
        "android.permission.BLUETOOTH",
        "android.permission.BROADCAST_STICKY",
        "android.permission.CHANGE_NETWORK_STATE",
        "android.permission.CHANGE_WIFI_MULTICAST_STATE",
        "android.permission.CHANGE_WIFI_STATE",
        "android.permission.DISABLE_KEYGUARD",
        "android.permission.EXPAND_STATUS_BAR",
        "android.permission.GET_TASKS",
        "android.permission.INTERNET",
        "android.permission.MODIFY_AUDIO_SETTINGS",
        "android.permission.MOUNT_UNMOUNT_FILESYSTEMS",
        "android.permission.READ_EXTERNAL_STORAGE",
        "android.permission.READ_LOGS",
        "android.permission.READ_PHONE_STATE",
        "android.permission.RECEIVE_BOOT_COMPLETED",
        "android.permission.RECEIVE_SMS",
        "android.permission.RECORD_AUDIO",
        "android.permission.RESTART_PACKAGES",
        "android.permission.SYSTEM_ALERT_WINDOW",
        "android.permission.VIBRATE",
        "android.permission.WAKE_LOCK",
        "android.permission.WRITE_EXTERNAL_STORAGE",
        "android.permission.WRITE_MEDIA_STORAG",
        "android.permission.WRITE_SETTINGS",
        "com.android.launcher.permission.INSTALL_SHORTCUT",
        "com.android.launcher.permission.READ_SETTINGS",
        "com.android.launcher.permission.WRITE_SETTINGS",
        "com.tencent.qqmusic.permission.MMOAUTH_CALLBACK",
        "com.tencent.qqmusic.permission.MM_MESSAGE",
        "com.tencent.qqmusic.permission.sendBroadcastPromission",
        "com.tencent.qqmusic.theme.permission"
      ]
    }
  ],
  "meta": {
    "generated": "2020-08-27T15:38:43.662393",
    "generatedBy": [
      "/home/hc/code/trackingthetrackers/scripts/make-trackers-apk-set.py"
    ],
    "ver": "0.3.0"
  }
}