{
  "apks": [
    {
      "applicationId": "com.upgames.frozen.islands.strategy.vikings",
      "broadcastReceiverIntentFilterActionNames": [],
      "dependencies": [
        "com.flurry.",
        "com.google.ads.",
        "com.google.android.gms.ads.",
        "com.google.android.gms.analytics.",
        "com.google.android.gms.tagmanager",
        "com.inmobi",
        "com.kochava.android.tracker.",
        "com.millennialmedia.",
        "com.mobclix.android.sdk",
        "org.nexage."
      ],
      "domainNamesFilteredByExodus": [
        ".google.com",
        "control.kochava.com",
        "doubleclick.net",
        "flurry.com",
        "google-analytics.com",
        "www.googletagmanager.com"
      ],
      "metaDataNames": [
        "aspectRatio",
        "autoOrients",
        "com.adeco.analytics.FLURRY_KEY",
        "com.adeco.analytics.KOCHAVA_KEY",
        "com.google.android.gms.version",
        "com.startapp.android.APP_ID",
        "com.startapp.android.DEV_ID",
        "containsVideo",
        "fullScreen",
        "initialcontent",
        "namespaceVersion",
        "uniqueappversionid"
      ],
      "sha256": "05d6253dd46c96b5cb2329abf34c53a68b3fccd2f937bb22dc5fa1c8a04ffff0",
      "usesPermissions": [
        "android.permission.ACCESS_COARSE_LOCATION",
        "android.permission.ACCESS_FINE_LOCATION",
        "android.permission.ACCESS_NETWORK_STATE",
        "android.permission.ACCESS_WIFI_STATE",
        "android.permission.GET_TASKS",
        "android.permission.INTERNET",
        "android.permission.READ_PHONE_STATE",
        "android.permission.SYSTEM_ALERT_WINDOW",
        "android.permission.WRITE_EXTERNAL_STORAGE"
      ]
    }
  ],
  "meta": {
    "generated": "2020-08-27T15:37:56.231852",
    "generatedBy": [
      "/home/hc/code/trackingthetrackers/scripts/make-trackers-apk-set.py"
    ],
    "ver": "0.3.0"
  }
}