{
  "apks": [
    {
      "applicationId": "com.tencent.mm2",
      "broadcastReceiverIntentFilterActionNames": [
        "android.intent.action.ACTION_HEADSET_PLUG",
        "android.intent.action.BOOT_COMPLETED",
        "android.intent.action.MEDIA_BAD_REMOVAL",
        "android.intent.action.MEDIA_BUTTON",
        "android.intent.action.MEDIA_EJECT",
        "android.intent.action.MEDIA_MOUNTED",
        "android.intent.action.MEDIA_REMOVED",
        "android.intent.action.MEDIA_SCANNER_FINISHED",
        "android.intent.action.MEDIA_SCANNER_STARTED",
        "android.intent.action.MEDIA_SHARED",
        "android.intent.action.MEDIA_UNMOUNTED",
        "android.intent.action.PACKAGE_ADDED",
        "android.intent.action.USER_PRESENT",
        "android.media.ACTION_SCO_AUDIO_STATE_UPDATED",
        "android.media.SCO_AUDIO_STATE_CHANGED",
        "android.net.conn.CONNECTIVITY_CHANGE",
        "com.tencent.mm.WatchDogPushReceiver",
        "com.tencent.mm.plugin.openapi.Intent.ACTION_HANDLE_APP_REGISTER",
        "com.tencent.mm.plugin.openapi.Intent.ACTION_HANDLE_APP_UNREGISTER"
      ],
      "dependencies": [
        "com.tencent.mm.plugin.location."
      ],
      "domainNamesFilteredByExodus": [
        ".facebook.com",
        ".google.com",
        "map.qq.com"
      ],
      "metaDataNames": [
        "android.accounts.AccountAuthenticator",
        "android.content.SyncAdapter",
        "android.provider.CONTACTS_STRUCTURE",
        "com.sec.android.multiwindow.DEFAULT_SIZE_H",
        "com.sec.android.multiwindow.DEFAULT_SIZE_W",
        "com.sec.android.multiwindow.MINIMUM_SIZE_H",
        "com.sec.android.multiwindow.MINIMUM_SIZE_W",
        "com.sec.android.support.multiwindow",
        "j-id"
      ],
      "sha256": "9214175ebc46a8e18dac40ff4cd801abe44e32174cfeb9a5bcd73e9264f702aa",
      "usesPermissions": [
        "android.permission.ACCESS_COARSE_LOCATION",
        "android.permission.ACCESS_FINE_LOCATION",
        "android.permission.ACCESS_NETWORK_STATE",
        "android.permission.ACCESS_NETWORK_STATE",
        "android.permission.ACCESS_NETWORK_STATE",
        "android.permission.ACCESS_WIFI_STATE",
        "android.permission.ACCESS_WIFI_STATE",
        "android.permission.ACCESS_WIFI_STATE",
        "android.permission.AUTHENTICATE_ACCOUNTS",
        "android.permission.BLUETOOTH",
        "android.permission.BLUETOOTH_ADMIN",
        "android.permission.BROADCAST_STICKY",
        "android.permission.CAMERA",
        "android.permission.GET_ACCOUNTS",
        "android.permission.GET_TASKS",
        "android.permission.GET_TASKS",
        "android.permission.INTERNET",
        "android.permission.INTERNET",
        "android.permission.INTERNET",
        "android.permission.MANAGE_ACCOUNTS",
        "android.permission.MODIFY_AUDIO_SETTINGS",
        "android.permission.READ_CONTACTS",
        "android.permission.READ_PHONE_STATE",
        "android.permission.READ_PHONE_STATE",
        "android.permission.READ_PHONE_STATE",
        "android.permission.READ_SMS",
        "android.permission.READ_SYNC_SETTINGS",
        "android.permission.RECEIVE_BOOT_COMPLETED",
        "android.permission.RECORD_AUDIO",
        "android.permission.SYSTEM_ALERT_WINDOW",
        "android.permission.SYSTEM_ALERT_WINDOW",
        "android.permission.VIBRATE",
        "android.permission.WAKE_LOCK",
        "android.permission.WAKE_LOCK",
        "android.permission.WAKE_LOCK",
        "android.permission.WRITE_CONTACTS",
        "android.permission.WRITE_EXTERNAL_STORAGE",
        "android.permission.WRITE_EXTERNAL_STORAGE",
        "android.permission.WRITE_EXTERNAL_STORAGE",
        "android.permission.WRITE_SETTINGS",
        "android.permission.WRITE_SYNC_SETTINGS",
        "com.android.launcher.permission.INSTALL_SHORTCUT",
        "com.android.launcher.permission.READ_SETTINGS",
        "com.tencent.mm.ext.permission.READ",
        "com.tencent.mm.ext.permission.WRITE",
        "com.tencent.mm.location.permission.SEND_VIEW",
        "com.tencent.mm.oauth.permission.SEND",
        "com.tencent.mm.permission.MM_MESSAGE",
        "com.tencent.mm.plugin.permission.READ",
        "com.tencent.mm.plugin.permission.SEND",
        "com.tencent.mm.plugin.permission.WRITE"
      ]
    }
  ],
  "meta": {
    "generated": "2020-08-27T15:04:01.983764",
    "generatedBy": [
      "/home/hc/code/trackingthetrackers/scripts/make-trackers-apk-set.py"
    ],
    "ver": "0.3.0"
  }
}