{
  "apks": [
    {
      "applicationId": "com.appcandy.christmaspuzzle",
      "broadcastReceiverIntentFilterActionNames": [],
      "dependencies": [
        "com$startapp$android$publish",
        "com.google.ads.",
        "com.google.android.gms.ads.",
        "com.startapp.android.publish",
        "com.umeng.analytics",
        "com.vungle.publisher.",
        "org.cocos2dx"
      ],
      "domainNamesFilteredByExodus": [
        ".google.com",
        "alog.umeng.com",
        "api.vungle.com",
        "doubleclick.net",
        "ingest.vungle.com",
        "oc.umeng.com",
        "umeng.com"
      ],
      "metaDataNames": [
        "UMENG_APPKEY",
        "UMENG_CHANNEL",
        "android.app.lib_name",
        "com.google.android.gms.games.APP_ID",
        "com.google.android.gms.version"
      ],
      "sha256": "304d932ec837eabc258fbf96b981bcc6437a54302ffc2ba4dc833495a68ba98d",
      "usesPermissions": [
        "android.permission.ACCESS_NETWORK_STATE",
        "android.permission.ACCESS_WIFI_STATE",
        "android.permission.INTERNET",
        "android.permission.READ_PHONE_STATE",
        "android.permission.WRITE_EXTERNAL_STORAGE"
      ]
    }
  ],
  "meta": {
    "generated": "2020-08-27T15:37:08.736043",
    "generatedBy": [
      "/home/hc/code/trackingthetrackers/scripts/make-trackers-apk-set.py"
    ],
    "ver": "0.3.0"
  }
}