{
  "apks": [
    {
      "applicationId": "com.ailehudong.zilongchuanqi.yijie.huawei",
      "broadcastReceiverIntentFilterActionNames": [
        "android.intent.action.DOWNLOAD_COMPLETE",
        "android.intent.action.DOWNLOAD_NOTIFICATION_CLICKED",
        "android.intent.action.START_MY_APP",
        "com.huawei.gamebox.changeUserLogin"
      ],
      "dependencies": [
        "org.cocos2dx"
      ],
      "domainNamesFilteredByExodus": [],
      "metaDataNames": [
        "channelType",
        "com.snowfish.appid",
        "com.snowfish.channel",
        "com.snowfish.channelid",
        "com.snowfish.customer",
        "com.snowfish.sdk.version",
        "loginurl",
        "paysyncurl",
        "quitway"
      ],
      "sha256": "03195c379d54bbddb65645399bf24e8865b1bb5dfbcf78ad457df3bbaaf83cd1",
      "usesPermissions": [
        "android.permission.ACCESS_DOWNLOAD_MANAGER",
        "android.permission.ACCESS_FINE_LOCATION",
        "android.permission.ACCESS_MOCK_LOCATION",
        "android.permission.ACCESS_NETWORK_STATE",
        "android.permission.ACCESS_WIFI_STATE",
        "android.permission.CHANGE_NETWORK_STATE",
        "android.permission.GET_ACCOUNTS",
        "android.permission.GET_TASKS",
        "android.permission.INTERACT_ACROSS_USERS",
        "android.permission.INTERNET",
        "android.permission.MOUNT_UNMOUNT_FILESYSTEMS",
        "android.permission.READ_EXTERNAL_STORAGE",
        "android.permission.READ_PHONE_STATE",
        "android.permission.SEND_SMS",
        "android.permission.SYSTEM_ALERT_WINDOW",
        "android.permission.SYSTEM_OVERLAY_WINDOW",
        "android.permission.VIBRATE",
        "android.permission.WAKE_LOCK",
        "android.permission.WRITE_EXTERNAL_STORAGE",
        "android.permission.WRITE_OWNER_DATA",
        "android.permission.WRITE_PROFILE",
        "android.permission.WRITE_SETTINGS",
        "android.permission.WRITE_SMS",
        "com.huawei.appmarket.provider.readPermission",
        "com.huawei.hwid.permission.ACCESS"
      ]
    }
  ],
  "meta": {
    "generated": "2020-08-27T15:38:41.845323",
    "generatedBy": [
      "/home/hc/code/trackingthetrackers/scripts/make-trackers-apk-set.py"
    ],
    "ver": "0.3.0"
  }
}