{
  "apks": [
    {
      "applicationId": "com.farmerbb.secondscreen.free",
      "broadcastReceiverIntentFilterActionNames": [
        "android.app.action.DEVICE_ADMIN_ENABLED",
        "android.intent.action.BOOT_COMPLETED",
        "android.intent.action.MY_PACKAGE_REPLACED",
        "com.farmerbb.secondscreen.SIMULATE_APP_UPGRADE",
        "com.farmerbb.secondscreen.SIMULATE_REBOOT",
        "com.twofortyfouram.locale.intent.action.FIRE_SETTING",
        "com.twofortyfouram.locale.intent.action.QUERY_CONDITION"
      ],
      "dependencies": [],
      "domainNamesFilteredByExodus": [
        ".google.com"
      ],
      "metaDataNames": [
        "android.app.device_admin",
        "android.view.im"
      ],
      "sha256": "3397b21795b2c4c5b3065e707f913e493b412808e81312faaf0ceaa127d15586",
      "usesPermissions": [
        "android.permission.ACCESS_WIFI_STATE",
        "android.permission.BLUETOOTH",
        "android.permission.BLUETOOTH_ADMIN",
        "android.permission.CHANGE_WIFI_STATE",
        "android.permission.KILL_BACKGROUND_PROCESSES",
        "android.permission.RECEIVE_BOOT_COMPLETED",
        "android.permission.WRITE_SETTINGS",
        "com.farmerbb.taskbar.ENABLE_DISABLE_FREEFORM",
        "com.farmerbb.taskbar.ENABLE_DISABLE_HOME",
        "com.farmerbb.taskbar.START_STOP_TASKBAR",
        "com.farmerbb.taskbar.paid.ENABLE_DISABLE_FREEFORM",
        "com.farmerbb.taskbar.paid.ENABLE_DISABLE_HOME",
        "com.farmerbb.taskbar.paid.START_STOP_TASKBAR"
      ]
    }
  ],
  "meta": {
    "generated": "2020-08-27T17:21:49.767151",
    "generatedBy": [
      "/home/hc/code/trackingthetrackers/scripts/make-clean-apk-set.py"
    ],
    "generatedByCommitId": "40519285d6f404593fa655fa89b433743c25289e",
    "sourceDataCommitId": "888bb8f8c77ff55105fcab2ad84c263561eb1169",
    "ver": "0.3.0"
  }
}